'code';'codeSystem';'displayName';'parentCode';'concept_Beschreibung';'meaning';'hints';'level';'type';'relationships'
'no-allergy-info';'2.16.840.1.113883.5.1150.1';'keine Information über Überempfindlichkeiten verfügbar';;;;;'0';'L';
'no-known-allergies';'2.16.840.1.113883.5.1150.1';'keine Überempfindlichkeiten';;;;;'0';'L';
