'code';'codeSystem';'displayName';'parentCodeSystemName';'concept_Beschreibung';'meaning';'hints';'orderNumber';'level';'type';'relationships';'einheit print';'einheit codiert'
'g';'2.16.840.1.113883.6.8';'Gram';'https://termgit.elga.gv.at/CodeSystem/ucum';'';'Gramm';'';'1';'0';'L';'';'g';'g'
'mg';'2.16.840.1.113883.6.8';'MilliGram';'https://termgit.elga.gv.at/CodeSystem/ucum';'';'Milligramm';'';'2';'0';'L';'';'mg';'mg'
'mL';'2.16.840.1.113883.6.8';'MilliLiter';'https://termgit.elga.gv.at/CodeSystem/ucum';'';'Milliliter';'';'3';'0';'L';'';'mL';'mL'
'ug';'2.16.840.1.113883.6.8';'MicroGram';'https://termgit.elga.gv.at/CodeSystem/ucum';'';'Mikrogramm';'';'4';'0';'L';'';'µg';'ug'
'{Hub}';'2.16.840.1.113883.6.8';'Hub/Huebe';'https://termgit.elga.gv.at/CodeSystem/ucum';'';'Hub/Hübe';'';'5';'0';'L';'';'Hub/Hübe';'{Hub}'
'{Stueck}';'2.16.840.1.113883.6.8';'Stueck';'https://termgit.elga.gv.at/CodeSystem/ucum';'';'Stück';'';'6';'0';'L';'';'Stück';'{Stueck}'
'mL{Konzentrat}';'2.16.840.1.113883.6.8';'MilliLiterKonzentrat';'https://termgit.elga.gv.at/CodeSystem/ucum';'';'Milliliter Konzentrat';'';'7';'0';'L';'';'Milliliter Konzentrat';'mL{Konzentrat}'
