'code';'codeSystem';'displayName';'parentCodeSystemName';'concept_Beschreibung';'meaning';'hints';'orderNumber';'level';'type';'relationships';'einheit print';'einheit codiert'
'active';'2.16.840.1.113883.4.642.3.155';'Active';'https://termgit.elga.gv.at/CodeSystem/ips-conditionclinicalstatuscodes';'The subject is currently experiencing the symptoms of the condition or there is evidence of the condition';'bestehend';'';'1';'0';'S';'';'';''
'well-controlled';'2.16.840.1.113883.4.642.3.155';'Well controlled';'https://termgit.elga.gv.at/CodeSystem/ips-conditionclinicalstatuscodes';'The subject''s condition is adequately or well managed such that the recommended  evidence-based clinical outcome targets are met';'gut eingestellt';'';'2';'1';'L';'';'';''
'poorly-controlled';'2.16.840.1.113883.4.642.3.155';'Poorly controlled';'https://termgit.elga.gv.at/CodeSystem/ips-conditionclinicalstatuscodes';'The  subject''s condition is inadequately/poorly managed such that the recommended evidence-based clinical outcome targets are not met';'mangelhaft eingestellt';'';'3';'1';'L';'';'';''
'recurrence';'2.16.840.1.113883.4.642.3.155';'Recurrence';'https://termgit.elga.gv.at/CodeSystem/ips-conditionclinicalstatuscodes';'The subject is experiencing a re-occurrence or repeating of a previously resolved condition. Example: recurrence of (previously resolved) urinary tract infection, pancreatitis, cholangitis, conjunctivitis';'Rezidiv';'';'4';'1';'L';'';'';''
'relapse';'2.16.840.1.113883.4.642.3.155';'Relapse';'https://termgit.elga.gv.at/CodeSystem/ips-conditionclinicalstatuscodes';'The subject is experiencing a return of a condition, or signs and symptoms after a period of improvement or remission. Examples: relapse of cancer, multiple sclerosis, rheumatoid arthritis, systemic lupus erythematosus, bipolar disorder, [psychotic relapse of] schizophrenia, etc';'Relaps';'';'5';'1';'L';'';'';''
'inactive';'2.16.840.1.113883.4.642.3.155';'Inactive';'https://termgit.elga.gv.at/CodeSystem/ips-conditionclinicalstatuscodes';'The subject is no longer experiencing the symptoms of the condition or there is no longer evidence of the condition';'nicht mehr bestehend';'';'6';'0';'S';'';'';''
'remission';'2.16.840.1.113883.4.642.3.155';'Remission';'https://termgit.elga.gv.at/CodeSystem/ips-conditionclinicalstatuscodes';'The subject is no longer experiencing the symptoms of the condition, but there is a risk of the symptoms or condition returning';'in Remission';'';'7';'1';'L';'';'';''
'resolved';'2.16.840.1.113883.4.642.3.155';'Resolved';'https://termgit.elga.gv.at/CodeSystem/ips-conditionclinicalstatuscodes';'The subject is no longer experiencing the symptoms of the condition and there is a negligible perceived risk of the symptoms returning';'abgeklungen';'';'8';'1';'L';'';'';''
