{
  "resourceType": "ValueSet",
  "id": "eimpf-historischeimpfstoffe",
  "meta": {
    "profile": [
      "http://hl7.at/fhir/HL7ATCoreProfiles/4.0.1/StructureDefinition/at-core-valueset"
    ]
  },
  "url": "https://termgit.elga.gv.at/ValueSet/eimpf-historischeimpfstoffe",
  "identifier": [
    {
      "use": "official",
      "system": "urn:ietf:rfc:3986",
      "value": "urn:oid:1.2.40.0.34.6.0.10.10"
    }
  ],
  "version": "2.2.0+20240325",
  "name": "eimpf-historischeimpfstoffe",
  "title": "eImpf_HistorischeImpfstoffe",
  "status": "active",
  "date": "2024-03-25",
  "description": "Liste der historischen Impfstoffe",
  "compose": {
    "include": [
      {
        "extension": [
          {
            "url": "http://hl7.at/fhir/HL7ATCoreProfiles/4.0.1/StructureDefinition/at-core-ext-valueset-systemoid",
            "valueOid": "urn:oid:1.2.40.0.34.5.186"
          }
        ],
        "system": "https://termgit.elga.gv.at/CodeSystem/eimpf-historischeimpfstoffe",
        "version": "2.1.0+20230829",
        "concept": [
          {
            "code": "AHI001",
            "display": "Acel - P Lederle"
          },
          {
            "code": "AHI002",
            "display": "Act-HIB+DPT"
          },
          {
            "code": "AHI003",
            "display": "Addigrip"
          },
          {
            "code": "AHI004",
            "display": "Arepanrix"
          },
          {
            "code": "AHI005",
            "display": "Arilvax"
          },
          {
            "code": "AHI006",
            "display": "Batrevac"
          },
          {
            "code": "AHI007",
            "display": "BCG Vaccine 'M\u00e9rieux'"
          },
          {
            "code": "AHI008",
            "display": "Begrivac"
          },
          {
            "code": "AHI009",
            "display": "Celvapan"
          },
          {
            "code": "AHI010",
            "display": "Cholera - Impfstoff 'Berna'"
          },
          {
            "code": "AHI011",
            "display": "Cholera - Vakzine 'Sero'"
          },
          {
            "code": "AHI012",
            "display": "Daronrix"
          },
          {
            "code": "AHI013",
            "display": "Diftetall"
          },
          {
            "code": "AHI014",
            "display": "Diphtherie Adsorbat Impfstoff 'Behring'"
          },
          {
            "code": "AHI015",
            "display": "Ditanrix"
          },
          {
            "code": "AHI016",
            "display": "DiTe Anatoxal Berna"
          },
          {
            "code": "AHI017",
            "display": "DiTe Anatoxal(dT) Berna"
          },
          {
            "code": "AHI018",
            "display": "DiTePer Anatoxal Berna"
          },
          {
            "code": "AHI019",
            "display": "DT Adsorbat 'M\u00e9rieux'"
          },
          {
            "code": "AHI020",
            "display": "DPT Adsorbat 'M\u00e9rieux'"
          },
          {
            "code": "AHI021",
            "display": "DTaP Vakzine SSI"
          },
          {
            "code": "AHI022",
            "display": "D.T.Vax"
          },
          {
            "code": "AHI023",
            "display": "Epaxal"
          },
          {
            "code": "AHI024",
            "display": "Ervevax"
          },
          {
            "code": "AHI025",
            "display": "Fluarix"
          },
          {
            "code": "AHI026",
            "display": "Fluenz"
          },
          {
            "code": "AHI027",
            "display": "Fluvirin"
          },
          {
            "code": "AHI028",
            "display": "Focetria"
          },
          {
            "code": "AHI029",
            "display": "Gen-HB-vax 10 ug"
          },
          {
            "code": "AHI030",
            "display": "Havrix 360 E.I.U./ml"
          },
          {
            "code": "AHI031",
            "display": "Hepacare"
          },
          {
            "code": "AHI032",
            "display": "Hepatyrix"
          },
          {
            "code": "AHI033",
            "display": "Hevac B 'Pasteur'"
          },
          {
            "code": "AHI034",
            "display": "Hexavac"
          },
          {
            "code": "AHI036",
            "display": "Hiberix"
          },
          {
            "code": "AHI037",
            "display": "Humenza"
          },
          {
            "code": "AHI038",
            "display": "IDflu"
          },
          {
            "code": "AHI039",
            "display": "Immugrip"
          },
          {
            "code": "AHI040",
            "display": "Immovax Polio"
          },
          {
            "code": "AHI041",
            "display": "Infanrix"
          },
          {
            "code": "AHI042",
            "display": "Infanrix Penta"
          },
          {
            "code": "AHI043",
            "display": "Infanrix Tetra"
          },
          {
            "code": "AHI044",
            "display": "Infanrix + HepB"
          },
          {
            "code": "AHI045",
            "display": "Infanrix + HiB"
          },
          {
            "code": "AHI046",
            "display": "Inflexal V"
          },
          {
            "code": "AHI047",
            "display": "Intanza"
          },
          {
            "code": "AHI048",
            "display": "Invivac"
          },
          {
            "code": "AHI049",
            "display": "IPV M\u00e9rieux"
          },
          {
            "code": "AHI050",
            "display": "JE - Vax"
          },
          {
            "code": "AHI051",
            "display": "Japan B Encephalitis Vaccine"
          },
          {
            "code": "AHI052",
            "display": "Laevactin"
          },
          {
            "code": "AHI053",
            "display": "Masern Vaccine 'M\u00e9rieux'"
          },
          {
            "code": "AHI054",
            "display": "Menomune ACWY"
          },
          {
            "code": "AHI055",
            "display": "Mumps Vaccine 'Merieux'"
          },
          {
            "code": "AHI056",
            "display": "MMR Triplovax"
          },
          {
            "code": "AHI057",
            "display": "Mencevax ACWY"
          },
          {
            "code": "AHI058",
            "display": "Meningovax A+C"
          },
          {
            "code": "AHI059",
            "display": "Menactra"
          },
          {
            "code": "AHI060",
            "display": "Meningokokken-Impfstoff A+C M\u00e9rieux"
          },
          {
            "code": "AHI061",
            "display": "Meninvact C"
          },
          {
            "code": "AHI062",
            "display": "Mutagrip"
          },
          {
            "code": "AHI063",
            "display": "Optaflu"
          },
          {
            "code": "AHI064",
            "display": "Orochol"
          },
          {
            "code": "AHI065",
            "display": "PAC-M\u00e9rieux"
          },
          {
            "code": "AHI066",
            "display": "Pandemrix"
          },
          {
            "code": "AHI067",
            "display": "Pariorix"
          },
          {
            "code": "AHI068",
            "display": "Pediacel"
          },
          {
            "code": "AHI069",
            "display": "Pent-Act-HiB"
          },
          {
            "code": "AHI070",
            "display": "Pentavac"
          },
          {
            "code": "AHI071",
            "display": "Pertoral"
          },
          {
            "code": "AHI072",
            "display": "Pocken Vaccine"
          },
          {
            "code": "AHI073",
            "display": "Polio Sabin (oral) 'SB' - Tropfen und Zuckersuspension"
          },
          {
            "code": "AHI074",
            "display": "Poliomyelitis Vaccine 'Berna'"
          },
          {
            "code": "AHI075",
            "display": "Pneumo\u00a023\u00a0'Merieux'"
          },
          {
            "code": "AHI076",
            "display": "PNU-Imune"
          },
          {
            "code": "AHI077",
            "display": "Pr\u00e4pandemischer\u00a0Impfstoff\u00a0(H5N1)\u00a0GSK"
          },
          {
            "code": "AHI078",
            "display": "Pr\u00e4pandemischer\u00a0Impfstoff\u00a0(H5N1)\u00a0Novartis"
          },
          {
            "code": "AHI079",
            "display": "Pr\u00e9vigrip"
          },
          {
            "code": "AHI080",
            "display": "Prevenar\u00a0(7-valent)"
          },
          {
            "code": "AHI081",
            "display": "Primavax"
          },
          {
            "code": "AHI082",
            "display": "Procomvax"
          },
          {
            "code": "AHI083",
            "display": "Provarivax"
          },
          {
            "code": "AHI084",
            "display": "ProHIBiT"
          },
          {
            "code": "AHI085",
            "display": "Pumarix"
          },
          {
            "code": "AHI086",
            "display": "Quatrovirelon"
          },
          {
            "code": "AHI087",
            "display": "Quintanrix"
          },
          {
            "code": "AHI088",
            "display": "Quintovirelon"
          },
          {
            "code": "AHI089",
            "display": "Rabies\u00a0Imovax"
          },
          {
            "code": "AHI090",
            "display": "Rimparix"
          },
          {
            "code": "AHI091",
            "display": "Rimevax"
          },
          {
            "code": "AHI092",
            "display": "Rouvax"
          },
          {
            "code": "AHI093",
            "display": "Rudivax"
          },
          {
            "code": "AHI094",
            "display": "RotaShield"
          },
          {
            "code": "AHI095",
            "display": "R\u00f6teln-Impfstoff\u00a0HDC\u00a0M\u00e9rieux"
          },
          {
            "code": "AHI096",
            "display": "Rubeaten\u00a0'Berna'"
          },
          {
            "code": "AHI097",
            "display": "Spirolept"
          },
          {
            "code": "AHI098",
            "display": "Tanrix"
          },
          {
            "code": "AHI099",
            "display": "Te-Anatoxal\u00a0'Berna'"
          },
          {
            "code": "AHI100",
            "display": "Tetanol"
          },
          {
            "code": "AHI101",
            "display": "Tetanus-Adsorbat\u00a0'Merieux'"
          },
          {
            "code": "AHI102",
            "display": "Td-Rix"
          },
          {
            "code": "AHI103",
            "display": "Tetagrip"
          },
          {
            "code": "AHI104",
            "display": "Tetracoq"
          },
          {
            "code": "AHI105",
            "display": "Triacelluvax"
          },
          {
            "code": "AHI106",
            "display": "Triaxis\u00a0Polio"
          },
          {
            "code": "AHI107",
            "display": "Ticovac\u00a0junior"
          },
          {
            "code": "AHI108",
            "display": "Ticovac"
          },
          {
            "code": "AHI109",
            "display": "Tollwut\u00a0Vakzine\u00a0'Pasteur\u00a0Merieux'"
          },
          {
            "code": "AHI110",
            "display": "Tritanrix\u00a0DTPw"
          },
          {
            "code": "AHI111",
            "display": "Tollwut\u00a0Vaccine\u00a0HDC"
          },
          {
            "code": "AHI112",
            "display": "Tritanrix\u00a0HepB"
          },
          {
            "code": "AHI113",
            "display": "Tyavax"
          },
          {
            "code": "AHI114",
            "display": "Typherix"
          },
          {
            "code": "AHI115",
            "display": "Typhoral"
          },
          {
            "code": "AHI116",
            "display": "Vaccin\u00a0Rabique\u00a0inactiv\u00e9\u00a0M\u00e9rieux\u00a0HDCV"
          },
          {
            "code": "AHI117",
            "display": "Vaccin\u00a0GenHevac\u00a0B\u00a0Pasteur"
          },
          {
            "code": "AHI118",
            "display": "Vaccine\u00a0Rabique\u00a0Pasteur"
          },
          {
            "code": "AHI119",
            "display": "Vaccine\u00a0T\u00e9tamique\u00a0Pasteur"
          },
          {
            "code": "AHI120",
            "display": "Vaccine\u00a0Boostrixtetra"
          },
          {
            "code": "AHI121",
            "display": "Varicella\u00a0Impfstoff\u00a0SB"
          },
          {
            "code": "AHI122",
            "display": "Vaxigrip\u00a0junior"
          },
          {
            "code": "AHI123",
            "display": "Vaxigrip"
          },
          {
            "code": "AHI124",
            "display": "Preflucel"
          },
          {
            "code": "AHI125",
            "display": "Sandovac"
          },
          {
            "code": "AHI126",
            "display": "Vepacel"
          },
          {
            "code": "AHI127",
            "display": "Fluvaccinol Subunit"
          },
          {
            "code": "AHI128",
            "display": "Silgard"
          },
          {
            "code": "AHI129",
            "display": "HIB-Titer"
          },
          {
            "code": "AHI130",
            "display": "Avaxim"
          },
          {
            "code": "AHI131",
            "display": "Fluad"
          },
          {
            "code": "AHI132",
            "display": "Prepandrix"
          },
          {
            "code": "AHI133",
            "display": "Tetravac"
          },
          {
            "code": "AHI134",
            "display": "Menjugate"
          },
          {
            "code": "AHI135",
            "display": "Influvac"
          },
          {
            "code": "AHI136",
            "display": "Tetanol pur"
          }
        ]
      }
    ]
  },
  "expansion": {
    "timestamp": "2024-03-25T06:36:54+00:00",
    "contains": [
      {
        "extension": [
          {
            "url": "http://hl7.at/fhir/HL7ATCoreProfiles/4.0.1/StructureDefinition/at-core-ext-valueset-systemoid",
            "valueOid": "urn:oid:1.2.40.0.34.5.186"
          }
        ],
        "system": "https://termgit.elga.gv.at/CodeSystem/eimpf-historischeimpfstoffe",
        "version": "2.1.0+20230829",
        "code": "AHI001",
        "display": "Acel - P Lederle"
      },
      {
        "extension": [
          {
            "url": "http://hl7.at/fhir/HL7ATCoreProfiles/4.0.1/StructureDefinition/at-core-ext-valueset-systemoid",
            "valueOid": "urn:oid:1.2.40.0.34.5.186"
          }
        ],
        "system": "https://termgit.elga.gv.at/CodeSystem/eimpf-historischeimpfstoffe",
        "version": "2.1.0+20230829",
        "code": "AHI002",
        "display": "Act-HIB+DPT"
      },
      {
        "extension": [
          {
            "url": "http://hl7.at/fhir/HL7ATCoreProfiles/4.0.1/StructureDefinition/at-core-ext-valueset-systemoid",
            "valueOid": "urn:oid:1.2.40.0.34.5.186"
          }
        ],
        "system": "https://termgit.elga.gv.at/CodeSystem/eimpf-historischeimpfstoffe",
        "version": "2.1.0+20230829",
        "code": "AHI003",
        "display": "Addigrip"
      },
      {
        "extension": [
          {
            "url": "http://hl7.at/fhir/HL7ATCoreProfiles/4.0.1/StructureDefinition/at-core-ext-valueset-systemoid",
            "valueOid": "urn:oid:1.2.40.0.34.5.186"
          }
        ],
        "system": "https://termgit.elga.gv.at/CodeSystem/eimpf-historischeimpfstoffe",
        "version": "2.1.0+20230829",
        "code": "AHI004",
        "display": "Arepanrix"
      },
      {
        "extension": [
          {
            "url": "http://hl7.at/fhir/HL7ATCoreProfiles/4.0.1/StructureDefinition/at-core-ext-valueset-systemoid",
            "valueOid": "urn:oid:1.2.40.0.34.5.186"
          }
        ],
        "system": "https://termgit.elga.gv.at/CodeSystem/eimpf-historischeimpfstoffe",
        "version": "2.1.0+20230829",
        "code": "AHI005",
        "display": "Arilvax"
      },
      {
        "extension": [
          {
            "url": "http://hl7.at/fhir/HL7ATCoreProfiles/4.0.1/StructureDefinition/at-core-ext-valueset-systemoid",
            "valueOid": "urn:oid:1.2.40.0.34.5.186"
          }
        ],
        "system": "https://termgit.elga.gv.at/CodeSystem/eimpf-historischeimpfstoffe",
        "version": "2.1.0+20230829",
        "code": "AHI006",
        "display": "Batrevac"
      },
      {
        "extension": [
          {
            "url": "http://hl7.at/fhir/HL7ATCoreProfiles/4.0.1/StructureDefinition/at-core-ext-valueset-systemoid",
            "valueOid": "urn:oid:1.2.40.0.34.5.186"
          }
        ],
        "system": "https://termgit.elga.gv.at/CodeSystem/eimpf-historischeimpfstoffe",
        "version": "2.1.0+20230829",
        "code": "AHI007",
        "display": "BCG Vaccine 'M\u00e9rieux'"
      },
      {
        "extension": [
          {
            "url": "http://hl7.at/fhir/HL7ATCoreProfiles/4.0.1/StructureDefinition/at-core-ext-valueset-systemoid",
            "valueOid": "urn:oid:1.2.40.0.34.5.186"
          }
        ],
        "system": "https://termgit.elga.gv.at/CodeSystem/eimpf-historischeimpfstoffe",
        "version": "2.1.0+20230829",
        "code": "AHI008",
        "display": "Begrivac"
      },
      {
        "extension": [
          {
            "url": "http://hl7.at/fhir/HL7ATCoreProfiles/4.0.1/StructureDefinition/at-core-ext-valueset-systemoid",
            "valueOid": "urn:oid:1.2.40.0.34.5.186"
          }
        ],
        "system": "https://termgit.elga.gv.at/CodeSystem/eimpf-historischeimpfstoffe",
        "version": "2.1.0+20230829",
        "code": "AHI009",
        "display": "Celvapan"
      },
      {
        "extension": [
          {
            "url": "http://hl7.at/fhir/HL7ATCoreProfiles/4.0.1/StructureDefinition/at-core-ext-valueset-systemoid",
            "valueOid": "urn:oid:1.2.40.0.34.5.186"
          }
        ],
        "system": "https://termgit.elga.gv.at/CodeSystem/eimpf-historischeimpfstoffe",
        "version": "2.1.0+20230829",
        "code": "AHI010",
        "display": "Cholera - Impfstoff 'Berna'"
      },
      {
        "extension": [
          {
            "url": "http://hl7.at/fhir/HL7ATCoreProfiles/4.0.1/StructureDefinition/at-core-ext-valueset-systemoid",
            "valueOid": "urn:oid:1.2.40.0.34.5.186"
          }
        ],
        "system": "https://termgit.elga.gv.at/CodeSystem/eimpf-historischeimpfstoffe",
        "version": "2.1.0+20230829",
        "code": "AHI011",
        "display": "Cholera - Vakzine 'Sero'"
      },
      {
        "extension": [
          {
            "url": "http://hl7.at/fhir/HL7ATCoreProfiles/4.0.1/StructureDefinition/at-core-ext-valueset-systemoid",
            "valueOid": "urn:oid:1.2.40.0.34.5.186"
          }
        ],
        "system": "https://termgit.elga.gv.at/CodeSystem/eimpf-historischeimpfstoffe",
        "version": "2.1.0+20230829",
        "code": "AHI012",
        "display": "Daronrix"
      },
      {
        "extension": [
          {
            "url": "http://hl7.at/fhir/HL7ATCoreProfiles/4.0.1/StructureDefinition/at-core-ext-valueset-systemoid",
            "valueOid": "urn:oid:1.2.40.0.34.5.186"
          }
        ],
        "system": "https://termgit.elga.gv.at/CodeSystem/eimpf-historischeimpfstoffe",
        "version": "2.1.0+20230829",
        "code": "AHI013",
        "display": "Diftetall"
      },
      {
        "extension": [
          {
            "url": "http://hl7.at/fhir/HL7ATCoreProfiles/4.0.1/StructureDefinition/at-core-ext-valueset-systemoid",
            "valueOid": "urn:oid:1.2.40.0.34.5.186"
          }
        ],
        "system": "https://termgit.elga.gv.at/CodeSystem/eimpf-historischeimpfstoffe",
        "version": "2.1.0+20230829",
        "code": "AHI014",
        "display": "Diphtherie Adsorbat Impfstoff 'Behring'"
      },
      {
        "extension": [
          {
            "url": "http://hl7.at/fhir/HL7ATCoreProfiles/4.0.1/StructureDefinition/at-core-ext-valueset-systemoid",
            "valueOid": "urn:oid:1.2.40.0.34.5.186"
          }
        ],
        "system": "https://termgit.elga.gv.at/CodeSystem/eimpf-historischeimpfstoffe",
        "version": "2.1.0+20230829",
        "code": "AHI015",
        "display": "Ditanrix"
      },
      {
        "extension": [
          {
            "url": "http://hl7.at/fhir/HL7ATCoreProfiles/4.0.1/StructureDefinition/at-core-ext-valueset-systemoid",
            "valueOid": "urn:oid:1.2.40.0.34.5.186"
          }
        ],
        "system": "https://termgit.elga.gv.at/CodeSystem/eimpf-historischeimpfstoffe",
        "version": "2.1.0+20230829",
        "code": "AHI016",
        "display": "DiTe Anatoxal Berna"
      },
      {
        "extension": [
          {
            "url": "http://hl7.at/fhir/HL7ATCoreProfiles/4.0.1/StructureDefinition/at-core-ext-valueset-systemoid",
            "valueOid": "urn:oid:1.2.40.0.34.5.186"
          }
        ],
        "system": "https://termgit.elga.gv.at/CodeSystem/eimpf-historischeimpfstoffe",
        "version": "2.1.0+20230829",
        "code": "AHI017",
        "display": "DiTe Anatoxal(dT) Berna"
      },
      {
        "extension": [
          {
            "url": "http://hl7.at/fhir/HL7ATCoreProfiles/4.0.1/StructureDefinition/at-core-ext-valueset-systemoid",
            "valueOid": "urn:oid:1.2.40.0.34.5.186"
          }
        ],
        "system": "https://termgit.elga.gv.at/CodeSystem/eimpf-historischeimpfstoffe",
        "version": "2.1.0+20230829",
        "code": "AHI018",
        "display": "DiTePer Anatoxal Berna"
      },
      {
        "extension": [
          {
            "url": "http://hl7.at/fhir/HL7ATCoreProfiles/4.0.1/StructureDefinition/at-core-ext-valueset-systemoid",
            "valueOid": "urn:oid:1.2.40.0.34.5.186"
          }
        ],
        "system": "https://termgit.elga.gv.at/CodeSystem/eimpf-historischeimpfstoffe",
        "version": "2.1.0+20230829",
        "code": "AHI019",
        "display": "DT Adsorbat 'M\u00e9rieux'"
      },
      {
        "extension": [
          {
            "url": "http://hl7.at/fhir/HL7ATCoreProfiles/4.0.1/StructureDefinition/at-core-ext-valueset-systemoid",
            "valueOid": "urn:oid:1.2.40.0.34.5.186"
          }
        ],
        "system": "https://termgit.elga.gv.at/CodeSystem/eimpf-historischeimpfstoffe",
        "version": "2.1.0+20230829",
        "code": "AHI020",
        "display": "DPT Adsorbat 'M\u00e9rieux'"
      },
      {
        "extension": [
          {
            "url": "http://hl7.at/fhir/HL7ATCoreProfiles/4.0.1/StructureDefinition/at-core-ext-valueset-systemoid",
            "valueOid": "urn:oid:1.2.40.0.34.5.186"
          }
        ],
        "system": "https://termgit.elga.gv.at/CodeSystem/eimpf-historischeimpfstoffe",
        "version": "2.1.0+20230829",
        "code": "AHI021",
        "display": "DTaP Vakzine SSI"
      },
      {
        "extension": [
          {
            "url": "http://hl7.at/fhir/HL7ATCoreProfiles/4.0.1/StructureDefinition/at-core-ext-valueset-systemoid",
            "valueOid": "urn:oid:1.2.40.0.34.5.186"
          }
        ],
        "system": "https://termgit.elga.gv.at/CodeSystem/eimpf-historischeimpfstoffe",
        "version": "2.1.0+20230829",
        "code": "AHI022",
        "display": "D.T.Vax"
      },
      {
        "extension": [
          {
            "url": "http://hl7.at/fhir/HL7ATCoreProfiles/4.0.1/StructureDefinition/at-core-ext-valueset-systemoid",
            "valueOid": "urn:oid:1.2.40.0.34.5.186"
          }
        ],
        "system": "https://termgit.elga.gv.at/CodeSystem/eimpf-historischeimpfstoffe",
        "version": "2.1.0+20230829",
        "code": "AHI023",
        "display": "Epaxal"
      },
      {
        "extension": [
          {
            "url": "http://hl7.at/fhir/HL7ATCoreProfiles/4.0.1/StructureDefinition/at-core-ext-valueset-systemoid",
            "valueOid": "urn:oid:1.2.40.0.34.5.186"
          }
        ],
        "system": "https://termgit.elga.gv.at/CodeSystem/eimpf-historischeimpfstoffe",
        "version": "2.1.0+20230829",
        "code": "AHI024",
        "display": "Ervevax"
      },
      {
        "extension": [
          {
            "url": "http://hl7.at/fhir/HL7ATCoreProfiles/4.0.1/StructureDefinition/at-core-ext-valueset-systemoid",
            "valueOid": "urn:oid:1.2.40.0.34.5.186"
          }
        ],
        "system": "https://termgit.elga.gv.at/CodeSystem/eimpf-historischeimpfstoffe",
        "version": "2.1.0+20230829",
        "code": "AHI025",
        "display": "Fluarix"
      },
      {
        "extension": [
          {
            "url": "http://hl7.at/fhir/HL7ATCoreProfiles/4.0.1/StructureDefinition/at-core-ext-valueset-systemoid",
            "valueOid": "urn:oid:1.2.40.0.34.5.186"
          }
        ],
        "system": "https://termgit.elga.gv.at/CodeSystem/eimpf-historischeimpfstoffe",
        "version": "2.1.0+20230829",
        "code": "AHI026",
        "display": "Fluenz"
      },
      {
        "extension": [
          {
            "url": "http://hl7.at/fhir/HL7ATCoreProfiles/4.0.1/StructureDefinition/at-core-ext-valueset-systemoid",
            "valueOid": "urn:oid:1.2.40.0.34.5.186"
          }
        ],
        "system": "https://termgit.elga.gv.at/CodeSystem/eimpf-historischeimpfstoffe",
        "version": "2.1.0+20230829",
        "code": "AHI027",
        "display": "Fluvirin"
      },
      {
        "extension": [
          {
            "url": "http://hl7.at/fhir/HL7ATCoreProfiles/4.0.1/StructureDefinition/at-core-ext-valueset-systemoid",
            "valueOid": "urn:oid:1.2.40.0.34.5.186"
          }
        ],
        "system": "https://termgit.elga.gv.at/CodeSystem/eimpf-historischeimpfstoffe",
        "version": "2.1.0+20230829",
        "code": "AHI028",
        "display": "Focetria"
      },
      {
        "extension": [
          {
            "url": "http://hl7.at/fhir/HL7ATCoreProfiles/4.0.1/StructureDefinition/at-core-ext-valueset-systemoid",
            "valueOid": "urn:oid:1.2.40.0.34.5.186"
          }
        ],
        "system": "https://termgit.elga.gv.at/CodeSystem/eimpf-historischeimpfstoffe",
        "version": "2.1.0+20230829",
        "code": "AHI029",
        "display": "Gen-HB-vax 10 ug"
      },
      {
        "extension": [
          {
            "url": "http://hl7.at/fhir/HL7ATCoreProfiles/4.0.1/StructureDefinition/at-core-ext-valueset-systemoid",
            "valueOid": "urn:oid:1.2.40.0.34.5.186"
          }
        ],
        "system": "https://termgit.elga.gv.at/CodeSystem/eimpf-historischeimpfstoffe",
        "version": "2.1.0+20230829",
        "code": "AHI030",
        "display": "Havrix 360 E.I.U./ml"
      },
      {
        "extension": [
          {
            "url": "http://hl7.at/fhir/HL7ATCoreProfiles/4.0.1/StructureDefinition/at-core-ext-valueset-systemoid",
            "valueOid": "urn:oid:1.2.40.0.34.5.186"
          }
        ],
        "system": "https://termgit.elga.gv.at/CodeSystem/eimpf-historischeimpfstoffe",
        "version": "2.1.0+20230829",
        "code": "AHI031",
        "display": "Hepacare"
      },
      {
        "extension": [
          {
            "url": "http://hl7.at/fhir/HL7ATCoreProfiles/4.0.1/StructureDefinition/at-core-ext-valueset-systemoid",
            "valueOid": "urn:oid:1.2.40.0.34.5.186"
          }
        ],
        "system": "https://termgit.elga.gv.at/CodeSystem/eimpf-historischeimpfstoffe",
        "version": "2.1.0+20230829",
        "code": "AHI032",
        "display": "Hepatyrix"
      },
      {
        "extension": [
          {
            "url": "http://hl7.at/fhir/HL7ATCoreProfiles/4.0.1/StructureDefinition/at-core-ext-valueset-systemoid",
            "valueOid": "urn:oid:1.2.40.0.34.5.186"
          }
        ],
        "system": "https://termgit.elga.gv.at/CodeSystem/eimpf-historischeimpfstoffe",
        "version": "2.1.0+20230829",
        "code": "AHI033",
        "display": "Hevac B 'Pasteur'"
      },
      {
        "extension": [
          {
            "url": "http://hl7.at/fhir/HL7ATCoreProfiles/4.0.1/StructureDefinition/at-core-ext-valueset-systemoid",
            "valueOid": "urn:oid:1.2.40.0.34.5.186"
          }
        ],
        "system": "https://termgit.elga.gv.at/CodeSystem/eimpf-historischeimpfstoffe",
        "version": "2.1.0+20230829",
        "code": "AHI034",
        "display": "Hexavac"
      },
      {
        "extension": [
          {
            "url": "http://hl7.at/fhir/HL7ATCoreProfiles/4.0.1/StructureDefinition/at-core-ext-valueset-systemoid",
            "valueOid": "urn:oid:1.2.40.0.34.5.186"
          }
        ],
        "system": "https://termgit.elga.gv.at/CodeSystem/eimpf-historischeimpfstoffe",
        "version": "2.1.0+20230829",
        "code": "AHI036",
        "display": "Hiberix"
      },
      {
        "extension": [
          {
            "url": "http://hl7.at/fhir/HL7ATCoreProfiles/4.0.1/StructureDefinition/at-core-ext-valueset-systemoid",
            "valueOid": "urn:oid:1.2.40.0.34.5.186"
          }
        ],
        "system": "https://termgit.elga.gv.at/CodeSystem/eimpf-historischeimpfstoffe",
        "version": "2.1.0+20230829",
        "code": "AHI037",
        "display": "Humenza"
      },
      {
        "extension": [
          {
            "url": "http://hl7.at/fhir/HL7ATCoreProfiles/4.0.1/StructureDefinition/at-core-ext-valueset-systemoid",
            "valueOid": "urn:oid:1.2.40.0.34.5.186"
          }
        ],
        "system": "https://termgit.elga.gv.at/CodeSystem/eimpf-historischeimpfstoffe",
        "version": "2.1.0+20230829",
        "code": "AHI038",
        "display": "IDflu"
      },
      {
        "extension": [
          {
            "url": "http://hl7.at/fhir/HL7ATCoreProfiles/4.0.1/StructureDefinition/at-core-ext-valueset-systemoid",
            "valueOid": "urn:oid:1.2.40.0.34.5.186"
          }
        ],
        "system": "https://termgit.elga.gv.at/CodeSystem/eimpf-historischeimpfstoffe",
        "version": "2.1.0+20230829",
        "code": "AHI039",
        "display": "Immugrip"
      },
      {
        "extension": [
          {
            "url": "http://hl7.at/fhir/HL7ATCoreProfiles/4.0.1/StructureDefinition/at-core-ext-valueset-systemoid",
            "valueOid": "urn:oid:1.2.40.0.34.5.186"
          }
        ],
        "system": "https://termgit.elga.gv.at/CodeSystem/eimpf-historischeimpfstoffe",
        "version": "2.1.0+20230829",
        "code": "AHI040",
        "display": "Immovax Polio"
      },
      {
        "extension": [
          {
            "url": "http://hl7.at/fhir/HL7ATCoreProfiles/4.0.1/StructureDefinition/at-core-ext-valueset-systemoid",
            "valueOid": "urn:oid:1.2.40.0.34.5.186"
          }
        ],
        "system": "https://termgit.elga.gv.at/CodeSystem/eimpf-historischeimpfstoffe",
        "version": "2.1.0+20230829",
        "code": "AHI041",
        "display": "Infanrix"
      },
      {
        "extension": [
          {
            "url": "http://hl7.at/fhir/HL7ATCoreProfiles/4.0.1/StructureDefinition/at-core-ext-valueset-systemoid",
            "valueOid": "urn:oid:1.2.40.0.34.5.186"
          }
        ],
        "system": "https://termgit.elga.gv.at/CodeSystem/eimpf-historischeimpfstoffe",
        "version": "2.1.0+20230829",
        "code": "AHI042",
        "display": "Infanrix Penta"
      },
      {
        "extension": [
          {
            "url": "http://hl7.at/fhir/HL7ATCoreProfiles/4.0.1/StructureDefinition/at-core-ext-valueset-systemoid",
            "valueOid": "urn:oid:1.2.40.0.34.5.186"
          }
        ],
        "system": "https://termgit.elga.gv.at/CodeSystem/eimpf-historischeimpfstoffe",
        "version": "2.1.0+20230829",
        "code": "AHI043",
        "display": "Infanrix Tetra"
      },
      {
        "extension": [
          {
            "url": "http://hl7.at/fhir/HL7ATCoreProfiles/4.0.1/StructureDefinition/at-core-ext-valueset-systemoid",
            "valueOid": "urn:oid:1.2.40.0.34.5.186"
          }
        ],
        "system": "https://termgit.elga.gv.at/CodeSystem/eimpf-historischeimpfstoffe",
        "version": "2.1.0+20230829",
        "code": "AHI044",
        "display": "Infanrix + HepB"
      },
      {
        "extension": [
          {
            "url": "http://hl7.at/fhir/HL7ATCoreProfiles/4.0.1/StructureDefinition/at-core-ext-valueset-systemoid",
            "valueOid": "urn:oid:1.2.40.0.34.5.186"
          }
        ],
        "system": "https://termgit.elga.gv.at/CodeSystem/eimpf-historischeimpfstoffe",
        "version": "2.1.0+20230829",
        "code": "AHI045",
        "display": "Infanrix + HiB"
      },
      {
        "extension": [
          {
            "url": "http://hl7.at/fhir/HL7ATCoreProfiles/4.0.1/StructureDefinition/at-core-ext-valueset-systemoid",
            "valueOid": "urn:oid:1.2.40.0.34.5.186"
          }
        ],
        "system": "https://termgit.elga.gv.at/CodeSystem/eimpf-historischeimpfstoffe",
        "version": "2.1.0+20230829",
        "code": "AHI046",
        "display": "Inflexal V"
      },
      {
        "extension": [
          {
            "url": "http://hl7.at/fhir/HL7ATCoreProfiles/4.0.1/StructureDefinition/at-core-ext-valueset-systemoid",
            "valueOid": "urn:oid:1.2.40.0.34.5.186"
          }
        ],
        "system": "https://termgit.elga.gv.at/CodeSystem/eimpf-historischeimpfstoffe",
        "version": "2.1.0+20230829",
        "code": "AHI047",
        "display": "Intanza"
      },
      {
        "extension": [
          {
            "url": "http://hl7.at/fhir/HL7ATCoreProfiles/4.0.1/StructureDefinition/at-core-ext-valueset-systemoid",
            "valueOid": "urn:oid:1.2.40.0.34.5.186"
          }
        ],
        "system": "https://termgit.elga.gv.at/CodeSystem/eimpf-historischeimpfstoffe",
        "version": "2.1.0+20230829",
        "code": "AHI048",
        "display": "Invivac"
      },
      {
        "extension": [
          {
            "url": "http://hl7.at/fhir/HL7ATCoreProfiles/4.0.1/StructureDefinition/at-core-ext-valueset-systemoid",
            "valueOid": "urn:oid:1.2.40.0.34.5.186"
          }
        ],
        "system": "https://termgit.elga.gv.at/CodeSystem/eimpf-historischeimpfstoffe",
        "version": "2.1.0+20230829",
        "code": "AHI049",
        "display": "IPV M\u00e9rieux"
      },
      {
        "extension": [
          {
            "url": "http://hl7.at/fhir/HL7ATCoreProfiles/4.0.1/StructureDefinition/at-core-ext-valueset-systemoid",
            "valueOid": "urn:oid:1.2.40.0.34.5.186"
          }
        ],
        "system": "https://termgit.elga.gv.at/CodeSystem/eimpf-historischeimpfstoffe",
        "version": "2.1.0+20230829",
        "code": "AHI050",
        "display": "JE - Vax"
      },
      {
        "extension": [
          {
            "url": "http://hl7.at/fhir/HL7ATCoreProfiles/4.0.1/StructureDefinition/at-core-ext-valueset-systemoid",
            "valueOid": "urn:oid:1.2.40.0.34.5.186"
          }
        ],
        "system": "https://termgit.elga.gv.at/CodeSystem/eimpf-historischeimpfstoffe",
        "version": "2.1.0+20230829",
        "code": "AHI051",
        "display": "Japan B Encephalitis Vaccine"
      },
      {
        "extension": [
          {
            "url": "http://hl7.at/fhir/HL7ATCoreProfiles/4.0.1/StructureDefinition/at-core-ext-valueset-systemoid",
            "valueOid": "urn:oid:1.2.40.0.34.5.186"
          }
        ],
        "system": "https://termgit.elga.gv.at/CodeSystem/eimpf-historischeimpfstoffe",
        "version": "2.1.0+20230829",
        "code": "AHI052",
        "display": "Laevactin"
      },
      {
        "extension": [
          {
            "url": "http://hl7.at/fhir/HL7ATCoreProfiles/4.0.1/StructureDefinition/at-core-ext-valueset-systemoid",
            "valueOid": "urn:oid:1.2.40.0.34.5.186"
          }
        ],
        "system": "https://termgit.elga.gv.at/CodeSystem/eimpf-historischeimpfstoffe",
        "version": "2.1.0+20230829",
        "code": "AHI053",
        "display": "Masern Vaccine 'M\u00e9rieux'"
      },
      {
        "extension": [
          {
            "url": "http://hl7.at/fhir/HL7ATCoreProfiles/4.0.1/StructureDefinition/at-core-ext-valueset-systemoid",
            "valueOid": "urn:oid:1.2.40.0.34.5.186"
          }
        ],
        "system": "https://termgit.elga.gv.at/CodeSystem/eimpf-historischeimpfstoffe",
        "version": "2.1.0+20230829",
        "code": "AHI054",
        "display": "Menomune ACWY"
      },
      {
        "extension": [
          {
            "url": "http://hl7.at/fhir/HL7ATCoreProfiles/4.0.1/StructureDefinition/at-core-ext-valueset-systemoid",
            "valueOid": "urn:oid:1.2.40.0.34.5.186"
          }
        ],
        "system": "https://termgit.elga.gv.at/CodeSystem/eimpf-historischeimpfstoffe",
        "version": "2.1.0+20230829",
        "code": "AHI055",
        "display": "Mumps Vaccine 'Merieux'"
      },
      {
        "extension": [
          {
            "url": "http://hl7.at/fhir/HL7ATCoreProfiles/4.0.1/StructureDefinition/at-core-ext-valueset-systemoid",
            "valueOid": "urn:oid:1.2.40.0.34.5.186"
          }
        ],
        "system": "https://termgit.elga.gv.at/CodeSystem/eimpf-historischeimpfstoffe",
        "version": "2.1.0+20230829",
        "code": "AHI056",
        "display": "MMR Triplovax"
      },
      {
        "extension": [
          {
            "url": "http://hl7.at/fhir/HL7ATCoreProfiles/4.0.1/StructureDefinition/at-core-ext-valueset-systemoid",
            "valueOid": "urn:oid:1.2.40.0.34.5.186"
          }
        ],
        "system": "https://termgit.elga.gv.at/CodeSystem/eimpf-historischeimpfstoffe",
        "version": "2.1.0+20230829",
        "code": "AHI057",
        "display": "Mencevax ACWY"
      },
      {
        "extension": [
          {
            "url": "http://hl7.at/fhir/HL7ATCoreProfiles/4.0.1/StructureDefinition/at-core-ext-valueset-systemoid",
            "valueOid": "urn:oid:1.2.40.0.34.5.186"
          }
        ],
        "system": "https://termgit.elga.gv.at/CodeSystem/eimpf-historischeimpfstoffe",
        "version": "2.1.0+20230829",
        "code": "AHI058",
        "display": "Meningovax A+C"
      },
      {
        "extension": [
          {
            "url": "http://hl7.at/fhir/HL7ATCoreProfiles/4.0.1/StructureDefinition/at-core-ext-valueset-systemoid",
            "valueOid": "urn:oid:1.2.40.0.34.5.186"
          }
        ],
        "system": "https://termgit.elga.gv.at/CodeSystem/eimpf-historischeimpfstoffe",
        "version": "2.1.0+20230829",
        "code": "AHI059",
        "display": "Menactra"
      },
      {
        "extension": [
          {
            "url": "http://hl7.at/fhir/HL7ATCoreProfiles/4.0.1/StructureDefinition/at-core-ext-valueset-systemoid",
            "valueOid": "urn:oid:1.2.40.0.34.5.186"
          }
        ],
        "system": "https://termgit.elga.gv.at/CodeSystem/eimpf-historischeimpfstoffe",
        "version": "2.1.0+20230829",
        "code": "AHI060",
        "display": "Meningokokken-Impfstoff A+C M\u00e9rieux"
      },
      {
        "extension": [
          {
            "url": "http://hl7.at/fhir/HL7ATCoreProfiles/4.0.1/StructureDefinition/at-core-ext-valueset-systemoid",
            "valueOid": "urn:oid:1.2.40.0.34.5.186"
          }
        ],
        "system": "https://termgit.elga.gv.at/CodeSystem/eimpf-historischeimpfstoffe",
        "version": "2.1.0+20230829",
        "code": "AHI061",
        "display": "Meninvact C"
      },
      {
        "extension": [
          {
            "url": "http://hl7.at/fhir/HL7ATCoreProfiles/4.0.1/StructureDefinition/at-core-ext-valueset-systemoid",
            "valueOid": "urn:oid:1.2.40.0.34.5.186"
          }
        ],
        "system": "https://termgit.elga.gv.at/CodeSystem/eimpf-historischeimpfstoffe",
        "version": "2.1.0+20230829",
        "code": "AHI062",
        "display": "Mutagrip"
      },
      {
        "extension": [
          {
            "url": "http://hl7.at/fhir/HL7ATCoreProfiles/4.0.1/StructureDefinition/at-core-ext-valueset-systemoid",
            "valueOid": "urn:oid:1.2.40.0.34.5.186"
          }
        ],
        "system": "https://termgit.elga.gv.at/CodeSystem/eimpf-historischeimpfstoffe",
        "version": "2.1.0+20230829",
        "code": "AHI063",
        "display": "Optaflu"
      },
      {
        "extension": [
          {
            "url": "http://hl7.at/fhir/HL7ATCoreProfiles/4.0.1/StructureDefinition/at-core-ext-valueset-systemoid",
            "valueOid": "urn:oid:1.2.40.0.34.5.186"
          }
        ],
        "system": "https://termgit.elga.gv.at/CodeSystem/eimpf-historischeimpfstoffe",
        "version": "2.1.0+20230829",
        "code": "AHI064",
        "display": "Orochol"
      },
      {
        "extension": [
          {
            "url": "http://hl7.at/fhir/HL7ATCoreProfiles/4.0.1/StructureDefinition/at-core-ext-valueset-systemoid",
            "valueOid": "urn:oid:1.2.40.0.34.5.186"
          }
        ],
        "system": "https://termgit.elga.gv.at/CodeSystem/eimpf-historischeimpfstoffe",
        "version": "2.1.0+20230829",
        "code": "AHI065",
        "display": "PAC-M\u00e9rieux"
      },
      {
        "extension": [
          {
            "url": "http://hl7.at/fhir/HL7ATCoreProfiles/4.0.1/StructureDefinition/at-core-ext-valueset-systemoid",
            "valueOid": "urn:oid:1.2.40.0.34.5.186"
          }
        ],
        "system": "https://termgit.elga.gv.at/CodeSystem/eimpf-historischeimpfstoffe",
        "version": "2.1.0+20230829",
        "code": "AHI066",
        "display": "Pandemrix"
      },
      {
        "extension": [
          {
            "url": "http://hl7.at/fhir/HL7ATCoreProfiles/4.0.1/StructureDefinition/at-core-ext-valueset-systemoid",
            "valueOid": "urn:oid:1.2.40.0.34.5.186"
          }
        ],
        "system": "https://termgit.elga.gv.at/CodeSystem/eimpf-historischeimpfstoffe",
        "version": "2.1.0+20230829",
        "code": "AHI067",
        "display": "Pariorix"
      },
      {
        "extension": [
          {
            "url": "http://hl7.at/fhir/HL7ATCoreProfiles/4.0.1/StructureDefinition/at-core-ext-valueset-systemoid",
            "valueOid": "urn:oid:1.2.40.0.34.5.186"
          }
        ],
        "system": "https://termgit.elga.gv.at/CodeSystem/eimpf-historischeimpfstoffe",
        "version": "2.1.0+20230829",
        "code": "AHI068",
        "display": "Pediacel"
      },
      {
        "extension": [
          {
            "url": "http://hl7.at/fhir/HL7ATCoreProfiles/4.0.1/StructureDefinition/at-core-ext-valueset-systemoid",
            "valueOid": "urn:oid:1.2.40.0.34.5.186"
          }
        ],
        "system": "https://termgit.elga.gv.at/CodeSystem/eimpf-historischeimpfstoffe",
        "version": "2.1.0+20230829",
        "code": "AHI069",
        "display": "Pent-Act-HiB"
      },
      {
        "extension": [
          {
            "url": "http://hl7.at/fhir/HL7ATCoreProfiles/4.0.1/StructureDefinition/at-core-ext-valueset-systemoid",
            "valueOid": "urn:oid:1.2.40.0.34.5.186"
          }
        ],
        "system": "https://termgit.elga.gv.at/CodeSystem/eimpf-historischeimpfstoffe",
        "version": "2.1.0+20230829",
        "code": "AHI070",
        "display": "Pentavac"
      },
      {
        "extension": [
          {
            "url": "http://hl7.at/fhir/HL7ATCoreProfiles/4.0.1/StructureDefinition/at-core-ext-valueset-systemoid",
            "valueOid": "urn:oid:1.2.40.0.34.5.186"
          }
        ],
        "system": "https://termgit.elga.gv.at/CodeSystem/eimpf-historischeimpfstoffe",
        "version": "2.1.0+20230829",
        "code": "AHI071",
        "display": "Pertoral"
      },
      {
        "extension": [
          {
            "url": "http://hl7.at/fhir/HL7ATCoreProfiles/4.0.1/StructureDefinition/at-core-ext-valueset-systemoid",
            "valueOid": "urn:oid:1.2.40.0.34.5.186"
          }
        ],
        "system": "https://termgit.elga.gv.at/CodeSystem/eimpf-historischeimpfstoffe",
        "version": "2.1.0+20230829",
        "code": "AHI072",
        "display": "Pocken Vaccine"
      },
      {
        "extension": [
          {
            "url": "http://hl7.at/fhir/HL7ATCoreProfiles/4.0.1/StructureDefinition/at-core-ext-valueset-systemoid",
            "valueOid": "urn:oid:1.2.40.0.34.5.186"
          }
        ],
        "system": "https://termgit.elga.gv.at/CodeSystem/eimpf-historischeimpfstoffe",
        "version": "2.1.0+20230829",
        "code": "AHI073",
        "display": "Polio Sabin (oral) 'SB' - Tropfen und Zuckersuspension"
      },
      {
        "extension": [
          {
            "url": "http://hl7.at/fhir/HL7ATCoreProfiles/4.0.1/StructureDefinition/at-core-ext-valueset-systemoid",
            "valueOid": "urn:oid:1.2.40.0.34.5.186"
          }
        ],
        "system": "https://termgit.elga.gv.at/CodeSystem/eimpf-historischeimpfstoffe",
        "version": "2.1.0+20230829",
        "code": "AHI074",
        "display": "Poliomyelitis Vaccine 'Berna'"
      },
      {
        "extension": [
          {
            "url": "http://hl7.at/fhir/HL7ATCoreProfiles/4.0.1/StructureDefinition/at-core-ext-valueset-systemoid",
            "valueOid": "urn:oid:1.2.40.0.34.5.186"
          }
        ],
        "system": "https://termgit.elga.gv.at/CodeSystem/eimpf-historischeimpfstoffe",
        "version": "2.1.0+20230829",
        "code": "AHI075",
        "display": "Pneumo\u00a023\u00a0'Merieux'"
      },
      {
        "extension": [
          {
            "url": "http://hl7.at/fhir/HL7ATCoreProfiles/4.0.1/StructureDefinition/at-core-ext-valueset-systemoid",
            "valueOid": "urn:oid:1.2.40.0.34.5.186"
          }
        ],
        "system": "https://termgit.elga.gv.at/CodeSystem/eimpf-historischeimpfstoffe",
        "version": "2.1.0+20230829",
        "code": "AHI076",
        "display": "PNU-Imune"
      },
      {
        "extension": [
          {
            "url": "http://hl7.at/fhir/HL7ATCoreProfiles/4.0.1/StructureDefinition/at-core-ext-valueset-systemoid",
            "valueOid": "urn:oid:1.2.40.0.34.5.186"
          }
        ],
        "system": "https://termgit.elga.gv.at/CodeSystem/eimpf-historischeimpfstoffe",
        "version": "2.1.0+20230829",
        "code": "AHI077",
        "display": "Pr\u00e4pandemischer\u00a0Impfstoff\u00a0(H5N1)\u00a0GSK"
      },
      {
        "extension": [
          {
            "url": "http://hl7.at/fhir/HL7ATCoreProfiles/4.0.1/StructureDefinition/at-core-ext-valueset-systemoid",
            "valueOid": "urn:oid:1.2.40.0.34.5.186"
          }
        ],
        "system": "https://termgit.elga.gv.at/CodeSystem/eimpf-historischeimpfstoffe",
        "version": "2.1.0+20230829",
        "code": "AHI078",
        "display": "Pr\u00e4pandemischer\u00a0Impfstoff\u00a0(H5N1)\u00a0Novartis"
      },
      {
        "extension": [
          {
            "url": "http://hl7.at/fhir/HL7ATCoreProfiles/4.0.1/StructureDefinition/at-core-ext-valueset-systemoid",
            "valueOid": "urn:oid:1.2.40.0.34.5.186"
          }
        ],
        "system": "https://termgit.elga.gv.at/CodeSystem/eimpf-historischeimpfstoffe",
        "version": "2.1.0+20230829",
        "code": "AHI079",
        "display": "Pr\u00e9vigrip"
      },
      {
        "extension": [
          {
            "url": "http://hl7.at/fhir/HL7ATCoreProfiles/4.0.1/StructureDefinition/at-core-ext-valueset-systemoid",
            "valueOid": "urn:oid:1.2.40.0.34.5.186"
          }
        ],
        "system": "https://termgit.elga.gv.at/CodeSystem/eimpf-historischeimpfstoffe",
        "version": "2.1.0+20230829",
        "code": "AHI080",
        "display": "Prevenar\u00a0(7-valent)"
      },
      {
        "extension": [
          {
            "url": "http://hl7.at/fhir/HL7ATCoreProfiles/4.0.1/StructureDefinition/at-core-ext-valueset-systemoid",
            "valueOid": "urn:oid:1.2.40.0.34.5.186"
          }
        ],
        "system": "https://termgit.elga.gv.at/CodeSystem/eimpf-historischeimpfstoffe",
        "version": "2.1.0+20230829",
        "code": "AHI081",
        "display": "Primavax"
      },
      {
        "extension": [
          {
            "url": "http://hl7.at/fhir/HL7ATCoreProfiles/4.0.1/StructureDefinition/at-core-ext-valueset-systemoid",
            "valueOid": "urn:oid:1.2.40.0.34.5.186"
          }
        ],
        "system": "https://termgit.elga.gv.at/CodeSystem/eimpf-historischeimpfstoffe",
        "version": "2.1.0+20230829",
        "code": "AHI082",
        "display": "Procomvax"
      },
      {
        "extension": [
          {
            "url": "http://hl7.at/fhir/HL7ATCoreProfiles/4.0.1/StructureDefinition/at-core-ext-valueset-systemoid",
            "valueOid": "urn:oid:1.2.40.0.34.5.186"
          }
        ],
        "system": "https://termgit.elga.gv.at/CodeSystem/eimpf-historischeimpfstoffe",
        "version": "2.1.0+20230829",
        "code": "AHI083",
        "display": "Provarivax"
      },
      {
        "extension": [
          {
            "url": "http://hl7.at/fhir/HL7ATCoreProfiles/4.0.1/StructureDefinition/at-core-ext-valueset-systemoid",
            "valueOid": "urn:oid:1.2.40.0.34.5.186"
          }
        ],
        "system": "https://termgit.elga.gv.at/CodeSystem/eimpf-historischeimpfstoffe",
        "version": "2.1.0+20230829",
        "code": "AHI084",
        "display": "ProHIBiT"
      },
      {
        "extension": [
          {
            "url": "http://hl7.at/fhir/HL7ATCoreProfiles/4.0.1/StructureDefinition/at-core-ext-valueset-systemoid",
            "valueOid": "urn:oid:1.2.40.0.34.5.186"
          }
        ],
        "system": "https://termgit.elga.gv.at/CodeSystem/eimpf-historischeimpfstoffe",
        "version": "2.1.0+20230829",
        "code": "AHI085",
        "display": "Pumarix"
      },
      {
        "extension": [
          {
            "url": "http://hl7.at/fhir/HL7ATCoreProfiles/4.0.1/StructureDefinition/at-core-ext-valueset-systemoid",
            "valueOid": "urn:oid:1.2.40.0.34.5.186"
          }
        ],
        "system": "https://termgit.elga.gv.at/CodeSystem/eimpf-historischeimpfstoffe",
        "version": "2.1.0+20230829",
        "code": "AHI086",
        "display": "Quatrovirelon"
      },
      {
        "extension": [
          {
            "url": "http://hl7.at/fhir/HL7ATCoreProfiles/4.0.1/StructureDefinition/at-core-ext-valueset-systemoid",
            "valueOid": "urn:oid:1.2.40.0.34.5.186"
          }
        ],
        "system": "https://termgit.elga.gv.at/CodeSystem/eimpf-historischeimpfstoffe",
        "version": "2.1.0+20230829",
        "code": "AHI087",
        "display": "Quintanrix"
      },
      {
        "extension": [
          {
            "url": "http://hl7.at/fhir/HL7ATCoreProfiles/4.0.1/StructureDefinition/at-core-ext-valueset-systemoid",
            "valueOid": "urn:oid:1.2.40.0.34.5.186"
          }
        ],
        "system": "https://termgit.elga.gv.at/CodeSystem/eimpf-historischeimpfstoffe",
        "version": "2.1.0+20230829",
        "code": "AHI088",
        "display": "Quintovirelon"
      },
      {
        "extension": [
          {
            "url": "http://hl7.at/fhir/HL7ATCoreProfiles/4.0.1/StructureDefinition/at-core-ext-valueset-systemoid",
            "valueOid": "urn:oid:1.2.40.0.34.5.186"
          }
        ],
        "system": "https://termgit.elga.gv.at/CodeSystem/eimpf-historischeimpfstoffe",
        "version": "2.1.0+20230829",
        "code": "AHI089",
        "display": "Rabies\u00a0Imovax"
      },
      {
        "extension": [
          {
            "url": "http://hl7.at/fhir/HL7ATCoreProfiles/4.0.1/StructureDefinition/at-core-ext-valueset-systemoid",
            "valueOid": "urn:oid:1.2.40.0.34.5.186"
          }
        ],
        "system": "https://termgit.elga.gv.at/CodeSystem/eimpf-historischeimpfstoffe",
        "version": "2.1.0+20230829",
        "code": "AHI090",
        "display": "Rimparix"
      },
      {
        "extension": [
          {
            "url": "http://hl7.at/fhir/HL7ATCoreProfiles/4.0.1/StructureDefinition/at-core-ext-valueset-systemoid",
            "valueOid": "urn:oid:1.2.40.0.34.5.186"
          }
        ],
        "system": "https://termgit.elga.gv.at/CodeSystem/eimpf-historischeimpfstoffe",
        "version": "2.1.0+20230829",
        "code": "AHI091",
        "display": "Rimevax"
      },
      {
        "extension": [
          {
            "url": "http://hl7.at/fhir/HL7ATCoreProfiles/4.0.1/StructureDefinition/at-core-ext-valueset-systemoid",
            "valueOid": "urn:oid:1.2.40.0.34.5.186"
          }
        ],
        "system": "https://termgit.elga.gv.at/CodeSystem/eimpf-historischeimpfstoffe",
        "version": "2.1.0+20230829",
        "code": "AHI092",
        "display": "Rouvax"
      },
      {
        "extension": [
          {
            "url": "http://hl7.at/fhir/HL7ATCoreProfiles/4.0.1/StructureDefinition/at-core-ext-valueset-systemoid",
            "valueOid": "urn:oid:1.2.40.0.34.5.186"
          }
        ],
        "system": "https://termgit.elga.gv.at/CodeSystem/eimpf-historischeimpfstoffe",
        "version": "2.1.0+20230829",
        "code": "AHI093",
        "display": "Rudivax"
      },
      {
        "extension": [
          {
            "url": "http://hl7.at/fhir/HL7ATCoreProfiles/4.0.1/StructureDefinition/at-core-ext-valueset-systemoid",
            "valueOid": "urn:oid:1.2.40.0.34.5.186"
          }
        ],
        "system": "https://termgit.elga.gv.at/CodeSystem/eimpf-historischeimpfstoffe",
        "version": "2.1.0+20230829",
        "code": "AHI094",
        "display": "RotaShield"
      },
      {
        "extension": [
          {
            "url": "http://hl7.at/fhir/HL7ATCoreProfiles/4.0.1/StructureDefinition/at-core-ext-valueset-systemoid",
            "valueOid": "urn:oid:1.2.40.0.34.5.186"
          }
        ],
        "system": "https://termgit.elga.gv.at/CodeSystem/eimpf-historischeimpfstoffe",
        "version": "2.1.0+20230829",
        "code": "AHI095",
        "display": "R\u00f6teln-Impfstoff\u00a0HDC\u00a0M\u00e9rieux"
      },
      {
        "extension": [
          {
            "url": "http://hl7.at/fhir/HL7ATCoreProfiles/4.0.1/StructureDefinition/at-core-ext-valueset-systemoid",
            "valueOid": "urn:oid:1.2.40.0.34.5.186"
          }
        ],
        "system": "https://termgit.elga.gv.at/CodeSystem/eimpf-historischeimpfstoffe",
        "version": "2.1.0+20230829",
        "code": "AHI096",
        "display": "Rubeaten\u00a0'Berna'"
      },
      {
        "extension": [
          {
            "url": "http://hl7.at/fhir/HL7ATCoreProfiles/4.0.1/StructureDefinition/at-core-ext-valueset-systemoid",
            "valueOid": "urn:oid:1.2.40.0.34.5.186"
          }
        ],
        "system": "https://termgit.elga.gv.at/CodeSystem/eimpf-historischeimpfstoffe",
        "version": "2.1.0+20230829",
        "code": "AHI097",
        "display": "Spirolept"
      },
      {
        "extension": [
          {
            "url": "http://hl7.at/fhir/HL7ATCoreProfiles/4.0.1/StructureDefinition/at-core-ext-valueset-systemoid",
            "valueOid": "urn:oid:1.2.40.0.34.5.186"
          }
        ],
        "system": "https://termgit.elga.gv.at/CodeSystem/eimpf-historischeimpfstoffe",
        "version": "2.1.0+20230829",
        "code": "AHI098",
        "display": "Tanrix"
      },
      {
        "extension": [
          {
            "url": "http://hl7.at/fhir/HL7ATCoreProfiles/4.0.1/StructureDefinition/at-core-ext-valueset-systemoid",
            "valueOid": "urn:oid:1.2.40.0.34.5.186"
          }
        ],
        "system": "https://termgit.elga.gv.at/CodeSystem/eimpf-historischeimpfstoffe",
        "version": "2.1.0+20230829",
        "code": "AHI099",
        "display": "Te-Anatoxal\u00a0'Berna'"
      },
      {
        "extension": [
          {
            "url": "http://hl7.at/fhir/HL7ATCoreProfiles/4.0.1/StructureDefinition/at-core-ext-valueset-systemoid",
            "valueOid": "urn:oid:1.2.40.0.34.5.186"
          }
        ],
        "system": "https://termgit.elga.gv.at/CodeSystem/eimpf-historischeimpfstoffe",
        "version": "2.1.0+20230829",
        "code": "AHI100",
        "display": "Tetanol"
      },
      {
        "extension": [
          {
            "url": "http://hl7.at/fhir/HL7ATCoreProfiles/4.0.1/StructureDefinition/at-core-ext-valueset-systemoid",
            "valueOid": "urn:oid:1.2.40.0.34.5.186"
          }
        ],
        "system": "https://termgit.elga.gv.at/CodeSystem/eimpf-historischeimpfstoffe",
        "version": "2.1.0+20230829",
        "code": "AHI101",
        "display": "Tetanus-Adsorbat\u00a0'Merieux'"
      },
      {
        "extension": [
          {
            "url": "http://hl7.at/fhir/HL7ATCoreProfiles/4.0.1/StructureDefinition/at-core-ext-valueset-systemoid",
            "valueOid": "urn:oid:1.2.40.0.34.5.186"
          }
        ],
        "system": "https://termgit.elga.gv.at/CodeSystem/eimpf-historischeimpfstoffe",
        "version": "2.1.0+20230829",
        "code": "AHI102",
        "display": "Td-Rix"
      },
      {
        "extension": [
          {
            "url": "http://hl7.at/fhir/HL7ATCoreProfiles/4.0.1/StructureDefinition/at-core-ext-valueset-systemoid",
            "valueOid": "urn:oid:1.2.40.0.34.5.186"
          }
        ],
        "system": "https://termgit.elga.gv.at/CodeSystem/eimpf-historischeimpfstoffe",
        "version": "2.1.0+20230829",
        "code": "AHI103",
        "display": "Tetagrip"
      },
      {
        "extension": [
          {
            "url": "http://hl7.at/fhir/HL7ATCoreProfiles/4.0.1/StructureDefinition/at-core-ext-valueset-systemoid",
            "valueOid": "urn:oid:1.2.40.0.34.5.186"
          }
        ],
        "system": "https://termgit.elga.gv.at/CodeSystem/eimpf-historischeimpfstoffe",
        "version": "2.1.0+20230829",
        "code": "AHI104",
        "display": "Tetracoq"
      },
      {
        "extension": [
          {
            "url": "http://hl7.at/fhir/HL7ATCoreProfiles/4.0.1/StructureDefinition/at-core-ext-valueset-systemoid",
            "valueOid": "urn:oid:1.2.40.0.34.5.186"
          }
        ],
        "system": "https://termgit.elga.gv.at/CodeSystem/eimpf-historischeimpfstoffe",
        "version": "2.1.0+20230829",
        "code": "AHI105",
        "display": "Triacelluvax"
      },
      {
        "extension": [
          {
            "url": "http://hl7.at/fhir/HL7ATCoreProfiles/4.0.1/StructureDefinition/at-core-ext-valueset-systemoid",
            "valueOid": "urn:oid:1.2.40.0.34.5.186"
          }
        ],
        "system": "https://termgit.elga.gv.at/CodeSystem/eimpf-historischeimpfstoffe",
        "version": "2.1.0+20230829",
        "code": "AHI106",
        "display": "Triaxis\u00a0Polio"
      },
      {
        "extension": [
          {
            "url": "http://hl7.at/fhir/HL7ATCoreProfiles/4.0.1/StructureDefinition/at-core-ext-valueset-systemoid",
            "valueOid": "urn:oid:1.2.40.0.34.5.186"
          }
        ],
        "system": "https://termgit.elga.gv.at/CodeSystem/eimpf-historischeimpfstoffe",
        "version": "2.1.0+20230829",
        "code": "AHI107",
        "display": "Ticovac\u00a0junior"
      },
      {
        "extension": [
          {
            "url": "http://hl7.at/fhir/HL7ATCoreProfiles/4.0.1/StructureDefinition/at-core-ext-valueset-systemoid",
            "valueOid": "urn:oid:1.2.40.0.34.5.186"
          }
        ],
        "system": "https://termgit.elga.gv.at/CodeSystem/eimpf-historischeimpfstoffe",
        "version": "2.1.0+20230829",
        "code": "AHI108",
        "display": "Ticovac"
      },
      {
        "extension": [
          {
            "url": "http://hl7.at/fhir/HL7ATCoreProfiles/4.0.1/StructureDefinition/at-core-ext-valueset-systemoid",
            "valueOid": "urn:oid:1.2.40.0.34.5.186"
          }
        ],
        "system": "https://termgit.elga.gv.at/CodeSystem/eimpf-historischeimpfstoffe",
        "version": "2.1.0+20230829",
        "code": "AHI109",
        "display": "Tollwut\u00a0Vakzine\u00a0'Pasteur\u00a0Merieux'"
      },
      {
        "extension": [
          {
            "url": "http://hl7.at/fhir/HL7ATCoreProfiles/4.0.1/StructureDefinition/at-core-ext-valueset-systemoid",
            "valueOid": "urn:oid:1.2.40.0.34.5.186"
          }
        ],
        "system": "https://termgit.elga.gv.at/CodeSystem/eimpf-historischeimpfstoffe",
        "version": "2.1.0+20230829",
        "code": "AHI110",
        "display": "Tritanrix\u00a0DTPw"
      },
      {
        "extension": [
          {
            "url": "http://hl7.at/fhir/HL7ATCoreProfiles/4.0.1/StructureDefinition/at-core-ext-valueset-systemoid",
            "valueOid": "urn:oid:1.2.40.0.34.5.186"
          }
        ],
        "system": "https://termgit.elga.gv.at/CodeSystem/eimpf-historischeimpfstoffe",
        "version": "2.1.0+20230829",
        "code": "AHI111",
        "display": "Tollwut\u00a0Vaccine\u00a0HDC"
      },
      {
        "extension": [
          {
            "url": "http://hl7.at/fhir/HL7ATCoreProfiles/4.0.1/StructureDefinition/at-core-ext-valueset-systemoid",
            "valueOid": "urn:oid:1.2.40.0.34.5.186"
          }
        ],
        "system": "https://termgit.elga.gv.at/CodeSystem/eimpf-historischeimpfstoffe",
        "version": "2.1.0+20230829",
        "code": "AHI112",
        "display": "Tritanrix\u00a0HepB"
      },
      {
        "extension": [
          {
            "url": "http://hl7.at/fhir/HL7ATCoreProfiles/4.0.1/StructureDefinition/at-core-ext-valueset-systemoid",
            "valueOid": "urn:oid:1.2.40.0.34.5.186"
          }
        ],
        "system": "https://termgit.elga.gv.at/CodeSystem/eimpf-historischeimpfstoffe",
        "version": "2.1.0+20230829",
        "code": "AHI113",
        "display": "Tyavax"
      },
      {
        "extension": [
          {
            "url": "http://hl7.at/fhir/HL7ATCoreProfiles/4.0.1/StructureDefinition/at-core-ext-valueset-systemoid",
            "valueOid": "urn:oid:1.2.40.0.34.5.186"
          }
        ],
        "system": "https://termgit.elga.gv.at/CodeSystem/eimpf-historischeimpfstoffe",
        "version": "2.1.0+20230829",
        "code": "AHI114",
        "display": "Typherix"
      },
      {
        "extension": [
          {
            "url": "http://hl7.at/fhir/HL7ATCoreProfiles/4.0.1/StructureDefinition/at-core-ext-valueset-systemoid",
            "valueOid": "urn:oid:1.2.40.0.34.5.186"
          }
        ],
        "system": "https://termgit.elga.gv.at/CodeSystem/eimpf-historischeimpfstoffe",
        "version": "2.1.0+20230829",
        "code": "AHI115",
        "display": "Typhoral"
      },
      {
        "extension": [
          {
            "url": "http://hl7.at/fhir/HL7ATCoreProfiles/4.0.1/StructureDefinition/at-core-ext-valueset-systemoid",
            "valueOid": "urn:oid:1.2.40.0.34.5.186"
          }
        ],
        "system": "https://termgit.elga.gv.at/CodeSystem/eimpf-historischeimpfstoffe",
        "version": "2.1.0+20230829",
        "code": "AHI116",
        "display": "Vaccin\u00a0Rabique\u00a0inactiv\u00e9\u00a0M\u00e9rieux\u00a0HDCV"
      },
      {
        "extension": [
          {
            "url": "http://hl7.at/fhir/HL7ATCoreProfiles/4.0.1/StructureDefinition/at-core-ext-valueset-systemoid",
            "valueOid": "urn:oid:1.2.40.0.34.5.186"
          }
        ],
        "system": "https://termgit.elga.gv.at/CodeSystem/eimpf-historischeimpfstoffe",
        "version": "2.1.0+20230829",
        "code": "AHI117",
        "display": "Vaccin\u00a0GenHevac\u00a0B\u00a0Pasteur"
      },
      {
        "extension": [
          {
            "url": "http://hl7.at/fhir/HL7ATCoreProfiles/4.0.1/StructureDefinition/at-core-ext-valueset-systemoid",
            "valueOid": "urn:oid:1.2.40.0.34.5.186"
          }
        ],
        "system": "https://termgit.elga.gv.at/CodeSystem/eimpf-historischeimpfstoffe",
        "version": "2.1.0+20230829",
        "code": "AHI118",
        "display": "Vaccine\u00a0Rabique\u00a0Pasteur"
      },
      {
        "extension": [
          {
            "url": "http://hl7.at/fhir/HL7ATCoreProfiles/4.0.1/StructureDefinition/at-core-ext-valueset-systemoid",
            "valueOid": "urn:oid:1.2.40.0.34.5.186"
          }
        ],
        "system": "https://termgit.elga.gv.at/CodeSystem/eimpf-historischeimpfstoffe",
        "version": "2.1.0+20230829",
        "code": "AHI119",
        "display": "Vaccine\u00a0T\u00e9tamique\u00a0Pasteur"
      },
      {
        "extension": [
          {
            "url": "http://hl7.at/fhir/HL7ATCoreProfiles/4.0.1/StructureDefinition/at-core-ext-valueset-systemoid",
            "valueOid": "urn:oid:1.2.40.0.34.5.186"
          }
        ],
        "system": "https://termgit.elga.gv.at/CodeSystem/eimpf-historischeimpfstoffe",
        "version": "2.1.0+20230829",
        "code": "AHI120",
        "display": "Vaccine\u00a0Boostrixtetra"
      },
      {
        "extension": [
          {
            "url": "http://hl7.at/fhir/HL7ATCoreProfiles/4.0.1/StructureDefinition/at-core-ext-valueset-systemoid",
            "valueOid": "urn:oid:1.2.40.0.34.5.186"
          }
        ],
        "system": "https://termgit.elga.gv.at/CodeSystem/eimpf-historischeimpfstoffe",
        "version": "2.1.0+20230829",
        "code": "AHI121",
        "display": "Varicella\u00a0Impfstoff\u00a0SB"
      },
      {
        "extension": [
          {
            "url": "http://hl7.at/fhir/HL7ATCoreProfiles/4.0.1/StructureDefinition/at-core-ext-valueset-systemoid",
            "valueOid": "urn:oid:1.2.40.0.34.5.186"
          }
        ],
        "system": "https://termgit.elga.gv.at/CodeSystem/eimpf-historischeimpfstoffe",
        "version": "2.1.0+20230829",
        "code": "AHI122",
        "display": "Vaxigrip\u00a0junior"
      },
      {
        "extension": [
          {
            "url": "http://hl7.at/fhir/HL7ATCoreProfiles/4.0.1/StructureDefinition/at-core-ext-valueset-systemoid",
            "valueOid": "urn:oid:1.2.40.0.34.5.186"
          }
        ],
        "system": "https://termgit.elga.gv.at/CodeSystem/eimpf-historischeimpfstoffe",
        "version": "2.1.0+20230829",
        "code": "AHI123",
        "display": "Vaxigrip"
      },
      {
        "extension": [
          {
            "url": "http://hl7.at/fhir/HL7ATCoreProfiles/4.0.1/StructureDefinition/at-core-ext-valueset-systemoid",
            "valueOid": "urn:oid:1.2.40.0.34.5.186"
          }
        ],
        "system": "https://termgit.elga.gv.at/CodeSystem/eimpf-historischeimpfstoffe",
        "version": "2.1.0+20230829",
        "code": "AHI124",
        "display": "Preflucel"
      },
      {
        "extension": [
          {
            "url": "http://hl7.at/fhir/HL7ATCoreProfiles/4.0.1/StructureDefinition/at-core-ext-valueset-systemoid",
            "valueOid": "urn:oid:1.2.40.0.34.5.186"
          }
        ],
        "system": "https://termgit.elga.gv.at/CodeSystem/eimpf-historischeimpfstoffe",
        "version": "2.1.0+20230829",
        "code": "AHI125",
        "display": "Sandovac"
      },
      {
        "extension": [
          {
            "url": "http://hl7.at/fhir/HL7ATCoreProfiles/4.0.1/StructureDefinition/at-core-ext-valueset-systemoid",
            "valueOid": "urn:oid:1.2.40.0.34.5.186"
          }
        ],
        "system": "https://termgit.elga.gv.at/CodeSystem/eimpf-historischeimpfstoffe",
        "version": "2.1.0+20230829",
        "code": "AHI126",
        "display": "Vepacel"
      },
      {
        "extension": [
          {
            "url": "http://hl7.at/fhir/HL7ATCoreProfiles/4.0.1/StructureDefinition/at-core-ext-valueset-systemoid",
            "valueOid": "urn:oid:1.2.40.0.34.5.186"
          }
        ],
        "system": "https://termgit.elga.gv.at/CodeSystem/eimpf-historischeimpfstoffe",
        "version": "2.1.0+20230829",
        "code": "AHI127",
        "display": "Fluvaccinol Subunit"
      },
      {
        "extension": [
          {
            "url": "http://hl7.at/fhir/HL7ATCoreProfiles/4.0.1/StructureDefinition/at-core-ext-valueset-systemoid",
            "valueOid": "urn:oid:1.2.40.0.34.5.186"
          }
        ],
        "system": "https://termgit.elga.gv.at/CodeSystem/eimpf-historischeimpfstoffe",
        "version": "2.1.0+20230829",
        "code": "AHI128",
        "display": "Silgard"
      },
      {
        "extension": [
          {
            "url": "http://hl7.at/fhir/HL7ATCoreProfiles/4.0.1/StructureDefinition/at-core-ext-valueset-systemoid",
            "valueOid": "urn:oid:1.2.40.0.34.5.186"
          }
        ],
        "system": "https://termgit.elga.gv.at/CodeSystem/eimpf-historischeimpfstoffe",
        "version": "2.1.0+20230829",
        "code": "AHI129",
        "display": "HIB-Titer"
      },
      {
        "extension": [
          {
            "url": "http://hl7.at/fhir/HL7ATCoreProfiles/4.0.1/StructureDefinition/at-core-ext-valueset-systemoid",
            "valueOid": "urn:oid:1.2.40.0.34.5.186"
          }
        ],
        "system": "https://termgit.elga.gv.at/CodeSystem/eimpf-historischeimpfstoffe",
        "version": "2.1.0+20230829",
        "code": "AHI130",
        "display": "Avaxim"
      },
      {
        "extension": [
          {
            "url": "http://hl7.at/fhir/HL7ATCoreProfiles/4.0.1/StructureDefinition/at-core-ext-valueset-systemoid",
            "valueOid": "urn:oid:1.2.40.0.34.5.186"
          }
        ],
        "system": "https://termgit.elga.gv.at/CodeSystem/eimpf-historischeimpfstoffe",
        "version": "2.1.0+20230829",
        "code": "AHI131",
        "display": "Fluad"
      },
      {
        "extension": [
          {
            "url": "http://hl7.at/fhir/HL7ATCoreProfiles/4.0.1/StructureDefinition/at-core-ext-valueset-systemoid",
            "valueOid": "urn:oid:1.2.40.0.34.5.186"
          }
        ],
        "system": "https://termgit.elga.gv.at/CodeSystem/eimpf-historischeimpfstoffe",
        "version": "2.1.0+20230829",
        "code": "AHI132",
        "display": "Prepandrix"
      },
      {
        "extension": [
          {
            "url": "http://hl7.at/fhir/HL7ATCoreProfiles/4.0.1/StructureDefinition/at-core-ext-valueset-systemoid",
            "valueOid": "urn:oid:1.2.40.0.34.5.186"
          }
        ],
        "system": "https://termgit.elga.gv.at/CodeSystem/eimpf-historischeimpfstoffe",
        "version": "2.1.0+20230829",
        "code": "AHI133",
        "display": "Tetravac"
      },
      {
        "extension": [
          {
            "url": "http://hl7.at/fhir/HL7ATCoreProfiles/4.0.1/StructureDefinition/at-core-ext-valueset-systemoid",
            "valueOid": "urn:oid:1.2.40.0.34.5.186"
          }
        ],
        "system": "https://termgit.elga.gv.at/CodeSystem/eimpf-historischeimpfstoffe",
        "version": "2.1.0+20230829",
        "code": "AHI134",
        "display": "Menjugate"
      },
      {
        "extension": [
          {
            "url": "http://hl7.at/fhir/HL7ATCoreProfiles/4.0.1/StructureDefinition/at-core-ext-valueset-systemoid",
            "valueOid": "urn:oid:1.2.40.0.34.5.186"
          }
        ],
        "system": "https://termgit.elga.gv.at/CodeSystem/eimpf-historischeimpfstoffe",
        "version": "2.1.0+20230829",
        "code": "AHI135",
        "display": "Influvac"
      },
      {
        "extension": [
          {
            "url": "http://hl7.at/fhir/HL7ATCoreProfiles/4.0.1/StructureDefinition/at-core-ext-valueset-systemoid",
            "valueOid": "urn:oid:1.2.40.0.34.5.186"
          }
        ],
        "system": "https://termgit.elga.gv.at/CodeSystem/eimpf-historischeimpfstoffe",
        "version": "2.1.0+20230829",
        "code": "AHI136",
        "display": "Tetanol pur"
      }
    ]
  }
}