{
  "resourceType": "CodeSystem",
  "id": "hl7-at-administrativegender-ergaenzung",
  "url": "https://termgit.elga.gv.at/CodeSystem/hl7-at-administrativegender-ergaenzung",
  "identifier": [
    {
      "use": "official",
      "system": "urn:ietf:rfc:3986",
      "value": "urn:oid:1.2.40.0.34.5.224"
    }
  ],
  "version": "1.0.0+20231113",
  "name": "hl7-at-administrativegender-ergaenzung",
  "title": "HL7-at_AdministrativeGender-Ergaenzung",
  "status": "active",
  "date": "2023-11-13",
  "publisher": "see",
  "contact": [
    {
      "name": "HL7 Austria",
      "telecom": [
        {
          "system": "url",
          "value": "https://www.hl7.at"
        }
      ]
    }
  ],
  "description": "\u00d6sterreich-spezifische Codes, die f\u00fcr die weitere Untergliederung des dritten Geschlechts dokumentiert werden k\u00f6nnen.",
  "content": "complete",
  "count": 3,
  "concept": [
    {
      "code": "D",
      "display": "Divers"
    },
    {
      "code": "I",
      "display": "Inter"
    },
    {
      "code": "O",
      "display": "Offen"
    }
  ]
}