{
  "resourceType": "CodeSystem",
  "id": "ihe-pharmaceutical-advice-status-list",
  "url": "https://termgit.elga.gv.at/CodeSystem/ihe-pharmaceutical-advice-status-list",
  "identifier": [
    {
      "use": "official",
      "system": "urn:ietf:rfc:3986",
      "value": "urn:oid:1.3.6.1.4.1.19376.1.9.2.1"
    }
  ],
  "version": "1.0.0+20230131",
  "name": "ihe-pharmaceutical-advice-status-list",
  "title": "IHE Pharmaceutical Advice Status List",
  "status": "active",
  "date": "2015-03-31",
  "description": "**Description:** IHE Codelist for Pharmaceutical Advice status\n\n**Beschreibung:** IHE Codeliste f\u00fcr Pharmazeutische Empfehlung Status",
  "content": "complete",
  "count": 2,
  "concept": [
    {
      "code": "CANCEL",
      "display": "Storno/Absetzen"
    },
    {
      "code": "CHANGE",
      "display": "\u00c4nderung"
    }
  ]
}