'code';'codeSystem';'displayName';'parentCodeSystemName';'concept_Beschreibung';'meaning';'hints';'orderNumber';'level';'type';'relationships';'einheit print';'einheit codiert'
'AD';'1.0.3166.1.2.2';'ANDORRA';'https://termgit.elga.gv.at/CodeSystem/iso-3166-alpha-2-code';'';'Andorra';'';'1';'0';'L';'';'';''
'AE';'1.0.3166.1.2.2';'UNITED ARAB EMIRATES';'https://termgit.elga.gv.at/CodeSystem/iso-3166-alpha-2-code';'';'Vereinigte Arab.Emirate';'';'2';'0';'L';'';'';''
'AF';'1.0.3166.1.2.2';'AFGHANISTAN';'https://termgit.elga.gv.at/CodeSystem/iso-3166-alpha-2-code';'';'Afghanistan';'';'3';'0';'L';'';'';''
'AG';'1.0.3166.1.2.2';'ANTIGUA AND BARBUDA';'https://termgit.elga.gv.at/CodeSystem/iso-3166-alpha-2-code';'';'Antigua und Barbuda';'';'4';'0';'L';'';'';''
'AI';'1.0.3166.1.2.2';'ANGUILLA';'https://termgit.elga.gv.at/CodeSystem/iso-3166-alpha-2-code';'';'Anguilla';'';'5';'0';'L';'';'';''
'AL';'1.0.3166.1.2.2';'ALBANIA';'https://termgit.elga.gv.at/CodeSystem/iso-3166-alpha-2-code';'';'Albanien';'';'6';'0';'L';'';'';''
'AM';'1.0.3166.1.2.2';'ARMENIA';'https://termgit.elga.gv.at/CodeSystem/iso-3166-alpha-2-code';'';'Armenien';'';'7';'0';'L';'';'';''
'AO';'1.0.3166.1.2.2';'ANGOLA';'https://termgit.elga.gv.at/CodeSystem/iso-3166-alpha-2-code';'';'Angola';'';'8';'0';'L';'';'';''
'AQ';'1.0.3166.1.2.2';'ANTARCTICA';'https://termgit.elga.gv.at/CodeSystem/iso-3166-alpha-2-code';'';'Antarktis';'';'9';'0';'L';'';'';''
'AR';'1.0.3166.1.2.2';'ARGENTINA';'https://termgit.elga.gv.at/CodeSystem/iso-3166-alpha-2-code';'';'Argentinien';'';'10';'0';'L';'';'';''
'AS';'1.0.3166.1.2.2';'AMERICAN SAMOA';'https://termgit.elga.gv.at/CodeSystem/iso-3166-alpha-2-code';'';'Amerikan.Samoa';'';'11';'0';'L';'';'';''
'AT';'1.0.3166.1.2.2';'AUSTRIA';'https://termgit.elga.gv.at/CodeSystem/iso-3166-alpha-2-code';'';'Österreich';'';'12';'0';'L';'';'';''
'AU';'1.0.3166.1.2.2';'AUSTRALIA';'https://termgit.elga.gv.at/CodeSystem/iso-3166-alpha-2-code';'';'Australien';'';'13';'0';'L';'';'';''
'AW';'1.0.3166.1.2.2';'ARUBA';'https://termgit.elga.gv.at/CodeSystem/iso-3166-alpha-2-code';'';'Aruba';'';'14';'0';'L';'';'';''
'AX';'1.0.3166.1.2.2';'ALAND ISLANDS';'https://termgit.elga.gv.at/CodeSystem/iso-3166-alpha-2-code';'';'Alandinseln';'';'15';'0';'L';'';'';''
'AZ';'1.0.3166.1.2.2';'AZERBAIJAN';'https://termgit.elga.gv.at/CodeSystem/iso-3166-alpha-2-code';'';'Aserbaidschan';'';'16';'0';'L';'';'';''
'BA';'1.0.3166.1.2.2';'BOSNIA AND HERZEGOVINA';'https://termgit.elga.gv.at/CodeSystem/iso-3166-alpha-2-code';'';'Bosnien und Herzegowina';'';'17';'0';'L';'';'';''
'BB';'1.0.3166.1.2.2';'BARBADOS';'https://termgit.elga.gv.at/CodeSystem/iso-3166-alpha-2-code';'';'Barbados';'';'18';'0';'L';'';'';''
'BD';'1.0.3166.1.2.2';'BANGLADESH';'https://termgit.elga.gv.at/CodeSystem/iso-3166-alpha-2-code';'';'Bangladesch';'';'19';'0';'L';'';'';''
'BE';'1.0.3166.1.2.2';'BELGIUM';'https://termgit.elga.gv.at/CodeSystem/iso-3166-alpha-2-code';'';'Belgien';'';'20';'0';'L';'';'';''
'BF';'1.0.3166.1.2.2';'BURKINA FASO';'https://termgit.elga.gv.at/CodeSystem/iso-3166-alpha-2-code';'';'Burkina Faso';'';'21';'0';'L';'';'';''
'BG';'1.0.3166.1.2.2';'BULGARIA';'https://termgit.elga.gv.at/CodeSystem/iso-3166-alpha-2-code';'';'Bulgarien';'';'22';'0';'L';'';'';''
'BH';'1.0.3166.1.2.2';'BAHRAIN';'https://termgit.elga.gv.at/CodeSystem/iso-3166-alpha-2-code';'';'Bahrain';'';'23';'0';'L';'';'';''
'BI';'1.0.3166.1.2.2';'BURUNDI';'https://termgit.elga.gv.at/CodeSystem/iso-3166-alpha-2-code';'';'Burundi';'';'24';'0';'L';'';'';''
'BJ';'1.0.3166.1.2.2';'BENIN';'https://termgit.elga.gv.at/CodeSystem/iso-3166-alpha-2-code';'';'Benin';'';'25';'0';'L';'';'';''
'BL';'1.0.3166.1.2.2';'SAINT BARTHELEMY';'https://termgit.elga.gv.at/CodeSystem/iso-3166-alpha-2-code';'';'Sankt Bartholomäus';'';'26';'0';'L';'';'';''
'BM';'1.0.3166.1.2.2';'BERMUDA';'https://termgit.elga.gv.at/CodeSystem/iso-3166-alpha-2-code';'';'Bermuda';'';'27';'0';'L';'';'';''
'BN';'1.0.3166.1.2.2';'BRUNEI DARUSSALAM';'https://termgit.elga.gv.at/CodeSystem/iso-3166-alpha-2-code';'';'Brunei Darussalam';'';'28';'0';'L';'';'';''
'BO';'1.0.3166.1.2.2';'BOLIVIA (PLURINATIONAL STATE OF)';'https://termgit.elga.gv.at/CodeSystem/iso-3166-alpha-2-code';'';'Bolivien';'';'29';'0';'L';'';'';''
'BQ';'1.0.3166.1.2.2';'BONAIRE, SINT EUSTATIUS AND SABA';'https://termgit.elga.gv.at/CodeSystem/iso-3166-alpha-2-code';'';'Bonaire, Sint Eustatius und Saba';'';'30';'0';'L';'';'';''
'BR';'1.0.3166.1.2.2';'BRAZIL';'https://termgit.elga.gv.at/CodeSystem/iso-3166-alpha-2-code';'';'Brasilien';'';'31';'0';'L';'';'';''
'BS';'1.0.3166.1.2.2';'BAHAMAS';'https://termgit.elga.gv.at/CodeSystem/iso-3166-alpha-2-code';'';'Bahamas';'';'32';'0';'L';'';'';''
'BT';'1.0.3166.1.2.2';'BHUTAN';'https://termgit.elga.gv.at/CodeSystem/iso-3166-alpha-2-code';'';'Bhutan';'';'33';'0';'L';'';'';''
'BV';'1.0.3166.1.2.2';'BOUVET ISLAND';'https://termgit.elga.gv.at/CodeSystem/iso-3166-alpha-2-code';'';'Bouvetinsel';'';'34';'0';'L';'';'';''
'BW';'1.0.3166.1.2.2';'BOTSWANA';'https://termgit.elga.gv.at/CodeSystem/iso-3166-alpha-2-code';'';'Botsuana';'';'35';'0';'L';'';'';''
'BY';'1.0.3166.1.2.2';'BELARUS';'https://termgit.elga.gv.at/CodeSystem/iso-3166-alpha-2-code';'';'Belarus';'';'36';'0';'L';'';'';''
'BZ';'1.0.3166.1.2.2';'BELIZE';'https://termgit.elga.gv.at/CodeSystem/iso-3166-alpha-2-code';'';'Belize';'';'37';'0';'L';'';'';''
'CA';'1.0.3166.1.2.2';'CANADA';'https://termgit.elga.gv.at/CodeSystem/iso-3166-alpha-2-code';'';'Kanada';'';'38';'0';'L';'';'';''
'CC';'1.0.3166.1.2.2';'COCOS (KEELING) ISLANDS';'https://termgit.elga.gv.at/CodeSystem/iso-3166-alpha-2-code';'';'Kokosinseln(Au)';'';'39';'0';'L';'';'';''
'CD';'1.0.3166.1.2.2';'CONGO, DEMOCRATIC REPUBLIC OF';'https://termgit.elga.gv.at/CodeSystem/iso-3166-alpha-2-code';'';'Kongo,Dem.Rep.(Kinshasa)';'';'40';'0';'L';'';'';''
'CF';'1.0.3166.1.2.2';'CENTRAL AFRICAN REPUBLIC';'https://termgit.elga.gv.at/CodeSystem/iso-3166-alpha-2-code';'';'Zentralafrikan.Republik';'';'41';'0';'L';'';'';''
'CG';'1.0.3166.1.2.2';'CONGO';'https://termgit.elga.gv.at/CodeSystem/iso-3166-alpha-2-code';'';'Kongo,Rep. (Brazzaville)';'';'42';'0';'L';'';'';''
'CH';'1.0.3166.1.2.2';'SWITZERLAND';'https://termgit.elga.gv.at/CodeSystem/iso-3166-alpha-2-code';'';'Schweiz';'';'43';'0';'L';'';'';''
'CI';'1.0.3166.1.2.2';'COTE D''IVOIRE';'https://termgit.elga.gv.at/CodeSystem/iso-3166-alpha-2-code';'';'Cote d''Ivoire';'';'44';'0';'L';'';'';''
'CK';'1.0.3166.1.2.2';'COOK ISLANDS';'https://termgit.elga.gv.at/CodeSystem/iso-3166-alpha-2-code';'';'Cookinseln';'';'45';'0';'L';'';'';''
'CL';'1.0.3166.1.2.2';'CHILE';'https://termgit.elga.gv.at/CodeSystem/iso-3166-alpha-2-code';'';'Chile';'';'46';'0';'L';'';'';''
'CM';'1.0.3166.1.2.2';'CAMEROON';'https://termgit.elga.gv.at/CodeSystem/iso-3166-alpha-2-code';'';'Kamerun';'';'47';'0';'L';'';'';''
'CN';'1.0.3166.1.2.2';'CHINA';'https://termgit.elga.gv.at/CodeSystem/iso-3166-alpha-2-code';'';'China';'';'48';'0';'L';'';'';''
'CO';'1.0.3166.1.2.2';'COLOMBIA';'https://termgit.elga.gv.at/CodeSystem/iso-3166-alpha-2-code';'';'Kolumbien';'';'49';'0';'L';'';'';''
'CR';'1.0.3166.1.2.2';'COSTA RICA';'https://termgit.elga.gv.at/CodeSystem/iso-3166-alpha-2-code';'';'Costa Rica';'';'50';'0';'L';'';'';''
'CU';'1.0.3166.1.2.2';'CUBA';'https://termgit.elga.gv.at/CodeSystem/iso-3166-alpha-2-code';'';'Kuba';'';'51';'0';'L';'';'';''
'CV';'1.0.3166.1.2.2';'CAPE VERDE';'https://termgit.elga.gv.at/CodeSystem/iso-3166-alpha-2-code';'';'Kap Verde';'';'52';'0';'L';'';'';''
'CW';'1.0.3166.1.2.2';'CURACAO';'https://termgit.elga.gv.at/CodeSystem/iso-3166-alpha-2-code';'';'Curacao';'';'53';'0';'L';'';'';''
'CX';'1.0.3166.1.2.2';'CHRISTMAS ISLAND';'https://termgit.elga.gv.at/CodeSystem/iso-3166-alpha-2-code';'';'Weihnachtsinsel';'';'54';'0';'L';'';'';''
'CY';'1.0.3166.1.2.2';'CYPRUS';'https://termgit.elga.gv.at/CodeSystem/iso-3166-alpha-2-code';'';'Zypern';'';'55';'0';'L';'';'';''
'CZ';'1.0.3166.1.2.2';'CZECH REPUBLIC';'https://termgit.elga.gv.at/CodeSystem/iso-3166-alpha-2-code';'';'Tschechische Republik';'';'56';'0';'L';'';'';''
'DE';'1.0.3166.1.2.2';'GERMANY';'https://termgit.elga.gv.at/CodeSystem/iso-3166-alpha-2-code';'';'Deutschland';'';'57';'0';'L';'';'';''
'DJ';'1.0.3166.1.2.2';'DJIBOUTI';'https://termgit.elga.gv.at/CodeSystem/iso-3166-alpha-2-code';'';'Dschibuti';'';'58';'0';'L';'';'';''
'DK';'1.0.3166.1.2.2';'DENMARK';'https://termgit.elga.gv.at/CodeSystem/iso-3166-alpha-2-code';'';'Dänemark';'';'59';'0';'L';'';'';''
'DM';'1.0.3166.1.2.2';'DOMINICA';'https://termgit.elga.gv.at/CodeSystem/iso-3166-alpha-2-code';'';'Dominica';'';'60';'0';'L';'';'';''
'DO';'1.0.3166.1.2.2';'DOMINICAN REPUBLIC';'https://termgit.elga.gv.at/CodeSystem/iso-3166-alpha-2-code';'';'Dominikanische Republik';'';'61';'0';'L';'';'';''
'DZ';'1.0.3166.1.2.2';'ALGERIA';'https://termgit.elga.gv.at/CodeSystem/iso-3166-alpha-2-code';'';'Algerien';'';'62';'0';'L';'';'';''
'EC';'1.0.3166.1.2.2';'ECUADOR';'https://termgit.elga.gv.at/CodeSystem/iso-3166-alpha-2-code';'';'Ecuador';'';'63';'0';'L';'';'';''
'EE';'1.0.3166.1.2.2';'ESTONIA';'https://termgit.elga.gv.at/CodeSystem/iso-3166-alpha-2-code';'';'Estland';'';'64';'0';'L';'';'';''
'EG';'1.0.3166.1.2.2';'EGYPT';'https://termgit.elga.gv.at/CodeSystem/iso-3166-alpha-2-code';'';'Ägypten';'';'65';'0';'L';'';'';''
'EH';'1.0.3166.1.2.2';'WESTERN SAHARA';'https://termgit.elga.gv.at/CodeSystem/iso-3166-alpha-2-code';'';'Westsahara';'';'66';'0';'L';'';'';''
'ER';'1.0.3166.1.2.2';'ERITREA';'https://termgit.elga.gv.at/CodeSystem/iso-3166-alpha-2-code';'';'Eritrea';'';'67';'0';'L';'';'';''
'ES';'1.0.3166.1.2.2';'SPAIN';'https://termgit.elga.gv.at/CodeSystem/iso-3166-alpha-2-code';'';'Spanien';'';'68';'0';'L';'';'';''
'ET';'1.0.3166.1.2.2';'ETHIOPIA';'https://termgit.elga.gv.at/CodeSystem/iso-3166-alpha-2-code';'';'Äthiopien';'';'69';'0';'L';'';'';''
'FI';'1.0.3166.1.2.2';'FINLAND';'https://termgit.elga.gv.at/CodeSystem/iso-3166-alpha-2-code';'';'Finnland';'';'70';'0';'L';'';'';''
'FJ';'1.0.3166.1.2.2';'FIJI';'https://termgit.elga.gv.at/CodeSystem/iso-3166-alpha-2-code';'';'Fidschi';'';'71';'0';'L';'';'';''
'FK';'1.0.3166.1.2.2';'FALKLAND ISLANDS (MALVINAS)';'https://termgit.elga.gv.at/CodeSystem/iso-3166-alpha-2-code';'';'Falklandinseln';'';'72';'0';'L';'';'';''
'FM';'1.0.3166.1.2.2';'MICRONESIA (FEDERATED STATES OF)';'https://termgit.elga.gv.at/CodeSystem/iso-3166-alpha-2-code';'';'Mikronesien,Föd.Staat.von';'';'73';'0';'L';'';'';''
'FO';'1.0.3166.1.2.2';'FAROE ISLANDS';'https://termgit.elga.gv.at/CodeSystem/iso-3166-alpha-2-code';'';'Färöer';'';'74';'0';'L';'';'';''
'FR';'1.0.3166.1.2.2';'FRANCE';'https://termgit.elga.gv.at/CodeSystem/iso-3166-alpha-2-code';'';'Frankreich';'';'75';'0';'L';'';'';''
'GA';'1.0.3166.1.2.2';'GABON';'https://termgit.elga.gv.at/CodeSystem/iso-3166-alpha-2-code';'';'Gabun';'';'76';'0';'L';'';'';''
'GB';'1.0.3166.1.2.2';'UNITED KINGDOM OF GREAT BRITAIN AND NORTHERN IRELAND';'https://termgit.elga.gv.at/CodeSystem/iso-3166-alpha-2-code';'';'Vereinigtes Königreich';'';'77';'0';'L';'';'';''
'GD';'1.0.3166.1.2.2';'GRENADA';'https://termgit.elga.gv.at/CodeSystem/iso-3166-alpha-2-code';'';'Grenada';'';'78';'0';'L';'';'';''
'GE';'1.0.3166.1.2.2';'GEORGIA';'https://termgit.elga.gv.at/CodeSystem/iso-3166-alpha-2-code';'';'Georgien';'';'79';'0';'L';'';'';''
'GF';'1.0.3166.1.2.2';'FRENCH GUIANA';'https://termgit.elga.gv.at/CodeSystem/iso-3166-alpha-2-code';'';'Franz.Guayana';'';'80';'0';'L';'';'';''
'GG';'1.0.3166.1.2.2';'GUERNSEY';'https://termgit.elga.gv.at/CodeSystem/iso-3166-alpha-2-code';'';'Guernsey (nur SV)';'';'81';'0';'L';'';'';''
'GH';'1.0.3166.1.2.2';'GHANA';'https://termgit.elga.gv.at/CodeSystem/iso-3166-alpha-2-code';'';'Ghana';'';'82';'0';'L';'';'';''
'GI';'1.0.3166.1.2.2';'GIBRALTAR';'https://termgit.elga.gv.at/CodeSystem/iso-3166-alpha-2-code';'';'Gibraltar';'';'83';'0';'L';'';'';''
'GL';'1.0.3166.1.2.2';'GREENLAND';'https://termgit.elga.gv.at/CodeSystem/iso-3166-alpha-2-code';'';'Grönland';'';'84';'0';'L';'';'';''
'GM';'1.0.3166.1.2.2';'GAMBIA';'https://termgit.elga.gv.at/CodeSystem/iso-3166-alpha-2-code';'';'Gambia';'';'85';'0';'L';'';'';''
'GN';'1.0.3166.1.2.2';'GUINEA';'https://termgit.elga.gv.at/CodeSystem/iso-3166-alpha-2-code';'';'Guinea';'';'86';'0';'L';'';'';''
'GP';'1.0.3166.1.2.2';'GUADELOUPE';'https://termgit.elga.gv.at/CodeSystem/iso-3166-alpha-2-code';'';'Guadeloupe';'';'87';'0';'L';'';'';''
'GQ';'1.0.3166.1.2.2';'EQUATORIAL GUINEA';'https://termgit.elga.gv.at/CodeSystem/iso-3166-alpha-2-code';'';'Äquatorialguinea';'';'88';'0';'L';'';'';''
'GR';'1.0.3166.1.2.2';'GREECE';'https://termgit.elga.gv.at/CodeSystem/iso-3166-alpha-2-code';'';'Griechenland';'';'89';'0';'L';'';'';''
'GS';'1.0.3166.1.2.2';'SOUTH GEORGIA AND THE SOUTH SANDWICH ISLANDS';'https://termgit.elga.gv.at/CodeSystem/iso-3166-alpha-2-code';'';'Südgeorgien und die Südlichen Sandwichinseln';'';'90';'0';'L';'';'';''
'GT';'1.0.3166.1.2.2';'GUATEMALA';'https://termgit.elga.gv.at/CodeSystem/iso-3166-alpha-2-code';'';'Guatemala';'';'91';'0';'L';'';'';''
'GU';'1.0.3166.1.2.2';'GUAM';'https://termgit.elga.gv.at/CodeSystem/iso-3166-alpha-2-code';'';'Guam';'';'92';'0';'L';'';'';''
'GW';'1.0.3166.1.2.2';'GUINEA-BISSAU';'https://termgit.elga.gv.at/CodeSystem/iso-3166-alpha-2-code';'';'Guinea-Bissau';'';'93';'0';'L';'';'';''
'GY';'1.0.3166.1.2.2';'GUYANA';'https://termgit.elga.gv.at/CodeSystem/iso-3166-alpha-2-code';'';'Guyana';'';'94';'0';'L';'';'';''
'HK';'1.0.3166.1.2.2';'HONG KONG';'https://termgit.elga.gv.at/CodeSystem/iso-3166-alpha-2-code';'';'Hongkong';'';'95';'0';'L';'';'';''
'HM';'1.0.3166.1.2.2';'HEARD ISLAND AND MCDONALD ISLANDS';'https://termgit.elga.gv.at/CodeSystem/iso-3166-alpha-2-code';'';'Heard/McDonaldi';'';'96';'0';'L';'';'';''
'HN';'1.0.3166.1.2.2';'HONDURAS';'https://termgit.elga.gv.at/CodeSystem/iso-3166-alpha-2-code';'';'Honduras';'';'97';'0';'L';'';'';''
'HR';'1.0.3166.1.2.2';'CROATIA';'https://termgit.elga.gv.at/CodeSystem/iso-3166-alpha-2-code';'';'Kroatien';'';'98';'0';'L';'';'';''
'HT';'1.0.3166.1.2.2';'HAITI';'https://termgit.elga.gv.at/CodeSystem/iso-3166-alpha-2-code';'';'Haiti';'';'99';'0';'L';'';'';''
'HU';'1.0.3166.1.2.2';'HUNGARY';'https://termgit.elga.gv.at/CodeSystem/iso-3166-alpha-2-code';'';'Ungarn';'';'100';'0';'L';'';'';''
'ID';'1.0.3166.1.2.2';'INDONESIA';'https://termgit.elga.gv.at/CodeSystem/iso-3166-alpha-2-code';'';'Indonesien';'';'101';'0';'L';'';'';''
'IE';'1.0.3166.1.2.2';'IRELAND';'https://termgit.elga.gv.at/CodeSystem/iso-3166-alpha-2-code';'';'Irland';'';'102';'0';'L';'';'';''
'IL';'1.0.3166.1.2.2';'ISRAEL';'https://termgit.elga.gv.at/CodeSystem/iso-3166-alpha-2-code';'';'Israel';'';'103';'0';'L';'';'';''
'IM';'1.0.3166.1.2.2';'ISLE OF MAN';'https://termgit.elga.gv.at/CodeSystem/iso-3166-alpha-2-code';'';'Isle of Man (nur SV)';'';'104';'0';'L';'';'';''
'IN';'1.0.3166.1.2.2';'INDIA';'https://termgit.elga.gv.at/CodeSystem/iso-3166-alpha-2-code';'';'Indien';'';'105';'0';'L';'';'';''
'IO';'1.0.3166.1.2.2';'BRITISH INDIAN OCEAN TERRITORY';'https://termgit.elga.gv.at/CodeSystem/iso-3166-alpha-2-code';'';'Br.Terr/Ind.Ozn';'';'106';'0';'L';'';'';''
'IQ';'1.0.3166.1.2.2';'IRAQ';'https://termgit.elga.gv.at/CodeSystem/iso-3166-alpha-2-code';'';'Irak';'';'107';'0';'L';'';'';''
'IR';'1.0.3166.1.2.2';'IRAN (ISLAMIC REPUBLIC OF)';'https://termgit.elga.gv.at/CodeSystem/iso-3166-alpha-2-code';'';'Iran,Islamische Republik';'';'108';'0';'L';'';'';''
'IS';'1.0.3166.1.2.2';'ICELAND';'https://termgit.elga.gv.at/CodeSystem/iso-3166-alpha-2-code';'';'Island';'';'109';'0';'L';'';'';''
'IT';'1.0.3166.1.2.2';'ITALY';'https://termgit.elga.gv.at/CodeSystem/iso-3166-alpha-2-code';'';'Italien';'';'110';'0';'L';'';'';''
'JE';'1.0.3166.1.2.2';'JERSEY';'https://termgit.elga.gv.at/CodeSystem/iso-3166-alpha-2-code';'';'Jersey (nur SV)';'';'111';'0';'L';'';'';''
'JM';'1.0.3166.1.2.2';'JAMAICA';'https://termgit.elga.gv.at/CodeSystem/iso-3166-alpha-2-code';'';'Jamaika';'';'112';'0';'L';'';'';''
'JO';'1.0.3166.1.2.2';'JORDAN';'https://termgit.elga.gv.at/CodeSystem/iso-3166-alpha-2-code';'';'Jordanien';'';'113';'0';'L';'';'';''
'JP';'1.0.3166.1.2.2';'JAPAN';'https://termgit.elga.gv.at/CodeSystem/iso-3166-alpha-2-code';'';'Japan';'';'114';'0';'L';'';'';''
'KE';'1.0.3166.1.2.2';'KENYA';'https://termgit.elga.gv.at/CodeSystem/iso-3166-alpha-2-code';'';'Kenia';'';'115';'0';'L';'';'';''
'KG';'1.0.3166.1.2.2';'KYRGYZSTAN';'https://termgit.elga.gv.at/CodeSystem/iso-3166-alpha-2-code';'';'Kirgisistan';'';'116';'0';'L';'';'';''
'KH';'1.0.3166.1.2.2';'CAMBODIA';'https://termgit.elga.gv.at/CodeSystem/iso-3166-alpha-2-code';'';'Kambodscha';'';'117';'0';'L';'';'';''
'KI';'1.0.3166.1.2.2';'KIRIBATI';'https://termgit.elga.gv.at/CodeSystem/iso-3166-alpha-2-code';'';'Kiribati';'';'118';'0';'L';'';'';''
'KM';'1.0.3166.1.2.2';'COMOROS';'https://termgit.elga.gv.at/CodeSystem/iso-3166-alpha-2-code';'';'Komoren';'';'119';'0';'L';'';'';''
'KN';'1.0.3166.1.2.2';'SAINT KITTS AND NEVIS';'https://termgit.elga.gv.at/CodeSystem/iso-3166-alpha-2-code';'';'St.Kitts und Nevis';'';'120';'0';'L';'';'';''
'KP';'1.0.3166.1.2.2';'KOREA (DEMOCRATIC PEOPLE''S REPUBLIC OF)';'https://termgit.elga.gv.at/CodeSystem/iso-3166-alpha-2-code';'';'Korea,Dem.Volksrepublik';'';'121';'0';'L';'';'';''
'KR';'1.0.3166.1.2.2';'KOREA, REPUBLIC OF';'https://termgit.elga.gv.at/CodeSystem/iso-3166-alpha-2-code';'';'Korea,Republik';'';'122';'0';'L';'';'';''
'KW';'1.0.3166.1.2.2';'KUWAIT';'https://termgit.elga.gv.at/CodeSystem/iso-3166-alpha-2-code';'';'Kuwait';'';'123';'0';'L';'';'';''
'KY';'1.0.3166.1.2.2';'CAYMAN ISLANDS';'https://termgit.elga.gv.at/CodeSystem/iso-3166-alpha-2-code';'';'Kaimaninseln';'';'124';'0';'L';'';'';''
'KZ';'1.0.3166.1.2.2';'KAZAKHSTAN';'https://termgit.elga.gv.at/CodeSystem/iso-3166-alpha-2-code';'';'Kasachstan';'';'125';'0';'L';'';'';''
'LA';'1.0.3166.1.2.2';'LAO PEOPLE''S DEMOCRATIC REPUBLIC';'https://termgit.elga.gv.at/CodeSystem/iso-3166-alpha-2-code';'';'Laos,Demokr.Volksrepublik';'';'126';'0';'L';'';'';''
'LB';'1.0.3166.1.2.2';'LEBANON';'https://termgit.elga.gv.at/CodeSystem/iso-3166-alpha-2-code';'';'Libanon';'';'127';'0';'L';'';'';''
'LC';'1.0.3166.1.2.2';'SAINT LUCIA';'https://termgit.elga.gv.at/CodeSystem/iso-3166-alpha-2-code';'';'St.Lucia';'';'128';'0';'L';'';'';''
'LI';'1.0.3166.1.2.2';'LIECHTENSTEIN';'https://termgit.elga.gv.at/CodeSystem/iso-3166-alpha-2-code';'';'Liechtenstein';'';'129';'0';'L';'';'';''
'LK';'1.0.3166.1.2.2';'SRI LANKA';'https://termgit.elga.gv.at/CodeSystem/iso-3166-alpha-2-code';'';'Sri Lanka';'';'130';'0';'L';'';'';''
'LR';'1.0.3166.1.2.2';'LIBERIA';'https://termgit.elga.gv.at/CodeSystem/iso-3166-alpha-2-code';'';'Liberia';'';'131';'0';'L';'';'';''
'LS';'1.0.3166.1.2.2';'LESOTHO';'https://termgit.elga.gv.at/CodeSystem/iso-3166-alpha-2-code';'';'Lesotho';'';'132';'0';'L';'';'';''
'LT';'1.0.3166.1.2.2';'LITHUANIA';'https://termgit.elga.gv.at/CodeSystem/iso-3166-alpha-2-code';'';'Litauen';'';'133';'0';'L';'';'';''
'LU';'1.0.3166.1.2.2';'LUXEMBOURG';'https://termgit.elga.gv.at/CodeSystem/iso-3166-alpha-2-code';'';'Luxemburg';'';'134';'0';'L';'';'';''
'LV';'1.0.3166.1.2.2';'LATVIA';'https://termgit.elga.gv.at/CodeSystem/iso-3166-alpha-2-code';'';'Lettland';'';'135';'0';'L';'';'';''
'LY';'1.0.3166.1.2.2';'LIBYA';'https://termgit.elga.gv.at/CodeSystem/iso-3166-alpha-2-code';'';'Libysch-Arab.Dschamahir.';'';'136';'0';'L';'';'';''
'MA';'1.0.3166.1.2.2';'MOROCCO';'https://termgit.elga.gv.at/CodeSystem/iso-3166-alpha-2-code';'';'Marokko';'';'137';'0';'L';'';'';''
'MC';'1.0.3166.1.2.2';'MONACO';'https://termgit.elga.gv.at/CodeSystem/iso-3166-alpha-2-code';'';'Monaco';'';'138';'0';'L';'';'';''
'MD';'1.0.3166.1.2.2';'MOLDOVA, REPUBLIC OF';'https://termgit.elga.gv.at/CodeSystem/iso-3166-alpha-2-code';'';'Moldau';'';'139';'0';'L';'';'';''
'ME';'1.0.3166.1.2.2';'MONTENEGRO';'https://termgit.elga.gv.at/CodeSystem/iso-3166-alpha-2-code';'';'Montenegro';'';'140';'0';'L';'';'';''
'MF';'1.0.3166.1.2.2';'SAINT MARTIN (FRENCH PART)';'https://termgit.elga.gv.at/CodeSystem/iso-3166-alpha-2-code';'';'St. Martin';'';'141';'0';'L';'';'';''
'MG';'1.0.3166.1.2.2';'MADAGASCAR';'https://termgit.elga.gv.at/CodeSystem/iso-3166-alpha-2-code';'';'Madagaskar';'';'142';'0';'L';'';'';''
'MH';'1.0.3166.1.2.2';'MARSHALL ISLANDS';'https://termgit.elga.gv.at/CodeSystem/iso-3166-alpha-2-code';'';'Marshallinseln';'';'143';'0';'L';'';'';''
'MK';'1.0.3166.1.2.2';'MACEDONIA, THE FORMER YUGOSLAV REPUBLIC OF';'https://termgit.elga.gv.at/CodeSystem/iso-3166-alpha-2-code';'';'Mazedonien,ehem.jug.Rep.';'';'144';'0';'L';'';'';''
'ML';'1.0.3166.1.2.2';'MALI';'https://termgit.elga.gv.at/CodeSystem/iso-3166-alpha-2-code';'';'Mali';'';'145';'0';'L';'';'';''
'MM';'1.0.3166.1.2.2';'MYANMAR';'https://termgit.elga.gv.at/CodeSystem/iso-3166-alpha-2-code';'';'Myanmar (früher:Birma)';'';'146';'0';'L';'';'';''
'MN';'1.0.3166.1.2.2';'MONGOLIA';'https://termgit.elga.gv.at/CodeSystem/iso-3166-alpha-2-code';'';'Mongolei';'';'147';'0';'L';'';'';''
'MO';'1.0.3166.1.2.2';'MACAO';'https://termgit.elga.gv.at/CodeSystem/iso-3166-alpha-2-code';'';'Macau';'';'148';'0';'L';'';'';''
'MP';'1.0.3166.1.2.2';'NORTHERN MARIANA ISLANDS';'https://termgit.elga.gv.at/CodeSystem/iso-3166-alpha-2-code';'';'Marianen,Nördl.';'';'149';'0';'L';'';'';''
'MQ';'1.0.3166.1.2.2';'MARTINIQUE';'https://termgit.elga.gv.at/CodeSystem/iso-3166-alpha-2-code';'';'Martinique';'';'150';'0';'L';'';'';''
'MR';'1.0.3166.1.2.2';'MAURITANIA';'https://termgit.elga.gv.at/CodeSystem/iso-3166-alpha-2-code';'';'Mauretanien';'';'151';'0';'L';'';'';''
'MS';'1.0.3166.1.2.2';'MONTSERRAT';'https://termgit.elga.gv.at/CodeSystem/iso-3166-alpha-2-code';'';'Montserrat';'';'152';'0';'L';'';'';''
'MT';'1.0.3166.1.2.2';'MALTA';'https://termgit.elga.gv.at/CodeSystem/iso-3166-alpha-2-code';'';'Malta';'';'153';'0';'L';'';'';''
'MU';'1.0.3166.1.2.2';'MAURITIUS';'https://termgit.elga.gv.at/CodeSystem/iso-3166-alpha-2-code';'';'Mauritius';'';'154';'0';'L';'';'';''
'MV';'1.0.3166.1.2.2';'MALDIVES';'https://termgit.elga.gv.at/CodeSystem/iso-3166-alpha-2-code';'';'Malediven';'';'155';'0';'L';'';'';''
'MW';'1.0.3166.1.2.2';'MALAWI';'https://termgit.elga.gv.at/CodeSystem/iso-3166-alpha-2-code';'';'Malawi';'';'156';'0';'L';'';'';''
'MX';'1.0.3166.1.2.2';'MEXICO';'https://termgit.elga.gv.at/CodeSystem/iso-3166-alpha-2-code';'';'Mexiko';'';'157';'0';'L';'';'';''
'MY';'1.0.3166.1.2.2';'MALAYSIA';'https://termgit.elga.gv.at/CodeSystem/iso-3166-alpha-2-code';'';'Malaysia';'';'158';'0';'L';'';'';''
'MZ';'1.0.3166.1.2.2';'MOZAMBIQUE';'https://termgit.elga.gv.at/CodeSystem/iso-3166-alpha-2-code';'';'Mosambik';'';'159';'0';'L';'';'';''
'NA';'1.0.3166.1.2.2';'NAMIBIA';'https://termgit.elga.gv.at/CodeSystem/iso-3166-alpha-2-code';'';'Namibia';'';'160';'0';'L';'';'';''
'NC';'1.0.3166.1.2.2';'NEW CALEDONIA';'https://termgit.elga.gv.at/CodeSystem/iso-3166-alpha-2-code';'';'Neukaledonien';'';'161';'0';'L';'';'';''
'NE';'1.0.3166.1.2.2';'NIGER';'https://termgit.elga.gv.at/CodeSystem/iso-3166-alpha-2-code';'';'Niger';'';'162';'0';'L';'';'';''
'NF';'1.0.3166.1.2.2';'NORFOLK ISLAND';'https://termgit.elga.gv.at/CodeSystem/iso-3166-alpha-2-code';'';'Norfolkinsel';'';'163';'0';'L';'';'';''
'NG';'1.0.3166.1.2.2';'NIGERIA';'https://termgit.elga.gv.at/CodeSystem/iso-3166-alpha-2-code';'';'Nigeria';'';'164';'0';'L';'';'';''
'NI';'1.0.3166.1.2.2';'NICARAGUA';'https://termgit.elga.gv.at/CodeSystem/iso-3166-alpha-2-code';'';'Nicaragua';'';'165';'0';'L';'';'';''
'NL';'1.0.3166.1.2.2';'NETHERLANDS';'https://termgit.elga.gv.at/CodeSystem/iso-3166-alpha-2-code';'';'Niederlande';'';'166';'0';'L';'';'';''
'NO';'1.0.3166.1.2.2';'NORWAY';'https://termgit.elga.gv.at/CodeSystem/iso-3166-alpha-2-code';'';'Norwegen';'';'167';'0';'L';'';'';''
'NP';'1.0.3166.1.2.2';'NEPAL';'https://termgit.elga.gv.at/CodeSystem/iso-3166-alpha-2-code';'';'Nepal';'';'168';'0';'L';'';'';''
'NR';'1.0.3166.1.2.2';'NAURU';'https://termgit.elga.gv.at/CodeSystem/iso-3166-alpha-2-code';'';'Nauru';'';'169';'0';'L';'';'';''
'NU';'1.0.3166.1.2.2';'NIUE';'https://termgit.elga.gv.at/CodeSystem/iso-3166-alpha-2-code';'';'Niue';'';'170';'0';'L';'';'';''
'NZ';'1.0.3166.1.2.2';'NEW ZEALAND';'https://termgit.elga.gv.at/CodeSystem/iso-3166-alpha-2-code';'';'Neuseeland';'';'171';'0';'L';'';'';''
'OM';'1.0.3166.1.2.2';'OMAN';'https://termgit.elga.gv.at/CodeSystem/iso-3166-alpha-2-code';'';'Oman';'';'172';'0';'L';'';'';''
'PA';'1.0.3166.1.2.2';'PANAMA';'https://termgit.elga.gv.at/CodeSystem/iso-3166-alpha-2-code';'';'Panama';'';'173';'0';'L';'';'';''
'PE';'1.0.3166.1.2.2';'PERU';'https://termgit.elga.gv.at/CodeSystem/iso-3166-alpha-2-code';'';'Peru';'';'174';'0';'L';'';'';''
'PF';'1.0.3166.1.2.2';'FRENCH POLYNESIA';'https://termgit.elga.gv.at/CodeSystem/iso-3166-alpha-2-code';'';'Franz.Polynesien';'';'175';'0';'L';'';'';''
'PG';'1.0.3166.1.2.2';'PAPUA NEW GUINEA';'https://termgit.elga.gv.at/CodeSystem/iso-3166-alpha-2-code';'';'Papua-Neuguinea';'';'176';'0';'L';'';'';''
'PH';'1.0.3166.1.2.2';'PHILIPPINES';'https://termgit.elga.gv.at/CodeSystem/iso-3166-alpha-2-code';'';'Philippinen';'';'177';'0';'L';'';'';''
'PK';'1.0.3166.1.2.2';'PAKISTAN';'https://termgit.elga.gv.at/CodeSystem/iso-3166-alpha-2-code';'';'Pakistan';'';'178';'0';'L';'';'';''
'PL';'1.0.3166.1.2.2';'POLAND';'https://termgit.elga.gv.at/CodeSystem/iso-3166-alpha-2-code';'';'Polen';'';'179';'0';'L';'';'';''
'PM';'1.0.3166.1.2.2';'SAINT PIERRE AND MIQUELON';'https://termgit.elga.gv.at/CodeSystem/iso-3166-alpha-2-code';'';'St.Pierre/Miquel';'';'180';'0';'L';'';'';''
'PN';'1.0.3166.1.2.2';'PITCAIRN';'https://termgit.elga.gv.at/CodeSystem/iso-3166-alpha-2-code';'';'Pitcairninseln';'';'181';'0';'L';'';'';''
'PR';'1.0.3166.1.2.2';'PUERTO RICO';'https://termgit.elga.gv.at/CodeSystem/iso-3166-alpha-2-code';'';'Puerto Rico';'';'182';'0';'L';'';'';''
'PS';'1.0.3166.1.2.2';'PALESTINE, STATE OF';'https://termgit.elga.gv.at/CodeSystem/iso-3166-alpha-2-code';'';'Paläst/Wjld-Gaza';'';'183';'0';'L';'';'';''
'PT';'1.0.3166.1.2.2';'PORTUGAL';'https://termgit.elga.gv.at/CodeSystem/iso-3166-alpha-2-code';'';'Portugal';'';'184';'0';'L';'';'';''
'PW';'1.0.3166.1.2.2';'PALAU';'https://termgit.elga.gv.at/CodeSystem/iso-3166-alpha-2-code';'';'Palau';'';'185';'0';'L';'';'';''
'PY';'1.0.3166.1.2.2';'PARAGUAY';'https://termgit.elga.gv.at/CodeSystem/iso-3166-alpha-2-code';'';'Paraguay';'';'186';'0';'L';'';'';''
'QA';'1.0.3166.1.2.2';'QATAR';'https://termgit.elga.gv.at/CodeSystem/iso-3166-alpha-2-code';'';'Katar';'';'187';'0';'L';'';'';''
'RE';'1.0.3166.1.2.2';'REUNION';'https://termgit.elga.gv.at/CodeSystem/iso-3166-alpha-2-code';'';'Reunion';'';'188';'0';'L';'';'';''
'RO';'1.0.3166.1.2.2';'ROMANIA';'https://termgit.elga.gv.at/CodeSystem/iso-3166-alpha-2-code';'';'Rumänien';'';'189';'0';'L';'';'';''
'RS';'1.0.3166.1.2.2';'SERBIA';'https://termgit.elga.gv.at/CodeSystem/iso-3166-alpha-2-code';'';'Serbien';'';'190';'0';'L';'';'';''
'RU';'1.0.3166.1.2.2';'RUSSIAN FEDERATION';'https://termgit.elga.gv.at/CodeSystem/iso-3166-alpha-2-code';'';'Russische Föderation';'';'191';'0';'L';'';'';''
'RW';'1.0.3166.1.2.2';'RWANDA';'https://termgit.elga.gv.at/CodeSystem/iso-3166-alpha-2-code';'';'Ruanda';'';'192';'0';'L';'';'';''
'SA';'1.0.3166.1.2.2';'SAUDI ARABIA';'https://termgit.elga.gv.at/CodeSystem/iso-3166-alpha-2-code';'';'Saudi-Arabien';'';'193';'0';'L';'';'';''
'SB';'1.0.3166.1.2.2';'SOLOMON ISLANDS';'https://termgit.elga.gv.at/CodeSystem/iso-3166-alpha-2-code';'';'Salomonen';'';'194';'0';'L';'';'';''
'SC';'1.0.3166.1.2.2';'SEYCHELLES';'https://termgit.elga.gv.at/CodeSystem/iso-3166-alpha-2-code';'';'Seychellen';'';'195';'0';'L';'';'';''
'SD';'1.0.3166.1.2.2';'SUDAN';'https://termgit.elga.gv.at/CodeSystem/iso-3166-alpha-2-code';'';'Sudan';'';'196';'0';'L';'';'';''
'SE';'1.0.3166.1.2.2';'SWEDEN';'https://termgit.elga.gv.at/CodeSystem/iso-3166-alpha-2-code';'';'Schweden';'';'197';'0';'L';'';'';''
'SG';'1.0.3166.1.2.2';'SINGAPORE';'https://termgit.elga.gv.at/CodeSystem/iso-3166-alpha-2-code';'';'Singapur';'';'198';'0';'L';'';'';''
'SH';'1.0.3166.1.2.2';'SAINT HELENA, ASCENSION AND TRISTAN DA CUNHA';'https://termgit.elga.gv.at/CodeSystem/iso-3166-alpha-2-code';'';'Sankt Helena';'';'199';'0';'L';'';'';''
'SI';'1.0.3166.1.2.2';'SLOVENIA';'https://termgit.elga.gv.at/CodeSystem/iso-3166-alpha-2-code';'';'Slowenien';'';'200';'0';'L';'';'';''
'SJ';'1.0.3166.1.2.2';'SVALBARD AND JAN MAYEN';'https://termgit.elga.gv.at/CodeSystem/iso-3166-alpha-2-code';'';'Svalbard/JanMay';'';'201';'0';'L';'';'';''
'SK';'1.0.3166.1.2.2';'SLOVAKIA';'https://termgit.elga.gv.at/CodeSystem/iso-3166-alpha-2-code';'';'Slowakei';'';'202';'0';'L';'';'';''
'SL';'1.0.3166.1.2.2';'SIERRA LEONE';'https://termgit.elga.gv.at/CodeSystem/iso-3166-alpha-2-code';'';'Sierra Leone';'';'203';'0';'L';'';'';''
'SM';'1.0.3166.1.2.2';'SAN MARINO';'https://termgit.elga.gv.at/CodeSystem/iso-3166-alpha-2-code';'';'San Marino';'';'204';'0';'L';'';'';''
'SN';'1.0.3166.1.2.2';'SENEGAL';'https://termgit.elga.gv.at/CodeSystem/iso-3166-alpha-2-code';'';'Senegal';'';'205';'0';'L';'';'';''
'SO';'1.0.3166.1.2.2';'SOMALIA';'https://termgit.elga.gv.at/CodeSystem/iso-3166-alpha-2-code';'';'Somalia';'';'206';'0';'L';'';'';''
'SR';'1.0.3166.1.2.2';'SURINAME';'https://termgit.elga.gv.at/CodeSystem/iso-3166-alpha-2-code';'';'Suriname';'';'207';'0';'L';'';'';''
'SS';'1.0.3166.1.2.2';'SOUTH SUDAN';'https://termgit.elga.gv.at/CodeSystem/iso-3166-alpha-2-code';'';'Südsudan';'';'208';'0';'L';'';'';''
'ST';'1.0.3166.1.2.2';'SAO TOME AND PRINCIPE';'https://termgit.elga.gv.at/CodeSystem/iso-3166-alpha-2-code';'';'Sao Tome und Principe';'';'209';'0';'L';'';'';''
'SV';'1.0.3166.1.2.2';'EL SALVADOR';'https://termgit.elga.gv.at/CodeSystem/iso-3166-alpha-2-code';'';'El Salvador';'';'210';'0';'L';'';'';''
'SX';'1.0.3166.1.2.2';'SINT MAARTEN (DUTCH PART)';'https://termgit.elga.gv.at/CodeSystem/iso-3166-alpha-2-code';'';'Sint Maarten';'';'211';'0';'L';'';'';''
'SY';'1.0.3166.1.2.2';'SYRIAN ARAB REPUBLIC';'https://termgit.elga.gv.at/CodeSystem/iso-3166-alpha-2-code';'';'Syrien,Arabische Republik';'';'212';'0';'L';'';'';''
'SZ';'1.0.3166.1.2.2';'SWAZILAND';'https://termgit.elga.gv.at/CodeSystem/iso-3166-alpha-2-code';'';'Swasiland';'';'213';'0';'L';'';'';''
'TC';'1.0.3166.1.2.2';'TURKS AND CAICOS ISLANDS';'https://termgit.elga.gv.at/CodeSystem/iso-3166-alpha-2-code';'';'Turks/Caicosin';'';'214';'0';'L';'';'';''
'TD';'1.0.3166.1.2.2';'CHAD';'https://termgit.elga.gv.at/CodeSystem/iso-3166-alpha-2-code';'';'Tschad';'';'215';'0';'L';'';'';''
'TF';'1.0.3166.1.2.2';'FRENCH SOUTHERN TERRITORIES';'https://termgit.elga.gv.at/CodeSystem/iso-3166-alpha-2-code';'';'Fr.Südgebiete';'';'216';'0';'L';'';'';''
'TG';'1.0.3166.1.2.2';'TOGO';'https://termgit.elga.gv.at/CodeSystem/iso-3166-alpha-2-code';'';'Togo';'';'217';'0';'L';'';'';''
'TH';'1.0.3166.1.2.2';'THAILAND';'https://termgit.elga.gv.at/CodeSystem/iso-3166-alpha-2-code';'';'Thailand';'';'218';'0';'L';'';'';''
'TJ';'1.0.3166.1.2.2';'TAJIKISTAN';'https://termgit.elga.gv.at/CodeSystem/iso-3166-alpha-2-code';'';'Tadschikistan';'';'219';'0';'L';'';'';''
'TK';'1.0.3166.1.2.2';'TOKELAU';'https://termgit.elga.gv.at/CodeSystem/iso-3166-alpha-2-code';'';'Tokelau';'';'220';'0';'L';'';'';''
'TL';'1.0.3166.1.2.2';'TIMOR-LESTE';'https://termgit.elga.gv.at/CodeSystem/iso-3166-alpha-2-code';'';'Timor-Leste';'';'221';'0';'L';'';'';''
'TM';'1.0.3166.1.2.2';'TURKMENISTAN';'https://termgit.elga.gv.at/CodeSystem/iso-3166-alpha-2-code';'';'Turkmenistan';'';'222';'0';'L';'';'';''
'TN';'1.0.3166.1.2.2';'TUNISIA';'https://termgit.elga.gv.at/CodeSystem/iso-3166-alpha-2-code';'';'Tunesien';'';'223';'0';'L';'';'';''
'TO';'1.0.3166.1.2.2';'TONGA';'https://termgit.elga.gv.at/CodeSystem/iso-3166-alpha-2-code';'';'Tonga';'';'224';'0';'L';'';'';''
'TR';'1.0.3166.1.2.2';'TURKEY';'https://termgit.elga.gv.at/CodeSystem/iso-3166-alpha-2-code';'';'Türkei';'';'225';'0';'L';'';'';''
'TT';'1.0.3166.1.2.2';'TRINIDAD AND TOBAGO';'https://termgit.elga.gv.at/CodeSystem/iso-3166-alpha-2-code';'';'Trinidad und Tobago';'';'226';'0';'L';'';'';''
'TV';'1.0.3166.1.2.2';'TUVALU';'https://termgit.elga.gv.at/CodeSystem/iso-3166-alpha-2-code';'';'Tuvalu';'';'227';'0';'L';'';'';''
'TW';'1.0.3166.1.2.2';'TAIWAN, PROVINCE OF CHINA';'https://termgit.elga.gv.at/CodeSystem/iso-3166-alpha-2-code';'';'Taiwan';'';'228';'0';'L';'';'';''
'TZ';'1.0.3166.1.2.2';'TANZANIA, UNITED REPUBLIC OF';'https://termgit.elga.gv.at/CodeSystem/iso-3166-alpha-2-code';'';'Tansania,Vereinigte Rep.';'';'229';'0';'L';'';'';''
'UA';'1.0.3166.1.2.2';'UKRAINE';'https://termgit.elga.gv.at/CodeSystem/iso-3166-alpha-2-code';'';'Ukraine';'';'230';'0';'L';'';'';''
'UG';'1.0.3166.1.2.2';'UGANDA';'https://termgit.elga.gv.at/CodeSystem/iso-3166-alpha-2-code';'';'Uganda';'';'231';'0';'L';'';'';''
'UM';'1.0.3166.1.2.2';'UNITED STATES MINOR OUTLYING ISLANDS';'https://termgit.elga.gv.at/CodeSystem/iso-3166-alpha-2-code';'';'Amerik.Ozeanien';'';'232';'0';'L';'';'';''
'US';'1.0.3166.1.2.2';'UNITED STATES OF AMERICA';'https://termgit.elga.gv.at/CodeSystem/iso-3166-alpha-2-code';'';'Vereinigte Staaten';'';'233';'0';'L';'';'';''
'UY';'1.0.3166.1.2.2';'URUGUAY';'https://termgit.elga.gv.at/CodeSystem/iso-3166-alpha-2-code';'';'Uruguay';'';'234';'0';'L';'';'';''
'UZ';'1.0.3166.1.2.2';'UZBEKISTAN';'https://termgit.elga.gv.at/CodeSystem/iso-3166-alpha-2-code';'';'Usbekistan';'';'235';'0';'L';'';'';''
'VA';'1.0.3166.1.2.2';'HOLY SEE';'https://termgit.elga.gv.at/CodeSystem/iso-3166-alpha-2-code';'';'Vatikanstadt';'';'236';'0';'L';'';'';''
'VC';'1.0.3166.1.2.2';'SAINT VINCENT AND THE GRENADINES';'https://termgit.elga.gv.at/CodeSystem/iso-3166-alpha-2-code';'';'St.Vincent u.d.Grenadinen';'';'237';'0';'L';'';'';''
'VE';'1.0.3166.1.2.2';'VENEZUELA (BOLIVARIAN REPUBLIC OF)';'https://termgit.elga.gv.at/CodeSystem/iso-3166-alpha-2-code';'';'Venezuela';'';'238';'0';'L';'';'';''
'VG';'1.0.3166.1.2.2';'VIRGIN ISLANDS, BRITISH';'https://termgit.elga.gv.at/CodeSystem/iso-3166-alpha-2-code';'';'Br.Jungfernin.';'';'239';'0';'L';'';'';''
'VI';'1.0.3166.1.2.2';'VIRGIN ISLANDS, U.S.';'https://termgit.elga.gv.at/CodeSystem/iso-3166-alpha-2-code';'';'Am.Jungfernin.';'';'240';'0';'L';'';'';''
'VN';'1.0.3166.1.2.2';'VIET NAM';'https://termgit.elga.gv.at/CodeSystem/iso-3166-alpha-2-code';'';'Vietnam';'';'241';'0';'L';'';'';''
'VU';'1.0.3166.1.2.2';'VANUATU';'https://termgit.elga.gv.at/CodeSystem/iso-3166-alpha-2-code';'';'Vanuatu';'';'242';'0';'L';'';'';''
'WF';'1.0.3166.1.2.2';'WALLIS AND FUTUNA';'https://termgit.elga.gv.at/CodeSystem/iso-3166-alpha-2-code';'';'Wallis/Futuna';'';'243';'0';'L';'';'';''
'WS';'1.0.3166.1.2.2';'SAMOA';'https://termgit.elga.gv.at/CodeSystem/iso-3166-alpha-2-code';'';'Samoa';'';'244';'0';'L';'';'';''
'YE';'1.0.3166.1.2.2';'YEMEN';'https://termgit.elga.gv.at/CodeSystem/iso-3166-alpha-2-code';'';'Jemen';'';'245';'0';'L';'';'';''
'YT';'1.0.3166.1.2.2';'MAYOTTE';'https://termgit.elga.gv.at/CodeSystem/iso-3166-alpha-2-code';'';'Mayotte';'';'246';'0';'L';'';'';''
'ZA';'1.0.3166.1.2.2';'SOUTH AFRICA';'https://termgit.elga.gv.at/CodeSystem/iso-3166-alpha-2-code';'';'Südafrika';'';'247';'0';'L';'';'';''
'ZM';'1.0.3166.1.2.2';'ZAMBIA';'https://termgit.elga.gv.at/CodeSystem/iso-3166-alpha-2-code';'';'Sambia';'';'248';'0';'L';'';'';''
'ZW';'1.0.3166.1.2.2';'ZIMBABWE';'https://termgit.elga.gv.at/CodeSystem/iso-3166-alpha-2-code';'';'Simbabwe';'';'249';'0';'L';'';'';''
