'code';'codeSystem';'displayName';'parentCodeSystemName';'concept_Beschreibung';'meaning';'hints';'orderNumber';'level';'type';'relationships';'einheit print';'einheit codiert'
'AC';'2.16.840.1.113883.18.108';'Accreditation/Certification Identifier';'http://terminology.hl7.org/CodeSystem/v2-0203';'Identifier that has been assigned by an accreditation or certification organization in specific fields, indicating a recognized skill';'Akkreditierungs-/ Zertifizierungs-Identifikator';'';'1';'0';'L';'';'';''
'ACSN';'2.16.840.1.113883.18.108';'Accession ID';'http://terminology.hl7.org/CodeSystem/v2-0203';'Accession Identifier';'';'';'2';'0';'L';'';'';''
'AIN';'2.16.840.1.113883.18.108';'Animal Identification Number (US Official)';'http://terminology.hl7.org/CodeSystem/v2-0203';'A numbering system for the official identification of individual animals in the United States that provides a nationally unique identification number for each animal. The first two numbers on a tag are the numbers assigned to a specific State.';'';'';'3';'0';'L';'';'';''
'AM';'2.16.840.1.113883.18.108';'American Express';'http://terminology.hl7.org/CodeSystem/v2-0203';'American Express';'American Express';'';'4';'0';'L';'';'';''
'AMA';'2.16.840.1.113883.18.108';'American Medical Association Number';'http://terminology.hl7.org/CodeSystem/v2-0203';'A physician identifier assigned by the AMA.';'';'';'5';'0';'L';'';'';''
'AN';'2.16.840.1.113883.18.108';'Account number';'http://terminology.hl7.org/CodeSystem/v2-0203';'Account An identifier that is unique to an account.';'Kontonummer';'';'6';'0';'L';'';'';''
'ANC';'2.16.840.1.113883.18.108';'Account number Creditor';'http://terminology.hl7.org/CodeSystem/v2-0203';'A more precise definition of an account number';'Kreditor-Kontonummer';'';'7';'0';'L';'';'';''
'AND';'2.16.840.1.113883.18.108';'Account number debitor';'http://terminology.hl7.org/CodeSystem/v2-0203';'A more precise definition of an account number';'Debitor-Kontonummer';'';'8';'0';'L';'';'';''
'ANON';'2.16.840.1.113883.18.108';'Anonymous identifier';'http://terminology.hl7.org/CodeSystem/v2-0203';'An identifier for a living subject whose real identity is protected or suppressed';'Anonym-Identifikator';'';'9';'0';'L';'';'';''
'ANT';'2.16.840.1.113883.18.108';'Temporary Account Number';'http://terminology.hl7.org/CodeSystem/v2-0203';'Temporary version of an Account Number';'Vorübergehende Kontonummer';'';'10';'0';'L';'';'';''
'APRN';'2.16.840.1.113883.18.108';'Advanced Practice Registered Nurse number';'http://terminology.hl7.org/CodeSystem/v2-0203';'An identifier that is unique to an advanced practice registered nurse within the jurisdiction of a certifying board';'';'';'11';'0';'L';'';'';''
'ASID';'2.16.840.1.113883.18.108';'Ancestor Specimen ID';'http://terminology.hl7.org/CodeSystem/v2-0203';'A unique identifier for the ancestor specimen.';'Primärprobennummer';'';'12';'0';'L';'';'';''
'BA';'2.16.840.1.113883.18.108';'Bank Account Number';'http://terminology.hl7.org/CodeSystem/v2-0203';'Bank Account Number';'Bankkonto-Nummer';'';'13';'0';'L';'';'';''
'BC';'2.16.840.1.113883.18.108';'Bank Card Number';'http://terminology.hl7.org/CodeSystem/v2-0203';'An identifier that is unique to a person''s bank card';'Bankkarten-Nummer';'';'14';'0';'L';'';'';''
'BCFN';'2.16.840.1.113883.18.108';'Birth Certificate File Number';'http://terminology.hl7.org/CodeSystem/v2-0203';'The identifier used within the jurisdictional vital records office file system as an auxiliary means of accessing the record associated with the birth certificate.';'';'';'15';'0';'L';'';'';''
'BCT';'2.16.840.1.113883.18.108';'Birth Certificate';'http://terminology.hl7.org/CodeSystem/v2-0203';'A number associated with a document identifying the event of a person''s birth';'Geburtsurkunden-Zahl';'';'16';'0';'L';'';'';''
'BR';'2.16.840.1.113883.18.108';'Birth registry number';'http://terminology.hl7.org/CodeSystem/v2-0203';'An identifier unique within the Assigning Authority that is the official legal record of a person''s birth.';'Geburtsregisternummer';'';'17';'0';'L';'';'';''
'BRN';'2.16.840.1.113883.18.108';'Breed Registry Number';'http://terminology.hl7.org/CodeSystem/v2-0203';'Breed Registry Number';'Zuchtbuchnummer';'';'18';'0';'L';'';'';''
'BSNR';'2.16.840.1.113883.18.108';'Primary physician office number';'http://terminology.hl7.org/CodeSystem/v2-0203';'Primary physician office number';'';'';'19';'0';'L';'';'';''
'CAAI';'2.16.840.1.113883.18.108';'Consumer Application Account Identifier';'http://terminology.hl7.org/CodeSystem/v2-0203';'An identifier for the consumer (e.g., patient, caregiver) for an application such as a portal or App.';'Kundenkonto-Identifikator';'';'20';'0';'L';'';'';''
'CC';'2.16.840.1.113883.18.108';'Cost Center number';'http://terminology.hl7.org/CodeSystem/v2-0203';'Cost Center number';'Kostenstellennummer';'';'21';'0';'L';'';'';''
'CONM';'2.16.840.1.113883.18.108';'Change of Name Document';'http://terminology.hl7.org/CodeSystem/v2-0203';'A number associated with a document identifying a person''s legal change of name.';'';'';'22';'0';'L';'';'';''
'CY';'2.16.840.1.113883.18.108';'County number';'http://terminology.hl7.org/CodeSystem/v2-0203';'County number';'Katastralgemeindenummer';'';'23';'0';'L';'';'';''
'CZ';'2.16.840.1.113883.18.108';'Citizenship Card';'http://terminology.hl7.org/CodeSystem/v2-0203';'A number assigned by a person''s country of residence to identify a person''s citizenship.';'';'';'24';'0';'L';'';'';''
'DC';'2.16.840.1.113883.18.108';'Death Certificate ID';'http://terminology.hl7.org/CodeSystem/v2-0203';'The identifier assigned to a death certificate, and printed on the death certificate when issued by a jurisdictional vital records office';'';'';'25';'0';'L';'';'';''
'DCFN';'2.16.840.1.113883.18.108';'Death Certificate File Number';'http://terminology.hl7.org/CodeSystem/v2-0203';'The identifier used within the jurisdictional vital records office file system as an auxiliary means of accessing the record associated with the death certificate.';'Sterbeurkunden-Zahl';'';'26';'0';'L';'';'';''
'DDS';'2.16.840.1.113883.18.108';'Dentist license number';'http://terminology.hl7.org/CodeSystem/v2-0203';'An identifier that is unique to a dentist within the jurisdiction of the licensing board';'Zahnarztnummer';'';'27';'0';'L';'';'';''
'DEA';'2.16.840.1.113883.18.108';'Drug Enforcement Administration registration number';'http://terminology.hl7.org/CodeSystem/v2-0203';'An identifier for an individual or organization relative to controlled substance regulation and transactions.';'';'';'28';'0';'L';'';'';''
'DFN';'2.16.840.1.113883.18.108';'Drug Furnishing or prescriptive authority Number';'http://terminology.hl7.org/CodeSystem/v2-0203';'An identifier issued to a health care provider authorizing the person to write drug orders';'';'';'29';'0';'L';'';'';''
'DI';'2.16.840.1.113883.18.108';'Diner''s Club card';'http://terminology.hl7.org/CodeSystem/v2-0203';'Diner''s Club card';'Diners Club';'';'30';'0';'L';'';'';''
'DL';'2.16.840.1.113883.18.108';'Driver''s license number';'http://terminology.hl7.org/CodeSystem/v2-0203';'Driver''s license number';'Führerscheinnummer';'';'31';'0';'L';'';'';''
'DN';'2.16.840.1.113883.18.108';'Doctor number';'http://terminology.hl7.org/CodeSystem/v2-0203';'Doctor number';'Arztnummer';'';'32';'0';'L';'';'';''
'DO';'2.16.840.1.113883.18.108';'Osteopathic License number';'http://terminology.hl7.org/CodeSystem/v2-0203';'An identifier that is unique to an osteopath within the jurisdiction of a licensing board.';'';'';'33';'0';'L';'';'';''
'DP';'2.16.840.1.113883.18.108';'Diplomatic Passport';'http://terminology.hl7.org/CodeSystem/v2-0203';'A number assigned to a diplomatic passport.';'Diplomatenpass';'';'34';'0';'L';'';'';''
'DPM';'2.16.840.1.113883.18.108';'Podiatrist license number';'http://terminology.hl7.org/CodeSystem/v2-0203';'An identifier that is unique to a podiatrist within the jurisdiction of the licensing board.';'';'';'35';'0';'L';'';'';''
'DR';'2.16.840.1.113883.18.108';'Donor Registration Number';'http://terminology.hl7.org/CodeSystem/v2-0203';'Donor Registration Number';'Spendernummer';'';'36';'0';'L';'';'';''
'DS';'2.16.840.1.113883.18.108';'Discover Card';'http://terminology.hl7.org/CodeSystem/v2-0203';'Discover Card';'';'';'37';'0';'L';'';'';''
'DSG';'2.16.840.1.113883.18.108';'Diagnostic Study Group';'http://terminology.hl7.org/CodeSystem/v2-0203';'Unique Identifier that groups several orders that are to be performed together.';'Diagnostische Studiengruppennummer';'';'38';'0';'L';'';'';''
'EI';'2.16.840.1.113883.18.108';'Employee number';'http://terminology.hl7.org/CodeSystem/v2-0203';'A number that uniquely identifies an employee to an employer.';'Arbeitnehmernummer';'';'39';'0';'L';'';'';''
'EN';'2.16.840.1.113883.18.108';'Employer number';'http://terminology.hl7.org/CodeSystem/v2-0203';'Employer number';'Arbeitgebernummer';'';'40';'0';'L';'';'';''
'ESN';'2.16.840.1.113883.18.108';'Staff Enterprise Number';'http://terminology.hl7.org/CodeSystem/v2-0203';'An identifier that is unique to a staff member within an enterprise (as identified by the Assigning Authority).';'Personalunternehmensnummer';'';'41';'0';'L';'';'';''
'FDR';'2.16.840.1.113883.18.108';'Fetal Death Report ID';'http://terminology.hl7.org/CodeSystem/v2-0203';'The identifier assigned to a fetal death report, and printed on the fetal death report when issued by a jurisdictional vital records office';'';'';'42';'0';'L';'';'';''
'FDRFN';'2.16.840.1.113883.18.108';'Fetal Death Report File Number';'http://terminology.hl7.org/CodeSystem/v2-0203';'The identifier used within the jurisdictional vital records office file system as an auxiliary means of accessing the record associated with the fetal death report certificate.';'Aktenzeichen der Totgeburt';'';'43';'0';'L';'';'';''
'FGN';'2.16.840.1.113883.18.108';'Filler Group Number';'http://terminology.hl7.org/CodeSystem/v2-0203';'Unique identifier assigned to a group of orders by the filler application.';'Leistungsstellengruppennummer';'';'44';'0';'L';'';'';''
'FI';'2.16.840.1.113883.18.108';'Facility ID';'http://terminology.hl7.org/CodeSystem/v2-0203';'Facility ID';'Einrichtungsnummer';'';'45';'0';'L';'';'';''
'FILL';'2.16.840.1.113883.18.108';'Filler Identifier';'http://terminology.hl7.org/CodeSystem/v2-0203';'An identifier for a request where the identifier is issued by the person, or service, that produces the observations or fulfills the request.';'Leistungsstellennummer';'';'46';'0';'L';'';'';''
'GI';'2.16.840.1.113883.18.108';'Guarantor internal identifier';'http://terminology.hl7.org/CodeSystem/v2-0203';'Guarantor internal identifier';'interne ID des Zahlungspflichtigen';'';'47';'0';'L';'';'';''
'GIN';'2.16.840.1.113883.18.108';'Animal Group Identifier (US Official)';'http://terminology.hl7.org/CodeSystem/v2-0203';'Identifier that can be used to unambiguously describe a specific group of animals.';'';'';'48';'0';'L';'';'';''
'GL';'2.16.840.1.113883.18.108';'General ledger number';'http://terminology.hl7.org/CodeSystem/v2-0203';'General ledger number';'Hauptbuchnummer';'';'49';'0';'L';'';'';''
'GN';'2.16.840.1.113883.18.108';'Guarantor external identifier';'http://terminology.hl7.org/CodeSystem/v2-0203';'Guarantor external identifier';'externe ID des Zahlungspflichtigen';'';'50';'0';'L';'';'';''
'HC';'2.16.840.1.113883.18.108';'Health Card Number';'http://terminology.hl7.org/CodeSystem/v2-0203';'Health Card Number';'';'';'51';'0';'L';'';'';''
'IND';'2.16.840.1.113883.18.108';'Indigenous/Aboriginal';'http://terminology.hl7.org/CodeSystem/v2-0203';'A number assigned to a member of an indigenous or aboriginal group outside of Canada.';'';'';'52';'0';'L';'';'';''
'JHN';'2.16.840.1.113883.18.108';'Jurisdictional health number';'http://terminology.hl7.org/CodeSystem/v2-0203';'Jurisdictional health number';'';'';'53';'0';'L';'';'';''
'LACSN';'2.16.840.1.113883.18.108';'Laboratory Accession ID';'http://terminology.hl7.org/CodeSystem/v2-0203';'A laboratory accession id is used in the laboratory domain.';'Labor-Eingangsnummer';'';'54';'0';'L';'';'';''
'LANR';'2.16.840.1.113883.18.108';'Lifelong physician number';'http://terminology.hl7.org/CodeSystem/v2-0203';'Lifelong physician number';'';'';'55';'0';'L';'';'';''
'LI';'2.16.840.1.113883.18.108';'Labor and industries number';'http://terminology.hl7.org/CodeSystem/v2-0203';'Labor and industries number';'';'';'56';'0';'L';'';'';''
'L&I';'2.16.840.1.113883.18.108';'Labor and industries number';'http://terminology.hl7.org/CodeSystem/v2-0203';'Labor and industries number. Note that this was introduced erroneously (with an ampersand in the code value) many years ago.';'';'';'57';'0';'L';'';'';''
'LN';'2.16.840.1.113883.18.108';'License number';'http://terminology.hl7.org/CodeSystem/v2-0203';'License number';'Lizenznummer';'';'58';'0';'L';'';'';''
'LR';'2.16.840.1.113883.18.108';'Local Registry ID';'http://terminology.hl7.org/CodeSystem/v2-0203';'Local Registry ID';'';'';'59';'0';'L';'';'';''
'MA';'2.16.840.1.113883.18.108';'Patient Medicaid number';'http://terminology.hl7.org/CodeSystem/v2-0203';'Patient Medicaid number';'';'';'60';'0';'L';'';'';''
'MB';'2.16.840.1.113883.18.108';'Member Number';'http://terminology.hl7.org/CodeSystem/v2-0203';'An identifier for the insured of an insurance policy (this insured always has a subscriber), usually assigned by the insurance carrier.';'';'';'61';'0';'L';'';'';''
'MC';'2.16.840.1.113883.18.108';'Patient''s Medicare number';'http://terminology.hl7.org/CodeSystem/v2-0203';'Patient''s Medicare number';'';'';'62';'0';'L';'';'';''
'MCD';'2.16.840.1.113883.18.108';'Practitioner Medicaid number';'http://terminology.hl7.org/CodeSystem/v2-0203';'Practitioner Medicaid number';'';'';'63';'0';'L';'';'';''
'MCN';'2.16.840.1.113883.18.108';'Microchip Number';'http://terminology.hl7.org/CodeSystem/v2-0203';'Microchip Number';'Mikrochipnummer';'';'64';'0';'L';'';'';''
'MCR';'2.16.840.1.113883.18.108';'Practitioner Medicare number';'http://terminology.hl7.org/CodeSystem/v2-0203';'Practitioner Medicare number';'';'';'65';'0';'L';'';'';''
'MCT';'2.16.840.1.113883.18.108';'Marriage Certificate';'http://terminology.hl7.org/CodeSystem/v2-0203';'A number associated with a document identifying the event of a person''s marriage.';'Heiratsurkunden-Zahl';'';'66';'0';'L';'';'';''
'MD';'2.16.840.1.113883.18.108';'Medical License number';'http://terminology.hl7.org/CodeSystem/v2-0203';'An identifier that is unique to a medical doctor within the jurisdiction of a licensing board.';'';'';'67';'0';'L';'';'';''
'MI';'2.16.840.1.113883.18.108';'Military ID number';'http://terminology.hl7.org/CodeSystem/v2-0203';'A number assigned to an individual who has had military duty, but is not currently on active duty. The number is assigned by the DOD or Veterans'' Affairs (VA).';'Personenkennziffer';'';'68';'0';'L';'';'';''
'MR';'2.16.840.1.113883.18.108';'Medical record number';'http://terminology.hl7.org/CodeSystem/v2-0203';'An identifier that is unique to a patient within a set of medical records, not necessarily unique within an application.';'Krankenaktennummer';'';'69';'0';'L';'';'';''
'MRT';'2.16.840.1.113883.18.108';'Temporary Medical Record Number';'http://terminology.hl7.org/CodeSystem/v2-0203';'Temporary version of a Medical Record Number';'';'';'70';'0';'L';'';'';''
'MS';'2.16.840.1.113883.18.108';'MasterCard';'http://terminology.hl7.org/CodeSystem/v2-0203';'MasterCard';'MasterCard';'';'71';'0';'L';'';'';''
'NBSNR';'2.16.840.1.113883.18.108';'Secondary physician office number';'http://terminology.hl7.org/CodeSystem/v2-0203';'Secondary physician office number';'';'';'72';'0';'L';'';'';''
'NCT';'2.16.840.1.113883.18.108';'Naturalization Certificate';'http://terminology.hl7.org/CodeSystem/v2-0203';'A number associated with a document identifying a person''s retention of citizenship in a particular country.';'';'';'73';'0';'L';'';'';''
'NE';'2.16.840.1.113883.18.108';'National employer identifier';'http://terminology.hl7.org/CodeSystem/v2-0203';'National employer identifier';'';'';'74';'0';'L';'';'';''
'NH';'2.16.840.1.113883.18.108';'National Health Plan Identifier';'http://terminology.hl7.org/CodeSystem/v2-0203';'National Health Plan Identifier';'';'';'75';'0';'L';'';'';''
'NI';'2.16.840.1.113883.18.108';'National unique individual identifier';'http://terminology.hl7.org/CodeSystem/v2-0203';'National unique individual identifier';'Nationaler eindeutiger Personenidentifikator';'';'76';'0';'L';'';'';''
'NII';'2.16.840.1.113883.18.108';'National Insurance Organization Identifier';'http://terminology.hl7.org/CodeSystem/v2-0203';'National Insurance Organization Identifier';'Institutskennzeichen der Krankenkasse';'';'77';'0';'L';'';'';''
'NIIP';'2.16.840.1.113883.18.108';'National Insurance Payor Identifier (Payor)';'http://terminology.hl7.org/CodeSystem/v2-0203';'National Insurance Payor Identifier (Payor)';'Vertragskassennummer (VKNR)';'';'78';'0';'L';'';'';''
'NNxxx';'2.16.840.1.113883.18.108';'National Person Identifier where the xxx is the ISO table 3166 3-character (alphabetic) country code';'http://terminology.hl7.org/CodeSystem/v2-0203';'National Person Identifier where the xxx is the ISO table 3166 3-character (alphabetic) country code';'';'';'79';'0';'L';'';'';''
'NP';'2.16.840.1.113883.18.108';'Nurse practitioner number';'http://terminology.hl7.org/CodeSystem/v2-0203';'An identifier that is unique to a nurse practitioner within the jurisdiction of a certifying board.';'';'';'80';'0';'L';'';'';''
'NPI';'2.16.840.1.113883.18.108';'National provider identifier';'http://terminology.hl7.org/CodeSystem/v2-0203';'National provider identifier';'Vertragspartnernummer';'';'81';'0';'L';'';'';''
'OBI';'2.16.840.1.113883.18.108';'Observation Instance Identifier';'http://terminology.hl7.org/CodeSystem/v2-0203';'Unique and persistent identifier for an observation instance';'';'';'82';'0';'L';'';'';''
'OD';'2.16.840.1.113883.18.108';'Optometrist license number';'http://terminology.hl7.org/CodeSystem/v2-0203';'A number that is unique to an individual optometrist within the jurisdiction of the licensing board.';'';'';'83';'0';'L';'';'';''
'PA';'2.16.840.1.113883.18.108';'Physician Assistant number';'http://terminology.hl7.org/CodeSystem/v2-0203';'An identifier that is unique to a physician assistant within the jurisdiction of a licensing board';'Assistenzarztnummer';'';'84';'0';'L';'';'';''
'PC';'2.16.840.1.113883.18.108';'Parole Card';'http://terminology.hl7.org/CodeSystem/v2-0203';'A number identifying a person on parole.';'';'';'85';'0';'L';'';'';''
'PCN';'2.16.840.1.113883.18.108';'Penitentiary/correctional institution Number';'http://terminology.hl7.org/CodeSystem/v2-0203';'A number assigned to individual who is incarcerated.';'';'';'86';'0';'L';'';'';''
'PE';'2.16.840.1.113883.18.108';'Living Subject Enterprise Number';'http://terminology.hl7.org/CodeSystem/v2-0203';'An identifier that is unique to a living subject within an enterprise (as identified by the Assigning Authority).';'';'';'87';'0';'L';'';'';''
'PEN';'2.16.840.1.113883.18.108';'Pension Number';'http://terminology.hl7.org/CodeSystem/v2-0203';'Pension Number';'Pensionsnummer';'';'88';'0';'L';'';'';''
'PGN';'2.16.840.1.113883.18.108';'Placer Group Number';'http://terminology.hl7.org/CodeSystem/v2-0203';'Unique identifier assigned to a group of orders by the placer application.';'Auftragsgruppennummer des Anforderers';'';'89';'0';'L';'';'';''
'PHC';'2.16.840.1.113883.18.108';'Public Health Case Identifier';'http://terminology.hl7.org/CodeSystem/v2-0203';'Identifier assigned to a person during a case investigation as part of a public health event';'';'';'90';'0';'L';'';'';''
'PHE';'2.16.840.1.113883.18.108';'Public Health Event Identifier';'http://terminology.hl7.org/CodeSystem/v2-0203';'Identifier assigned to an event of interest to public health';'';'';'91';'0';'L';'';'';''
'PHO';'2.16.840.1.113883.18.108';'Public Health Official ID';'http://terminology.hl7.org/CodeSystem/v2-0203';'An identifier for a person working at a public health agency (PHA), assigned or issued by the agency';'';'';'92';'0';'L';'';'';''
'PI';'2.16.840.1.113883.18.108';'Patient internal identifier';'http://terminology.hl7.org/CodeSystem/v2-0203';'A number that is unique to a patient within an Assigning Authority.';'interne Patienten-ID';'';'93';'0';'L';'';'';''
'PIN';'2.16.840.1.113883.18.108';'Premises Identifier Number (US Official)';'http://terminology.hl7.org/CodeSystem/v2-0203';'Identifier that uniquely identifies a geographic location in the US.';'';'';'94';'0';'L';'';'';''
'PLAC';'2.16.840.1.113883.18.108';'Placer Identifier';'http://terminology.hl7.org/CodeSystem/v2-0203';'An identifier for a request where the identifier is issued by the person or service making the request.';'ID der anfordernden Stelle';'';'95';'0';'L';'';'';''
'PN';'2.16.840.1.113883.18.108';'Person number';'http://terminology.hl7.org/CodeSystem/v2-0203';'A number that is unique to a living subject within an Assigning Authority.';'Personen-ID';'';'96';'0';'L';'';'';''
'PNT';'2.16.840.1.113883.18.108';'Temporary Living Subject Number';'http://terminology.hl7.org/CodeSystem/v2-0203';'Temporary version of a Living Subject Number.';'';'';'97';'0';'L';'';'';''
'PPIN';'2.16.840.1.113883.18.108';'Medicare/CMS Performing Provider Identification Number';'http://terminology.hl7.org/CodeSystem/v2-0203';'Medicare/CMS Performing Provider Identification Number';'';'';'98';'0';'L';'';'';''
'PPN';'2.16.840.1.113883.18.108';'Passport number';'http://terminology.hl7.org/CodeSystem/v2-0203';'A unique number assigned to the document affirming that a person is a citizen of the country.';'Passnummer';'';'99';'0';'L';'';'';''
'PRC';'2.16.840.1.113883.18.108';'Permanent Resident Card Number';'http://terminology.hl7.org/CodeSystem/v2-0203';'Permanent Resident Card Number';'';'';'100';'0';'L';'';'';''
'PRN';'2.16.840.1.113883.18.108';'Provider number';'http://terminology.hl7.org/CodeSystem/v2-0203';'A number that is unique to an individual provider, a provider group or an organization within an Assigning Authority.';'';'';'101';'0';'L';'';'';''
'PT';'2.16.840.1.113883.18.108';'Patient external identifier';'http://terminology.hl7.org/CodeSystem/v2-0203';'Patient external identifier';'externe Patienten-ID';'';'102';'0';'L';'';'';''
'QA';'2.16.840.1.113883.18.108';'QA number';'http://terminology.hl7.org/CodeSystem/v2-0203';'QA number';'';'';'103';'0';'L';'';'';''
'RI';'2.16.840.1.113883.18.108';'Resource identifier';'http://terminology.hl7.org/CodeSystem/v2-0203';'A generalized resource identifier.';'Ressourcen-ID';'';'104';'0';'L';'';'';''
'RN';'2.16.840.1.113883.18.108';'Registered Nurse Number';'http://terminology.hl7.org/CodeSystem/v2-0203';'An identifier that is unique to a registered nurse within the jurisdiction of the licensing board.';'Eintragungsnummer Gesundheitsberuferegister';'';'105';'0';'L';'';'';''
'RPH';'2.16.840.1.113883.18.108';'Pharmacist license number';'http://terminology.hl7.org/CodeSystem/v2-0203';'An identifier that is unique to a pharmacist within the jurisdiction of the licensing board.';'Apotheker-Nummer';'';'106';'0';'L';'';'';''
'RR';'2.16.840.1.113883.18.108';'Railroad Retirement number';'http://terminology.hl7.org/CodeSystem/v2-0203';'An identifier for an individual enrolled with the Railroad Retirement Administration. Analogous to, but distinct from, a Social Security Number';'Seniorenkartennummer';'';'107';'0';'L';'';'';''
'RRI';'2.16.840.1.113883.18.108';'Regional registry ID';'http://terminology.hl7.org/CodeSystem/v2-0203';'Regional registry ID';'';'';'108';'0';'L';'';'';''
'RRP';'2.16.840.1.113883.18.108';'Railroad Retirement Provider';'http://terminology.hl7.org/CodeSystem/v2-0203';'Railroad Retirement Provider';'';'';'109';'0';'L';'';'';''
'SAMN';'2.16.840.1.113883.18.108';'SAMN# accession Number';'http://terminology.hl7.org/CodeSystem/v2-0203';'The accession number for the BioSample data repository at the National Center for Biotechnology Information (NCBI)';'';'';'110';'0';'L';'';'';''
'SB';'2.16.840.1.113883.18.108';'Social Beneficiary Identifier';'http://terminology.hl7.org/CodeSystem/v2-0203';'An identifier issued by a governmental organization to a person to identify the person should they apply for or receive social services and/or benefits';'';'';'111';'0';'L';'';'';''
'SID';'2.16.840.1.113883.18.108';'Specimen ID';'http://terminology.hl7.org/CodeSystem/v2-0203';'Identifier for a specimen.';'Probennummer';'';'112';'0';'L';'';'';''
'SL';'2.16.840.1.113883.18.108';'State license';'http://terminology.hl7.org/CodeSystem/v2-0203';'State license';'';'';'113';'0';'L';'';'';''
'SN';'2.16.840.1.113883.18.108';'Subscriber Number';'http://terminology.hl7.org/CodeSystem/v2-0203';'An identifier for a subscriber of an insurance policy which is unique for, and usually assigned by, the insurance carrier.';'Teilnehmernummer';'';'114';'0';'L';'';'';''
'SNBSN';'2.16.840.1.113883.18.108';'State assigned NDBS card Identifier';'http://terminology.hl7.org/CodeSystem/v2-0203';'The identifier on a Newborn Screening Dried Bloodspot (NDBS) card that is assigned by the state which provided the sample collection cards and to whom this information must be reported';'';'';'115';'0';'L';'';'';''
'SNO';'2.16.840.1.113883.18.108';'Serial Number';'http://terminology.hl7.org/CodeSystem/v2-0203';'An identifier affixed to an item by the manufacturer when it is first made, where each item has a different identifier.';'Seriennummer';'';'116';'0';'L';'';'';''
'SP';'2.16.840.1.113883.18.108';'Study Permit';'http://terminology.hl7.org/CodeSystem/v2-0203';'A number associated with a permit identifying a person who is a resident of a jurisdiction for the purpose of education.';'';'';'117';'0';'L';'';'';''
'SR';'2.16.840.1.113883.18.108';'State registry ID';'http://terminology.hl7.org/CodeSystem/v2-0203';'State registry ID';'';'';'118';'0';'L';'';'';''
'SRX';'2.16.840.1.113883.18.108';'SRA Accession number';'http://terminology.hl7.org/CodeSystem/v2-0203';'The accession number generated by the Sequence Read Archive (SRA) at the National Center for Biotechnology Information (NCBI) when sequence data are uploaded to NCBI.';'';'';'119';'0';'L';'';'';''
'SS';'2.16.840.1.113883.18.108';'Social Security number';'http://terminology.hl7.org/CodeSystem/v2-0203';'Social Security number';'Sozialversicherungsnummer';'';'120';'0';'L';'';'';''
'STN';'2.16.840.1.113883.18.108';'Shipment Tracking Number';'http://terminology.hl7.org/CodeSystem/v2-0203';'Identifier assigned to a package being shipped';'Sendungsnummer';'';'121';'0';'L';'';'';''
'TAX';'2.16.840.1.113883.18.108';'Tax ID number';'http://terminology.hl7.org/CodeSystem/v2-0203';'Tax ID number';'Steuernummer';'';'122';'0';'L';'';'';''
'TN';'2.16.840.1.113883.18.108';'Treaty Number/ (Canada)';'http://terminology.hl7.org/CodeSystem/v2-0203';'A number assigned to a member of an indigenous group in Canada.';'';'';'123';'0';'L';'';'';''
'TPR';'2.16.840.1.113883.18.108';'Temporary Permanent Resident (Canada)';'http://terminology.hl7.org/CodeSystem/v2-0203';'A number associated with a document identifying a person''s temporary permanent resident status.';'';'';'124';'0';'L';'';'';''
'TRL';'2.16.840.1.113883.18.108';'Training License Number';'http://terminology.hl7.org/CodeSystem/v2-0203';'The license number used during training.';'';'';'125';'0';'L';'';'';''
'U';'2.16.840.1.113883.18.108';'Unspecified identifier';'http://terminology.hl7.org/CodeSystem/v2-0203';'Unspecified identifier';'Nicht spezifizierte Kennung';'';'126';'0';'L';'';'';''
'UDI';'2.16.840.1.113883.18.108';'Universal Device Identifier';'http://terminology.hl7.org/CodeSystem/v2-0203';'An identifier assigned to a device using the Unique Device Identification framework as defined by IMDRF (http://imdrf.org).';'Einmalige Produktkennung';'';'127';'0';'L';'';'';''
'UPIN';'2.16.840.1.113883.18.108';'Medicare/CMS (formerly HCFA)''s Universal Physician Identification numbers';'http://terminology.hl7.org/CodeSystem/v2-0203';'An identifier for a provider within the CMS/Medicare program. A globally unique identifier for the provider in the Medicare program.';'';'';'128';'0';'L';'';'';''
'USID';'2.16.840.1.113883.18.108';'Unique Specimen ID';'http://terminology.hl7.org/CodeSystem/v2-0203';'A unique identifier for a specimen.';'Eindeutige Probennummer';'';'129';'0';'L';'';'';''
'VN';'2.16.840.1.113883.18.108';'Visit number';'http://terminology.hl7.org/CodeSystem/v2-0203';'Visit number';'Fallnummer';'';'130';'0';'L';'';'';''
'VP';'2.16.840.1.113883.18.108';'Visitor Permit';'http://terminology.hl7.org/CodeSystem/v2-0203';'A number associated with a document identifying a person as a visitor of a jurisdiction or country.';'Besucherkennung';'';'131';'0';'L';'';'';''
'VS';'2.16.840.1.113883.18.108';'VISA';'http://terminology.hl7.org/CodeSystem/v2-0203';'VISA';'VISA';'';'132';'0';'L';'';'';''
'WC';'2.16.840.1.113883.18.108';'WIC identifier';'http://terminology.hl7.org/CodeSystem/v2-0203';'WIC identifier';'';'';'133';'0';'L';'';'';''
'WCN';'2.16.840.1.113883.18.108';'Workers'' Comp Number';'http://terminology.hl7.org/CodeSystem/v2-0203';'Workers'' Comp Number';'Arbeitsunfallnummer';'';'134';'0';'L';'';'';''
'WP';'2.16.840.1.113883.18.108';'Work Permit';'http://terminology.hl7.org/CodeSystem/v2-0203';'A number associated with a permit for a person who is granted permission to work in a country for a specified time period.';'Arbeitsgenehmigungsnummer';'';'135';'0';'L';'';'';''
'XV';'2.16.840.1.113883.18.108';'Health Plan Identifier';'http://terminology.hl7.org/CodeSystem/v2-0203';'National unique health plan identifier required by the US Department of Health and Human Services, Centers for Medicare and Medicaid Services (CMS) in the US Realm.';'';'';'136';'0';'L';'';'';''
'XX';'2.16.840.1.113883.18.108';'Organization identifier';'http://terminology.hl7.org/CodeSystem/v2-0203';'Organization identifier';'Organisations-ID';'';'137';'0';'L';'';'';''
