'code';'codeSystem';'displayName';'parentCode';'concept_Beschreibung';'meaning';'hints';'level';'type';'relationships'
'CHOLERA';'1.2.40.0.34.5.90';'Cholera';'';'';'';'';'0';'S';''
'NO1_NO139';'1.2.40.0.34.5.90';'non-O1 / non-O139';'';'';'';'';'1';'L';''
'O1';'1.2.40.0.34.5.90';'O1';'';'';'';'';'1';'L';''
'O139';'1.2.40.0.34.5.90';'O139';'';'';'';'';'1';'L';''
'LISTERIOSE';'1.2.40.0.34.5.90';'Listeriose';'';'';'';'';'0';'S';''
'IIa';'1.2.40.0.34.5.90';'IIA';'';'';'';'';'1';'L';''
'IIb';'1.2.40.0.34.5.90';'IIB';'';'';'';'';'1';'L';''
'IIc';'1.2.40.0.34.5.90';'IIC';'';'';'';'';'1';'L';''
'IVb';'1.2.40.0.34.5.90';'IVB';'';'';'';'';'1';'L';''
'L';'1.2.40.0.34.5.90';'L';'';'';'';'';'1';'L';''
'nicht_anwendbar';'1.2.40.0.34.5.90';'NA';'';'';'';'';'1';'L';''
'MENINGOKOKKEN';'1.2.40.0.34.5.90';'Meningokokken';'';'';'';'';'0';'S';''
'Nicht_durchgeführt';'1.2.40.0.34.5.90';'NOTEST';'';'';'';'';'1';'L';''
'not_groupable';'1.2.40.0.34.5.90';'NOGRP';'';'';'';'';'1';'L';''
'serogroup_29E';'1.2.40.0.34.5.90';'29E';'';'';'';'';'1';'L';''
'serogroup_A';'1.2.40.0.34.5.90';'A';'';'';'';'';'1';'L';''
'serogroup_B';'1.2.40.0.34.5.90';'B';'';'';'';'';'1';'L';''
'serogroup_C';'1.2.40.0.34.5.90';'C';'';'';'';'';'1';'L';''
'serogroup_W135';'1.2.40.0.34.5.90';'W135';'';'';'';'';'1';'L';''
'serogroup_X_';'1.2.40.0.34.5.90';'X';'';'';'';'';'1';'L';''
'serogroup_Y';'1.2.40.0.34.5.90';'Y';'';'';'';'';'1';'L';''
'serogroup_Z';'1.2.40.0.34.5.90';'Z';'';'';'';'';'1';'L';''
'serogroup_Z/29E';'1.2.40.0.34.5.90';'Z/29E';'';'';'';'';'1';'L';''
