'code';'codeSystem';'displayName';'parentCodeSystemName';'concept_Beschreibung';'meaning';'hints';'orderNumber';'level';'type';'relationships';'einheit print';'einheit codiert'
'ACD';'2.16.840.1.113883.5.139';'ACD';'http://terminology.hl7.org/CodeSystem/v3-TimingEvent';'';'Mittags';'';'1';'0';'L';'';'';''
'ACM';'2.16.840.1.113883.5.139';'ACM';'http://terminology.hl7.org/CodeSystem/v3-TimingEvent';'';'Morgens';'';'2';'0';'L';'';'';''
'ACV';'2.16.840.1.113883.5.139';'ACV';'http://terminology.hl7.org/CodeSystem/v3-TimingEvent';'';'Abends';'';'3';'0';'L';'';'';''
'HS';'2.16.840.1.113883.5.139';'HS';'http://terminology.hl7.org/CodeSystem/v3-TimingEvent';'';'Nachts';'';'4';'0';'L';'';'';''
