{
  "resourceType": "CodeSystem",
  "id": "medikationrezeptart",
  "url": "https://termgit.elga.gv.at/CodeSystem/medikationrezeptart",
  "identifier": [
    {
      "use": "official",
      "system": "urn:ietf:rfc:3986",
      "value": "urn:oid:1.2.40.0.10.1.4.3.4.3.3"
    }
  ],
  "version": "1.0.0+20230131",
  "name": "medikationrezeptart",
  "title": "MedikationRezeptart",
  "status": "active",
  "date": "2015-03-31",
  "description": "**Description:** ELGA Codelist for Prescription type\n\n**Beschreibung:** ELGA Codeliste f\u00fcr RezeptArt",
  "content": "complete",
  "count": 3,
  "concept": [
    {
      "code": "KASSEN",
      "display": "Kassenrezept"
    },
    {
      "code": "PRIVAT",
      "display": "Privatrezept"
    },
    {
      "code": "SUBST",
      "display": "Substitutionsrezept"
    }
  ]
}