'code';'codeSystem';'displayName';'parentCodeSystemName';'concept_Beschreibung';'meaning';'hints';'orderNumber';'level';'type';'relationships';'einheit print';'einheit codiert';'codeSystemVersion'
'719858009';'2.16.840.1.113883.6.96';'Telehealth monitoring (regime/therapy)';'https://termgit.elga.gv.at/CodeSystem/snomed-ct-auszug';;;;'1';'0';'S';;;;'1.0.0+20230131'
'715191006';'2.16.840.1.113883.6.96';'Telehealth asthma monitoring (regime/therapy)';'https://termgit.elga.gv.at/CodeSystem/snomed-ct-auszug';;;;'2';'1';'L';;;;'1.0.0+20230131'
'715280009';'2.16.840.1.113883.6.96';'Telehealth hypertension monitoring (regime/therapy)';'https://termgit.elga.gv.at/CodeSystem/snomed-ct-auszug';;;;'3';'1';'L';;;;'1.0.0+20230131'
'473199000';'2.16.840.1.113883.6.96';'Telehealth monitoring for chronic disease (regime/therapy)';'https://termgit.elga.gv.at/CodeSystem/snomed-ct-auszug';;;;'4';'1';'S';;;;'1.0.0+20230131'
'716358000';'2.16.840.1.113883.6.96';'Telehealth chronic obstructive pulmonary disease monitoring (regime/therapy)';'https://termgit.elga.gv.at/CodeSystem/snomed-ct-auszug';;;;'5';'2';'L';;;;'1.0.0+20230131'
'879780004';'2.16.840.1.113883.6.96';'Telehealth monitoring for chronic heart failure (regime/therapy)';'https://termgit.elga.gv.at/CodeSystem/snomed-ct-auszug';;;;'6';'1';'L';;;;'1.0.0+20230131'
'879782007';'2.16.840.1.113883.6.96';'Telehealth monitoring for diabetes mellitus (regime/therapy)';'https://termgit.elga.gv.at/CodeSystem/snomed-ct-auszug';;;;'7';'1';'L';;;;'1.0.0+20230131'
'879781000';'2.16.840.1.113883.6.96';'Telehealth monitoring for ischemic heart disease (regime/therapy)';'https://termgit.elga.gv.at/CodeSystem/snomed-ct-auszug';;;;'8';'1';'L';;;;'1.0.0+20230131'
'879783002';'2.16.840.1.113883.6.96';'Telehealth monitoring for psychological stress (regime/therapy)';'https://termgit.elga.gv.at/CodeSystem/snomed-ct-auszug';;;;'9';'1';'L';;;;'1.0.0+20230131'
'715279006';'2.16.840.1.113883.6.96';'Telehealth obesity monitoring (regime/therapy)';'https://termgit.elga.gv.at/CodeSystem/snomed-ct-auszug';;;;'10';'1';'L';;;;'1.0.0+20230131'
'879784008';'2.16.840.1.113883.6.96';'Telehealth rehabilitation monitoring (regime/therapy)';'https://termgit.elga.gv.at/CodeSystem/snomed-ct-auszug';;;;'11';'1';'L';;;;'1.0.0+20230131'
