'code';'codeSystem';'displayName';'parentCodeSystemName';'concept_Beschreibung';'meaning';'hints';'orderNumber';'level';'type';'relationships';'einheit print';'einheit codiert';'codeSystemVersion'
'4990459';'1.2.40.0.34.4.16.1';'VAXZEVRIA COV19        10x10';'https://termgit.elga.gv.at/CodeSystem/eimpf-impfstoffe';'AstraZeneca AB';'AstraZeneca AB';;'1';'0';'L';'2.16.840.1.113883.3.6905.4:ORG-100001699';;;'2.6.0+20230724'
'5424472';'1.2.40.0.34.4.16.1';'PFIZER-BION COV19 KONZ30 1x6';'https://termgit.elga.gv.at/CodeSystem/eimpf-impfstoffe';'Biontech Manufacturing GmbH';'Biontech Manufacturing GmbH';;'2';'0';'L';'2.16.840.1.113883.3.6905.4:ORG-100030215';;;'2.6.0+20230724'
'4989539';'1.2.40.0.34.4.16.1';'COMIRNATY COV19 KONZ30 195x6';'https://termgit.elga.gv.at/CodeSystem/eimpf-impfstoffe';'Biontech Manufacturing GmbH';'Biontech Manufacturing GmbH';;'3';'0';'L';'2.16.840.1.113883.3.6905.4:ORG-100030215';;;'2.6.0+20230724'
'5506342';'1.2.40.0.34.4.16.1';'COMIRNATY COV19 INJ30  195x6';'https://termgit.elga.gv.at/CodeSystem/eimpf-impfstoffe';'Biontech Manufacturing GmbH';'Biontech Manufacturing GmbH';;'4';'0';'L';'2.16.840.1.113883.3.6905.4:ORG-100030215';;;'2.6.0+20230724'
'5506359';'1.2.40.0.34.4.16.1';'COMIRNATY COV19 INJ30   10x6';'https://termgit.elga.gv.at/CodeSystem/eimpf-impfstoffe';'Biontech Manufacturing GmbH';'Biontech Manufacturing GmbH';;'5';'0';'L';'2.16.840.1.113883.3.6905.4:ORG-100030215';;;'2.6.0+20230724'
'5506448';'1.2.40.0.34.4.16.1';'COMIRNATY COV19 KONZ10 10x10';'https://termgit.elga.gv.at/CodeSystem/eimpf-impfstoffe';'Biontech Manufacturing GmbH';'Biontech Manufacturing GmbH';;'6';'0';'L';'2.16.840.1.113883.3.6905.4:ORG-100030215';;;'2.6.0+20230724'
'4991720';'1.2.40.0.34.4.16.1';'JCOVDEN COV19           10x5';'https://termgit.elga.gv.at/CodeSystem/eimpf-impfstoffe';'Janssen-Cilag International';'Janssen-Cilag International';;'7';'0';'L';'2.16.840.1.113883.3.6905.4:ORG-100001417';;;'2.6.0+20230724'
'5502522';'1.2.40.0.34.4.16.1';'JCOVDEN COV19           20x5';'https://termgit.elga.gv.at/CodeSystem/eimpf-impfstoffe';'Janssen-Cilag International';'Janssen-Cilag International';;'8';'0';'L';'2.16.840.1.113883.3.6905.4:ORG-100001417';;;'2.6.0+20230724'
'5426867';'1.2.40.0.34.4.16.1';'MODERNA/SPIKEVAX COV19  1x10';'https://termgit.elga.gv.at/CodeSystem/eimpf-impfstoffe';'Moderna Biotech Spain S.L.';'Moderna Biotech Spain S.L.';;'9';'0';'L';'2.16.840.1.113883.3.6905.4:ORG-100031184';;;'2.6.0+20230724'
'5426873';'1.2.40.0.34.4.16.1';'MODERNA/SPIKEVAX COV19 10x10';'https://termgit.elga.gv.at/CodeSystem/eimpf-impfstoffe';'Moderna Biotech Spain S.L.';'Moderna Biotech Spain S.L.';;'10';'0';'L';'2.16.840.1.113883.3.6905.4:ORG-100031184';;;'2.6.0+20230724'
'5611903';'1.2.40.0.34.4.16.1';'NUVAXOVID COV19         1x10';'https://termgit.elga.gv.at/CodeSystem/eimpf-impfstoffe';'Novavax CZ, a.s.';'Novavax CZ, a.s.';;'11';'0';'L';'2.16.840.1.113883.3.6905.4:ORG-100032020';;;'2.6.0+20230724'
'5506431';'1.2.40.0.34.4.16.1';'VALNEVA COV19          10x10';'https://termgit.elga.gv.at/CodeSystem/eimpf-impfstoffe';'Valneva France';'Valneva France';;'12';'0';'L';'2.16.840.1.113883.3.6905.4:ORG-100036422';;;'2.6.0+20230724'
'5516820';'1.2.40.0.34.4.16.1';'COMIRNATY COV19 BA1    195x6';'https://termgit.elga.gv.at/CodeSystem/eimpf-impfstoffe';'Biontech Manufacturing GmbH';'Biontech Manufacturing GmbH';;'13';'0';'L';'2.16.840.1.113883.3.6905.4:ORG-100030215';;;'2.6.0+20230724'
'5516837';'1.2.40.0.34.4.16.1';'COMIRNATY COV19 BA1     10x6';'https://termgit.elga.gv.at/CodeSystem/eimpf-impfstoffe';'Biontech Manufacturing GmbH';'Biontech Manufacturing GmbH';;'14';'0';'L';'2.16.840.1.113883.3.6905.4:ORG-100030215';;;'2.6.0+20230724'
'5516843';'1.2.40.0.34.4.16.1';'COMIRNATY COV19 BA4/5  195x6';'https://termgit.elga.gv.at/CodeSystem/eimpf-impfstoffe';'Biontech Manufacturing GmbH';'Biontech Manufacturing GmbH';;'15';'0';'L';'2.16.840.1.113883.3.6905.4:ORG-100030215';;;'2.6.0+20230724'
'5516866';'1.2.40.0.34.4.16.1';'COMIRNATY COV19 BA4/5   10x6';'https://termgit.elga.gv.at/CodeSystem/eimpf-impfstoffe';'Biontech Manufacturing GmbH';'Biontech Manufacturing GmbH';;'16';'0';'L';'2.16.840.1.113883.3.6905.4:ORG-100030215';;;'2.6.0+20230724'
'5517245';'1.2.40.0.34.4.16.1';'SPIKEVAX COV19 BA1      10x5';'https://termgit.elga.gv.at/CodeSystem/eimpf-impfstoffe';'Moderna Biotech Spain S.L.';'Moderna Biotech Spain S.L.';;'17';'0';'L';'2.16.840.1.113883.3.6905.4:ORG-100031184';;;'2.6.0+20230724'
'AUSL_000001';'1.2.40.0.34.4.16.1';'COVID-19-Impfstoff CVnCoV (CureVac)';'https://termgit.elga.gv.at/CodeSystem/eimpf-impfstoffe';'Curevac AG';'Curevac AG';;'18';'0';'L';'2.16.840.1.113883.3.6905.4:ORG-100006270';;;'2.6.0+20230724'
'AUSL_000004';'1.2.40.0.34.4.16.1';'COVID-19-Impfstoff Convidecia (CanSino Biologics)';'https://termgit.elga.gv.at/CodeSystem/eimpf-impfstoffe';'CanSino Biologics';'CanSino Biologics';;'19';'0';'L';'2.16.840.1.113883.3.6905.4:ORG-100013793';;;'2.6.0+20230724'
'AUSL_000006';'1.2.40.0.34.4.16.1';'COVID-19-Impfstoff BBIBP-CorV (Sinopharm)';'https://termgit.elga.gv.at/CodeSystem/eimpf-impfstoffe';'China Sinopharm International Corp. - Beijing location';'China Sinopharm International Corp. - Beijing location';;'20';'0';'L';'2.16.840.1.113883.3.6905.4:ORG-100020693';;;'2.6.0+20230724'
'AUSL_000002';'1.2.40.0.34.4.16.1';'COVID-19-Impfstoff NVX-CoV2373 (Novavax)';'https://termgit.elga.gv.at/CodeSystem/eimpf-impfstoffe';'Novavax CZ, a.s.';'Novavax CZ, a.s.';'DEPRECATED';'21';'0';'D';'2.16.840.1.113883.3.6905.4:ORG-100032020';;;'2.6.0+20230724'
'AUSL_000003';'1.2.40.0.34.4.16.1';'COVID-19-Impfstoff Sputnik-V (Gamaleya)';'https://termgit.elga.gv.at/CodeSystem/eimpf-impfstoffe';'Gamaleya Research Institute';'Gamaleya Research Institute';;'22';'0';'L';'2.16.840.1.113883.3.6905.4:Gamaleya-Research-Institute';;;'2.6.0+20230724'
'AUSL_000005';'1.2.40.0.34.4.16.1';'COVID-19-Impfstoff EpiVacCorona (Vektor-Institut)';'https://termgit.elga.gv.at/CodeSystem/eimpf-impfstoffe';'Vector Institute';'Vector Institute';;'23';'0';'L';'2.16.840.1.113883.3.6905.4:Vector-Institute';;;'2.6.0+20230724'
'AUSL_000008';'1.2.40.0.34.4.16.1';'COVID-19-Impfstoff CoronaVac (Sinovac Biotech)';'https://termgit.elga.gv.at/CodeSystem/eimpf-impfstoffe';'Sinovac Biotech';'Sinovac Biotech';;'24';'0';'L';'2.16.840.1.113883.3.6905.4:Sinovac-Biotech';;;'2.6.0+20230724'
'AUSL_000009';'1.2.40.0.34.4.16.1';'COVID-19-Impfstoff Covaxin (Bharat Biotech)';'https://termgit.elga.gv.at/CodeSystem/eimpf-impfstoffe';'Bharat Biotech';'Bharat Biotech';;'25';'0';'L';'2.16.840.1.113883.3.6905.4:Bharat-Biotech';;;'2.6.0+20230724'
'AUSL_000010';'1.2.40.0.34.4.16.1';'COVID-19-Impfstoff Covishield (Serum Institute of India)';'https://termgit.elga.gv.at/CodeSystem/eimpf-impfstoffe';'Serum Institute of India';'Serum Institute of India';;'26';'0';'L';'2.16.840.1.113883.3.6905.4:ORG-100001981';;;'2.6.0+20230724'
'AUSL_000011';'1.2.40.0.34.4.16.1';'COVID-19-Impfstoff Covid-19 (recombinant) (Fiocruz)';'https://termgit.elga.gv.at/CodeSystem/eimpf-impfstoffe';'Fiocruz';'Fiocruz';;'27';'0';'L';'2.16.840.1.113883.3.6905.4:Fiocruz';;;'2.6.0+20230724'
'AUSL_000012';'1.2.40.0.34.4.16.1';'COVID-19-Impfstoff R-COVI (R-Pharm CJSC)';'https://termgit.elga.gv.at/CodeSystem/eimpf-impfstoffe';'R-Pharm CJSC';'R-Pharm CJSC';;'28';'0';'L';'2.16.840.1.113883.3.6905.4:ORG-100007893';;;'2.6.0+20230724'
'AUSL_000013';'1.2.40.0.34.4.16.1';'COVID-19-Impfstoff CoviVac (Chumakov-Federal-Scientific-Center)';'https://termgit.elga.gv.at/CodeSystem/eimpf-impfstoffe';'Chumakov-Federal-Scientific-Center';'Chumakov-Federal-Scientific-Center';;'29';'0';'L';'2.16.840.1.113883.3.6905.4:Chumakov-Federal-Scientific-Center';;;'2.6.0+20230724'
'AUSL_000014';'1.2.40.0.34.4.16.1';'COVID-19-Impfstoff Sputnik-Light (Gamaleya)';'https://termgit.elga.gv.at/CodeSystem/eimpf-impfstoffe';'Gamaleya-Research-Institute';'Gamaleya-Research-Institute';;'30';'0';'L';'2.16.840.1.113883.3.6905.4:Gamaleya-Research-Institute';;;'2.6.0+20230724'
'AUSL_000015';'1.2.40.0.34.4.16.1';'COVID-19-Impfstoff Hayat-Vax (Gulf Pharmaceutical Industries)';'https://termgit.elga.gv.at/CodeSystem/eimpf-impfstoffe';'Gulf Pharmaceutical Industries';'Gulf Pharmaceutical Industries';;'31';'0';'L';'2.16.840.1.113883.3.6905.4:ORG-100023050';;;'2.6.0+20230724'
'AUSL_000016';'1.2.40.0.34.4.16.1';'COVID-19-Impfstoff Abdala (Center for Genetic Engineering and Biotechnology)';'https://termgit.elga.gv.at/CodeSystem/eimpf-impfstoffe';'Center for Genetic Engineering and Biotechnology (CIGB)';'Center for Genetic Engineering and Biotechnology (CIGB)';;'32';'0';'L';'2.16.840.1.113883.3.6905.4:CIGB';;;'2.6.0+20230724'
'AUSL_000017';'1.2.40.0.34.4.16.1';'COVID-19-Impfstoff WIBP-CorV (Sinopharm - Wuhan Institute of Biological Products)';'https://termgit.elga.gv.at/CodeSystem/eimpf-impfstoffe';'Sinopharm - Wuhan Institute of Biological Products';'Sinopharm - Wuhan Institute of Biological Products';;'33';'0';'L';'2.16.840.1.113883.3.6905.4:Sinopharm-WIBP';;;'2.6.0+20230724'
'AUSL_000018';'1.2.40.0.34.4.16.1';'COVID-19-Impfstoff MVC COVID-19 vaccine (Medigen Vaccine Biologics Corporation)';'https://termgit.elga.gv.at/CodeSystem/eimpf-impfstoffe';'Medigen Vaccine Biologics Corporation';'Medigen Vaccine Biologics Corporation';;'34';'0';'L';'2.16.840.1.113883.3.6905.4:ORG-100033914';;;'2.6.0+20230724'
'AUSL_000019';'1.2.40.0.34.4.16.1';'COVID-19-Impfstoff Covovax (Serum Institute Of India Private Limited)';'https://termgit.elga.gv.at/CodeSystem/eimpf-impfstoffe';'Serum Institute Of India Private Limited';'Serum Institute Of India Private Limited';;'35';'0';'L';'2.16.840.1.113883.3.6905.4:ORG-100001981';;;'2.6.0+20230724'
'AUSL_000020';'1.2.40.0.34.4.16.1';'COVID-19-Impfstoff Vidprevtyn (Sanofi Pasteur)';'https://termgit.elga.gv.at/CodeSystem/eimpf-impfstoffe';'Sanofi Pasteur';'Sanofi Pasteur';'DEPRECATED';'36';'0';'D';'2.16.840.1.113883.3.6905.4:ORG-100000788';;;'2.6.0+20230724'
'AUSL_000021';'1.2.40.0.34.4.16.1';'COVID-19-Impfstoff VLA2001 (Valneva France)';'https://termgit.elga.gv.at/CodeSystem/eimpf-impfstoffe';'Valneva France';'Valneva France';'DEPRECATED';'37';'0';'D';'2.16.840.1.113883.3.6905.4:ORG-100036422';;;'2.6.0+20230724'
'AUSL_000022';'1.2.40.0.34.4.16.1';'COVID-19-Impfstoff EpiVacCorona-N (Vector Institute)';'https://termgit.elga.gv.at/CodeSystem/eimpf-impfstoffe';'Vector Institute';'Vector Institute';;'38';'0';'L';'2.16.840.1.113883.3.6905.4:Vector-Institute';;;'2.6.0+20230724'
'AUSL_000023';'1.2.40.0.34.4.16.1';'COVID-19-Impfstoff Sputnik-M (Gamaleya Research Institute)';'https://termgit.elga.gv.at/CodeSystem/eimpf-impfstoffe';'Gamaleya Research Institute';'Gamaleya Research Institute';;'39';'0';'L';'2.16.840.1.113883.3.6905.4:Gamaleya-Research-Institute';;;'2.6.0+20230724'
'AUSL_000024';'1.2.40.0.34.4.16.1';'COVID-19-Impfstoff Vacina adsorvida covid-19 (inativada) (Instituto Butantan)';'https://termgit.elga.gv.at/CodeSystem/eimpf-impfstoffe';'Instituto Butantan';'Instituto Butantan';;'40';'0';'L';'2.16.840.1.113883.3.6905.4:Instituto-Butantan';;;'2.6.0+20230724'
'AUSL_000025';'1.2.40.0.34.4.16.1';'COVID-19-Impfstoff NVSI-06-08 (National Vaccine and Serum Institute, China)';'https://termgit.elga.gv.at/CodeSystem/eimpf-impfstoffe';'National Vaccine and Serum Institute, China';'National Vaccine and Serum Institute, China';;'41';'0';'L';'2.16.840.1.113883.3.6905.4:NVSI';;;'2.6.0+20230724'
'AUSL_000026';'1.2.40.0.34.4.16.1';'COVID-19-Impfstoff YS-SC2-010 (Yisheng Biopharma)';'https://termgit.elga.gv.at/CodeSystem/eimpf-impfstoffe';'Yisheng Biopharma';'Yisheng Biopharma';;'42';'0';'L';'2.16.840.1.113883.3.6905.4:Yisheng-Biopharma';;;'2.6.0+20230724'
'AUSL_000027';'1.2.40.0.34.4.16.1';'COVID-19-Impfstoff SCTV01C (Sinocelltech Ltd.)';'https://termgit.elga.gv.at/CodeSystem/eimpf-impfstoffe';'Sinocelltech Ltd.';'Sinocelltech Ltd.';;'43';'0';'L';'2.16.840.1.113883.3.6905.4:ORG-100026614';;;'2.6.0+20230724'
'AUSL_000028';'1.2.40.0.34.4.16.1';'COVID-19-Impfstoff Covifenz (Medicago Inc.)';'https://termgit.elga.gv.at/CodeSystem/eimpf-impfstoffe';'Medicago Inc';'Medicago Inc';;'44';'0';'L';'2.16.840.1.113883.3.6905.4: ORG-100008549';;;'2.6.0+20230724'
'AUSL_000029';'1.2.40.0.34.4.16.1';'COVID-19-Impfstoff AZD2816 (AstraZeneca AB)';'https://termgit.elga.gv.at/CodeSystem/eimpf-impfstoffe';'AstraZeneca AB';'AstraZeneca AB';;'45';'0';'L';'2.16.840.1.113883.3.6905.4:ORG-100001699';;;'2.6.0+20230724'
'AUSL_000030';'1.2.40.0.34.4.16.1';'COVID-19-Impfstoff Soberana 02 (Finlay-Institute)';'https://termgit.elga.gv.at/CodeSystem/eimpf-impfstoffe';'Finlay Institute of Vaccines';'Finlay Institute of Vaccines';;'46';'0';'L';'2.16.840.1.113883.3.6905.4:Finlay-Institute';;;'2.6.0+20230724'
'AUSL_000031';'1.2.40.0.34.4.16.1';'COVID-19-Impfstoff Soberana Plus (Finlay-Institute)';'https://termgit.elga.gv.at/CodeSystem/eimpf-impfstoffe';'Finlay Institute of Vaccines';'Finlay Institute of Vaccines';;'47';'0';'L';'2.16.840.1.113883.3.6905.4:Finlay-Institute';;;'2.6.0+20230724'
'5517831';'1.2.40.0.34.4.16.1';'SPIKEVAX COV19 BA1 FSPR 10x1';'https://termgit.elga.gv.at/CodeSystem/eimpf-impfstoffe';'Moderna Biotech Spain S.L.';'Moderna Biotech Spain S.L.';;'48';'0';'L';'2.16.840.1.113883.3.6905.4:ORG-100031184';;;'2.6.0+20230724'
'5517825';'1.2.40.0.34.4.16.1';'SPIKEVAX COV19 BA1      10x1';'https://termgit.elga.gv.at/CodeSystem/eimpf-impfstoffe';'Moderna Biotech Spain S.L.';'Moderna Biotech Spain S.L.';;'49';'0';'L';'2.16.840.1.113883.3.6905.4:ORG-100031184';;;'2.6.0+20230724'
'5517015';'1.2.40.0.34.4.16.1';'COMIRNATY KO5/5 BA4/5  10x10';'https://termgit.elga.gv.at/CodeSystem/eimpf-impfstoffe';'Biontech Manufacturing GmbH';'Biontech Manufacturing GmbH';;'50';'0';'L';'2.16.840.1.113883.3.6905.4:ORG-100030215';;;'2.6.0+20230724'
'5516984';'1.2.40.0.34.4.16.1';'COMIRNATY KO3          10x10';'https://termgit.elga.gv.at/CodeSystem/eimpf-impfstoffe';'Biontech Manufacturing GmbH';'Biontech Manufacturing GmbH';;'51';'0';'L';'2.16.840.1.113883.3.6905.4:ORG-100030215';;;'2.6.0+20230724'
'5516990';'1.2.40.0.34.4.16.1';'COMIRNATY KO1,5/1,5    10x10';'https://termgit.elga.gv.at/CodeSystem/eimpf-impfstoffe';'Biontech Manufacturing GmbH';'Biontech Manufacturing GmbH';;'52';'0';'L';'2.16.840.1.113883.3.6905.4:ORG-100030215';;;'2.6.0+20230724'
'5517908';'1.2.40.0.34.4.16.1';'VIDPREVTYN COV19       10x10';'https://termgit.elga.gv.at/CodeSystem/eimpf-impfstoffe';'Sanofi Pasteur';'Sanofi Pasteur';;'53';'0';'L';'2.16.840.1.113883.3.6905.4:ORG-100000788';;;'2.6.0+20230724'
'5518730';'1.2.40.0.34.4.16.1';'SPIKEVAX COV19 BA4/5    10x5';'https://termgit.elga.gv.at/CodeSystem/eimpf-impfstoffe';'Moderna Biotech Spain S.L.';'Moderna Biotech Spain S.L.';;'54';'0';'L';'2.16.840.1.113883.3.6905.4:ORG-100031184';;;'2.6.0+20230724'
'5520483';'1.2.40.0.34.4.16.1';'SPIKEVAX COV19 BA4/5    10x1';'https://termgit.elga.gv.at/CodeSystem/eimpf-impfstoffe';'Moderna Biotech Spain S.L.';'Moderna Biotech Spain S.L.';;'55';'0';'L';'2.16.840.1.113883.3.6905.4:ORG-100031184';;;'2.6.0+20230724'
