{
  "resourceType": "CodeSystem",
  "id": "ems-tbc-resistenzergaenzung",
  "url": "https://termgit.elga.gv.at/CodeSystem/ems-tbc-resistenzergaenzung",
  "identifier": [
    {
      "use": "official",
      "system": "urn:ietf:rfc:3986",
      "value": "urn:oid:1.2.40.0.34.5.67"
    }
  ],
  "version": "1.0.0+20230131",
  "name": "ems-tbc-resistenzergaenzung",
  "title": "EMS_TBC_ResistenzErgaenzung",
  "status": "active",
  "date": "2017-01-26",
  "description": "Resistenzpr\u00fcfung TBC f\u00fcr INH, RMP, EMB, SM, AMK, KM, CM, CIP, OFX, PZA, MFX, PAS, CS, LZD, PTO, RFB",
  "content": "complete",
  "count": 3,
  "concept": [
    {
      "code": "GET_BEFNOTPOS",
      "display": "Getestet - Befundung nicht m\u00f6glich"
    },
    {
      "code": "GET_ERGMISS",
      "display": "Getestet - Ergebnis noch ausst\u00e4ndig"
    },
    {
      "code": "NICHTGET",
      "display": "nicht getestet"
    }
  ]
}