'code';'codeSystem';'displayName';'parentCodeSystemName';'concept_Beschreibung';'meaning';'hints';'orderNumber';'level';'type';'relationships';'einheit print';'einheit codiert';'codeSystemVersion'
'111209006';'2.16.840.1.113883.6.96';'Photoallergische Dermatitis';'https://termgit.elga.gv.at/CodeSystem/snomed-ct-auszug';;;;'1';'0';'L';;;;'1.2.0+20230308'
'115664001';'2.16.840.1.113883.6.96';'Photoallergische Dermatitis [veraltet]';'https://termgit.elga.gv.at/CodeSystem/snomed-ct-auszug';;'Photoallergische Dermatitis';'DEPRECATED, ersetzt durch 111209006';'2';'0';'D';;;;'1.2.0+20230308'
'126485001';'2.16.840.1.113883.6.96';'Urtikaria';'https://termgit.elga.gv.at/CodeSystem/snomed-ct-auszug';;'Urtikaria~Nesselsucht';;'3';'0';'L';;;;'1.2.0+20230308'
'162290004';'2.16.840.1.113883.6.96';'Trockenheit der Augen';'https://termgit.elga.gv.at/CodeSystem/snomed-ct-auszug';;;;'4';'0';'L';;;;'1.2.0+20230308'
'195967001';'2.16.840.1.113883.6.96';'Asthma';'https://termgit.elga.gv.at/CodeSystem/snomed-ct-auszug';;'Asthma~Asthma bronchiale';;'5';'0';'L';;;;'1.2.0+20230308'
'23924001';'2.16.840.1.113883.6.96';'Brustschmerzen';'https://termgit.elga.gv.at/CodeSystem/snomed-ct-auszug';;'Brustschmerzen~Engegefühl in der Brust';;'6';'0';'L';;;;'1.2.0+20230308'
'24079001';'2.16.840.1.113883.6.96';'Atopische Dermatitis';'https://termgit.elga.gv.at/CodeSystem/snomed-ct-auszug';;'Atopische Dermatitis~Atopisches Ekzem~Neurodermitis';;'7';'0';'L';;;;'1.2.0+20230308'
'247471006';'2.16.840.1.113883.6.96';'Makulopapulöser Ausschlag';'https://termgit.elga.gv.at/CodeSystem/snomed-ct-auszug';;;;'8';'0';'L';;;;'1.2.0+20230308'
'247472004';'2.16.840.1.113883.6.96';'Quaddeln';'https://termgit.elga.gv.at/CodeSystem/snomed-ct-auszug';;'Quaddeln~Striemen~Hautrötungen';;'9';'0';'L';;;;'1.2.0+20230308'
'267036007';'2.16.840.1.113883.6.96';'Atemnot';'https://termgit.elga.gv.at/CodeSystem/snomed-ct-auszug';;'Atemnot~Atemlosigkeit~Kurzatmigkeit';;'10';'0';'L';;;;'1.2.0+20230308'
'271757001';'2.16.840.1.113883.6.96';'Papulöser Ausschlag';'https://termgit.elga.gv.at/CodeSystem/snomed-ct-auszug';;'Papulöser Ausschlag~Papeln';;'11';'0';'L';;;;'1.2.0+20230308'
'271759003';'2.16.840.1.113883.6.96';'Bullöse Eruption';'https://termgit.elga.gv.at/CodeSystem/snomed-ct-auszug';;'Bullöse Eruption~Dermatose';;'12';'0';'L';;;;'1.2.0+20230308'
'271807003';'2.16.840.1.113883.6.96';'Hautausschlag';'https://termgit.elga.gv.at/CodeSystem/snomed-ct-auszug';;;;'13';'0';'L';;;;'1.2.0+20230308'
'31996006';'2.16.840.1.113883.6.96';'Vaskulitis';'https://termgit.elga.gv.at/CodeSystem/snomed-ct-auszug';;'Vaskulitis~Gefäßentzündung';;'14';'0';'L';;;;'1.2.0+20230308'
'359610006';'2.16.840.1.113883.6.96';'Augenrötung [veraltet]';'https://termgit.elga.gv.at/CodeSystem/snomed-ct-auszug';;'Augenrötung';'DEPRECATED, ersetzt durch 781682005';'15';'0';'D';;;;'1.2.0+20230308'
'36715001';'2.16.840.1.113883.6.96';'Erythema exsudativum multiforme';'https://termgit.elga.gv.at/CodeSystem/snomed-ct-auszug';;;;'16';'0';'L';;;;'1.2.0+20230308'
'3723001';'2.16.840.1.113883.6.96';'Arthritis';'https://termgit.elga.gv.at/CodeSystem/snomed-ct-auszug';;;;'17';'0';'L';;;;'1.2.0+20230308'
'39579001';'2.16.840.1.113883.6.96';'Anaphylaxie';'https://termgit.elga.gv.at/CodeSystem/snomed-ct-auszug';;;;'18';'0';'L';;;;'1.2.0+20230308'
'40275004';'2.16.840.1.113883.6.96';'Kontaktdermatitis';'https://termgit.elga.gv.at/CodeSystem/snomed-ct-auszug';;;;'19';'0';'L';;;;'1.2.0+20230308'
'410430005';'2.16.840.1.113883.6.96';'Herzstillstand';'https://termgit.elga.gv.at/CodeSystem/snomed-ct-auszug';;'Herzstillstand~Kreislaufstillstand';;'20';'0';'L';;;;'1.2.0+20230308'
'41291007';'2.16.840.1.113883.6.96';'Angioödem';'https://termgit.elga.gv.at/CodeSystem/snomed-ct-auszug';;;;'21';'0';'L';;;;'1.2.0+20230308'
'418290006';'2.16.840.1.113883.6.96';'Juckreiz';'https://termgit.elga.gv.at/CodeSystem/snomed-ct-auszug';;;;'22';'0';'L';;;;'1.2.0+20230308'
'418363000';'2.16.840.1.113883.6.96';'Hautjuckreiz';'https://termgit.elga.gv.at/CodeSystem/snomed-ct-auszug';;;;'23';'0';'L';;;;'1.2.0+20230308'
'422400008';'2.16.840.1.113883.6.96';'Erbrechen';'https://termgit.elga.gv.at/CodeSystem/snomed-ct-auszug';;'Erbrechen~Emesis~Vomitus';;'24';'0';'L';;;;'1.2.0+20230308'
'422587007';'2.16.840.1.113883.6.96';'Übelkeit';'https://termgit.elga.gv.at/CodeSystem/snomed-ct-auszug';;;;'25';'0';'L';;;;'1.2.0+20230308'
'43116000';'2.16.840.1.113883.6.96';'Ekzem';'https://termgit.elga.gv.at/CodeSystem/snomed-ct-auszug';;'Ekzem~Juckflechte';;'26';'0';'L';;;;'1.2.0+20230308'
'4386001';'2.16.840.1.113883.6.96';'Bronchospasmus';'https://termgit.elga.gv.at/CodeSystem/snomed-ct-auszug';;;;'27';'0';'L';;;;'1.2.0+20230308'
'49727002';'2.16.840.1.113883.6.96';'Husten';'https://termgit.elga.gv.at/CodeSystem/snomed-ct-auszug';;;;'28';'0';'L';;;;'1.2.0+20230308'
'51599000';'2.16.840.1.113883.6.96';'Larynxödem';'https://termgit.elga.gv.at/CodeSystem/snomed-ct-auszug';;'Larynxödem~Kehlkopfödem';;'29';'0';'L';;;;'1.2.0+20230308'
'52845002';'2.16.840.1.113883.6.96';'Nephritis';'https://termgit.elga.gv.at/CodeSystem/snomed-ct-auszug';;'Nephritis~Nierenentzündung';;'30';'0';'L';;;;'1.2.0+20230308'
'62315008';'2.16.840.1.113883.6.96';'Diarrhoe';'https://termgit.elga.gv.at/CodeSystem/snomed-ct-auszug';;'Diarrhoe~Durchfall';;'31';'0';'L';;;;'1.2.0+20230308'
'698247007';'2.16.840.1.113883.6.96';'Herzrhythmusstörung';'https://termgit.elga.gv.at/CodeSystem/snomed-ct-auszug';;;;'32';'0';'L';;;;'1.2.0+20230308'
'70076002';'2.16.840.1.113883.6.96';'Rhinitis';'https://termgit.elga.gv.at/CodeSystem/snomed-ct-auszug';;'Rhinitis~Nasenschleimhautentzündung';;'33';'0';'L';;;;'1.2.0+20230308'
'702809001';'2.16.840.1.113883.6.96';'DRESS Syndrom';'https://termgit.elga.gv.at/CodeSystem/snomed-ct-auszug';;;;'34';'0';'L';;;;'1.2.0+20230308'
'73442001';'2.16.840.1.113883.6.96';'Stevens-Johnson-Syndrom';'https://termgit.elga.gv.at/CodeSystem/snomed-ct-auszug';;'Stevens-Johnson-Syndrom~Dermatostomatitis Baader~ Fiessinger-Rendu-Syndrom';;'35';'0';'L';;;;'1.2.0+20230308'
'76067001';'2.16.840.1.113883.6.96';'Niesen';'https://termgit.elga.gv.at/CodeSystem/snomed-ct-auszug';;;;'36';'0';'L';;;;'1.2.0+20230308'
'768962006';'2.16.840.1.113883.6.96';'Lyell-Syndrom';'https://termgit.elga.gv.at/CodeSystem/snomed-ct-auszug';;'Lyell-Syndrom~Epidermolysis acuta toxica';;'37';'0';'L';;;;'1.2.0+20230308'
'781682005';'2.16.840.1.113883.6.96';'Hyperemia of eye';'https://termgit.elga.gv.at/CodeSystem/snomed-ct-auszug';;'Augenrötung';;'38';'0';'L';;;;'1.2.0+20230308'
'91175000';'2.16.840.1.113883.6.96';'Krampfanfall';'https://termgit.elga.gv.at/CodeSystem/snomed-ct-auszug';;;;'39';'0';'L';;;;'1.2.0+20230308'
'95361005';'2.16.840.1.113883.6.96';'Entzündungskrankheiten der Schleimhaut';'https://termgit.elga.gv.at/CodeSystem/snomed-ct-auszug';;;;'40';'0';'L';;;;'1.2.0+20230308'
'9826008';'2.16.840.1.113883.6.96';'Conjunktivitis';'https://termgit.elga.gv.at/CodeSystem/snomed-ct-auszug';;'Conjunktivitis~Konjunktivitis~Bindehautentzündung';;'41';'0';'L';;;;'1.2.0+20230308'
