'code';'codeSystem';'displayName';'parentCode';'concept_Beschreibung';'meaning';'hints';'level';'type';'relationships'
'{HUB}';'1.2.40.0.10.1.4.3.4.3.2';'Actuation';'';'';'';'';'0';'L';''
'{TAB}';'1.2.40.0.10.1.4.3.4.3.2';'Tablet';'';'';'';'';'0';'L';''
