'code';'codeSystem';'displayName';'parentCodeSystemName';'concept_Beschreibung';'meaning';'hints';'orderNumber';'level';'type';'relationships';'einheit print';'einheit codiert';'codeSystemVersion'
'100000073370';'1.2.40.0.10.1.4.3.4.3.5';'Arzneitee';'https://termgit.elga.gv.at/CodeSystem/medikationdarreichungsform';;;;'1';'0';'L';;;;'2.9.0+20240226'
'900000000043';'1.2.40.0.10.1.4.3.4.3.5';'Augen- und Nasensalbe';'https://termgit.elga.gv.at/CodeSystem/medikationdarreichungsform';;;;'2';'0';'L';;;;'2.9.0+20240226'
'100000116151';'1.2.40.0.10.1.4.3.4.3.5';'Augen-/Ohren-/Nasentropfen, Lösung';'https://termgit.elga.gv.at/CodeSystem/medikationdarreichungsform';;;;'3';'0';'L';;;;'2.9.0+20240226'
'100000073758';'1.2.40.0.10.1.4.3.4.3.5';'Augengel';'https://termgit.elga.gv.at/CodeSystem/medikationdarreichungsform';;;;'4';'0';'L';;;;'2.9.0+20240226'
'100000073777';'1.2.40.0.10.1.4.3.4.3.5';'Augeninsert';'https://termgit.elga.gv.at/CodeSystem/medikationdarreichungsform';;;;'5';'0';'L';;;;'2.9.0+20240226'
'100000073772';'1.2.40.0.10.1.4.3.4.3.5';'Augensalbe';'https://termgit.elga.gv.at/CodeSystem/medikationdarreichungsform';;;;'6';'0';'L';;;;'2.9.0+20240226'
'100000073773';'1.2.40.0.10.1.4.3.4.3.5';'Augentropfen, Emulsion';'https://termgit.elga.gv.at/CodeSystem/medikationdarreichungsform';;;;'7';'0';'L';;;;'2.9.0+20240226'
'100000073759';'1.2.40.0.10.1.4.3.4.3.5';'Augentropfen, Lösung';'https://termgit.elga.gv.at/CodeSystem/medikationdarreichungsform';;;;'8';'0';'L';;;;'2.9.0+20240226'
'100000073997';'1.2.40.0.10.1.4.3.4.3.5';'Augentropfen, Lösung im Einzeldosisbehältnis';'https://termgit.elga.gv.at/CodeSystem/medikationdarreichungsform';;;;'9';'0';'L';;;;'2.9.0+20240226'
'100000073760';'1.2.40.0.10.1.4.3.4.3.5';'Augentropfensuspension';'https://termgit.elga.gv.at/CodeSystem/medikationdarreichungsform';;;;'10';'0';'L';;;;'2.9.0+20240226'
'100000073711';'1.2.40.0.10.1.4.3.4.3.5';'Badezusatz';'https://termgit.elga.gv.at/CodeSystem/medikationdarreichungsform';;;;'11';'0';'L';;;;'2.9.0+20240226'
'100000116144';'1.2.40.0.10.1.4.3.4.3.5';'Befilmtes Granulat im Beutel';'https://termgit.elga.gv.at/CodeSystem/medikationdarreichungsform';;;;'12';'0';'L';;;;'2.9.0+20240226'
'100000073879';'1.2.40.0.10.1.4.3.4.3.5';'Blasenspüllösung';'https://termgit.elga.gv.at/CodeSystem/medikationdarreichungsform';;;;'13';'0';'L';;;;'2.9.0+20240226'
'100000073657';'1.2.40.0.10.1.4.3.4.3.5';'Brausegranulat';'https://termgit.elga.gv.at/CodeSystem/medikationdarreichungsform';;;;'14';'0';'L';;;;'2.9.0+20240226'
'100000073656';'1.2.40.0.10.1.4.3.4.3.5';'Brausepulver';'https://termgit.elga.gv.at/CodeSystem/medikationdarreichungsform';;;;'15';'0';'L';;;;'2.9.0+20240226'
'100000073681';'1.2.40.0.10.1.4.3.4.3.5';'Brausetablette';'https://termgit.elga.gv.at/CodeSystem/medikationdarreichungsform';;;;'16';'0';'L';;;;'2.9.0+20240226'
'100000075574';'1.2.40.0.10.1.4.3.4.3.5';'Buccalfilm';'https://termgit.elga.gv.at/CodeSystem/medikationdarreichungsform';;;;'17';'0';'L';;;;'2.9.0+20240226'
'100000073699';'1.2.40.0.10.1.4.3.4.3.5';'Buccaltablette';'https://termgit.elga.gv.at/CodeSystem/medikationdarreichungsform';;;;'18';'0';'L';;;;'2.9.0+20240226'
'100000073972';'1.2.40.0.10.1.4.3.4.3.5';'Concentrate and solvent for concentrate for solution for infusion';'https://termgit.elga.gv.at/CodeSystem/medikationdarreichungsform';;;;'19';'0';'L';;;;'2.9.0+20240226'
'100000073975';'1.2.40.0.10.1.4.3.4.3.5';'Concentrate and solvent for solution for infusion';'https://termgit.elga.gv.at/CodeSystem/medikationdarreichungsform';;;;'20';'0';'L';;;;'2.9.0+20240226'
'100000073989';'1.2.40.0.10.1.4.3.4.3.5';'Concentrate and solvent for solution for injection';'https://termgit.elga.gv.at/CodeSystem/medikationdarreichungsform';;;;'21';'0';'L';;;;'2.9.0+20240226'
'100000111534';'1.2.40.0.10.1.4.3.4.3.5';'Concentrate for dispersion for infusion';'https://termgit.elga.gv.at/CodeSystem/medikationdarreichungsform';;;;'22';'0';'L';;;;'2.9.0+20240226'
'100000073712';'1.2.40.0.10.1.4.3.4.3.5';'Creme';'https://termgit.elga.gv.at/CodeSystem/medikationdarreichungsform';;;;'23';'0';'L';;;;'2.9.0+20240226'
'100000073705';'1.2.40.0.10.1.4.3.4.3.5';'Dentalgel';'https://termgit.elga.gv.at/CodeSystem/medikationdarreichungsform';;;;'24';'0';'L';;;;'2.9.0+20240226'
'100000073723';'1.2.40.0.10.1.4.3.4.3.5';'Dentallösung';'https://termgit.elga.gv.at/CodeSystem/medikationdarreichungsform';;;;'25';'0';'L';;;;'2.9.0+20240226'
'900000000034';'1.2.40.0.10.1.4.3.4.3.5';'Dentalpaste';'https://termgit.elga.gv.at/CodeSystem/medikationdarreichungsform';;;;'26';'0';'L';;;;'2.9.0+20240226'
'100000169806';'1.2.40.0.10.1.4.3.4.3.5';'Depot-Injektionslösung';'https://termgit.elga.gv.at/CodeSystem/medikationdarreichungsform';;;;'27';'0';'L';;;;'2.9.0+20240226'
'100000174034';'1.2.40.0.10.1.4.3.4.3.5';'Dispersion zur Injektion /Infusion';'https://termgit.elga.gv.at/CodeSystem/medikationdarreichungsform';;;;'28';'0';'L';;;;'2.9.0+20240226'
'100000073848';'1.2.40.0.10.1.4.3.4.3.5';'Druckgasinhalation, Lösung';'https://termgit.elga.gv.at/CodeSystem/medikationdarreichungsform';;;;'29';'0';'L';;;;'2.9.0+20240226'
'100000073838';'1.2.40.0.10.1.4.3.4.3.5';'Druckgasinhalation, Suspension';'https://termgit.elga.gv.at/CodeSystem/medikationdarreichungsform';;;;'30';'0';'L';;;;'2.9.0+20240226'
'100000073840';'1.2.40.0.10.1.4.3.4.3.5';'einzeldosiertes Pulver zur Inhalation';'https://termgit.elga.gv.at/CodeSystem/medikationdarreichungsform';;;;'31';'0';'L';;;;'2.9.0+20240226'
'100000073996';'1.2.40.0.10.1.4.3.4.3.5';'Emulsion for injection/infusion';'https://termgit.elga.gv.at/CodeSystem/medikationdarreichungsform';;;;'32';'0';'L';;;;'2.9.0+20240226'
'100000125739';'1.2.40.0.10.1.4.3.4.3.5';'Emulsion for injection/infusion in pre-filled syringe';'https://termgit.elga.gv.at/CodeSystem/medikationdarreichungsform';;;;'33';'0';'L';;;;'2.9.0+20240226'
'100000073647';'1.2.40.0.10.1.4.3.4.3.5';'Emulsion zum Einnehmen';'https://termgit.elga.gv.at/CodeSystem/medikationdarreichungsform';;;;'34';'0';'L';;;;'2.9.0+20240226'
'100000073719';'1.2.40.0.10.1.4.3.4.3.5';'Emulsion zur Anwendung auf der Haut';'https://termgit.elga.gv.at/CodeSystem/medikationdarreichungsform';;;;'35';'0';'L';;;;'2.9.0+20240226'
'100000073858';'1.2.40.0.10.1.4.3.4.3.5';'Emulsion zur Infusion';'https://termgit.elga.gv.at/CodeSystem/medikationdarreichungsform';;;;'36';'0';'L';;;;'2.9.0+20240226'
'100000073856';'1.2.40.0.10.1.4.3.4.3.5';'Emulsion zur Injektion';'https://termgit.elga.gv.at/CodeSystem/medikationdarreichungsform';;;;'37';'0';'L';;;;'2.9.0+20240226'
'900000000036';'1.2.40.0.10.1.4.3.4.3.5';'Emulsion zur urethralen Instillation';'https://termgit.elga.gv.at/CodeSystem/medikationdarreichungsform';;;;'38';'0';'L';;;;'2.9.0+20240226'
'100000073735';'1.2.40.0.10.1.4.3.4.3.5';'filmbildende Flüssigkeit';'https://termgit.elga.gv.at/CodeSystem/medikationdarreichungsform';;;;'39';'0';'L';;;;'2.9.0+20240226'
'100000073665';'1.2.40.0.10.1.4.3.4.3.5';'Filmtablette';'https://termgit.elga.gv.at/CodeSystem/medikationdarreichungsform';;;;'40';'0';'L';;;;'2.9.0+20240226'
'100000073645';'1.2.40.0.10.1.4.3.4.3.5';'Flüssigkeit zum Einnehmen';'https://termgit.elga.gv.at/CodeSystem/medikationdarreichungsform';;;;'41';'0';'L';;;;'2.9.0+20240226'
'100000073717';'1.2.40.0.10.1.4.3.4.3.5';'Flüssigkeit zur Anwendung auf der Haut';'https://termgit.elga.gv.at/CodeSystem/medikationdarreichungsform';;;;'42';'0';'L';;;;'2.9.0+20240226'
'100000073854';'1.2.40.0.10.1.4.3.4.3.5';'Flüssigkeit zur Herstellung eines Dampfs zur Inhalation';'https://termgit.elga.gv.at/CodeSystem/medikationdarreichungsform';;;;'43';'0';'L';;;;'2.9.0+20240226'
'100000073929';'1.2.40.0.10.1.4.3.4.3.5';'Gas zur medizinischen Anwendung, druckverdichtet';'https://termgit.elga.gv.at/CodeSystem/medikationdarreichungsform';;;;'44';'0';'L';;;;'2.9.0+20240226'
'100000073945';'1.2.40.0.10.1.4.3.4.3.5';'Gas zur medizinischen Anwendung, kälteverflüssigt';'https://termgit.elga.gv.at/CodeSystem/medikationdarreichungsform';;;;'45';'0';'L';;;;'2.9.0+20240226'
'100000073930';'1.2.40.0.10.1.4.3.4.3.5';'Gas zur medizinischen Anwendung, verflüssigt';'https://termgit.elga.gv.at/CodeSystem/medikationdarreichungsform';;;;'46';'0';'L';;;;'2.9.0+20240226'
'100000073726';'1.2.40.0.10.1.4.3.4.3.5';'Gel';'https://termgit.elga.gv.at/CodeSystem/medikationdarreichungsform';;;;'47';'0';'L';;;;'2.9.0+20240226'
'100000073363';'1.2.40.0.10.1.4.3.4.3.5';'Gel zum Einnehmen';'https://termgit.elga.gv.at/CodeSystem/medikationdarreichungsform';;;;'48';'0';'L';;;;'2.9.0+20240226'
'100000073680';'1.2.40.0.10.1.4.3.4.3.5';'Gel zur Anwendung am Zahnfleisch';'https://termgit.elga.gv.at/CodeSystem/medikationdarreichungsform';;;;'49';'0';'L';;;;'2.9.0+20240226'
'100000073880';'1.2.40.0.10.1.4.3.4.3.5';'Gel zur Anwendung in der Harnröhre';'https://termgit.elga.gv.at/CodeSystem/medikationdarreichungsform';;;;'50';'0';'L';;;;'2.9.0+20240226'
'100000073695';'1.2.40.0.10.1.4.3.4.3.5';'Gel zur Anwendung in der Mundhöhle';'https://termgit.elga.gv.at/CodeSystem/medikationdarreichungsform';;;;'51';'0';'L';;;;'2.9.0+20240226'
'100000073903';'1.2.40.0.10.1.4.3.4.3.5';'Gel zur endozervikalen Anwendung';'https://termgit.elga.gv.at/CodeSystem/medikationdarreichungsform';;;;'52';'0';'L';;;;'2.9.0+20240226'
'100000073943';'1.2.40.0.10.1.4.3.4.3.5';'Gel zur intestinalen Anwendung';'https://termgit.elga.gv.at/CodeSystem/medikationdarreichungsform';;;;'53';'0';'L';;;;'2.9.0+20240226'
'200000003971';'1.2.40.0.10.1.4.3.4.3.5';'Gel zur intrauterinen Anwendung';'https://termgit.elga.gv.at/CodeSystem/medikationdarreichungsform';;;;'54';'0';'L';;;;'2.9.0+20240226'
'100000073710';'1.2.40.0.10.1.4.3.4.3.5';'Gel zur periodontalen Anwendung';'https://termgit.elga.gv.at/CodeSystem/medikationdarreichungsform';;;;'55';'0';'L';;;;'2.9.0+20240226'
'100000073925';'1.2.40.0.10.1.4.3.4.3.5';'Gewebekleber';'https://termgit.elga.gv.at/CodeSystem/medikationdarreichungsform';;;;'56';'0';'L';;;;'2.9.0+20240226'
'100000073372';'1.2.40.0.10.1.4.3.4.3.5';'Granulat';'https://termgit.elga.gv.at/CodeSystem/medikationdarreichungsform';;;;'57';'0';'L';;;;'2.9.0+20240226'
'200000002229';'1.2.40.0.10.1.4.3.4.3.5';'Granulat zur Entnahme aus Kapseln';'https://termgit.elga.gv.at/CodeSystem/medikationdarreichungsform';;;;'58';'0';'L';;;;'2.9.0+20240226'
'100000073365';'1.2.40.0.10.1.4.3.4.3.5';'Granulat zur Herstellung einer Lösung zum Einnehmen';'https://termgit.elga.gv.at/CodeSystem/medikationdarreichungsform';;;;'59';'0';'L';;;;'2.9.0+20240226'
'100000073650';'1.2.40.0.10.1.4.3.4.3.5';'Granulat zur Herstellung einer Suspension zum Einnehmen';'https://termgit.elga.gv.at/CodeSystem/medikationdarreichungsform';;;;'60';'0';'L';;;;'2.9.0+20240226'
'100000125743';'1.2.40.0.10.1.4.3.4.3.5';'Granules in sachet';'https://termgit.elga.gv.at/CodeSystem/medikationdarreichungsform';;;;'61';'0';'L';;;;'2.9.0+20240226'
'100000073673';'1.2.40.0.10.1.4.3.4.3.5';'Gurgellösung';'https://termgit.elga.gv.at/CodeSystem/medikationdarreichungsform';;;;'62';'0';'L';;;;'2.9.0+20240226'
'100000116157';'1.2.40.0.10.1.4.3.4.3.5';'Hard capsule with gastro-resistant pellets';'https://termgit.elga.gv.at/CodeSystem/medikationdarreichungsform';;;;'63';'0';'L';;;;'2.9.0+20240226'
'100000073375';'1.2.40.0.10.1.4.3.4.3.5';'Hartkapsel';'https://termgit.elga.gv.at/CodeSystem/medikationdarreichungsform';;;;'64';'0';'L';;;;'2.9.0+20240226'
'100000073850';'1.2.40.0.10.1.4.3.4.3.5';'Hartkapsel mit Pulver zur Inhalation';'https://termgit.elga.gv.at/CodeSystem/medikationdarreichungsform';;;;'65';'0';'L';;;;'2.9.0+20240226'
'100000073663';'1.2.40.0.10.1.4.3.4.3.5';'Hartkapsel mit veränderter Wirkstofffreisetzung';'https://termgit.elga.gv.at/CodeSystem/medikationdarreichungsform';;;;'66';'0';'L';;;;'2.9.0+20240226'
'100000073823';'1.2.40.0.10.1.4.3.4.3.5';'Hartkapsel zur vaginalen Anwendung';'https://termgit.elga.gv.at/CodeSystem/medikationdarreichungsform';;;;'67';'0';'L';;;;'2.9.0+20240226'
'100000073662';'1.2.40.0.10.1.4.3.4.3.5';'Hartkapsel, retardiert';'https://termgit.elga.gv.at/CodeSystem/medikationdarreichungsform';;;;'68';'0';'L';;;;'2.9.0+20240226'
'100000073877';'1.2.40.0.10.1.4.3.4.3.5';'Hämodiafiltrationslösung';'https://termgit.elga.gv.at/CodeSystem/medikationdarreichungsform';;;;'69';'0';'L';;;;'2.9.0+20240226'
'100000073886';'1.2.40.0.10.1.4.3.4.3.5';'Hämodialyselösung';'https://termgit.elga.gv.at/CodeSystem/medikationdarreichungsform';;;;'70';'0';'L';;;;'2.9.0+20240226'
'100000073885';'1.2.40.0.10.1.4.3.4.3.5';'Hämofiltrationslösung';'https://termgit.elga.gv.at/CodeSystem/medikationdarreichungsform';;;;'71';'0';'L';;;;'2.9.0+20240226'
'100000073874';'1.2.40.0.10.1.4.3.4.3.5';'Implantat';'https://termgit.elga.gv.at/CodeSystem/medikationdarreichungsform';;;;'72';'0';'L';;;;'2.9.0+20240226'
'100000073744';'1.2.40.0.10.1.4.3.4.3.5';'imprägnierter Verband';'https://termgit.elga.gv.at/CodeSystem/medikationdarreichungsform';;;;'73';'0';'L';;;;'2.9.0+20240226'
'100000073870';'1.2.40.0.10.1.4.3.4.3.5';'Infusionslösung';'https://termgit.elga.gv.at/CodeSystem/medikationdarreichungsform';;;;'74';'0';'L';;;;'2.9.0+20240226'
'100000074021';'1.2.40.0.10.1.4.3.4.3.5';'Inhalation powder, tablet';'https://termgit.elga.gv.at/CodeSystem/medikationdarreichungsform';;;;'75';'0';'L';;;;'2.9.0+20240226'
'100000074070';'1.2.40.0.10.1.4.3.4.3.5';'Inhalationslösung';'https://termgit.elga.gv.at/CodeSystem/medikationdarreichungsform';;;;'76';'0';'L';;;;'2.9.0+20240226'
'100000074038';'1.2.40.0.10.1.4.3.4.3.5';'Injektions-/Infusionslösung';'https://termgit.elga.gv.at/CodeSystem/medikationdarreichungsform';;;;'77';'0';'L';;;;'2.9.0+20240226'
'100000074068';'1.2.40.0.10.1.4.3.4.3.5';'Injektionsdispersion';'https://termgit.elga.gv.at/CodeSystem/medikationdarreichungsform';;;;'78';'0';'L';;;;'2.9.0+20240226'
'200000027808';'1.2.40.0.10.1.4.3.4.3.5';'Injektionsdispersion in einer Fertigspritze';'https://termgit.elga.gv.at/CodeSystem/medikationdarreichungsform';;;;'79';'0';'L';;;;'2.9.0+20240226'
'100000073863';'1.2.40.0.10.1.4.3.4.3.5';'Injektionslösung';'https://termgit.elga.gv.at/CodeSystem/medikationdarreichungsform';;;;'80';'0';'L';;;;'2.9.0+20240226'
'100000166823';'1.2.40.0.10.1.4.3.4.3.5';'Injektionslösung im Fertiginjektor';'https://termgit.elga.gv.at/CodeSystem/medikationdarreichungsform';;;;'81';'0';'L';;;;'2.9.0+20240226'
'100000074039';'1.2.40.0.10.1.4.3.4.3.5';'Injektionslösung im Fertigpen';'https://termgit.elga.gv.at/CodeSystem/medikationdarreichungsform';;;;'82';'0';'L';;;;'2.9.0+20240226'
'100000074047';'1.2.40.0.10.1.4.3.4.3.5';'Injektionslösung in einer Fertigspritze';'https://termgit.elga.gv.at/CodeSystem/medikationdarreichungsform';;;;'83';'0';'L';;;;'2.9.0+20240226'
'100000073864';'1.2.40.0.10.1.4.3.4.3.5';'Injektionssuspension';'https://termgit.elga.gv.at/CodeSystem/medikationdarreichungsform';;;;'84';'0';'L';;;;'2.9.0+20240226'
'100000073895';'1.2.40.0.10.1.4.3.4.3.5';'Intrauterines Wirkstofffreisetzungssystem';'https://termgit.elga.gv.at/CodeSystem/medikationdarreichungsform';;;;'85';'0';'L';;;;'2.9.0+20240226'
'100000073684';'1.2.40.0.10.1.4.3.4.3.5';'Kautablette';'https://termgit.elga.gv.at/CodeSystem/medikationdarreichungsform';;;;'86';'0';'L';;;;'2.9.0+20240226'
'100000073875';'1.2.40.0.10.1.4.3.4.3.5';'Kette zur Implantation';'https://termgit.elga.gv.at/CodeSystem/medikationdarreichungsform';;;;'87';'0';'L';;;;'2.9.0+20240226'
'100000073921';'1.2.40.0.10.1.4.3.4.3.5';'Kit für ein radioaktives Arzneimittel';'https://termgit.elga.gv.at/CodeSystem/medikationdarreichungsform';;;;'88';'0';'L';;;;'2.9.0+20240226'
'900000000008';'1.2.40.0.10.1.4.3.4.3.5';'Konzentrat für eine orale / rektale Suspension';'https://termgit.elga.gv.at/CodeSystem/medikationdarreichungsform';;;;'89';'0';'L';;;;'2.9.0+20240226'
'100000073990';'1.2.40.0.10.1.4.3.4.3.5';'Konzentrat und Lösungsmittel zur Herstellung einer Injektionssuspension';'https://termgit.elga.gv.at/CodeSystem/medikationdarreichungsform';;;;'90';'0';'L';;;;'2.9.0+20240226'
'100000073871';'1.2.40.0.10.1.4.3.4.3.5';'Konzentrat zur Herstellung einer Infusionslösung';'https://termgit.elga.gv.at/CodeSystem/medikationdarreichungsform';;;;'91';'0';'L';;;;'2.9.0+20240226'
'100000074069';'1.2.40.0.10.1.4.3.4.3.5';'Konzentrat zur Herstellung einer Injektions- /Infusionslösung';'https://termgit.elga.gv.at/CodeSystem/medikationdarreichungsform';;;;'92';'0';'L';;;;'2.9.0+20240226'
'200000015705';'1.2.40.0.10.1.4.3.4.3.5';'Konzentrat zur Herstellung einer Injektionsdispersion';'https://termgit.elga.gv.at/CodeSystem/medikationdarreichungsform';;;;'93';'0';'L';;;;'2.9.0+20240226'
'100000073857';'1.2.40.0.10.1.4.3.4.3.5';'Konzentrat zur Herstellung einer Injektionslösung';'https://termgit.elga.gv.at/CodeSystem/medikationdarreichungsform';;;;'94';'0';'L';;;;'2.9.0+20240226'
'100000173999';'1.2.40.0.10.1.4.3.4.3.5';'Konzentrat zur Herstellung einer Injektionssuspension';'https://termgit.elga.gv.at/CodeSystem/medikationdarreichungsform';;;;'95';'0';'L';;;;'2.9.0+20240226'
'100000073991';'1.2.40.0.10.1.4.3.4.3.5';'Konzentrat zur Herstellung einer Lösung zum Einnehmen';'https://termgit.elga.gv.at/CodeSystem/medikationdarreichungsform';;;;'96';'0';'L';;;;'2.9.0+20240226'
'100000073762';'1.2.40.0.10.1.4.3.4.3.5';'Konzentrat zur Herstellung eines Tauchbades, Emulsion';'https://termgit.elga.gv.at/CodeSystem/medikationdarreichungsform';;;;'97';'0';'L';;;;'2.9.0+20240226'
'100000073720';'1.2.40.0.10.1.4.3.4.3.5';'Kutanes Pflaster';'https://termgit.elga.gv.at/CodeSystem/medikationdarreichungsform';;;;'98';'0';'L';;;;'2.9.0+20240226'
'100000073942';'1.2.40.0.10.1.4.3.4.3.5';'lebendes Gewebeäquivalent';'https://termgit.elga.gv.at/CodeSystem/medikationdarreichungsform';;;;'99';'0';'L';;;;'2.9.0+20240226'
'100000073685';'1.2.40.0.10.1.4.3.4.3.5';'Lutschpastille';'https://termgit.elga.gv.at/CodeSystem/medikationdarreichungsform';;;;'100';'0';'L';;;;'2.9.0+20240226'
'100000073703';'1.2.40.0.10.1.4.3.4.3.5';'Lutschtablette';'https://termgit.elga.gv.at/CodeSystem/medikationdarreichungsform';;;;'101';'0';'L';;;;'2.9.0+20240226'
'100000073700';'1.2.40.0.10.1.4.3.4.3.5';'Lutschtablette, gepresst';'https://termgit.elga.gv.at/CodeSystem/medikationdarreichungsform';;;;'102';'0';'L';;;;'2.9.0+20240226'
'100000116137';'1.2.40.0.10.1.4.3.4.3.5';'Lyophilisat und Lösungsmittel zur Herstellung einer Injektionslösung';'https://termgit.elga.gv.at/CodeSystem/medikationdarreichungsform';;;;'103';'0';'L';;;;'2.9.0+20240226'
'100000073682';'1.2.40.0.10.1.4.3.4.3.5';'Lyophilisat zum Einnehmen';'https://termgit.elga.gv.at/CodeSystem/medikationdarreichungsform';;;;'104';'0';'L';;;;'2.9.0+20240226'
'100000073872';'1.2.40.0.10.1.4.3.4.3.5';'Lyophilisat zur Herstellung einer Infusionslösung';'https://termgit.elga.gv.at/CodeSystem/medikationdarreichungsform';;;;'105';'0';'L';;;;'2.9.0+20240226'
'100000073873';'1.2.40.0.10.1.4.3.4.3.5';'Lyophilisat zur Herstellung einer Injektionslösung';'https://termgit.elga.gv.at/CodeSystem/medikationdarreichungsform';;;;'106';'0';'L';;;;'2.9.0+20240226'
'200000010684';'1.2.40.0.10.1.4.3.4.3.5';'Lyophilisat zur sublingualen Anwendung';'https://termgit.elga.gv.at/CodeSystem/medikationdarreichungsform';;;;'107';'0';'L';;;;'2.9.0+20240226'
'100000073835';'1.2.40.0.10.1.4.3.4.3.5';'Lösung für einen Vernebler';'https://termgit.elga.gv.at/CodeSystem/medikationdarreichungsform';;;;'108';'0';'L';;;;'2.9.0+20240226'
'100000073911';'1.2.40.0.10.1.4.3.4.3.5';'Lösung für einen Vernebler (*)';'https://termgit.elga.gv.at/CodeSystem/medikationdarreichungsform';;;;'109';'0';'L';;;;'2.9.0+20240226'
'100000073752';'1.2.40.0.10.1.4.3.4.3.5';'Lösung zum Auftropfen';'https://termgit.elga.gv.at/CodeSystem/medikationdarreichungsform';;;;'110';'0';'L';;;;'2.9.0+20240226'
'100000073646';'1.2.40.0.10.1.4.3.4.3.5';'Lösung zum Einnehmen';'https://termgit.elga.gv.at/CodeSystem/medikationdarreichungsform';;;;'111';'0';'L';;;;'2.9.0+20240226'
'100000073678';'1.2.40.0.10.1.4.3.4.3.5';'Lösung zur Anwendung am Zahnfleisch';'https://termgit.elga.gv.at/CodeSystem/medikationdarreichungsform';;;;'112';'0';'L';;;;'2.9.0+20240226'
'100000073731';'1.2.40.0.10.1.4.3.4.3.5';'Lösung zur Anwendung auf der Haut';'https://termgit.elga.gv.at/CodeSystem/medikationdarreichungsform';;;;'113';'0';'L';;;;'2.9.0+20240226'
'100000073691';'1.2.40.0.10.1.4.3.4.3.5';'Lösung zur Anwendung in der Mundhöhle';'https://termgit.elga.gv.at/CodeSystem/medikationdarreichungsform';;;;'114';'0';'L';;;;'2.9.0+20240226'
'100000073917';'1.2.40.0.10.1.4.3.4.3.5';'Lösung zur gastrointestinalen Anwendung';'https://termgit.elga.gv.at/CodeSystem/medikationdarreichungsform';;;;'115';'0';'L';;;;'2.9.0+20240226'
'100000074040';'1.2.40.0.10.1.4.3.4.3.5';'Lösung zur intraperitonealen Anwendung';'https://termgit.elga.gv.at/CodeSystem/medikationdarreichungsform';;;;'116';'0';'L';;;;'2.9.0+20240226'
'100000073887';'1.2.40.0.10.1.4.3.4.3.5';'Lösung zur intravesikalen Anwendung';'https://termgit.elga.gv.at/CodeSystem/medikationdarreichungsform';;;;'117';'0';'L';;;;'2.9.0+20240226'
'100000073913';'1.2.40.0.10.1.4.3.4.3.5';'Lösung zur Modifikation einer Blutfraktion';'https://termgit.elga.gv.at/CodeSystem/medikationdarreichungsform';;;;'118';'0';'L';;;;'2.9.0+20240226'
'100000073881';'1.2.40.0.10.1.4.3.4.3.5';'Lösungsmittel zur Herstellung von Parenteralia';'https://termgit.elga.gv.at/CodeSystem/medikationdarreichungsform';;;;'119';'0';'L';;;;'2.9.0+20240226'
'100000174015';'1.2.40.0.10.1.4.3.4.3.5';'Lösungsmittel zur Herstellung...';'https://termgit.elga.gv.at/CodeSystem/medikationdarreichungsform';;;;'120';'0';'L';;;;'2.9.0+20240226'
'100000073376';'1.2.40.0.10.1.4.3.4.3.5';'magensaftresistente Hartkapsel';'https://termgit.elga.gv.at/CodeSystem/medikationdarreichungsform';;;;'121';'0';'L';;;;'2.9.0+20240226'
'100000116154';'1.2.40.0.10.1.4.3.4.3.5';'magensaftresistente Retardtablette';'https://termgit.elga.gv.at/CodeSystem/medikationdarreichungsform';;;;'122';'0';'L';;;;'2.9.0+20240226'
'100000073667';'1.2.40.0.10.1.4.3.4.3.5';'magensaftresistente Tablette';'https://termgit.elga.gv.at/CodeSystem/medikationdarreichungsform';;;;'123';'0';'L';;;;'2.9.0+20240226'
'100000073661';'1.2.40.0.10.1.4.3.4.3.5';'magensaftresistente Weichkapsel';'https://termgit.elga.gv.at/CodeSystem/medikationdarreichungsform';;;;'124';'0';'L';;;;'2.9.0+20240226'
'100000073373';'1.2.40.0.10.1.4.3.4.3.5';'magensaftresistentes Granulat';'https://termgit.elga.gv.at/CodeSystem/medikationdarreichungsform';;;;'125';'0';'L';;;;'2.9.0+20240226'
'200000003974';'1.2.40.0.10.1.4.3.4.3.5';'magensaftresistentes Retardgranulat';'https://termgit.elga.gv.at/CodeSystem/medikationdarreichungsform';;;;'126';'0';'L';;;;'2.9.0+20240226'
'100000074010';'1.2.40.0.10.1.4.3.4.3.5';'Modified-release film-coated tablet';'https://termgit.elga.gv.at/CodeSystem/medikationdarreichungsform';;;;'127';'0';'L';;;;'2.9.0+20240226'
'100000073793';'1.2.40.0.10.1.4.3.4.3.5';'Nasengel';'https://termgit.elga.gv.at/CodeSystem/medikationdarreichungsform';;;;'128';'0';'L';;;;'2.9.0+20240226'
'100000073808';'1.2.40.0.10.1.4.3.4.3.5';'Nasenpulver';'https://termgit.elga.gv.at/CodeSystem/medikationdarreichungsform';;;;'129';'0';'L';;;;'2.9.0+20240226'
'100000073806';'1.2.40.0.10.1.4.3.4.3.5';'Nasensalbe';'https://termgit.elga.gv.at/CodeSystem/medikationdarreichungsform';;;;'130';'0';'L';;;;'2.9.0+20240226'
'100000073796';'1.2.40.0.10.1.4.3.4.3.5';'Nasenspray, Lösung';'https://termgit.elga.gv.at/CodeSystem/medikationdarreichungsform';;;;'131';'0';'L';;;;'2.9.0+20240226'
'100000073809';'1.2.40.0.10.1.4.3.4.3.5';'Nasenspray, Suspension';'https://termgit.elga.gv.at/CodeSystem/medikationdarreichungsform';;;;'132';'0';'L';;;;'2.9.0+20240226'
'100000073798';'1.2.40.0.10.1.4.3.4.3.5';'Nasenstift';'https://termgit.elga.gv.at/CodeSystem/medikationdarreichungsform';;;;'133';'0';'L';;;;'2.9.0+20240226'
'100000073794';'1.2.40.0.10.1.4.3.4.3.5';'Nasentropfen, Lösung';'https://termgit.elga.gv.at/CodeSystem/medikationdarreichungsform';;;;'134';'0';'L';;;;'2.9.0+20240226'
'900000000037';'1.2.40.0.10.1.4.3.4.3.5';'nicht definiert';'https://termgit.elga.gv.at/CodeSystem/medikationdarreichungsform';;;;'135';'0';'L';;;;'2.9.0+20240226'
'100000073786';'1.2.40.0.10.1.4.3.4.3.5';'Ohrentropfen, Lösung';'https://termgit.elga.gv.at/CodeSystem/medikationdarreichungsform';;;;'136';'0';'L';;;;'2.9.0+20240226'
'100000125756';'1.2.40.0.10.1.4.3.4.3.5';'Oral solution in sachet';'https://termgit.elga.gv.at/CodeSystem/medikationdarreichungsform';;;;'137';'0';'L';;;;'2.9.0+20240226'
'100000125757';'1.2.40.0.10.1.4.3.4.3.5';'Oral solution in single-dose container';'https://termgit.elga.gv.at/CodeSystem/medikationdarreichungsform';;;;'138';'0';'L';;;;'2.9.0+20240226'
'100000074025';'1.2.40.0.10.1.4.3.4.3.5';'Oral/rectal suspension';'https://termgit.elga.gv.at/CodeSystem/medikationdarreichungsform';;;;'139';'0';'L';;;;'2.9.0+20240226'
'100000073919';'1.2.40.0.10.1.4.3.4.3.5';'Organkonservierungslösung';'https://termgit.elga.gv.at/CodeSystem/medikationdarreichungsform';;;;'140';'0';'L';;;;'2.9.0+20240226'
'100000073727';'1.2.40.0.10.1.4.3.4.3.5';'Paste zur Anwendung auf der Haut';'https://termgit.elga.gv.at/CodeSystem/medikationdarreichungsform';;;;'141';'0';'L';;;;'2.9.0+20240226'
'100000073704';'1.2.40.0.10.1.4.3.4.3.5';'Pastille';'https://termgit.elga.gv.at/CodeSystem/medikationdarreichungsform';;;;'142';'0';'L';;;;'2.9.0+20240226'
'100000116172';'1.2.40.0.10.1.4.3.4.3.5';'Powder and gel for gel';'https://termgit.elga.gv.at/CodeSystem/medikationdarreichungsform';;;;'143';'0';'L';;;;'2.9.0+20240226'
'100000116173';'1.2.40.0.10.1.4.3.4.3.5';'Powder and solution for solution for injection';'https://termgit.elga.gv.at/CodeSystem/medikationdarreichungsform';;;;'144';'0';'L';;;;'2.9.0+20240226'
'100000074015';'1.2.40.0.10.1.4.3.4.3.5';'Powder and solvent for concentrate for solution for infusion';'https://termgit.elga.gv.at/CodeSystem/medikationdarreichungsform';;;;'145';'0';'L';;;;'2.9.0+20240226'
'100000075584';'1.2.40.0.10.1.4.3.4.3.5';'Powder and solvent for dispersion for injection';'https://termgit.elga.gv.at/CodeSystem/medikationdarreichungsform';;;;'146';'0';'L';;;;'2.9.0+20240226'
'100000116176';'1.2.40.0.10.1.4.3.4.3.5';'Powder and solvent for intravesical suspension';'https://termgit.elga.gv.at/CodeSystem/medikationdarreichungsform';;;;'147';'0';'L';;;;'2.9.0+20240226'
'100000116177';'1.2.40.0.10.1.4.3.4.3.5';'Powder and solvent for nebuliser solution';'https://termgit.elga.gv.at/CodeSystem/medikationdarreichungsform';;;;'148';'0';'L';;;;'2.9.0+20240226'
'100000075585';'1.2.40.0.10.1.4.3.4.3.5';'Powder and solvent for solution for injection in pre-filled syringe';'https://termgit.elga.gv.at/CodeSystem/medikationdarreichungsform';;;;'149';'0';'L';;;;'2.9.0+20240226'
'100000116178';'1.2.40.0.10.1.4.3.4.3.5';'Powder and solvent for suspension for injection in pre-filled syringe';'https://termgit.elga.gv.at/CodeSystem/medikationdarreichungsform';;;;'150';'0';'L';;;;'2.9.0+20240226'
'100000074032';'1.2.40.0.10.1.4.3.4.3.5';'Powder and suspension for suspension for injection';'https://termgit.elga.gv.at/CodeSystem/medikationdarreichungsform';;;;'151';'0';'L';;;;'2.9.0+20240226'
'100000125752';'1.2.40.0.10.1.4.3.4.3.5';'Powder for oral solution in sachet';'https://termgit.elga.gv.at/CodeSystem/medikationdarreichungsform';;;;'152';'0';'L';;;;'2.9.0+20240226'
'100000074034';'1.2.40.0.10.1.4.3.4.3.5';'Powder for oral/rectal suspension';'https://termgit.elga.gv.at/CodeSystem/medikationdarreichungsform';;;;'153';'0';'L';;;;'2.9.0+20240226'
'100000116179';'1.2.40.0.10.1.4.3.4.3.5';'Powder, dispersion and solvent for concentrate for dispersion for infusion';'https://termgit.elga.gv.at/CodeSystem/medikationdarreichungsform';;;;'154';'0';'L';;;;'2.9.0+20240226'
'100000073756';'1.2.40.0.10.1.4.3.4.3.5';'Pricktestlösung';'https://termgit.elga.gv.at/CodeSystem/medikationdarreichungsform';;;;'155';'0';'L';;;;'2.9.0+20240226'
'100000125736';'1.2.40.0.10.1.4.3.4.3.5';'Prolonged-release suspension for injection';'https://termgit.elga.gv.at/CodeSystem/medikationdarreichungsform';;;;'156';'0';'L';;;;'2.9.0+20240226'
'100000125775';'1.2.40.0.10.1.4.3.4.3.5';'Prolonged-release suspension for injection in pre-filled syringe';'https://termgit.elga.gv.at/CodeSystem/medikationdarreichungsform';;;;'157';'0';'L';;;;'2.9.0+20240226'
'100000074029';'1.2.40.0.10.1.4.3.4.3.5';'Pulver für ein Konzentrat zur Herstellung einer Infusionslösung';'https://termgit.elga.gv.at/CodeSystem/medikationdarreichungsform';;;;'158';'0';'L';;;;'2.9.0+20240226'
'100000116183';'1.2.40.0.10.1.4.3.4.3.5';'Pulver für ein Konzentrat zur Herstellung einer Injektions-/Infusionslösung';'https://termgit.elga.gv.at/CodeSystem/medikationdarreichungsform';;;;'159';'0';'L';;;;'2.9.0+20240226'
'900000000006';'1.2.40.0.10.1.4.3.4.3.5';'Pulver für ein Konzentrat zur Herstellung einer Injektionslösung';'https://termgit.elga.gv.at/CodeSystem/medikationdarreichungsform';;;;'160';'0';'L';;;;'2.9.0+20240226'
'100000073941';'1.2.40.0.10.1.4.3.4.3.5';'Pulver und Lösungsmittel für einen Gewebekleber';'https://termgit.elga.gv.at/CodeSystem/medikationdarreichungsform';;;;'161';'0';'L';;;;'2.9.0+20240226'
'100000074018';'1.2.40.0.10.1.4.3.4.3.5';'Pulver und Lösungsmittel zur Herstellung einer Depot-Injektionssuspension';'https://termgit.elga.gv.at/CodeSystem/medikationdarreichungsform';;;;'162';'0';'L';;;;'2.9.0+20240226'
'100000073860';'1.2.40.0.10.1.4.3.4.3.5';'Pulver und Lösungsmittel zur Herstellung einer Infusionslösung';'https://termgit.elga.gv.at/CodeSystem/medikationdarreichungsform';;;;'163';'0';'L';;;;'2.9.0+20240226'
'100000074057';'1.2.40.0.10.1.4.3.4.3.5';'Pulver und Lösungsmittel zur Herstellung einer Injektions- bzw. Infusionslösung';'https://termgit.elga.gv.at/CodeSystem/medikationdarreichungsform';;;;'164';'0';'L';;;;'2.9.0+20240226'
'100000073868';'1.2.40.0.10.1.4.3.4.3.5';'Pulver und Lösungsmittel zur Herstellung einer Injektionslösung';'https://termgit.elga.gv.at/CodeSystem/medikationdarreichungsform';;;;'165';'0';'L';;;;'2.9.0+20240226'
'100000073869';'1.2.40.0.10.1.4.3.4.3.5';'Pulver und Lösungsmittel zur Herstellung einer Injektionssuspension';'https://termgit.elga.gv.at/CodeSystem/medikationdarreichungsform';;;;'166';'0';'L';;;;'2.9.0+20240226'
'100000073366';'1.2.40.0.10.1.4.3.4.3.5';'Pulver und Lösungsmittel zur Herstellung einer Lösung zum Einnehmen';'https://termgit.elga.gv.at/CodeSystem/medikationdarreichungsform';;;;'167';'0';'L';;;;'2.9.0+20240226'
'100000116175';'1.2.40.0.10.1.4.3.4.3.5';'Pulver und Lösungsmittel zur Herstellung einer Lösung zur intravesikalen Anwendung';'https://termgit.elga.gv.at/CodeSystem/medikationdarreichungsform';;;;'168';'0';'L';;;;'2.9.0+20240226'
'100000143546';'1.2.40.0.10.1.4.3.4.3.5';'Pulver und Lösungsmittel zur Herstellung einer Suspension zur endotracheopulmonalen Instillation';'https://termgit.elga.gv.at/CodeSystem/medikationdarreichungsform';;;;'169';'0';'L';;;;'2.9.0+20240226'
'100000073655';'1.2.40.0.10.1.4.3.4.3.5';'Pulver zum Einnehmen';'https://termgit.elga.gv.at/CodeSystem/medikationdarreichungsform';;;;'170';'0';'L';;;;'2.9.0+20240226'
'100000073733';'1.2.40.0.10.1.4.3.4.3.5';'Pulver zur Anwendung auf der Haut';'https://termgit.elga.gv.at/CodeSystem/medikationdarreichungsform';;;;'171';'0';'L';;;;'2.9.0+20240226'
'100000143523';'1.2.40.0.10.1.4.3.4.3.5';'Pulver zur Herstellung einer Infusionsdispersion';'https://termgit.elga.gv.at/CodeSystem/medikationdarreichungsform';;;;'172';'0';'L';;;;'2.9.0+20240226'
'100000073859';'1.2.40.0.10.1.4.3.4.3.5';'Pulver zur Herstellung einer Infusionslösung';'https://termgit.elga.gv.at/CodeSystem/medikationdarreichungsform';;;;'173';'0';'L';;;;'2.9.0+20240226'
'900000000012';'1.2.40.0.10.1.4.3.4.3.5';'Pulver zur Herstellung einer Infusionssuspension';'https://termgit.elga.gv.at/CodeSystem/medikationdarreichungsform';;;;'174';'0';'L';;;;'2.9.0+20240226'
'100000074042';'1.2.40.0.10.1.4.3.4.3.5';'Pulver zur Herstellung einer Injektions- bzw. Infusionslösung';'https://termgit.elga.gv.at/CodeSystem/medikationdarreichungsform';;;;'175';'0';'L';;;;'2.9.0+20240226'
'100000116186';'1.2.40.0.10.1.4.3.4.3.5';'Pulver zur Herstellung einer Injektions-/Infusionslösung';'https://termgit.elga.gv.at/CodeSystem/medikationdarreichungsform';;;;'176';'0';'L';;;;'2.9.0+20240226'
'100000073866';'1.2.40.0.10.1.4.3.4.3.5';'Pulver zur Herstellung einer Injektionslösung';'https://termgit.elga.gv.at/CodeSystem/medikationdarreichungsform';;;;'177';'0';'L';;;;'2.9.0+20240226'
'100000073867';'1.2.40.0.10.1.4.3.4.3.5';'Pulver zur Herstellung einer Injektionssuspension';'https://termgit.elga.gv.at/CodeSystem/medikationdarreichungsform';;;;'178';'0';'L';;;;'2.9.0+20240226'
'100000073847';'1.2.40.0.10.1.4.3.4.3.5';'Pulver zur Herstellung einer Lösung für einen Vernebler';'https://termgit.elga.gv.at/CodeSystem/medikationdarreichungsform';;;;'179';'0';'L';;;;'2.9.0+20240226'
'100000073364';'1.2.40.0.10.1.4.3.4.3.5';'Pulver zur Herstellung einer Lösung zum Einnehmen';'https://termgit.elga.gv.at/CodeSystem/medikationdarreichungsform';;;;'180';'0';'L';;;;'2.9.0+20240226'
'100000074033';'1.2.40.0.10.1.4.3.4.3.5';'Pulver zur Herstellung einer Lösung zur intravesikalen Anwendung';'https://termgit.elga.gv.at/CodeSystem/medikationdarreichungsform';;;;'181';'0';'L';;;;'2.9.0+20240226'
'100000073832';'1.2.40.0.10.1.4.3.4.3.5';'Pulver zur Herstellung einer Rektalsuspension';'https://termgit.elga.gv.at/CodeSystem/medikationdarreichungsform';;;;'182';'0';'L';;;;'2.9.0+20240226'
'100000073649';'1.2.40.0.10.1.4.3.4.3.5';'Pulver zur Herstellung einer Suspension zum Einnehmen';'https://termgit.elga.gv.at/CodeSystem/medikationdarreichungsform';;;;'183';'0';'L';;;;'2.9.0+20240226'
'100000074020';'1.2.40.0.10.1.4.3.4.3.5';'Pulver zur Herstellung einer Suspension zur intravesikalen Anwendung';'https://termgit.elga.gv.at/CodeSystem/medikationdarreichungsform';;;;'184';'0';'L';;;;'2.9.0+20240226'
'100000073839';'1.2.40.0.10.1.4.3.4.3.5';'Pulver zur Inhalation';'https://termgit.elga.gv.at/CodeSystem/medikationdarreichungsform';;;;'185';'0';'L';;;;'2.9.0+20240226'
'100000073916';'1.2.40.0.10.1.4.3.4.3.5';'Radionuklidgenerator';'https://termgit.elga.gv.at/CodeSystem/medikationdarreichungsform';;;;'186';'0';'L';;;;'2.9.0+20240226'
'100000073819';'1.2.40.0.10.1.4.3.4.3.5';'Rektalcreme';'https://termgit.elga.gv.at/CodeSystem/medikationdarreichungsform';;;;'187';'0';'L';;;;'2.9.0+20240226'
'100000073829';'1.2.40.0.10.1.4.3.4.3.5';'Rektallösung';'https://termgit.elga.gv.at/CodeSystem/medikationdarreichungsform';;;;'188';'0';'L';;;;'2.9.0+20240226'
'100000073828';'1.2.40.0.10.1.4.3.4.3.5';'Rektalsalbe';'https://termgit.elga.gv.at/CodeSystem/medikationdarreichungsform';;;;'189';'0';'L';;;;'2.9.0+20240226'
'100000073820';'1.2.40.0.10.1.4.3.4.3.5';'Rektalschaum';'https://termgit.elga.gv.at/CodeSystem/medikationdarreichungsform';;;;'190';'0';'L';;;;'2.9.0+20240226'
'100000073830';'1.2.40.0.10.1.4.3.4.3.5';'Rektalsuspension';'https://termgit.elga.gv.at/CodeSystem/medikationdarreichungsform';;;;'191';'0';'L';;;;'2.9.0+20240226'
'100000073658';'1.2.40.0.10.1.4.3.4.3.5';'Retardgranulat';'https://termgit.elga.gv.at/CodeSystem/medikationdarreichungsform';;;;'192';'0';'L';;;;'2.9.0+20240226'
'100000073683';'1.2.40.0.10.1.4.3.4.3.5';'Retardtablette';'https://termgit.elga.gv.at/CodeSystem/medikationdarreichungsform';;;;'193';'0';'L';;;;'2.9.0+20240226'
'100000073713';'1.2.40.0.10.1.4.3.4.3.5';'Salbe';'https://termgit.elga.gv.at/CodeSystem/medikationdarreichungsform';;;;'194';'0';'L';;;;'2.9.0+20240226'
'100000116131';'1.2.40.0.10.1.4.3.4.3.5';'Salbe zur Anwendung in der Mundhöhle';'https://termgit.elga.gv.at/CodeSystem/medikationdarreichungsform';;;;'195';'0';'L';;;;'2.9.0+20240226'
'100000073862';'1.2.40.0.10.1.4.3.4.3.5';'Salbe zur Herstellung eines Dampfs zur Inhalation';'https://termgit.elga.gv.at/CodeSystem/medikationdarreichungsform';;;;'196';'0';'L';;;;'2.9.0+20240226'
'100000073728';'1.2.40.0.10.1.4.3.4.3.5';'Schaum zur Anwendung auf der Haut';'https://termgit.elga.gv.at/CodeSystem/medikationdarreichungsform';;;;'197';'0';'L';;;;'2.9.0+20240226'
'100000075573';'1.2.40.0.10.1.4.3.4.3.5';'Schmelzfilm';'https://termgit.elga.gv.at/CodeSystem/medikationdarreichungsform';;;;'198';'0';'L';;;;'2.9.0+20240226'
'100000073666';'1.2.40.0.10.1.4.3.4.3.5';'Schmelztablette';'https://termgit.elga.gv.at/CodeSystem/medikationdarreichungsform';;;;'199';'0';'L';;;;'2.9.0+20240226'
'100000073715';'1.2.40.0.10.1.4.3.4.3.5';'Shampoo';'https://termgit.elga.gv.at/CodeSystem/medikationdarreichungsform';;;;'200';'0';'L';;;;'2.9.0+20240226'
'100000073652';'1.2.40.0.10.1.4.3.4.3.5';'Sirup';'https://termgit.elga.gv.at/CodeSystem/medikationdarreichungsform';;;;'201';'0';'L';;;;'2.9.0+20240226'
'200000025182';'1.2.40.0.10.1.4.3.4.3.5';'Solution and emulsion for emulsion for injection';'https://termgit.elga.gv.at/CodeSystem/medikationdarreichungsform';;;;'202';'0';'L';;;;'2.9.0+20240226'
'100000074037';'1.2.40.0.10.1.4.3.4.3.5';'Solution for haemodialysis/haemofiltration';'https://termgit.elga.gv.at/CodeSystem/medikationdarreichungsform';;;;'203';'0';'L';;;;'2.9.0+20240226'
'100000074045';'1.2.40.0.10.1.4.3.4.3.5';'Solution for infusion and oral solution';'https://termgit.elga.gv.at/CodeSystem/medikationdarreichungsform';;;;'204';'0';'L';;;;'2.9.0+20240226'
'100000074046';'1.2.40.0.10.1.4.3.4.3.5';'Solution for injection in cartridge';'https://termgit.elga.gv.at/CodeSystem/medikationdarreichungsform';;;;'205';'0';'L';;;;'2.9.0+20240226'
'100000116188';'1.2.40.0.10.1.4.3.4.3.5';'Solution for injection/concentrate for solution for infusion';'https://termgit.elga.gv.at/CodeSystem/medikationdarreichungsform';;;;'206';'0';'L';;;;'2.9.0+20240226'
'100000075588';'1.2.40.0.10.1.4.3.4.3.5';'Solution for injection/infusion in pre-filled syringe';'https://termgit.elga.gv.at/CodeSystem/medikationdarreichungsform';;;;'207';'0';'L';;;;'2.9.0+20240226'
'200000016453';'1.2.40.0.10.1.4.3.4.3.5';'Spray zur Anwendung auf der Haut';'https://termgit.elga.gv.at/CodeSystem/medikationdarreichungsform';;;;'208';'0';'L';;;;'2.9.0+20240226'
'100000073729';'1.2.40.0.10.1.4.3.4.3.5';'Spray zur Anwendung auf der Haut, Lösung';'https://termgit.elga.gv.at/CodeSystem/medikationdarreichungsform';;;;'209';'0';'L';;;;'2.9.0+20240226'
'100000073716';'1.2.40.0.10.1.4.3.4.3.5';'Spray zur Anwendung auf der Haut, Suspension';'https://termgit.elga.gv.at/CodeSystem/medikationdarreichungsform';;;;'210';'0';'L';;;;'2.9.0+20240226'
'100000073676';'1.2.40.0.10.1.4.3.4.3.5';'Spray zur Anwendung in der Mundhöhle';'https://termgit.elga.gv.at/CodeSystem/medikationdarreichungsform';;;;'211';'0';'L';;;;'2.9.0+20240226'
'100000125706';'1.2.40.0.10.1.4.3.4.3.5';'Spray zur Anwendung in der Mundhöhle, Lösung';'https://termgit.elga.gv.at/CodeSystem/medikationdarreichungsform';;;;'212';'0';'L';;;;'2.9.0+20240226'
'100000073924';'1.2.40.0.10.1.4.3.4.3.5';'Spüllösung';'https://termgit.elga.gv.at/CodeSystem/medikationdarreichungsform';;;;'213';'0';'L';;;;'2.9.0+20240226'
'100000073743';'1.2.40.0.10.1.4.3.4.3.5';'Stift zur Anwendung auf der Haut';'https://termgit.elga.gv.at/CodeSystem/medikationdarreichungsform';;;;'214';'0';'L';;;;'2.9.0+20240226'
'100000073889';'1.2.40.0.10.1.4.3.4.3.5';'Stäbchen zur Anwendung in der Harnröhre';'https://termgit.elga.gv.at/CodeSystem/medikationdarreichungsform';;;;'215';'0';'L';;;;'2.9.0+20240226'
'100000073693';'1.2.40.0.10.1.4.3.4.3.5';'Sublingualspray';'https://termgit.elga.gv.at/CodeSystem/medikationdarreichungsform';;;;'216';'0';'L';;;;'2.9.0+20240226'
'100000073698';'1.2.40.0.10.1.4.3.4.3.5';'Sublingualtablette';'https://termgit.elga.gv.at/CodeSystem/medikationdarreichungsform';;;;'217';'0';'L';;;;'2.9.0+20240226'
'200000010620';'1.2.40.0.10.1.4.3.4.3.5';'Suspension and solution for suspension for injection';'https://termgit.elga.gv.at/CodeSystem/medikationdarreichungsform';;;;'218';'0';'L';;;;'2.9.0+20240226'
'100000074063';'1.2.40.0.10.1.4.3.4.3.5';'Suspension for injection in pre-filled syringe';'https://termgit.elga.gv.at/CodeSystem/medikationdarreichungsform';;;;'219';'0';'L';;;;'2.9.0+20240226'
'100000073846';'1.2.40.0.10.1.4.3.4.3.5';'Suspension für einen Vernebler';'https://termgit.elga.gv.at/CodeSystem/medikationdarreichungsform';;;;'220';'0';'L';;;;'2.9.0+20240226'
'100000074048';'1.2.40.0.10.1.4.3.4.3.5';'Suspension und Brausegranulat zur Herstellung einer Suspension zum Einnehmen';'https://termgit.elga.gv.at/CodeSystem/medikationdarreichungsform';;;;'221';'0';'L';;;;'2.9.0+20240226'
'100000073362';'1.2.40.0.10.1.4.3.4.3.5';'Suspension zum Einnehmen';'https://termgit.elga.gv.at/CodeSystem/medikationdarreichungsform';;;;'222';'0';'L';;;;'2.9.0+20240226'
'100000073732';'1.2.40.0.10.1.4.3.4.3.5';'Suspension zur Anwendung auf der Haut';'https://termgit.elga.gv.at/CodeSystem/medikationdarreichungsform';;;;'223';'0';'L';;;;'2.9.0+20240226'
'100000073675';'1.2.40.0.10.1.4.3.4.3.5';'Suspension zur Anwendung in der Mundhöhle';'https://termgit.elga.gv.at/CodeSystem/medikationdarreichungsform';;;;'224';'0';'L';;;;'2.9.0+20240226'
'100000073902';'1.2.40.0.10.1.4.3.4.3.5';'Suspension zur endotracheopulmonalen Instillation';'https://termgit.elga.gv.at/CodeSystem/medikationdarreichungsform';;;;'225';'0';'L';;;;'2.9.0+20240226'
'100000174019';'1.2.40.0.10.1.4.3.4.3.5';'Suspension zur Herstellung einer Injektionssuspension';'https://termgit.elga.gv.at/CodeSystem/medikationdarreichungsform';;;;'226';'0';'L';;;;'2.9.0+20240226'
'100000075576';'1.2.40.0.10.1.4.3.4.3.5';'Suspension zur Implantation';'https://termgit.elga.gv.at/CodeSystem/medikationdarreichungsform';;;;'227';'0';'L';;;;'2.9.0+20240226'
'100000073664';'1.2.40.0.10.1.4.3.4.3.5';'Tablette';'https://termgit.elga.gv.at/CodeSystem/medikationdarreichungsform';;;;'228';'0';'L';;;;'2.9.0+20240226'
'100000073668';'1.2.40.0.10.1.4.3.4.3.5';'Tablette mit veränderter Wirkstofffreisetzung';'https://termgit.elga.gv.at/CodeSystem/medikationdarreichungsform';;;;'229';'0';'L';;;;'2.9.0+20240226'
'100000073369';'1.2.40.0.10.1.4.3.4.3.5';'Tablette zur Herstellung einer Lösung zum Einnehmen';'https://termgit.elga.gv.at/CodeSystem/medikationdarreichungsform';;;;'230';'0';'L';;;;'2.9.0+20240226'
'100000174052';'1.2.40.0.10.1.4.3.4.3.5';'Tablette zur Herstellung einer Lösung zur Anwendung auf der Haut';'https://termgit.elga.gv.at/CodeSystem/medikationdarreichungsform';;;;'231';'0';'L';;;;'2.9.0+20240226'
'900000000026';'1.2.40.0.10.1.4.3.4.3.5';'Tablette zur Herstellung einer Rektaldispersion';'https://termgit.elga.gv.at/CodeSystem/medikationdarreichungsform';;;;'232';'0';'L';;;;'2.9.0+20240226'
'100000073654';'1.2.40.0.10.1.4.3.4.3.5';'Tablette zur Herstellung einer Suspension zum Einnehmen';'https://termgit.elga.gv.at/CodeSystem/medikationdarreichungsform';;;;'233';'0';'L';;;;'2.9.0+20240226'
'100000073371';'1.2.40.0.10.1.4.3.4.3.5';'Teeaufgusspulver';'https://termgit.elga.gv.at/CodeSystem/medikationdarreichungsform';;;;'234';'0';'L';;;;'2.9.0+20240226'
'100000116134';'1.2.40.0.10.1.4.3.4.3.5';'Transdermal gel';'https://termgit.elga.gv.at/CodeSystem/medikationdarreichungsform';;;;'235';'0';'L';;;;'2.9.0+20240226'
'100000073741';'1.2.40.0.10.1.4.3.4.3.5';'transdermales Pflaster';'https://termgit.elga.gv.at/CodeSystem/medikationdarreichungsform';;;;'236';'0';'L';;;;'2.9.0+20240226'
'100000073769';'1.2.40.0.10.1.4.3.4.3.5';'Transdermales System';'https://termgit.elga.gv.at/CodeSystem/medikationdarreichungsform';;;;'237';'0';'L';;;;'2.9.0+20240226'
'100000116169';'1.2.40.0.10.1.4.3.4.3.5';'Tropfen zum Einnehmen, Flüssigkeit';'https://termgit.elga.gv.at/CodeSystem/medikationdarreichungsform';;;;'238';'0';'L';;;;'2.9.0+20240226'
'100000073642';'1.2.40.0.10.1.4.3.4.3.5';'Tropfen zum Einnehmen, Lösung';'https://termgit.elga.gv.at/CodeSystem/medikationdarreichungsform';;;;'239';'0';'L';;;;'2.9.0+20240226'
'100000073643';'1.2.40.0.10.1.4.3.4.3.5';'Tropfen zum Einnehmen, Suspension';'https://termgit.elga.gv.at/CodeSystem/medikationdarreichungsform';;;;'240';'0';'L';;;;'2.9.0+20240226'
'100000073811';'1.2.40.0.10.1.4.3.4.3.5';'Vaginalcreme';'https://termgit.elga.gv.at/CodeSystem/medikationdarreichungsform';;;;'241';'0';'L';;;;'2.9.0+20240226'
'100000073814';'1.2.40.0.10.1.4.3.4.3.5';'Vaginalemulsion';'https://termgit.elga.gv.at/CodeSystem/medikationdarreichungsform';;;;'242';'0';'L';;;;'2.9.0+20240226'
'100000073818';'1.2.40.0.10.1.4.3.4.3.5';'vaginales Wirkstofffreisetzungssystem';'https://termgit.elga.gv.at/CodeSystem/medikationdarreichungsform';;;;'243';'0';'L';;;;'2.9.0+20240226'
'100000073799';'1.2.40.0.10.1.4.3.4.3.5';'Vaginalgel';'https://termgit.elga.gv.at/CodeSystem/medikationdarreichungsform';;;;'244';'0';'L';;;;'2.9.0+20240226'
'100000073813';'1.2.40.0.10.1.4.3.4.3.5';'Vaginallösung';'https://termgit.elga.gv.at/CodeSystem/medikationdarreichungsform';;;;'245';'0';'L';;;;'2.9.0+20240226'
'100000073824';'1.2.40.0.10.1.4.3.4.3.5';'Vaginaltablette';'https://termgit.elga.gv.at/CodeSystem/medikationdarreichungsform';;;;'246';'0';'L';;;;'2.9.0+20240226'
'100000073815';'1.2.40.0.10.1.4.3.4.3.5';'Vaginalzäpfchen';'https://termgit.elga.gv.at/CodeSystem/medikationdarreichungsform';;;;'247';'0';'L';;;;'2.9.0+20240226'
'100000156088';'1.2.40.0.10.1.4.3.4.3.5';'Versiegelungsmatrix';'https://termgit.elga.gv.at/CodeSystem/medikationdarreichungsform';;;;'248';'0';'L';;;;'2.9.0+20240226'
'100000073660';'1.2.40.0.10.1.4.3.4.3.5';'Weichkapsel';'https://termgit.elga.gv.at/CodeSystem/medikationdarreichungsform';;;;'249';'0';'L';;;;'2.9.0+20240226'
'100000073816';'1.2.40.0.10.1.4.3.4.3.5';'Weichkapsel zur vaginalen Anwendung';'https://termgit.elga.gv.at/CodeSystem/medikationdarreichungsform';;;;'250';'0';'L';;;;'2.9.0+20240226'
'100000073742';'1.2.40.0.10.1.4.3.4.3.5';'wirkstoffhaltiger Nagellack';'https://termgit.elga.gv.at/CodeSystem/medikationdarreichungsform';;;;'251';'0';'L';;;;'2.9.0+20240226'
'100000073669';'1.2.40.0.10.1.4.3.4.3.5';'wirkstoffhaltiges Kaugummi';'https://termgit.elga.gv.at/CodeSystem/medikationdarreichungsform';;;;'252';'0';'L';;;;'2.9.0+20240226'
'100000073714';'1.2.40.0.10.1.4.3.4.3.5';'wirkstoffhaltiges Pflaster';'https://termgit.elga.gv.at/CodeSystem/medikationdarreichungsform';;;;'253';'0';'L';;;;'2.9.0+20240226'
'100000073843';'1.2.40.0.10.1.4.3.4.3.5';'Zäpfchen';'https://termgit.elga.gv.at/CodeSystem/medikationdarreichungsform';;;;'254';'0';'L';;;;'2.9.0+20240226'
'100000073380';'1.2.40.0.10.1.4.3.4.3.5';'überzogene Tablette';'https://termgit.elga.gv.at/CodeSystem/medikationdarreichungsform';;;;'255';'0';'L';;;;'2.9.0+20240226'
'100000174031';'1.2.40.0.10.1.4.3.4.3.5';'Überzogenes Granulat';'https://termgit.elga.gv.at/CodeSystem/medikationdarreichungsform';;;;'256';'0';'L';;;;'2.9.0+20240226'
