'code';'codeSystem';'displayName';'parentCodeSystemName';'concept_Beschreibung';'meaning';'hints';'orderNumber';'level';'type';'relationships';'einheit print';'einheit codiert'
'836383009';'2.16.840.1.113883.6.96';'Cholera Impfstoff';'https://termgit.elga.gv.at/CodeSystem/snomed-ct-auszug';'';'';'';'1';'0';'S';'';'';''
'31698-4';'2.16.840.1.113883.6.1';'Vibrio cholerae Ab [Units/volume] in Serum';'http://loinc.org';'';'Cholera Antikörper quantitativ';'DEPRECATED';'2';'1';'D';'';'U/mL';'[iU]/mL'
'836381006';'2.16.840.1.113883.6.96';'Diphtherie Impfstoff';'https://termgit.elga.gv.at/CodeSystem/snomed-ct-auszug';'';'Diphtherie Impfstoff: Serologie';'';'3';'0';'S';'';'';''
'5115-1';'2.16.840.1.113883.6.1';'Corynebacterium diphtheriae Ab [Units/volume] in Serum';'http://loinc.org';'';'Diphtherie Antikörper quantitativ';'';'4';'1';'L';'';'U/mL';'[iU]/mL'
'836403007';'2.16.840.1.113883.6.96';'Frühsommer-Meningoenzephalitis Impfstoff';'https://termgit.elga.gv.at/CodeSystem/snomed-ct-auszug';'';'';'';'5';'0';'S';'';'';''
'31383-3';'2.16.840.1.113883.6.1';'European tick borne encephalitis virus Ab [Units/volume] in Serum';'http://loinc.org';'';'Frühsommer-Meningoenzephalitis Antikörper quantitativ';'DEPRECATED';'6';'1';'D';'';'U/L';'[iU]/L'
'836385002';'2.16.840.1.113883.6.96';'Gelbfieber Impfstoff';'https://termgit.elga.gv.at/CodeSystem/snomed-ct-auszug';'';'';'';'7';'0';'L';'';'';''
'836380007';'2.16.840.1.113883.6.96';'Haemophilus influenzae Typ B Impfstoff';'https://termgit.elga.gv.at/CodeSystem/snomed-ct-auszug';'';'';'';'8';'0';'S';'';'';''
'7931-9';'2.16.840.1.113883.6.1';'Influenza virus B Ab [Units/volume] in Serum';'http://loinc.org';'';'Haemophilus Influenzae B Antikörper quantitativ';'DEPRECATED';'9';'1';'D';'';'U/mL';'[iU]/mL'
'836375003';'2.16.840.1.113883.6.96';'Hepatitis A Impfstoff';'https://termgit.elga.gv.at/CodeSystem/snomed-ct-auszug';'';'Hepatitis A Impfstoff: Serologie';'';'10';'0';'S';'';'';''
'22312-3';'2.16.840.1.113883.6.1';'Hepatitis A virus Ab [Units/volume] in Serum';'http://loinc.org';'';'Hepatitis A Antikörper quantitativ';'';'11';'1';'L';'';'U/L';'[iU]/L'
'836374004';'2.16.840.1.113883.6.96';'Hepatitis B Impfstoff';'https://termgit.elga.gv.at/CodeSystem/snomed-ct-auszug';'';'Hepatitis B Impfstoff: Serologie';'';'12';'0';'S';'';'';''
'16935-9';'2.16.840.1.113883.6.1';'Hepatitis B virus surface Ab [Units/volume] in Serum';'http://loinc.org';'';'Hepatitis B Antikörper quantitativ';'';'13';'1';'L';'';'U/L';'[iU]/L'
'871919004';'2.16.840.1.113883.6.96';'Herpes Zoster Impfstoff';'https://termgit.elga.gv.at/CodeSystem/snomed-ct-auszug';'';'';'';'14';'0';'L';'';'';''
'836379009';'2.16.840.1.113883.6.96';'Humane Papillomaviren Impfstoff';'https://termgit.elga.gv.at/CodeSystem/snomed-ct-auszug';'';'';'';'15';'0';'L';'';'';''
'427036009';'2.16.840.1.113883.6.96';'Influenza (H5N1) Impfstoff';'https://termgit.elga.gv.at/CodeSystem/snomed-ct-auszug';'';'';'';'16';'0';'S';'';'';''
'47454-4';'2.16.840.1.113883.6.1';'Influenza virus A H5 Ab [Titer] in Serum';'http://loinc.org';'';'Influenza-A-Virus H5 Antikörper Titer';'DEPRECATED';'17';'1';'D';'';'Titer';'{Titer}'
'871772009';'2.16.840.1.113883.6.96';'Influenza (H1N1) Impfstoff';'https://termgit.elga.gv.at/CodeSystem/snomed-ct-auszug';'';'';'';'18';'0';'L';'';'';''
'836377006';'2.16.840.1.113883.6.96';'Influenza Impfstoff';'https://termgit.elga.gv.at/CodeSystem/snomed-ct-auszug';'';'';'';'19';'0';'S';'';'';''
'7920-2';'2.16.840.1.113883.6.1';'Influenza virus A Ab [Units/volume] in Serum';'http://loinc.org';'';'Infuenza-A Antikörper quantitativ';'DEPRECATED';'20';'1';'D';'';'U/L';'[iU]/L'
'836378001';'2.16.840.1.113883.6.96';'Japanische Enzephalitis Impfstoff';'https://termgit.elga.gv.at/CodeSystem/snomed-ct-auszug';'';'';'';'21';'0';'L';'';'';''
'836382004';'2.16.840.1.113883.6.96';'Masern Impfstoff';'https://termgit.elga.gv.at/CodeSystem/snomed-ct-auszug';'';'Masern Impfstoff: Serologie';'';'22';'0';'S';'';'';''
'7961-6';'2.16.840.1.113883.6.1';'Measles virus Ab [Units/volume] in Serum';'http://loinc.org';'';'Masern Antikörper quantitativ';'';'23';'1';'L';'';'U/mL';'[iU]/mL'
'836401009';'2.16.840.1.113883.6.96';'Meningokokken Impfstoff';'https://termgit.elga.gv.at/CodeSystem/snomed-ct-auszug';'';'';'';'24';'0';'L';'';'';''
'1981000221108';'2.16.840.1.113883.6.96';'Meningokokken Serotyp B Impfstoff';'https://termgit.elga.gv.at/CodeSystem/snomed-ct-auszug';'';'';'';'25';'0';'L';'';'';''
'871866001';'2.16.840.1.113883.6.96';'Meningokokken Serotyp C Impfstoff';'https://termgit.elga.gv.at/CodeSystem/snomed-ct-auszug';'';'';'';'26';'0';'L';'';'';''
'871738001';'2.16.840.1.113883.6.96';'Mumps Impfstoff';'https://termgit.elga.gv.at/CodeSystem/snomed-ct-auszug';'';'';'';'27';'0';'S';'';'';''
'7965-7';'2.16.840.1.113883.6.1';'Mumps virus Ab [Units/volume] in Serum';'http://loinc.org';'';'Mumps Antikörper quantitativ';'DEPRECATED';'28';'1';'D';'';'U/mL';'[iU]/mL'
'601000221108';'2.16.840.1.113883.6.96';'Pertussis Impfstoff';'https://termgit.elga.gv.at/CodeSystem/snomed-ct-auszug';'';'';'';'29';'0';'S';'';'';''
'11585-7';'2.16.840.1.113883.6.1';'Bordetella pertussis Ab [Units/volume] in Serum';'http://loinc.org';'';'Pertussis Antikörper quantitativ';'DEPRECATED';'30';'1';'D';'';'U/mL';'[iU]/mL'
'836398006';'2.16.840.1.113883.6.96';'Pneumokokken Impfstoff';'https://termgit.elga.gv.at/CodeSystem/snomed-ct-auszug';'';'';'';'31';'0';'L';'';'';''
'836389008';'2.16.840.1.113883.6.96';'Pocken Impfstoff';'https://termgit.elga.gv.at/CodeSystem/snomed-ct-auszug';'';'';'';'32';'0';'L';'';'';''
'1031000221108';'2.16.840.1.113883.6.96';'Poliomyelitis Impfstoff';'https://termgit.elga.gv.at/CodeSystem/snomed-ct-auszug';'';'Poliomyelitis Impfstoff: Serologie';'';'33';'0';'S';'';'';''
'16284-2';'2.16.840.1.113883.6.1';'Polio virus Ab [Units/volume] in Serum';'http://loinc.org';'';'Polio Antikörper quantitativ';'DEPRECATED';'34';'1';'D';'';'U/mL';'[iU]/mL'
'5281-1';'2.16.840.1.113883.6.1';'Polio virus 1 Ab [Titer] in Serum by Neutralization test';'http://loinc.org';'';'';'';'35';'1';'L';'';'Titer';'{Titer}'
'5283-7';'2.16.840.1.113883.6.1';'Polio virus 2 Ab [Titer] in Serum by Neutralization test';'http://loinc.org';'';'';'';'36';'1';'L';'';'Titer';'{Titer}'
'5285-2';'2.16.840.1.113883.6.1';'Polio virus 3 Ab [Titer] in Serum by Neutralization test';'http://loinc.org';'';'';'';'37';'1';'L';'';'Titer';'{Titer}'
'836387005';'2.16.840.1.113883.6.96';'Rotavirus Impfstoff';'https://termgit.elga.gv.at/CodeSystem/snomed-ct-auszug';'';'';'';'38';'0';'S';'';'';''
'5328-0';'2.16.840.1.113883.6.1';'Rotavirus Ab [Units/volume] in Serum';'http://loinc.org';'';'Rotavirus Antikörper quantitativ';'DEPRECATED';'39';'1';'D';'';'U/mL';'[iU]/mL'
'836388000';'2.16.840.1.113883.6.96';'Röteln Impfstoff';'https://termgit.elga.gv.at/CodeSystem/snomed-ct-auszug';'';'Röteln Impfstoff: Serologie';'';'40';'0';'S';'';'';''
'8013-5';'2.16.840.1.113883.6.1';'Rubella virus Ab [Units/volume] in Serum';'http://loinc.org';'';'Röteln Antikörper quantitativ';'';'41';'1';'L';'';'U/mL';'[iU]/mL'
'41763-4';'2.16.840.1.113883.6.1';'Rubella virus IgG Ab [Titer] in Serum';'http://loinc.org';'';'Röteln-IgG-Antikörper Titer';'';'42';'1';'L';'';'Titer';'{Titer}'
'50694-9';'2.16.840.1.113883.6.1';'Rubella virus Ab [Titer] in Serum by Hemagglutination inhibition';'http://loinc.org';'';'Röteln-Virus-Antikörper-Titer HHT';'';'43';'1';'L';'';'Titer';'{Titer}'
'1101000221104';'2.16.840.1.113883.6.96';'Tetanus Impfstoff';'https://termgit.elga.gv.at/CodeSystem/snomed-ct-auszug';'';'Tetanus Impfstoff: Serologie';'';'44';'0';'S';'';'';''
'32775-9';'2.16.840.1.113883.6.1';'Clostridium tetani toxoid Ab [Units/volume] in Serum';'http://loinc.org';'';'Tetanustoxin Antikörper quantitativ';'';'45';'1';'L';'';'U/mL';'[iU]/mL'
'836393002';'2.16.840.1.113883.6.96';'Tollwut Impfstoff';'https://termgit.elga.gv.at/CodeSystem/snomed-ct-auszug';'';'Tollwut Impfstoff: Serologie';'';'46';'0';'S';'';'';''
'5288-6';'2.16.840.1.113883.6.1';'Rabies virus Ab [Units/volume] in Serum';'http://loinc.org';'';'Tollwut Antikörper quantitativ';'DEPRECATED';'47';'1';'D';'';'U/mL';'[iU]/mL'
'6524-3';'2.16.840.1.113883.6.1';'Rabies virus Ab [Units/volume] in Serum by Neutralization test';'http://loinc.org';'';'';'';'48';'1';'L';'';'';'[arb''U]/mL'
'836390004';'2.16.840.1.113883.6.96';'Typhus Impfstoff';'https://termgit.elga.gv.at/CodeSystem/snomed-ct-auszug';'';'';'';'49';'0';'L';'';'';''
'836402002';'2.16.840.1.113883.6.96';'Tuberkulose Impfstoff';'https://termgit.elga.gv.at/CodeSystem/snomed-ct-auszug';'';'';'';'50';'0';'L';'';'';''
'836495005';'2.16.840.1.113883.6.96';'Varizellen Impfstoff';'https://termgit.elga.gv.at/CodeSystem/snomed-ct-auszug';'';'Varizellen Impfstoff: Serologie';'';'51';'0';'S';'';'';''
'8046-5';'2.16.840.1.113883.6.1';'Varicella zoster virus Ab [Units/volume] in Serum';'http://loinc.org';'';'Varizellen Antikörper quantitativ';'';'52';'1';'L';'';'mU/mL';'[miU]/mL'
'840534001';'2.16.840.1.113883.6.96';'COVID-19-Impfstoff';'https://termgit.elga.gv.at/CodeSystem/snomed-ct-auszug';'';'COVID-19-Impfstoff';'';'53';'0';'S';'';'';''
'94547-7';'2.16.840.1.113883.6.1';'SARS-CoV-2 (COVID-19) IgG+IgM Ab [Presence] in Serum or Plasma by Immunoassay';'http://loinc.org';'';'SARS-CoV-2 (COVID-19) Antikörper qualitativ';'';'54';'1';'L';'';'';'{neg,pos}'
'94507-1';'2.16.840.1.113883.6.1';'SARS-CoV-2 (COVID-19) IgG Ab [Presence] in Serum, Plasma or Blood by Rapid immunoassay';'http://loinc.org';'';'SARS-CoV-2 (COVID-19) Antikörper IgG Schnelltest';'';'55';'1';'L';'';'';'{neg,pos}'
'94505-5';'2.16.840.1.113883.6.1';'SARS-CoV-2 (COVID-19) IgG Ab [Units/volume] in Serum or Plasma by Immunoassay';'http://loinc.org';'';'SARS-CoV-2 (COVID-19) Antikörper IgG';'';'56';'1';'L';'';'';'[iU]/mL'
'94563-4';'2.16.840.1.113883.6.1';'SARS-CoV-2 (COVID-19) IgG Ab [Presence] in Serum or Plasma by Immunoassay';'http://loinc.org';'';'SARS-CoV-2 (COVID-19) Antikörper IgG qualitativ';'';'57';'1';'L';'';'';'{neg,pos}'
