{
  "resourceType": "CodeSystem",
  "id": "exnds-concepts",
  "url": "https://termgit.elga.gv.at/CodeSystem/exnds-concepts",
  "identifier": [
    {
      "use": "official",
      "system": "urn:ietf:rfc:3986",
      "value": "urn:oid:1.2.40.0.34.5.195"
    }
  ],
  "version": "1.0.0+20230131",
  "name": "exnds-concepts",
  "title": "EXNDS_Concepts",
  "status": "active",
  "date": "2013-01-10",
  "content": "complete",
  "count": 179,
  "property": [
    {
      "code": "child",
      "type": "code"
    },
    {
      "code": "parent",
      "type": "code"
    }
  ],
  "concept": [
    {
      "code": "ABR",
      "display": "Abrechnungs-Kennzeichen",
      "property": [
        {
          "code": "child",
          "valueCode": "ABR_k"
        },
        {
          "code": "child",
          "valueCode": "ABR_o"
        },
        {
          "code": "child",
          "valueCode": "ABR_p"
        },
        {
          "code": "child",
          "valueCode": "ABR_x"
        }
      ]
    },
    {
      "code": "ABR_k",
      "display": "Kassen",
      "property": [
        {
          "code": "parent",
          "valueCode": "ABR"
        }
      ]
    },
    {
      "code": "ABR_o",
      "display": "offen",
      "property": [
        {
          "code": "parent",
          "valueCode": "ABR"
        }
      ]
    },
    {
      "code": "ABR_p",
      "display": "privat",
      "property": [
        {
          "code": "parent",
          "valueCode": "ABR"
        }
      ]
    },
    {
      "code": "ABR_x",
      "display": "nicht verrechnen",
      "property": [
        {
          "code": "parent",
          "valueCode": "ABR"
        }
      ]
    },
    {
      "code": "ABS-Daten",
      "display": "ABS Daten"
    },
    {
      "code": "ArnMittelAbgabe",
      "display": "Arzneimittel Abgabeart",
      "property": [
        {
          "code": "child",
          "valueCode": "ArnMittelAbgabe_B"
        },
        {
          "code": "child",
          "valueCode": "ArnMittelAbgabe_K"
        },
        {
          "code": "child",
          "valueCode": "ArnMittelAbgabe_oeA"
        }
      ]
    },
    {
      "code": "ArnMittelAbgabe_B",
      "display": "Barverkauf",
      "property": [
        {
          "code": "parent",
          "valueCode": "ArnMittelAbgabe"
        }
      ]
    },
    {
      "code": "ArnMittelAbgabe_K",
      "display": "Kasse",
      "property": [
        {
          "code": "parent",
          "valueCode": "ArnMittelAbgabe"
        }
      ]
    },
    {
      "code": "ArnMittelAbgabe_oeA",
      "display": "oeffentliche Apotheke",
      "property": [
        {
          "code": "parent",
          "valueCode": "ArnMittelAbgabe"
        }
      ]
    },
    {
      "code": "ArnMittelBez",
      "display": "Arzneimittel Bezahlt"
    },
    {
      "code": "ArnMittelMagBest",
      "display": "Bestandteil einer magistralen Zubereiten"
    },
    {
      "code": "ArnMittelMagOrganizer",
      "display": "Organizer f\u00fcr magistrale Zubereitungen"
    },
    {
      "code": "ArnMittelOrganizer",
      "display": "Arzneimittel-Organizer"
    },
    {
      "code": "ArnMittelPackArt",
      "display": "Arzneimittelpackungsart",
      "property": [
        {
          "code": "child",
          "valueCode": "ArnMittelPackArt_AEM"
        },
        {
          "code": "child",
          "valueCode": "ArnMittelPackArt_OP"
        }
      ]
    },
    {
      "code": "ArnMittelPackArt_AEM",
      "display": "\u00c4rztemuster",
      "property": [
        {
          "code": "parent",
          "valueCode": "ArnMittelPackArt"
        }
      ]
    },
    {
      "code": "ArnMittelPackArt_OP",
      "display": "Originalpackung",
      "property": [
        {
          "code": "parent",
          "valueCode": "ArnMittelPackArt"
        }
      ]
    },
    {
      "code": "ArnMittelRezGebFrei",
      "display": "Arzneimittel rezeptgeb\u00fchrenbefreit"
    },
    {
      "code": "ArzMittelPreis",
      "display": "Arzneimittelpreis",
      "property": [
        {
          "code": "child",
          "valueCode": "ArzMittelPreisApo"
        },
        {
          "code": "child",
          "valueCode": "ArzMittelPreisTAX"
        }
      ]
    },
    {
      "code": "ArzMittelPreisApo",
      "display": "Apotheken-Verkaufspreis des Arzneimittels",
      "property": [
        {
          "code": "parent",
          "valueCode": "ArzMittelPreis"
        }
      ]
    },
    {
      "code": "ArzMittelPreisTAX",
      "display": "TAX-Preis des Arzneimittels",
      "property": [
        {
          "code": "parent",
          "valueCode": "ArzMittelPreis"
        }
      ]
    },
    {
      "code": "Attachment",
      "display": "Attachment"
    },
    {
      "code": "BER",
      "display": "Beruf"
    },
    {
      "code": "BLD",
      "display": "Bundeslandcode",
      "property": [
        {
          "code": "child",
          "valueCode": "BLD1"
        },
        {
          "code": "child",
          "valueCode": "BLD2"
        },
        {
          "code": "child",
          "valueCode": "BLD3"
        },
        {
          "code": "child",
          "valueCode": "BLD4"
        },
        {
          "code": "child",
          "valueCode": "BLD5"
        },
        {
          "code": "child",
          "valueCode": "BLD6"
        },
        {
          "code": "child",
          "valueCode": "BLD7"
        },
        {
          "code": "child",
          "valueCode": "BLD8"
        },
        {
          "code": "child",
          "valueCode": "BLD9"
        }
      ]
    },
    {
      "code": "BLD1",
      "display": "Wien",
      "property": [
        {
          "code": "parent",
          "valueCode": "BLD"
        }
      ]
    },
    {
      "code": "BLD2",
      "display": "Nieder\u00f6sterreich",
      "property": [
        {
          "code": "parent",
          "valueCode": "BLD"
        }
      ]
    },
    {
      "code": "BLD3",
      "display": "Burgenland",
      "property": [
        {
          "code": "parent",
          "valueCode": "BLD"
        }
      ]
    },
    {
      "code": "BLD4",
      "display": "Ober\u00f6sterreich",
      "property": [
        {
          "code": "parent",
          "valueCode": "BLD"
        }
      ]
    },
    {
      "code": "BLD5",
      "display": "Steiermark",
      "property": [
        {
          "code": "parent",
          "valueCode": "BLD"
        }
      ]
    },
    {
      "code": "BLD6",
      "display": "K\u00e4rnten",
      "property": [
        {
          "code": "parent",
          "valueCode": "BLD"
        }
      ]
    },
    {
      "code": "BLD7",
      "display": "Salzburg",
      "property": [
        {
          "code": "parent",
          "valueCode": "BLD"
        }
      ]
    },
    {
      "code": "BLD8",
      "display": "Tirol",
      "property": [
        {
          "code": "parent",
          "valueCode": "BLD"
        }
      ]
    },
    {
      "code": "BLD9",
      "display": "Vorarlberg",
      "property": [
        {
          "code": "parent",
          "valueCode": "BLD"
        }
      ]
    },
    {
      "code": "BSART",
      "display": "Behandlungsschein",
      "definition": "Art des Behandlungscheins",
      "property": [
        {
          "code": "child",
          "valueCode": "BSART1"
        },
        {
          "code": "child",
          "valueCode": "BSART2"
        },
        {
          "code": "child",
          "valueCode": "BSART3"
        },
        {
          "code": "child",
          "valueCode": "BSART4"
        },
        {
          "code": "child",
          "valueCode": "BSART5"
        },
        {
          "code": "child",
          "valueCode": "BSART6"
        },
        {
          "code": "child",
          "valueCode": "BSART7"
        },
        {
          "code": "child",
          "valueCode": "BSART8"
        },
        {
          "code": "child",
          "valueCode": "BSART9"
        }
      ]
    },
    {
      "code": "BSART1",
      "display": "Krankenschein",
      "definition": "Krankenschein, Hebammengeb\u00fchrenrechnung (nur g\u00fcltig bei Fachgebiet 70), Abrechnungsformular f\u00fcr MKP-Leistungen",
      "property": [
        {
          "code": "parent",
          "valueCode": "BSART"
        }
      ]
    },
    {
      "code": "BSART2",
      "display": "\u00dcberweisungsschein",
      "property": [
        {
          "code": "parent",
          "valueCode": "BSART"
        }
      ]
    },
    {
      "code": "BSART3",
      "display": "Erste-Hilfe-Schein",
      "property": [
        {
          "code": "parent",
          "valueCode": "BSART"
        }
      ]
    },
    {
      "code": "BSART4",
      "display": "Vertretungsschein",
      "property": [
        {
          "code": "parent",
          "valueCode": "BSART"
        }
      ]
    },
    {
      "code": "BSART5",
      "display": "Bereitschaftsdienstschein",
      "property": [
        {
          "code": "parent",
          "valueCode": "BSART"
        }
      ]
    },
    {
      "code": "BSART6",
      "display": "Vorsorgeuntersuchungsschein",
      "property": [
        {
          "code": "parent",
          "valueCode": "BSART"
        }
      ]
    },
    {
      "code": "BSART7",
      "display": "Ambulanzschein",
      "property": [
        {
          "code": "parent",
          "valueCode": "BSART"
        }
      ]
    },
    {
      "code": "BSART8",
      "display": "Ersatzbehandlungsschein",
      "property": [
        {
          "code": "parent",
          "valueCode": "BSART"
        }
      ]
    },
    {
      "code": "BSART9",
      "display": "Verordnungsschein",
      "property": [
        {
          "code": "parent",
          "valueCode": "BSART"
        }
      ]
    },
    {
      "code": "BefErstDat",
      "display": "Befunderstellungsdatum"
    },
    {
      "code": "BefundArt",
      "display": "Befund Art",
      "property": [
        {
          "code": "child",
          "valueCode": "BefundDokument"
        },
        {
          "code": "child",
          "valueCode": "BefundKartEintrag"
        }
      ]
    },
    {
      "code": "BefundDokument",
      "display": "Befund Dokument",
      "property": [
        {
          "code": "parent",
          "valueCode": "BefundArt"
        }
      ]
    },
    {
      "code": "BefundKartEintrag",
      "display": "Befund Karteieintrages",
      "property": [
        {
          "code": "parent",
          "valueCode": "BefundArt"
        }
      ]
    },
    {
      "code": "Behandlungen",
      "display": "Behandlungen"
    },
    {
      "code": "BesKennzeichenHautfarbe",
      "display": "Besondere Kennzeichen / Hautfarbe"
    },
    {
      "code": "CHKZ",
      "display": "Chefarztkennzeichen",
      "property": [
        {
          "code": "child",
          "valueCode": "CHKZ_J"
        },
        {
          "code": "child",
          "valueCode": "CHKZ_N"
        },
        {
          "code": "child",
          "valueCode": "CHKZ_blank"
        }
      ]
    },
    {
      "code": "CHKZ_J",
      "display": "ja",
      "property": [
        {
          "code": "parent",
          "valueCode": "CHKZ"
        }
      ]
    },
    {
      "code": "CHKZ_N",
      "display": "nein",
      "property": [
        {
          "code": "parent",
          "valueCode": "CHKZ"
        }
      ]
    },
    {
      "code": "CHKZ_blank",
      "display": "Tr\u00e4gerspezifisch",
      "property": [
        {
          "code": "parent",
          "valueCode": "CHKZ"
        }
      ]
    },
    {
      "code": "DatenbankexportEXNDS",
      "display": "Datenbankexport EXNDS",
      "property": [
        {
          "code": "child",
          "valueCode": "EXNDS_Patientendaten"
        },
        {
          "code": "child",
          "valueCode": "EXNDS_SystemdatenONLY"
        }
      ]
    },
    {
      "code": "EXNDS_Patientendaten",
      "display": "Datenbankexport EXNDS - Patientendaten",
      "property": [
        {
          "code": "parent",
          "valueCode": "DatenbankexportEXNDS"
        }
      ]
    },
    {
      "code": "EXNDS_SystemdatenONLY",
      "display": "Datenbankexport EXNDS - Systemdaten ONLY",
      "property": [
        {
          "code": "parent",
          "valueCode": "DatenbankexportEXNDS"
        }
      ]
    },
    {
      "code": "Dienstgeber",
      "display": "Dienstgeber"
    },
    {
      "code": "EKM",
      "display": "EntfernungInKM"
    },
    {
      "code": "ERSTZUW",
      "display": "Erstzuweiser"
    },
    {
      "code": "FremdStaatKenn",
      "display": "Fremdstaaten-Kennzeichen"
    },
    {
      "code": "GRUVU",
      "display": "Grund f\u00fcr Behandlungsschein",
      "property": [
        {
          "code": "child",
          "valueCode": "GRUVU_Bereitschaftsdienstschein"
        },
        {
          "code": "child",
          "valueCode": "GRUVU_Verordnungsschein"
        },
        {
          "code": "child",
          "valueCode": "GRUVU_Vertretungsschein"
        },
        {
          "code": "child",
          "valueCode": "GRUVU_Vorsorgeunterschungsschein"
        },
        {
          "code": "child",
          "valueCode": "GRUVU_\u00dcberweisungsschein"
        }
      ]
    },
    {
      "code": "GRUVU_Bereitschaftsdienstschein",
      "display": "Grund f\u00fcr Bereitschaftsdienstschein",
      "property": [
        {
          "code": "parent",
          "valueCode": "GRUVU"
        },
        {
          "code": "child",
          "valueCode": "GRUVU51"
        }
      ]
    },
    {
      "code": "GRUVU51",
      "display": "Wochentagsnachtdienst",
      "property": [
        {
          "code": "parent",
          "valueCode": "GRUVU_Bereitschaftsdienstschein"
        }
      ]
    },
    {
      "code": "GRUVU_Verordnungsschein",
      "display": "Grund f\u00fcr Verordnungsschein",
      "property": [
        {
          "code": "parent",
          "valueCode": "GRUVU"
        },
        {
          "code": "child",
          "valueCode": "GRUVU91"
        },
        {
          "code": "child",
          "valueCode": "GRUVU92"
        },
        {
          "code": "child",
          "valueCode": "GRUVU93"
        },
        {
          "code": "child",
          "valueCode": "GRUVU94"
        },
        {
          "code": "child",
          "valueCode": "GRUVU95"
        }
      ]
    },
    {
      "code": "GRUVU91",
      "display": "bestimmte Leistungen",
      "property": [
        {
          "code": "parent",
          "valueCode": "GRUVU_Verordnungsschein"
        }
      ]
    },
    {
      "code": "GRUVU92",
      "display": "R\u00f6ntgenbefund",
      "property": [
        {
          "code": "parent",
          "valueCode": "GRUVU_Verordnungsschein"
        }
      ]
    },
    {
      "code": "GRUVU93",
      "display": "Laborbefund",
      "property": [
        {
          "code": "parent",
          "valueCode": "GRUVU_Verordnungsschein"
        }
      ]
    },
    {
      "code": "GRUVU94",
      "display": "Verordnung zur Therapie",
      "property": [
        {
          "code": "parent",
          "valueCode": "GRUVU_Verordnungsschein"
        }
      ]
    },
    {
      "code": "GRUVU95",
      "display": "Akupunktur",
      "property": [
        {
          "code": "parent",
          "valueCode": "GRUVU_Verordnungsschein"
        }
      ]
    },
    {
      "code": "GRUVU_Vertretungsschein",
      "display": "Grund f\u00fcr Vertretungsschein",
      "property": [
        {
          "code": "parent",
          "valueCode": "GRUVU"
        },
        {
          "code": "child",
          "valueCode": "GRUVU41"
        },
        {
          "code": "child",
          "valueCode": "GRUVU42"
        },
        {
          "code": "child",
          "valueCode": "GRUVU43"
        },
        {
          "code": "child",
          "valueCode": "GRUVU44"
        },
        {
          "code": "child",
          "valueCode": "GRUVU45"
        },
        {
          "code": "child",
          "valueCode": "GRUVU46"
        },
        {
          "code": "child",
          "valueCode": "GRUVU47"
        }
      ]
    },
    {
      "code": "GRUVU41",
      "display": "Krankheit",
      "property": [
        {
          "code": "parent",
          "valueCode": "GRUVU_Vertretungsschein"
        }
      ]
    },
    {
      "code": "GRUVU42",
      "display": "Urlaub",
      "property": [
        {
          "code": "parent",
          "valueCode": "GRUVU_Vertretungsschein"
        }
      ]
    },
    {
      "code": "GRUVU43",
      "display": "Fortbildung",
      "property": [
        {
          "code": "parent",
          "valueCode": "GRUVU_Vertretungsschein"
        }
      ]
    },
    {
      "code": "GRUVU44",
      "display": "R\u00fcck\u00fcberweisung nach Krankenstandsvertretung",
      "property": [
        {
          "code": "parent",
          "valueCode": "GRUVU_Vertretungsschein"
        }
      ]
    },
    {
      "code": "GRUVU45",
      "display": "R\u00fcck\u00fcberweisung nach Urlaubsvertretung",
      "property": [
        {
          "code": "parent",
          "valueCode": "GRUVU_Vertretungsschein"
        }
      ]
    },
    {
      "code": "GRUVU46",
      "display": "R\u00fcck\u00fcberweisung nach Fortbildungsvertretung",
      "property": [
        {
          "code": "parent",
          "valueCode": "GRUVU_Vertretungsschein"
        }
      ]
    },
    {
      "code": "GRUVU47",
      "display": "Nichterreichbarkeit",
      "property": [
        {
          "code": "parent",
          "valueCode": "GRUVU_Vertretungsschein"
        }
      ]
    },
    {
      "code": "GRUVU_Vorsorgeunterschungsschein",
      "display": "Grund f\u00fcr Vorsorgeuntersuchungsschein",
      "property": [
        {
          "code": "parent",
          "valueCode": "GRUVU"
        },
        {
          "code": "child",
          "valueCode": "GRUVU61"
        },
        {
          "code": "child",
          "valueCode": "GRUVU62"
        },
        {
          "code": "child",
          "valueCode": "GRUVU63"
        },
        {
          "code": "child",
          "valueCode": "GRUVU64"
        }
      ]
    },
    {
      "code": "GRUVU61",
      "display": "chef\u00e4rztlicher Dienst",
      "property": [
        {
          "code": "parent",
          "valueCode": "GRUVU_Vorsorgeunterschungsschein"
        }
      ]
    },
    {
      "code": "GRUVU62",
      "display": "Reihen-, Lehrlingsuntersuchung",
      "property": [
        {
          "code": "parent",
          "valueCode": "GRUVU_Vorsorgeunterschungsschein"
        }
      ]
    },
    {
      "code": "GRUVU63",
      "display": "Gesundenuntersuchung ohne kurativer Behandlung",
      "property": [
        {
          "code": "parent",
          "valueCode": "GRUVU_Vorsorgeunterschungsschein"
        }
      ]
    },
    {
      "code": "GRUVU64",
      "display": "Gesundenuntersuchung mit kurativer Behandlung",
      "property": [
        {
          "code": "parent",
          "valueCode": "GRUVU_Vorsorgeunterschungsschein"
        }
      ]
    },
    {
      "code": "GRUVU_\u00dcberweisungsschein",
      "display": "Grund f\u00fcr \u00dcberweisungsschein",
      "property": [
        {
          "code": "parent",
          "valueCode": "GRUVU"
        },
        {
          "code": "child",
          "valueCode": "GRUVU21"
        },
        {
          "code": "child",
          "valueCode": "GRUVU22"
        },
        {
          "code": "child",
          "valueCode": "GRUVU23"
        },
        {
          "code": "child",
          "valueCode": "GRUVU24"
        },
        {
          "code": "child",
          "valueCode": "GRUVU25"
        },
        {
          "code": "child",
          "valueCode": "GRUVU26"
        },
        {
          "code": "child",
          "valueCode": "GRUVU27"
        }
      ]
    },
    {
      "code": "GRUVU21",
      "display": "fach\u00e4rztliche Untersuchung",
      "property": [
        {
          "code": "parent",
          "valueCode": "GRUVU_\u00dcberweisungsschein"
        }
      ]
    },
    {
      "code": "GRUVU22",
      "display": "Erste-Hilfe-Leistung wegen Nichterreichbarkeit",
      "property": [
        {
          "code": "parent",
          "valueCode": "GRUVU_\u00dcberweisungsschein"
        }
      ]
    },
    {
      "code": "GRUVU23",
      "display": "Erste-Hilfe-Leistung im Bereitschaftsdienst",
      "property": [
        {
          "code": "parent",
          "valueCode": "GRUVU_\u00dcberweisungsschein"
        }
      ]
    },
    {
      "code": "GRUVU24",
      "display": "R\u00f6ntgenbefund",
      "property": [
        {
          "code": "parent",
          "valueCode": "GRUVU_\u00dcberweisungsschein"
        }
      ]
    },
    {
      "code": "GRUVU25",
      "display": "Laborbefund",
      "property": [
        {
          "code": "parent",
          "valueCode": "GRUVU_\u00dcberweisungsschein"
        }
      ]
    },
    {
      "code": "GRUVU26",
      "display": "Ortswechsel",
      "property": [
        {
          "code": "parent",
          "valueCode": "GRUVU_\u00dcberweisungsschein"
        }
      ]
    },
    {
      "code": "GRUVU27",
      "display": "\u00dcbeweisung zur Therapie",
      "property": [
        {
          "code": "parent",
          "valueCode": "GRUVU_\u00dcberweisungsschein"
        }
      ]
    },
    {
      "code": "KOERPERLICHEMERKMALE",
      "display": "K\u00f6rperliche Merkmale"
    },
    {
      "code": "Karteieintragungen",
      "display": "Karteieintragungen"
    },
    {
      "code": "Karteineintrag",
      "display": "Karteineintrag"
    },
    {
      "code": "Kassenleistung",
      "display": "Kassenleistung"
    },
    {
      "code": "Krankenstand",
      "display": "Krankenstand",
      "property": [
        {
          "code": "child",
          "valueCode": "KrankenstandGrund"
        },
        {
          "code": "child",
          "valueCode": "VorausEnde"
        }
      ]
    },
    {
      "code": "KrankenstandGrund",
      "display": "Grund f\u00fcr den Krankenstand",
      "property": [
        {
          "code": "parent",
          "valueCode": "Krankenstand"
        }
      ]
    },
    {
      "code": "VorausEnde",
      "display": "Voraussichtliches Ende des Krankenstandes",
      "property": [
        {
          "code": "parent",
          "valueCode": "Krankenstand"
        }
      ]
    },
    {
      "code": "MWST",
      "display": "Mehrwertsteuersatz"
    },
    {
      "code": "PatInfoAdOrg",
      "display": "Patienteninformation Administrativ Organizer"
    },
    {
      "code": "RGZ",
      "display": "Regiezuschlag"
    },
    {
      "code": "RZG",
      "display": "Rezeptgeb\u00fchrenbefreit"
    },
    {
      "code": "Saldo",
      "display": "Saldo"
    },
    {
      "code": "Tarif",
      "display": "Tarif",
      "property": [
        {
          "code": "child",
          "valueCode": "MNG"
        },
        {
          "code": "child",
          "valueCode": "TFG"
        },
        {
          "code": "child",
          "valueCode": "Zusatzkennzeichen"
        }
      ]
    },
    {
      "code": "MNG",
      "display": "Tarif Menge",
      "property": [
        {
          "code": "parent",
          "valueCode": "Tarif"
        }
      ]
    },
    {
      "code": "TFG",
      "display": "Tariffeld",
      "property": [
        {
          "code": "parent",
          "valueCode": "Tarif"
        }
      ]
    },
    {
      "code": "Zusatzkennzeichen",
      "display": "Zusatzkennzeichen",
      "property": [
        {
          "code": "parent",
          "valueCode": "Tarif"
        }
      ]
    },
    {
      "code": "TherapieMenge",
      "display": "Therapie Menge"
    },
    {
      "code": "VKT",
      "display": "Versichertenkategorie",
      "property": [
        {
          "code": "child",
          "valueCode": "VKT01"
        },
        {
          "code": "child",
          "valueCode": "VKT05"
        },
        {
          "code": "child",
          "valueCode": "VKT07"
        },
        {
          "code": "child",
          "valueCode": "VKT20"
        },
        {
          "code": "child",
          "valueCode": "VKT21"
        },
        {
          "code": "child",
          "valueCode": "VKT22"
        },
        {
          "code": "child",
          "valueCode": "VKT23"
        },
        {
          "code": "child",
          "valueCode": "VKT24"
        },
        {
          "code": "child",
          "valueCode": "VKT25"
        },
        {
          "code": "child",
          "valueCode": "VKT26"
        },
        {
          "code": "child",
          "valueCode": "VKT29"
        }
      ]
    },
    {
      "code": "VKT01",
      "display": "Erwerbst\u00e4tige, Arbeitslose, Selbstversicherte, Zivildiener, Asylanten, Fl\u00fcchtlinge, Mindestsicherungsempf\u00e4nger",
      "property": [
        {
          "code": "parent",
          "valueCode": "VKT"
        }
      ]
    },
    {
      "code": "VKT05",
      "display": "Pensionist, Ruhegenussempf\u00e4nger",
      "property": [
        {
          "code": "parent",
          "valueCode": "VKT"
        }
      ]
    },
    {
      "code": "VKT07",
      "display": "Kriegshinterbliebener",
      "property": [
        {
          "code": "parent",
          "valueCode": "VKT"
        }
      ]
    },
    {
      "code": "VKT20",
      "display": "Zugeteilte nach OFG",
      "property": [
        {
          "code": "parent",
          "valueCode": "VKT"
        }
      ]
    },
    {
      "code": "VKT21",
      "display": "Zugeteilte nach KOVG, HVG",
      "property": [
        {
          "code": "parent",
          "valueCode": "VKT"
        }
      ]
    },
    {
      "code": "VKT22",
      "display": "Zugeteilte nach KOVG-D",
      "property": [
        {
          "code": "parent",
          "valueCode": "VKT"
        }
      ]
    },
    {
      "code": "VKT23",
      "display": "Zugeteilte nach STVG, Impfschadengesetz",
      "property": [
        {
          "code": "parent",
          "valueCode": "VKT"
        }
      ]
    },
    {
      "code": "VKT24",
      "display": "Zugeteilte nach VOG",
      "property": [
        {
          "code": "parent",
          "valueCode": "VKT"
        }
      ]
    },
    {
      "code": "VKT25",
      "display": "MKP - Nichtversicherte",
      "property": [
        {
          "code": "parent",
          "valueCode": "VKT"
        }
      ]
    },
    {
      "code": "VKT26",
      "display": "VU- Nichtversicherte",
      "property": [
        {
          "code": "parent",
          "valueCode": "VKT"
        }
      ]
    },
    {
      "code": "VKT29",
      "display": "Fremdstaaten (De-facto-Versicherte)",
      "property": [
        {
          "code": "parent",
          "valueCode": "VKT"
        }
      ]
    },
    {
      "code": "VSTRL",
      "display": "Leistungszust\u00e4ndiger Versicherungstr\u00e4ger",
      "property": [
        {
          "code": "child",
          "valueCode": "Betriebskrankenkassen"
        },
        {
          "code": "child",
          "valueCode": "Krankenf\u00fcrsorgeanstalten"
        },
        {
          "code": "child",
          "valueCode": "Pensionsversicherung"
        },
        {
          "code": "child",
          "valueCode": "Sonderversicherungstr\u00e4ger"
        },
        {
          "code": "child",
          "valueCode": "Sonstige"
        },
        {
          "code": "child",
          "valueCode": "\u00d6sterreichische_Gesundheitskasse"
        }
      ]
    },
    {
      "code": "Betriebskrankenkassen",
      "display": "Betriebskrankenkassen",
      "property": [
        {
          "code": "parent",
          "valueCode": "VSTRL"
        },
        {
          "code": "child",
          "valueCode": "VSTRL24"
        },
        {
          "code": "child",
          "valueCode": "VSTRL25"
        },
        {
          "code": "child",
          "valueCode": "VSTRL26"
        },
        {
          "code": "child",
          "valueCode": "VSTRL28"
        }
      ]
    },
    {
      "code": "VSTRL24",
      "display": "Mondi",
      "property": [
        {
          "code": "parent",
          "valueCode": "Betriebskrankenkassen"
        }
      ]
    },
    {
      "code": "VSTRL25",
      "display": "Voestalpine Bahnsysteme",
      "property": [
        {
          "code": "parent",
          "valueCode": "Betriebskrankenkassen"
        }
      ]
    },
    {
      "code": "VSTRL26",
      "display": "Zeltweg",
      "property": [
        {
          "code": "parent",
          "valueCode": "Betriebskrankenkassen"
        }
      ]
    },
    {
      "code": "VSTRL28",
      "display": "Kapfenberg",
      "property": [
        {
          "code": "parent",
          "valueCode": "Betriebskrankenkassen"
        }
      ]
    },
    {
      "code": "Krankenf\u00fcrsorgeanstalten",
      "display": "Krankenf\u00fcrsorgeanstalten",
      "property": [
        {
          "code": "parent",
          "valueCode": "VSTRL"
        },
        {
          "code": "child",
          "valueCode": "VSTRL1A"
        },
        {
          "code": "child",
          "valueCode": "VSTRL2A"
        },
        {
          "code": "child",
          "valueCode": "VSTRL4A"
        },
        {
          "code": "child",
          "valueCode": "VSTRL4B"
        },
        {
          "code": "child",
          "valueCode": "VSTRL4C"
        },
        {
          "code": "child",
          "valueCode": "VSTRL4D"
        },
        {
          "code": "child",
          "valueCode": "VSTRL4E"
        },
        {
          "code": "child",
          "valueCode": "VSTRL4F"
        },
        {
          "code": "child",
          "valueCode": "VSTRL5A"
        },
        {
          "code": "child",
          "valueCode": "VSTRL6A"
        },
        {
          "code": "child",
          "valueCode": "VSTRL7A"
        },
        {
          "code": "child",
          "valueCode": "VSTRL7B"
        },
        {
          "code": "child",
          "valueCode": "VSTRL8B"
        },
        {
          "code": "child",
          "valueCode": "VSTRL8C"
        },
        {
          "code": "child",
          "valueCode": "VSTRL8D"
        }
      ]
    },
    {
      "code": "VSTRL1A",
      "display": "Krankenf\u00fcrsorgeanstalt der Bediensteten der Stadt Wien",
      "property": [
        {
          "code": "parent",
          "valueCode": "Krankenf\u00fcrsorgeanstalten"
        }
      ]
    },
    {
      "code": "VSTRL2A",
      "display": "Krankenf\u00fcrsorgeanstalt der Beamten der Stadtgemeinde Baden",
      "property": [
        {
          "code": "parent",
          "valueCode": "Krankenf\u00fcrsorgeanstalten"
        }
      ]
    },
    {
      "code": "VSTRL4A",
      "display": "Krankenf\u00fcrsorge f\u00fcr die Beamten der Landeshauptstadt Linz",
      "property": [
        {
          "code": "parent",
          "valueCode": "Krankenf\u00fcrsorgeanstalten"
        }
      ]
    },
    {
      "code": "VSTRL4B",
      "display": "Kranken? und Unfallf\u00fcrsorge f\u00fcr ober\u00f6sterreichische Gemeindebeamte",
      "property": [
        {
          "code": "parent",
          "valueCode": "Krankenf\u00fcrsorgeanstalten"
        }
      ]
    },
    {
      "code": "VSTRL4C",
      "display": "Krankenf\u00fcrsorgeanstalt f\u00fcr ober\u00f6sterreichische Landesbeamte",
      "property": [
        {
          "code": "parent",
          "valueCode": "Krankenf\u00fcrsorgeanstalten"
        }
      ]
    },
    {
      "code": "VSTRL4D",
      "display": "Ober\u00f6sterreichische Lehrer?Kranken? und Unfallf\u00fcrsorge",
      "property": [
        {
          "code": "parent",
          "valueCode": "Krankenf\u00fcrsorgeanstalten"
        }
      ]
    },
    {
      "code": "VSTRL4E",
      "display": "Krankenf\u00fcrsorge f\u00fcr die Beamten des Magistrates Steyr",
      "property": [
        {
          "code": "parent",
          "valueCode": "Krankenf\u00fcrsorgeanstalten"
        }
      ]
    },
    {
      "code": "VSTRL4F",
      "display": "Krankenf\u00fcrsorge f\u00fcr ober\u00f6sterreichische Beamten der Stadt Wels",
      "property": [
        {
          "code": "parent",
          "valueCode": "Krankenf\u00fcrsorgeanstalten"
        }
      ]
    },
    {
      "code": "VSTRL5A",
      "display": "Krankenf\u00fcrsorgeanstalt f\u00fcr die Beamten der Landeshauptstadt Graz",
      "property": [
        {
          "code": "parent",
          "valueCode": "Krankenf\u00fcrsorgeanstalten"
        }
      ]
    },
    {
      "code": "VSTRL6A",
      "display": "Krankenf\u00fcrsorgeanstalt f\u00fcr die Beamten der Stadt Villach",
      "property": [
        {
          "code": "parent",
          "valueCode": "Krankenf\u00fcrsorgeanstalten"
        }
      ]
    },
    {
      "code": "VSTRL7A",
      "display": "Krankenf\u00fcrsorgeanstalt der Magistratsbeamten der Landeshauptstadt Salzburg",
      "property": [
        {
          "code": "parent",
          "valueCode": "Krankenf\u00fcrsorgeanstalten"
        }
      ]
    },
    {
      "code": "VSTRL7B",
      "display": "Krankenf\u00fcrsorgeeinrichtung der Beamten der Stadtgemeinde Hallein",
      "property": [
        {
          "code": "parent",
          "valueCode": "Krankenf\u00fcrsorgeanstalten"
        }
      ]
    },
    {
      "code": "VSTRL8B",
      "display": "Kranken? und Unfallf\u00fcrsorge der Tiroler Gemeindebeamten",
      "property": [
        {
          "code": "parent",
          "valueCode": "Krankenf\u00fcrsorgeanstalten"
        }
      ]
    },
    {
      "code": "VSTRL8C",
      "display": "Kranken? und Unfallf\u00fcrsorge der Tiroler Landesbeamten",
      "property": [
        {
          "code": "parent",
          "valueCode": "Krankenf\u00fcrsorgeanstalten"
        }
      ]
    },
    {
      "code": "VSTRL8D",
      "display": "Kranken? und Unfallf\u00fcrsorge der Tiroler Landeslehrer",
      "property": [
        {
          "code": "parent",
          "valueCode": "Krankenf\u00fcrsorgeanstalten"
        }
      ]
    },
    {
      "code": "Pensionsversicherung",
      "display": "Pensionsversicherung",
      "property": [
        {
          "code": "parent",
          "valueCode": "VSTRL"
        },
        {
          "code": "child",
          "valueCode": "VSTRL02"
        }
      ]
    },
    {
      "code": "VSTRL02",
      "display": "Pensionsversicherung",
      "property": [
        {
          "code": "parent",
          "valueCode": "Pensionsversicherung"
        }
      ]
    },
    {
      "code": "Sonderversicherungstr\u00e4ger",
      "display": "Sonderversicherungstr\u00e4ger",
      "property": [
        {
          "code": "parent",
          "valueCode": "VSTRL"
        },
        {
          "code": "child",
          "valueCode": "VSTRL05"
        },
        {
          "code": "child",
          "valueCode": "VSTRL07"
        },
        {
          "code": "child",
          "valueCode": "VSTRL40"
        },
        {
          "code": "child",
          "valueCode": "VSTRL41"
        },
        {
          "code": "child",
          "valueCode": "VSTRL42"
        },
        {
          "code": "child",
          "valueCode": "VSTRL43"
        },
        {
          "code": "child",
          "valueCode": "VSTRL44"
        },
        {
          "code": "child",
          "valueCode": "VSTRL45"
        },
        {
          "code": "child",
          "valueCode": "VSTRL46"
        },
        {
          "code": "child",
          "valueCode": "VSTRL47"
        },
        {
          "code": "child",
          "valueCode": "VSTRL48"
        },
        {
          "code": "child",
          "valueCode": "VSTRL49"
        },
        {
          "code": "child",
          "valueCode": "VSTRL50"
        },
        {
          "code": "child",
          "valueCode": "VSTRL51"
        },
        {
          "code": "child",
          "valueCode": "VSTRL52"
        },
        {
          "code": "child",
          "valueCode": "VSTRL53"
        },
        {
          "code": "child",
          "valueCode": "VSTRL54"
        },
        {
          "code": "child",
          "valueCode": "VSTRL55"
        },
        {
          "code": "child",
          "valueCode": "VSTRL56"
        },
        {
          "code": "child",
          "valueCode": "VSTRL57"
        },
        {
          "code": "child",
          "valueCode": "VSTRL58"
        },
        {
          "code": "child",
          "valueCode": "VSTRL59"
        }
      ]
    },
    {
      "code": "VSTRL05",
      "display": "Versicherungsanstalt \u00f6ffentlich Bediensteter, Eisenbahnen und Bergbau ? Eisenbahn Bergbau",
      "property": [
        {
          "code": "parent",
          "valueCode": "Sonderversicherungstr\u00e4ger"
        }
      ]
    },
    {
      "code": "VSTRL07",
      "display": "Versicherungsanstalt \u00f6ffentlich Bediensteter, Eisenbahnen und Bergbau ? \u00d6ffentlich Bedienstete",
      "property": [
        {
          "code": "parent",
          "valueCode": "Sonderversicherungstr\u00e4ger"
        }
      ]
    },
    {
      "code": "VSTRL40",
      "display": "Sozialversicherungsanstalt der Selbst\u00e4ndigen ? gewerbliche Wirtschaft",
      "property": [
        {
          "code": "parent",
          "valueCode": "Sonderversicherungstr\u00e4ger"
        }
      ]
    },
    {
      "code": "VSTRL41",
      "display": "Sozialversicherungsanstalt der Selbst\u00e4ndigen ? gewerbliche Wirtschaft Landesstelle Wien",
      "property": [
        {
          "code": "parent",
          "valueCode": "Sonderversicherungstr\u00e4ger"
        }
      ]
    },
    {
      "code": "VSTRL42",
      "display": "Sozialversicherungsanstalt der Selbst\u00e4ndigen ? gewerbliche Wirtschaft Landesstelle Nieder\u00f6sterreich",
      "property": [
        {
          "code": "parent",
          "valueCode": "Sonderversicherungstr\u00e4ger"
        }
      ]
    },
    {
      "code": "VSTRL43",
      "display": "Sozialversicherungsanstalt der Selbst\u00e4ndigen ? gewerbliche Wirtschaft Landesstelle Burgenland",
      "property": [
        {
          "code": "parent",
          "valueCode": "Sonderversicherungstr\u00e4ger"
        }
      ]
    },
    {
      "code": "VSTRL44",
      "display": "Sozialversicherungsanstalt der Selbst\u00e4ndigen ? gewerbliche Wirtschaft Landesstelle Ober\u00f6sterreich",
      "property": [
        {
          "code": "parent",
          "valueCode": "Sonderversicherungstr\u00e4ger"
        }
      ]
    },
    {
      "code": "VSTRL45",
      "display": "Sozialversicherungsanstalt der Selbst\u00e4ndigen ? gewerbliche Wirtschaft Landesstelle Steiermark",
      "property": [
        {
          "code": "parent",
          "valueCode": "Sonderversicherungstr\u00e4ger"
        }
      ]
    },
    {
      "code": "VSTRL46",
      "display": "Sozialversicherungsanstalt der Selbst\u00e4ndigen ? gewerbliche Wirtschaft Landesstelle K\u00e4rnten",
      "property": [
        {
          "code": "parent",
          "valueCode": "Sonderversicherungstr\u00e4ger"
        }
      ]
    },
    {
      "code": "VSTRL47",
      "display": "Sozialversicherungsanstalt der Selbst\u00e4ndigen ? gewerbliche Wirtschaft Landesstelle Salzburg",
      "property": [
        {
          "code": "parent",
          "valueCode": "Sonderversicherungstr\u00e4ger"
        }
      ]
    },
    {
      "code": "VSTRL48",
      "display": "Sozialversicherungsanstalt der Selbst\u00e4ndigen ? gewerbliche Wirtschaft Landesstelle Tirol",
      "property": [
        {
          "code": "parent",
          "valueCode": "Sonderversicherungstr\u00e4ger"
        }
      ]
    },
    {
      "code": "VSTRL49",
      "display": "Sozialversicherungsanstalt der Selbst\u00e4ndigen ? gewerbliche Wirtschaft Landesstelle Vorarlberg",
      "property": [
        {
          "code": "parent",
          "valueCode": "Sonderversicherungstr\u00e4ger"
        }
      ]
    },
    {
      "code": "VSTRL50",
      "display": "Sozialversicherungsanstalt der Selbst\u00e4ndigen ? Landwirtschaft",
      "property": [
        {
          "code": "parent",
          "valueCode": "Sonderversicherungstr\u00e4ger"
        }
      ]
    },
    {
      "code": "VSTRL51",
      "display": "Sozialversicherungsanstalt der Selbst\u00e4ndigen ? Landwirtschaft Landesstelle Wien",
      "property": [
        {
          "code": "parent",
          "valueCode": "Sonderversicherungstr\u00e4ger"
        }
      ]
    },
    {
      "code": "VSTRL52",
      "display": "Sozialversicherungsanstalt der Selbst\u00e4ndigen ? Landwirtschaft Landesstelle Nieder\u00f6sterreich",
      "property": [
        {
          "code": "parent",
          "valueCode": "Sonderversicherungstr\u00e4ger"
        }
      ]
    },
    {
      "code": "VSTRL53",
      "display": "Sozialversicherungsanstalt der Selbst\u00e4ndigen ? Landwirtschaft Landesstelle Burgenland",
      "property": [
        {
          "code": "parent",
          "valueCode": "Sonderversicherungstr\u00e4ger"
        }
      ]
    },
    {
      "code": "VSTRL54",
      "display": "Sozialversicherungsanstalt der Selbst\u00e4ndigen ? Landwirtschaft Landesstelle Ober\u00f6sterreich",
      "property": [
        {
          "code": "parent",
          "valueCode": "Sonderversicherungstr\u00e4ger"
        }
      ]
    },
    {
      "code": "VSTRL55",
      "display": "Sozialversicherungsanstalt der Selbst\u00e4ndigen ? Landwirtschaft Landesstelle Steiermark",
      "property": [
        {
          "code": "parent",
          "valueCode": "Sonderversicherungstr\u00e4ger"
        }
      ]
    },
    {
      "code": "VSTRL56",
      "display": "Sozialversicherungsanstalt der Selbst\u00e4ndigen ? Landwirtschaft Landesstelle K\u00e4rnten",
      "property": [
        {
          "code": "parent",
          "valueCode": "Sonderversicherungstr\u00e4ger"
        }
      ]
    },
    {
      "code": "VSTRL57",
      "display": "Sozialversicherungsanstalt der Selbst\u00e4ndigen ? Landwirtschaft Landesstelle Salzburg",
      "property": [
        {
          "code": "parent",
          "valueCode": "Sonderversicherungstr\u00e4ger"
        }
      ]
    },
    {
      "code": "VSTRL58",
      "display": "Sozialversicherungsanstalt der Selbst\u00e4ndigen ? Landwirtschaft Landesstelle Tirol",
      "property": [
        {
          "code": "parent",
          "valueCode": "Sonderversicherungstr\u00e4ger"
        }
      ]
    },
    {
      "code": "VSTRL59",
      "display": "Sozialversicherungsanstalt der Selbst\u00e4ndigen ? Landwirtschaft Landesstelle Vorarlberg",
      "property": [
        {
          "code": "parent",
          "valueCode": "Sonderversicherungstr\u00e4ger"
        }
      ]
    },
    {
      "code": "Sonstige",
      "display": "Sonstige",
      "property": [
        {
          "code": "parent",
          "valueCode": "VSTRL"
        },
        {
          "code": "child",
          "valueCode": "VSTRL1L"
        },
        {
          "code": "child",
          "valueCode": "VSTRL4G"
        },
        {
          "code": "child",
          "valueCode": "VSTRL4L"
        }
      ]
    },
    {
      "code": "VSTRL1L",
      "display": "Magistrat der Stadt Wien",
      "property": [
        {
          "code": "parent",
          "valueCode": "Sonstige"
        }
      ]
    },
    {
      "code": "VSTRL4G",
      "display": "Magistrat der Stadt Steyr",
      "property": [
        {
          "code": "parent",
          "valueCode": "Sonstige"
        }
      ]
    },
    {
      "code": "VSTRL4L",
      "display": "Landesregierung Ober\u00f6sterreich",
      "property": [
        {
          "code": "parent",
          "valueCode": "Sonstige"
        }
      ]
    },
    {
      "code": "\u00d6sterreichische_Gesundheitskasse",
      "display": "\u00d6sterreichische Gesundheitskasse",
      "property": [
        {
          "code": "parent",
          "valueCode": "VSTRL"
        },
        {
          "code": "child",
          "valueCode": "VSTRL11"
        }
      ]
    },
    {
      "code": "VSTRL11",
      "display": "\u00d6sterreichische Gesundheitskasse",
      "property": [
        {
          "code": "parent",
          "valueCode": "\u00d6sterreichische_Gesundheitskasse"
        }
      ]
    },
    {
      "code": "VisitenKMTyp",
      "display": "Visiten KM Typ",
      "property": [
        {
          "code": "child",
          "valueCode": "KMA"
        },
        {
          "code": "child",
          "valueCode": "KMB"
        },
        {
          "code": "child",
          "valueCode": "KMN"
        }
      ]
    },
    {
      "code": "KMA",
      "display": "Visitenadresse-km Alpin",
      "property": [
        {
          "code": "parent",
          "valueCode": "VisitenKMTyp"
        }
      ]
    },
    {
      "code": "KMB",
      "display": "Visitenadresse-km Berg",
      "property": [
        {
          "code": "parent",
          "valueCode": "VisitenKMTyp"
        }
      ]
    },
    {
      "code": "KMN",
      "display": "Visitenadresse-km Normal",
      "property": [
        {
          "code": "parent",
          "valueCode": "VisitenKMTyp"
        }
      ]
    },
    {
      "code": "Visitenadresse",
      "display": "Visitenadresse"
    },
    {
      "code": "Visiteninformation",
      "display": "Visientinformation"
    },
    {
      "code": "eCardKonsDaten",
      "display": "eCard Konsultationsdaten"
    }
  ]
}