{
  "resourceType": "ValueSet",
  "id": "atcdabbr-lateralityqualifiercode",
  "meta": {
    "profile": [
      "http://hl7.at/fhir/HL7ATCoreProfiles/4.0.1/StructureDefinition/at-core-valueset"
    ]
  },
  "url": "https://termgit.elga.gv.at/ValueSet/atcdabbr-lateralityqualifiercode",
  "identifier": [
    {
      "use": "official",
      "system": "urn:ietf:rfc:3986",
      "value": "urn:oid:1.2.40.0.34.10.211"
    }
  ],
  "version": "2.1.0+20240325",
  "name": "atcdabbr-lateralityqualifiercode",
  "title": "atcdabbr-LateralityQualifiercode",
  "status": "active",
  "date": "2024-03-25",
  "copyright": "Enth\u00e4lt durch SNOMED International urheberrechtlich gesch\u00fctzte Information. Jede Verwendung von SNOMED CT in \u00d6sterreich erfordert eine aufrechte Affiliate Lizenz oder eine Sublizenz. Die entsprechende Lizenz ist kostenlos, vorausgesetzt die Verwendung findet nur in \u00d6sterreich statt und erf\u00fcllt die Bedingungen des Affiliate License Agreements. Affiliate Lizenzen k\u00f6nnen \u00fcber das Mitglieder-Lizenzierungs- und Distributions-Service (MLDS) direkt beim jeweiligen NRC beantragt werden. Contains information protected by copyright of SNOMED International. Any use of SNOMED CT in Austria requires a valid affiliate license or sublicense. The corresponding license is free of charge, provided that the use only takes place in Austria and fulfills the conditions of the Affiliate License Agreement. Affiliate licenses can be requested directly from the respective NRC via the Member Licensing and Distribution Service (MLDS).",
  "compose": {
    "include": [
      {
        "extension": [
          {
            "url": "http://hl7.at/fhir/HL7ATCoreProfiles/4.0.1/StructureDefinition/at-core-ext-valueset-systemoid",
            "valueOid": "urn:oid:2.16.840.1.113883.6.96"
          }
        ],
        "system": "https://termgit.elga.gv.at/CodeSystem/snomed-ct-auszug",
        "version": "1.5.0+20231017",
        "concept": [
          {
            "code": "7771000",
            "display": "Left (qualifier value)"
          },
          {
            "code": "24028007",
            "display": "Right (qualifier value)"
          },
          {
            "code": "51440002",
            "display": "Right and left (qualifier value)"
          }
        ]
      }
    ]
  },
  "expansion": {
    "timestamp": "2024-03-25T06:36:54+00:00",
    "contains": [
      {
        "extension": [
          {
            "url": "http://hl7.at/fhir/HL7ATCoreProfiles/4.0.1/StructureDefinition/at-core-ext-valueset-systemoid",
            "valueOid": "urn:oid:2.16.840.1.113883.6.96"
          }
        ],
        "system": "https://termgit.elga.gv.at/CodeSystem/snomed-ct-auszug",
        "version": "1.5.0+20231017",
        "code": "7771000",
        "display": "Left (qualifier value)"
      },
      {
        "extension": [
          {
            "url": "http://hl7.at/fhir/HL7ATCoreProfiles/4.0.1/StructureDefinition/at-core-ext-valueset-systemoid",
            "valueOid": "urn:oid:2.16.840.1.113883.6.96"
          }
        ],
        "system": "https://termgit.elga.gv.at/CodeSystem/snomed-ct-auszug",
        "version": "1.5.0+20231017",
        "code": "24028007",
        "display": "Right (qualifier value)"
      },
      {
        "extension": [
          {
            "url": "http://hl7.at/fhir/HL7ATCoreProfiles/4.0.1/StructureDefinition/at-core-ext-valueset-systemoid",
            "valueOid": "urn:oid:2.16.840.1.113883.6.96"
          }
        ],
        "system": "https://termgit.elga.gv.at/CodeSystem/snomed-ct-auszug",
        "version": "1.5.0+20231017",
        "code": "51440002",
        "display": "Right and left (qualifier value)"
      }
    ]
  }
}