"resource";"id";"url";"version";"name";"title";"status";"description";"content";"identifier";"date";"count"
"CodeSystem";"ems-posneg";"https://termgit.elga.gv.at/CodeSystem/ems-posneg";"1.0.0+20230131";"ems-posneg";"EMS_PosNeg";"active";"EMS Positiv, Negativ";"complete";"1.2.40.0.34.5.88";"2017-01-26";"8"

"code";"display"
"GW";"grenzwertig"
"NA";"nicht anwendbar"
"NAW";"nicht auswertbar"
"NEG";"negativ"
"NOTEST";"nicht durchgeführt"
"POS";"positiv"
"UB";"unbestimmt"
"UNK";"unbekannt"