'code';'codeSystem';'displayName';'parentCodeSystemName';'concept_Beschreibung';'meaning';'hints';'orderNumber';'level';'type';'relationships';'einheit print';'einheit codiert';'codeSystemVersion'
'0';'1.2.40.0.34.5.152';'PAP';'https://termgit.elga.gv.at/CodeSystem/elga-auditsourcetype';'ELGA PAP';;;'1';'0';'L';;;;'1.0.1+20240129'
'1';'1.2.40.0.34.5.152';'KBS';'https://termgit.elga.gv.at/CodeSystem/elga-auditsourcetype';'ELGA Kontaktbestätigungsservice';;;'2';'0';'L';;;;'1.0.1+20240129'
'10';'1.2.40.0.34.5.152';'CDM';'https://termgit.elga.gv.at/CodeSystem/elga-auditsourcetype';'Zentrales Content Delete Management Service';;;'3';'0';'L';;;;'1.0.1+20240129'
'11';'1.2.40.0.34.5.152';'CDD';'https://termgit.elga.gv.at/CodeSystem/elga-auditsourcetype';'Dezentraler Content Delete Management Daemon';;;'4';'0';'L';;;;'1.0.1+20240129'
'12';'1.2.40.0.34.5.152';'e-Medikation';'https://termgit.elga.gv.at/CodeSystem/elga-auditsourcetype';;;;'5';'0';'L';;;;'1.0.1+20240129'
'13';'1.2.40.0.34.5.152';'EMS Epidemiologisches Meldesystem/EPI-Service';'https://termgit.elga.gv.at/CodeSystem/elga-auditsourcetype';;;;'6';'0';'L';;;;'1.0.1+20240129'
'14';'1.2.40.0.34.5.152';'DSUB Broker';'https://termgit.elga.gv.at/CodeSystem/elga-auditsourcetype';;;;'7';'0';'L';;;;'1.0.1+20240129'
'2';'1.2.40.0.34.5.152';'ETS';'https://termgit.elga.gv.at/CodeSystem/elga-auditsourcetype';'ELGA Token Service';;;'8';'0';'L';;;;'1.0.1+20240129'
'3';'1.2.40.0.34.5.152';'Policy Repository';'https://termgit.elga.gv.at/CodeSystem/elga-auditsourcetype';;;;'9';'0';'L';;;;'1.0.1+20240129'
'4';'1.2.40.0.34.5.152';'Bürgerportal';'https://termgit.elga.gv.at/CodeSystem/elga-auditsourcetype';;;;'10';'0';'L';;;;'1.0.1+20240129'
'5';'1.2.40.0.34.5.152';'Policy Administraion';'https://termgit.elga.gv.at/CodeSystem/elga-auditsourcetype';'Tool für die Verwaltung allgemeiner Policies';;;'11';'0';'L';;;;'1.0.1+20240129'
'6';'1.2.40.0.34.5.152';'GDA';'https://termgit.elga.gv.at/CodeSystem/elga-auditsourcetype';'GDA System';;;'12';'0';'L';;;;'1.0.1+20240129'
'7';'1.2.40.0.34.5.152';'Gateway';'https://termgit.elga.gv.at/CodeSystem/elga-auditsourcetype';'Zwischengeschaltetes System, Proxy,...';;;'13';'0';'L';;;;'1.0.1+20240129'
'8';'1.2.40.0.34.5.152';'ZGF';'https://termgit.elga.gv.at/CodeSystem/elga-auditsourcetype';'Zugriffssteuerungsfassade eines ELGA Bereichs';;;'14';'0';'L';;;;'1.0.1+20240129'
'9';'1.2.40.0.34.5.152';'A-ARR';'https://termgit.elga.gv.at/CodeSystem/elga-auditsourcetype';'Aggregiertes Audit Record Repository';;;'15';'0';'L';;;;'1.0.1+20240129'
