'code';'codeSystem';'displayName';'parentCode';'concept_Beschreibung';'meaning';'hints';'level';'type';'relationships'
'0';'1.2.40.0.34.5.61';'H-';'';'';'';'';'0';'L';''
'1';'1.2.40.0.34.5.61';'H1';'';'';'';'';'0';'L';''
'10';'1.2.40.0.34.5.61';'H18';'';'';'';'';'0';'L';''
'11';'1.2.40.0.34.5.61';'H19';'';'';'';'';'0';'L';''
'12';'1.2.40.0.34.5.61';'H2';'';'';'';'';'0';'L';''
'13';'1.2.40.0.34.5.61';'H20';'';'';'';'';'0';'L';''
'14';'1.2.40.0.34.5.61';'H21';'';'';'';'';'0';'L';''
'15';'1.2.40.0.34.5.61';'H22';'';'';'';'';'0';'L';''
'16';'1.2.40.0.34.5.61';'H23';'';'';'';'';'0';'L';''
'17';'1.2.40.0.34.5.61';'H24';'';'';'';'';'0';'L';''
'18';'1.2.40.0.34.5.61';'H25';'';'';'';'';'0';'L';''
'19';'1.2.40.0.34.5.61';'H26';'';'';'';'';'0';'L';''
'2';'1.2.40.0.34.5.61';'H10';'';'';'';'';'0';'L';''
'20';'1.2.40.0.34.5.61';'H27';'';'';'';'';'0';'L';''
'21';'1.2.40.0.34.5.61';'H28';'';'';'';'';'0';'L';''
'22';'1.2.40.0.34.5.61';'H29';'';'';'';'';'0';'L';''
'23';'1.2.40.0.34.5.61';'H3';'';'';'';'';'0';'L';''
'24';'1.2.40.0.34.5.61';'H30';'';'';'';'';'0';'L';''
'25';'1.2.40.0.34.5.61';'H31';'';'';'';'';'0';'L';''
'26';'1.2.40.0.34.5.61';'H32';'';'';'';'';'0';'L';''
'27';'1.2.40.0.34.5.61';'H33';'';'';'';'';'0';'L';''
'28';'1.2.40.0.34.5.61';'H34';'';'';'';'';'0';'L';''
'29';'1.2.40.0.34.5.61';'H35';'';'';'';'';'0';'L';''
'3';'1.2.40.0.34.5.61';'H11';'';'';'';'';'0';'L';''
'30';'1.2.40.0.34.5.61';'H36';'';'';'';'';'0';'L';''
'31';'1.2.40.0.34.5.61';'H37';'';'';'';'';'0';'L';''
'32';'1.2.40.0.34.5.61';'H38';'';'';'';'';'0';'L';''
'33';'1.2.40.0.34.5.61';'H39';'';'';'';'';'0';'L';''
'34';'1.2.40.0.34.5.61';'H4';'';'';'';'';'0';'L';''
'35';'1.2.40.0.34.5.61';'H40';'';'';'';'';'0';'L';''
'36';'1.2.40.0.34.5.61';'H41';'';'';'';'';'0';'L';''
'37';'1.2.40.0.34.5.61';'H42';'';'';'';'';'0';'L';''
'38';'1.2.40.0.34.5.61';'H43';'';'';'';'';'0';'L';''
'39';'1.2.40.0.34.5.61';'H44';'';'';'';'';'0';'L';''
'4';'1.2.40.0.34.5.61';'H12';'';'';'';'';'0';'L';''
'40';'1.2.40.0.34.5.61';'H45';'';'';'';'';'0';'L';''
'41';'1.2.40.0.34.5.61';'H46';'';'';'';'';'0';'L';''
'42';'1.2.40.0.34.5.61';'H47';'';'';'';'';'0';'L';''
'43';'1.2.40.0.34.5.61';'H48';'';'';'';'';'0';'L';''
'44';'1.2.40.0.34.5.61';'H49';'';'';'';'';'0';'L';''
'45';'1.2.40.0.34.5.61';'H5';'';'';'';'';'0';'L';''
'46';'1.2.40.0.34.5.61';'H50';'';'';'';'';'0';'L';''
'47';'1.2.40.0.34.5.61';'H51';'';'';'';'';'0';'L';''
'48';'1.2.40.0.34.5.61';'H52';'';'';'';'';'0';'L';''
'49';'1.2.40.0.34.5.61';'H53';'';'';'';'';'0';'L';''
'5';'1.2.40.0.34.5.61';'H13';'';'';'';'';'0';'L';''
'50';'1.2.40.0.34.5.61';'H54';'';'';'';'';'0';'L';''
'51';'1.2.40.0.34.5.61';'H55';'';'';'';'';'0';'L';''
'52';'1.2.40.0.34.5.61';'H56';'';'';'';'';'0';'L';''
'53';'1.2.40.0.34.5.61';'H6';'';'';'';'';'0';'L';''
'54';'1.2.40.0.34.5.61';'H7';'';'';'';'';'0';'L';''
'55';'1.2.40.0.34.5.61';'H8';'';'';'';'';'0';'L';''
'56';'1.2.40.0.34.5.61';'H9';'';'';'';'';'0';'L';''
'57';'1.2.40.0.34.5.61';'Untyped/Untypable';'';'';'';'';'0';'L';''
'6';'1.2.40.0.34.5.61';'H14';'';'';'';'';'0';'L';''
'7';'1.2.40.0.34.5.61';'H15';'';'';'';'';'0';'L';''
'8';'1.2.40.0.34.5.61';'H16';'';'';'';'';'0';'L';''
'9';'1.2.40.0.34.5.61';'H17';'';'';'';'';'0';'L';''
