"resource";"id";"url";"version";"name";"title";"status";"description";"content";"identifier";"date";"count"
"CodeSystem";"ems-antigenh";"https://termgit.elga.gv.at/CodeSystem/ems-antigenh";"1.0.0+20230131";"ems-antigenh";"EMS_AntigenH";"active";"EMS Liste Antigene";"complete";"1.2.40.0.34.5.61";"2017-01-26";"58"

"code";"display"
"0";"H-"
"1";"H1"
"10";"H18"
"11";"H19"
"12";"H2"
"13";"H20"
"14";"H21"
"15";"H22"
"16";"H23"
"17";"H24"
"18";"H25"
"19";"H26"
"2";"H10"
"20";"H27"
"21";"H28"
"22";"H29"
"23";"H3"
"24";"H30"
"25";"H31"
"26";"H32"
"27";"H33"
"28";"H34"
"29";"H35"
"3";"H11"
"30";"H36"
"31";"H37"
"32";"H38"
"33";"H39"
"34";"H4"
"35";"H40"
"36";"H41"
"37";"H42"
"38";"H43"
"39";"H44"
"4";"H12"
"40";"H45"
"41";"H46"
"42";"H47"
"43";"H48"
"44";"H49"
"45";"H5"
"46";"H50"
"47";"H51"
"48";"H52"
"49";"H53"
"5";"H13"
"50";"H54"
"51";"H55"
"52";"H56"
"53";"H6"
"54";"H7"
"55";"H8"
"56";"H9"
"57";"Untyped/Untypable"
"6";"H14"
"7";"H15"
"8";"H16"
"9";"H17"