'code';'codeSystem';'displayName';'parentCode';'concept_Beschreibung';'meaning';'hints';'level';'type';'relationships'
'700';'1.2.40.0.34.5.3';'Ärztin/Arzt';'';'';'';'';'0';'L';''
'701';'1.2.40.0.34.5.3';'Zahnärztin/Zahnarzt';'';'';'';'';'0';'L';''
'702';'1.2.40.0.34.5.3';'Krankenanstalt';'';'';'';'';'0';'L';''
'703';'1.2.40.0.34.5.3';'Einrichtung der Pflege';'';'';'';'';'0';'L';''
'704';'1.2.40.0.34.5.3';'Apotheke';'';'';'';'';'0';'L';''
'705';'1.2.40.0.34.5.3';'ELGA-Beratung';'';'';'';'';'0';'L';''
'706';'1.2.40.0.34.5.3';'ELGA-Ombudsstelle';'';'';'';'';'0';'L';''
'716';'1.2.40.0.34.5.3';'Amtsärztin/Amtsarzt';'';'';'';'';'0';'L';''
'717';'1.2.40.0.34.5.3';'Korrekturberechtigte Person';'';'';'';'';'0';'L';''
'718';'1.2.40.0.34.5.3';'Krisenmanagerin/Krisenmanager';'';'';'';'';'0';'L';''
'719';'1.2.40.0.34.5.3';'Auswertungsberechtigte Person';'';'';'';'';'0';'L';''
'720';'1.2.40.0.34.5.3';'Verrechnungsberechtigte Person';'';'';'';'';'0';'L';''
'721';'1.2.40.0.34.5.3';'Arbeitsmedizin';'';'';'';'';'0';'L';''
'722';'1.2.40.0.34.5.3';'Hebamme';'';'';'';'';'0';'L';''
'723';'1.2.40.0.34.5.3';'Straf- und Maßnahmenvollzug';'';'';'';'';'0';'L';''
'724';'1.2.40.0.34.5.3';'Labor und Pathologie';'';'';'';'';'0';'L';''
'725';'1.2.40.0.34.5.3';'EMS/EPI-Service';'';'';'';'';'0';'L';''
'726';'1.2.40.0.34.5.3';'Diplomierte Gesundheits- und Krankenpflegerin/Diplomierter Gesundheits- und Krankenpfleger';'';'';'';'';'0';'L';''
'727';'1.2.40.0.34.5.3';'NCPeH cross-border services';'';'';'';'';'0';'L';''
