'code';'codeSystem';'displayName';'parentCodeSystemName';'concept_Beschreibung';'meaning';'hints';'orderNumber';'level';'type';'relationships';'einheit print';'einheit codiert'
'160245001';'2.16.840.1.113883.6.96';'no current problems or disability';'https://termgit.elga.gv.at/CodeSystem/snomed-ct-auszug';'';'';'';'1';'0';'L';'';'';''
'248536006';'2.16.840.1.113883.6.96';'Functional limitation';'https://termgit.elga.gv.at/CodeSystem/snomed-ct-auszug';'';'Funktionellen Einschränkung';'';'2';'0';'L';'';'';''
'282291009';'2.16.840.1.113883.6.96';'Diagnosis';'https://termgit.elga.gv.at/CodeSystem/snomed-ct-auszug';'';'Diagnose';'';'3';'0';'L';'';'';''
'404684003';'2.16.840.1.113883.6.96';'Finding';'https://termgit.elga.gv.at/CodeSystem/snomed-ct-auszug';'';'Befund';'';'4';'0';'L';'';'';''
'409586006';'2.16.840.1.113883.6.96';'Complaint';'https://termgit.elga.gv.at/CodeSystem/snomed-ct-auszug';'';'Beschwerde';'';'5';'0';'L';'';'';''
'418799008';'2.16.840.1.113883.6.96';'Symptom';'https://termgit.elga.gv.at/CodeSystem/snomed-ct-auszug';'';'';'';'6';'0';'L';'';'';''
'55607006';'2.16.840.1.113883.6.96';'Problem';'https://termgit.elga.gv.at/CodeSystem/snomed-ct-auszug';'';'';'';'7';'0';'L';'';'';''
'64572001';'2.16.840.1.113883.6.96';'Condition';'https://termgit.elga.gv.at/CodeSystem/snomed-ct-auszug';'';'Zustand';'';'8';'0';'L';'';'';''
