{
  "resourceType": "ValueSet",
  "id": "elga-seitenlokalisation",
  "meta": {
    "profile": [
      "http://hl7.at/fhir/HL7ATCoreProfiles/4.0.1/StructureDefinition/at-core-valueset"
    ]
  },
  "url": "https://termgit.elga.gv.at/ValueSet/elga-seitenlokalisation",
  "identifier": [
    {
      "use": "official",
      "system": "urn:ietf:rfc:3986",
      "value": "urn:oid:1.2.40.0.34.10.176"
    }
  ],
  "version": "1.1.0+20240325",
  "name": "elga-seitenlokalisation",
  "title": "ELGA_Seitenlokalisation",
  "status": "active",
  "date": "2024-03-25",
  "compose": {
    "include": [
      {
        "extension": [
          {
            "url": "http://hl7.at/fhir/HL7ATCoreProfiles/4.0.1/StructureDefinition/at-core-ext-valueset-systemoid",
            "valueOid": "urn:oid:2.16.840.1.113883.3.7.1.7"
          }
        ],
        "system": "https://termgit.elga.gv.at/CodeSystem/sciphox-seitenlokalisation",
        "version": "1.0.0+20230131",
        "concept": [
          {
            "code": "B",
            "display": "beidseits"
          },
          {
            "code": "L",
            "display": "links"
          },
          {
            "code": "M",
            "display": "Mittellinienzone"
          },
          {
            "code": "R",
            "display": "rechts"
          }
        ]
      }
    ]
  },
  "expansion": {
    "timestamp": "2024-03-25T06:36:54+00:00",
    "contains": [
      {
        "extension": [
          {
            "url": "http://hl7.at/fhir/HL7ATCoreProfiles/4.0.1/StructureDefinition/at-core-ext-valueset-systemoid",
            "valueOid": "urn:oid:2.16.840.1.113883.3.7.1.7"
          }
        ],
        "system": "https://termgit.elga.gv.at/CodeSystem/sciphox-seitenlokalisation",
        "version": "1.0.0+20230131",
        "code": "B",
        "display": "beidseits"
      },
      {
        "extension": [
          {
            "url": "http://hl7.at/fhir/HL7ATCoreProfiles/4.0.1/StructureDefinition/at-core-ext-valueset-systemoid",
            "valueOid": "urn:oid:2.16.840.1.113883.3.7.1.7"
          }
        ],
        "system": "https://termgit.elga.gv.at/CodeSystem/sciphox-seitenlokalisation",
        "version": "1.0.0+20230131",
        "code": "L",
        "display": "links"
      },
      {
        "extension": [
          {
            "url": "http://hl7.at/fhir/HL7ATCoreProfiles/4.0.1/StructureDefinition/at-core-ext-valueset-systemoid",
            "valueOid": "urn:oid:2.16.840.1.113883.3.7.1.7"
          }
        ],
        "system": "https://termgit.elga.gv.at/CodeSystem/sciphox-seitenlokalisation",
        "version": "1.0.0+20230131",
        "code": "M",
        "display": "Mittellinienzone"
      },
      {
        "extension": [
          {
            "url": "http://hl7.at/fhir/HL7ATCoreProfiles/4.0.1/StructureDefinition/at-core-ext-valueset-systemoid",
            "valueOid": "urn:oid:2.16.840.1.113883.3.7.1.7"
          }
        ],
        "system": "https://termgit.elga.gv.at/CodeSystem/sciphox-seitenlokalisation",
        "version": "1.0.0+20230131",
        "code": "R",
        "display": "rechts"
      }
    ]
  }
}