'code';'codeSystem';'displayName';'parentCode';'concept_Beschreibung';'meaning';'hints';'level';'type';'relationships'
'CDAL1';'1.2.40.0.34.5.41';'CDAL1';'';'Das Dokument enthält im CDA Body Bereich strukturierte Angaben gemäß CDA Level 1 (structuredBody)';'';'';'0';'L';''
'GIF';'1.2.40.0.34.5.41';'GIF';'';'Das Dokument enthält im CDA Body Bereich ein eingebettetes Bild im Graphics Interchange Format (GIF).';'';'';'0';'L';''
'JPG';'1.2.40.0.34.5.41';'JPG';'';'Das Dokument enthält im CDA Body Bereich ein eingebettetes Bild gemäß der Norm ISO/IEC 10918-1 bzw. CCITT Recommendation T.81 der Joint Photographic Experts Group (JPEG).';'';'';'0';'L';''
'PDF';'1.2.40.0.34.5.41';'PDF';'';'Das Dokument enthält im CDA Body Bereich ein eingebettetes PDF/A-1a Dokument.';'';'';'0';'L';''
'PNG';'1.2.40.0.34.5.41';'PNG';'';'Das Dokument enthält im CDA Body Bereich ein eingebettetes Bild im Portable Network Graphics (PNG) Format.';'';'';'0';'L';''
'TEXT';'1.2.40.0.34.5.41';'TEXT';'';'Das Dokument enthält im CDA Body Bereich unstrukturierten Text gemäß CDA Level 1 (nonXMLBody)';'';'';'0';'L';''
