{
  "resourceType": "CodeSystem",
  "id": "ems-phagentyp",
  "url": "https://termgit.elga.gv.at/CodeSystem/ems-phagentyp",
  "identifier": [
    {
      "use": "official",
      "system": "urn:ietf:rfc:3986",
      "value": "urn:oid:1.2.40.0.34.5.87"
    }
  ],
  "version": "1.0.0+20230131",
  "name": "ems-phagentyp",
  "title": "EMS_Phagentyp",
  "status": "active",
  "date": "2017-01-26",
  "description": "EMS Phagentyp",
  "content": "complete",
  "count": 506,
  "concept": [
    {
      "code": "1",
      "display": "1"
    },
    {
      "code": "10",
      "display": "10"
    },
    {
      "code": "100",
      "display": "100"
    },
    {
      "code": "101",
      "display": "101"
    },
    {
      "code": "102",
      "display": "102"
    },
    {
      "code": "103",
      "display": "103"
    },
    {
      "code": "104",
      "display": "104"
    },
    {
      "code": "104A",
      "display": "104a"
    },
    {
      "code": "104B",
      "display": "104b"
    },
    {
      "code": "104C",
      "display": "104c"
    },
    {
      "code": "105",
      "display": "105"
    },
    {
      "code": "106",
      "display": "106"
    },
    {
      "code": "107",
      "display": "107"
    },
    {
      "code": "108",
      "display": "108"
    },
    {
      "code": "108A",
      "display": "108a"
    },
    {
      "code": "109",
      "display": "109"
    },
    {
      "code": "10A",
      "display": "10a"
    },
    {
      "code": "11",
      "display": "11"
    },
    {
      "code": "110",
      "display": "110"
    },
    {
      "code": "110A",
      "display": "110a"
    },
    {
      "code": "110B",
      "display": "110b"
    },
    {
      "code": "110C",
      "display": "110c"
    },
    {
      "code": "111",
      "display": "111"
    },
    {
      "code": "112",
      "display": "112"
    },
    {
      "code": "113",
      "display": "113"
    },
    {
      "code": "114",
      "display": "114"
    },
    {
      "code": "115",
      "display": "115"
    },
    {
      "code": "116",
      "display": "116"
    },
    {
      "code": "117",
      "display": "117"
    },
    {
      "code": "118",
      "display": "118"
    },
    {
      "code": "119",
      "display": "119"
    },
    {
      "code": "11B",
      "display": "11b"
    },
    {
      "code": "12",
      "display": "12"
    },
    {
      "code": "120",
      "display": "120"
    },
    {
      "code": "121",
      "display": "121"
    },
    {
      "code": "122",
      "display": "122"
    },
    {
      "code": "123",
      "display": "123"
    },
    {
      "code": "124",
      "display": "124"
    },
    {
      "code": "125",
      "display": "125"
    },
    {
      "code": "126",
      "display": "126"
    },
    {
      "code": "126A",
      "display": "126a"
    },
    {
      "code": "127",
      "display": "127"
    },
    {
      "code": "128",
      "display": "128"
    },
    {
      "code": "129",
      "display": "129"
    },
    {
      "code": "129A",
      "display": "129a"
    },
    {
      "code": "12A",
      "display": "12a"
    },
    {
      "code": "13",
      "display": "13"
    },
    {
      "code": "130",
      "display": "130"
    },
    {
      "code": "131",
      "display": "131"
    },
    {
      "code": "132",
      "display": "132"
    },
    {
      "code": "133",
      "display": "133"
    },
    {
      "code": "134",
      "display": "134"
    },
    {
      "code": "135",
      "display": "135"
    },
    {
      "code": "135a",
      "display": "135a"
    },
    {
      "code": "136",
      "display": "136"
    },
    {
      "code": "137",
      "display": "137"
    },
    {
      "code": "138",
      "display": "138"
    },
    {
      "code": "139",
      "display": "139"
    },
    {
      "code": "13a",
      "display": "13a"
    },
    {
      "code": "14",
      "display": "14"
    },
    {
      "code": "140",
      "display": "140"
    },
    {
      "code": "141",
      "display": "141"
    },
    {
      "code": "141a",
      "display": "141a"
    },
    {
      "code": "142",
      "display": "142"
    },
    {
      "code": "143",
      "display": "143"
    },
    {
      "code": "144",
      "display": "144"
    },
    {
      "code": "145",
      "display": "145"
    },
    {
      "code": "145a",
      "display": "145a"
    },
    {
      "code": "146",
      "display": "146"
    },
    {
      "code": "146a",
      "display": "146a"
    },
    {
      "code": "147",
      "display": "147"
    },
    {
      "code": "148",
      "display": "148"
    },
    {
      "code": "149",
      "display": "149"
    },
    {
      "code": "14A",
      "display": "14a"
    },
    {
      "code": "14B",
      "display": "14b"
    },
    {
      "code": "14C",
      "display": "14c"
    },
    {
      "code": "15",
      "display": "15"
    },
    {
      "code": "150",
      "display": "150"
    },
    {
      "code": "151",
      "display": "151"
    },
    {
      "code": "153",
      "display": "153"
    },
    {
      "code": "154",
      "display": "154"
    },
    {
      "code": "155",
      "display": "155"
    },
    {
      "code": "156",
      "display": "156"
    },
    {
      "code": "157",
      "display": "157"
    },
    {
      "code": "158",
      "display": "158"
    },
    {
      "code": "159",
      "display": "159"
    },
    {
      "code": "159a",
      "display": "159a"
    },
    {
      "code": "15a",
      "display": "15a"
    },
    {
      "code": "16",
      "display": "16"
    },
    {
      "code": "160",
      "display": "160"
    },
    {
      "code": "161",
      "display": "161"
    },
    {
      "code": "162",
      "display": "162"
    },
    {
      "code": "163",
      "display": "163"
    },
    {
      "code": "164",
      "display": "164"
    },
    {
      "code": "165",
      "display": "165"
    },
    {
      "code": "166",
      "display": "166"
    },
    {
      "code": "167",
      "display": "167"
    },
    {
      "code": "168",
      "display": "168"
    },
    {
      "code": "168a",
      "display": "168a"
    },
    {
      "code": "169",
      "display": "169"
    },
    {
      "code": "17",
      "display": "17"
    },
    {
      "code": "170",
      "display": "170"
    },
    {
      "code": "170A",
      "display": "170a"
    },
    {
      "code": "170B",
      "display": "170b"
    },
    {
      "code": "171",
      "display": "171"
    },
    {
      "code": "172",
      "display": "172"
    },
    {
      "code": "173",
      "display": "173"
    },
    {
      "code": "174",
      "display": "174"
    },
    {
      "code": "175",
      "display": "175"
    },
    {
      "code": "176",
      "display": "176"
    },
    {
      "code": "177",
      "display": "177"
    },
    {
      "code": "178",
      "display": "178"
    },
    {
      "code": "179",
      "display": "179"
    },
    {
      "code": "18",
      "display": "18"
    },
    {
      "code": "180",
      "display": "180"
    },
    {
      "code": "181",
      "display": "181"
    },
    {
      "code": "182",
      "display": "182"
    },
    {
      "code": "183",
      "display": "183"
    },
    {
      "code": "184",
      "display": "184"
    },
    {
      "code": "185",
      "display": "185"
    },
    {
      "code": "186",
      "display": "186"
    },
    {
      "code": "187",
      "display": "187"
    },
    {
      "code": "188",
      "display": "188"
    },
    {
      "code": "189",
      "display": "189"
    },
    {
      "code": "19",
      "display": "19"
    },
    {
      "code": "190",
      "display": "190"
    },
    {
      "code": "191",
      "display": "191"
    },
    {
      "code": "192",
      "display": "192"
    },
    {
      "code": "193",
      "display": "193"
    },
    {
      "code": "193a",
      "display": "193a"
    },
    {
      "code": "194",
      "display": "194"
    },
    {
      "code": "194a",
      "display": "194a"
    },
    {
      "code": "195",
      "display": "195"
    },
    {
      "code": "196",
      "display": "196"
    },
    {
      "code": "197",
      "display": "197"
    },
    {
      "code": "198",
      "display": "198"
    },
    {
      "code": "199",
      "display": "199"
    },
    {
      "code": "1A",
      "display": "1a"
    },
    {
      "code": "1B",
      "display": "1b"
    },
    {
      "code": "1C",
      "display": "1c"
    },
    {
      "code": "1D",
      "display": "1d"
    },
    {
      "code": "1E",
      "display": "1e"
    },
    {
      "code": "1VAR1",
      "display": "1 var1"
    },
    {
      "code": "1VAR10",
      "display": "1 var10"
    },
    {
      "code": "1VAR11",
      "display": "1 var11"
    },
    {
      "code": "1VAR12",
      "display": "1 var12"
    },
    {
      "code": "1VAR13",
      "display": "1 var13"
    },
    {
      "code": "1VAR14",
      "display": "1 var14"
    },
    {
      "code": "1VAR2",
      "display": "1 var2"
    },
    {
      "code": "1VAR3",
      "display": "1 var3"
    },
    {
      "code": "1VAR4",
      "display": "1 var4"
    },
    {
      "code": "1VAR5",
      "display": "1 var5"
    },
    {
      "code": "1VAR6",
      "display": "1 var6"
    },
    {
      "code": "1VAR7",
      "display": "1 var7"
    },
    {
      "code": "1VAR8",
      "display": "1 var8"
    },
    {
      "code": "1VAR9",
      "display": "1 var9"
    },
    {
      "code": "2",
      "display": "2"
    },
    {
      "code": "20",
      "display": "20"
    },
    {
      "code": "200",
      "display": "200"
    },
    {
      "code": "201",
      "display": "201"
    },
    {
      "code": "202",
      "display": "202"
    },
    {
      "code": "203",
      "display": "203"
    },
    {
      "code": "204",
      "display": "204"
    },
    {
      "code": "204A",
      "display": "204a"
    },
    {
      "code": "204B",
      "display": "204b"
    },
    {
      "code": "204C",
      "display": "204c"
    },
    {
      "code": "204D",
      "display": "204d"
    },
    {
      "code": "204E",
      "display": "204e"
    },
    {
      "code": "205",
      "display": "205"
    },
    {
      "code": "206",
      "display": "206"
    },
    {
      "code": "207",
      "display": "207"
    },
    {
      "code": "208",
      "display": "208"
    },
    {
      "code": "208a",
      "display": "208a"
    },
    {
      "code": "209",
      "display": "209"
    },
    {
      "code": "20a",
      "display": "20a"
    },
    {
      "code": "21",
      "display": "21"
    },
    {
      "code": "21A",
      "display": "21a"
    },
    {
      "code": "21B",
      "display": "21b"
    },
    {
      "code": "21C",
      "display": "21c"
    },
    {
      "code": "22",
      "display": "22"
    },
    {
      "code": "23",
      "display": "23"
    },
    {
      "code": "24",
      "display": "24"
    },
    {
      "code": "24A",
      "display": "24a"
    },
    {
      "code": "24_VAR",
      "display": "24 var"
    },
    {
      "code": "25",
      "display": "25"
    },
    {
      "code": "25A",
      "display": "25a"
    },
    {
      "code": "26",
      "display": "26"
    },
    {
      "code": "26A",
      "display": "26a"
    },
    {
      "code": "27",
      "display": "27"
    },
    {
      "code": "28",
      "display": "28"
    },
    {
      "code": "29",
      "display": "29"
    },
    {
      "code": "29A",
      "display": "29a"
    },
    {
      "code": "2A",
      "display": "2a"
    },
    {
      "code": "2B",
      "display": "2b"
    },
    {
      "code": "2VAR1",
      "display": "2 var1"
    },
    {
      "code": "3",
      "display": "3"
    },
    {
      "code": "30",
      "display": "39"
    },
    {
      "code": "31",
      "display": "38"
    },
    {
      "code": "31A",
      "display": "31a"
    },
    {
      "code": "32",
      "display": "37"
    },
    {
      "code": "32A",
      "display": "32a"
    },
    {
      "code": "33",
      "display": "36"
    },
    {
      "code": "34",
      "display": "35"
    },
    {
      "code": "34A",
      "display": "34a"
    },
    {
      "code": "34B",
      "display": "34b"
    },
    {
      "code": "35",
      "display": "34"
    },
    {
      "code": "36",
      "display": "33"
    },
    {
      "code": "36A",
      "display": "36a"
    },
    {
      "code": "37",
      "display": "32"
    },
    {
      "code": "38",
      "display": "31"
    },
    {
      "code": "39",
      "display": "30"
    },
    {
      "code": "3A",
      "display": "3a"
    },
    {
      "code": "3AI",
      "display": "3aI"
    },
    {
      "code": "3AI_VAR1",
      "display": "3aI var1"
    },
    {
      "code": "3AI_VAR4",
      "display": "3aI var4"
    },
    {
      "code": "3B",
      "display": "3b"
    },
    {
      "code": "3BVAR1",
      "display": "3b var1"
    },
    {
      "code": "3BVAR2",
      "display": "3b var2"
    },
    {
      "code": "3BVAR3",
      "display": "3b var3"
    },
    {
      "code": "3BVAR6",
      "display": "3b var6"
    },
    {
      "code": "3BVAR7",
      "display": "3b var7"
    },
    {
      "code": "3BVAR8",
      "display": "3b var8"
    },
    {
      "code": "3BVAR9",
      "display": "3b var9"
    },
    {
      "code": "3VAR2",
      "display": "3 var2"
    },
    {
      "code": "3VAR4",
      "display": "3 var4"
    },
    {
      "code": "3VAR6",
      "display": "3 var6"
    },
    {
      "code": "3VAR7",
      "display": "3 var7"
    },
    {
      "code": "3VAR8",
      "display": "3 var8"
    },
    {
      "code": "4",
      "display": "4"
    },
    {
      "code": "40",
      "display": "40"
    },
    {
      "code": "41",
      "display": "41"
    },
    {
      "code": "41A",
      "display": "41a"
    },
    {
      "code": "42",
      "display": "42"
    },
    {
      "code": "43",
      "display": "43"
    },
    {
      "code": "44",
      "display": "44"
    },
    {
      "code": "45",
      "display": "45"
    },
    {
      "code": "45A",
      "display": "45a"
    },
    {
      "code": "45B",
      "display": "45b"
    },
    {
      "code": "45C",
      "display": "45c"
    },
    {
      "code": "46",
      "display": "46"
    },
    {
      "code": "46A",
      "display": "46a"
    },
    {
      "code": "47",
      "display": "47"
    },
    {
      "code": "48",
      "display": "48"
    },
    {
      "code": "49",
      "display": "49"
    },
    {
      "code": "49A",
      "display": "49a"
    },
    {
      "code": "49B",
      "display": "49b"
    },
    {
      "code": "49C",
      "display": "49c"
    },
    {
      "code": "4A",
      "display": "4a"
    },
    {
      "code": "4B",
      "display": "4b"
    },
    {
      "code": "5",
      "display": "5"
    },
    {
      "code": "50",
      "display": "50"
    },
    {
      "code": "51",
      "display": "51"
    },
    {
      "code": "51A",
      "display": "51a"
    },
    {
      "code": "52",
      "display": "52"
    },
    {
      "code": "52A",
      "display": "52a"
    },
    {
      "code": "53",
      "display": "53"
    },
    {
      "code": "54",
      "display": "54"
    },
    {
      "code": "55",
      "display": "55"
    },
    {
      "code": "56",
      "display": "56"
    },
    {
      "code": "56A",
      "display": "56a"
    },
    {
      "code": "57",
      "display": "57"
    },
    {
      "code": "58",
      "display": "58"
    },
    {
      "code": "59",
      "display": "59"
    },
    {
      "code": "5A",
      "display": "5a"
    },
    {
      "code": "5B",
      "display": "5b"
    },
    {
      "code": "5C",
      "display": "5c"
    },
    {
      "code": "6",
      "display": "6"
    },
    {
      "code": "60",
      "display": "60"
    },
    {
      "code": "61",
      "display": "61"
    },
    {
      "code": "62",
      "display": "62"
    },
    {
      "code": "63",
      "display": "63"
    },
    {
      "code": "64",
      "display": "64"
    },
    {
      "code": "65",
      "display": "65"
    },
    {
      "code": "66",
      "display": "66"
    },
    {
      "code": "66A",
      "display": "66a"
    },
    {
      "code": "67",
      "display": "67"
    },
    {
      "code": "67A",
      "display": "67a"
    },
    {
      "code": "68",
      "display": "68"
    },
    {
      "code": "69",
      "display": "69"
    },
    {
      "code": "6A",
      "display": "6a"
    },
    {
      "code": "6B",
      "display": "6b"
    },
    {
      "code": "6C",
      "display": "6c"
    },
    {
      "code": "6D",
      "display": "6d"
    },
    {
      "code": "7",
      "display": "7"
    },
    {
      "code": "70",
      "display": "70"
    },
    {
      "code": "71",
      "display": "71"
    },
    {
      "code": "72",
      "display": "72"
    },
    {
      "code": "73",
      "display": "73"
    },
    {
      "code": "73A",
      "display": "73a"
    },
    {
      "code": "74",
      "display": "74"
    },
    {
      "code": "75",
      "display": "75"
    },
    {
      "code": "76",
      "display": "76"
    },
    {
      "code": "77",
      "display": "77"
    },
    {
      "code": "78",
      "display": "78"
    },
    {
      "code": "79",
      "display": "79"
    },
    {
      "code": "7A",
      "display": "7a"
    },
    {
      "code": "8",
      "display": "8"
    },
    {
      "code": "80",
      "display": "80"
    },
    {
      "code": "81",
      "display": "81"
    },
    {
      "code": "82",
      "display": "82"
    },
    {
      "code": "83",
      "display": "83"
    },
    {
      "code": "84",
      "display": "84"
    },
    {
      "code": "85",
      "display": "85"
    },
    {
      "code": "85A",
      "display": "58a"
    },
    {
      "code": "86",
      "display": "86"
    },
    {
      "code": "87",
      "display": "87"
    },
    {
      "code": "88",
      "display": "88"
    },
    {
      "code": "89",
      "display": "89"
    },
    {
      "code": "8A",
      "display": "8a"
    },
    {
      "code": "9",
      "display": "9"
    },
    {
      "code": "90",
      "display": "90"
    },
    {
      "code": "91",
      "display": "91"
    },
    {
      "code": "92",
      "display": "92"
    },
    {
      "code": "93",
      "display": "93"
    },
    {
      "code": "94",
      "display": "94"
    },
    {
      "code": "95",
      "display": "95"
    },
    {
      "code": "96",
      "display": "96"
    },
    {
      "code": "97",
      "display": "97"
    },
    {
      "code": "98",
      "display": "98"
    },
    {
      "code": "99",
      "display": "99"
    },
    {
      "code": "9A",
      "display": "9a"
    },
    {
      "code": "9B",
      "display": "9b"
    },
    {
      "code": "9C",
      "display": "9c"
    },
    {
      "code": "A",
      "display": "A"
    },
    {
      "code": "B1",
      "display": "B1"
    },
    {
      "code": "B2",
      "display": "B2"
    },
    {
      "code": "B3",
      "display": "B3"
    },
    {
      "code": "BAOR",
      "display": "BAOR"
    },
    {
      "code": "BATTERSEA",
      "display": "Battersea"
    },
    {
      "code": "BECCLES",
      "display": "Beccles"
    },
    {
      "code": "BECCLESVAR1",
      "display": "Beccles var1"
    },
    {
      "code": "BECCLESVAR2",
      "display": "Beccles var2"
    },
    {
      "code": "BECCLESVAR3",
      "display": "Beccles var3"
    },
    {
      "code": "BECCLESVAR4",
      "display": "Beccles var4"
    },
    {
      "code": "BECCLESVAR5",
      "display": "Beccles var5"
    },
    {
      "code": "BECCLESVAR6",
      "display": "Beccles var6"
    },
    {
      "code": "C1",
      "display": "C1"
    },
    {
      "code": "C10",
      "display": "C10"
    },
    {
      "code": "C11",
      "display": "C11"
    },
    {
      "code": "C2",
      "display": "C2"
    },
    {
      "code": "C3",
      "display": "C3"
    },
    {
      "code": "C4",
      "display": "C4"
    },
    {
      "code": "C5",
      "display": "C5"
    },
    {
      "code": "C6",
      "display": "C6"
    },
    {
      "code": "C7",
      "display": "C7"
    },
    {
      "code": "C8",
      "display": "C8"
    },
    {
      "code": "C9",
      "display": "C9"
    },
    {
      "code": "COLINDALE",
      "display": "Colindale"
    },
    {
      "code": "D1",
      "display": "D1"
    },
    {
      "code": "D10",
      "display": "D10"
    },
    {
      "code": "D11",
      "display": "D11"
    },
    {
      "code": "D12",
      "display": "D12"
    },
    {
      "code": "D1N",
      "display": "D1n"
    },
    {
      "code": "D2",
      "display": "D2"
    },
    {
      "code": "D3",
      "display": "D3"
    },
    {
      "code": "D4",
      "display": "D4"
    },
    {
      "code": "D5",
      "display": "D5"
    },
    {
      "code": "D6",
      "display": "D6"
    },
    {
      "code": "D7",
      "display": "D7"
    },
    {
      "code": "D8",
      "display": "D8"
    },
    {
      "code": "D9",
      "display": "D9"
    },
    {
      "code": "DEGRADEDVI",
      "display": "Degraded Vi"
    },
    {
      "code": "DEGRADEDVI1",
      "display": "Degraded Vi1"
    },
    {
      "code": "DEGRADEDVI10",
      "display": "Degraded Vi10"
    },
    {
      "code": "DEGRADEDVI11",
      "display": "Degraded Vi11"
    },
    {
      "code": "DEGRADEDVI12",
      "display": "Degraded Vi12"
    },
    {
      "code": "DEGRADEDVI13",
      "display": "Degraded Vi13"
    },
    {
      "code": "DEGRADEDVI14",
      "display": "Degraded Vi14"
    },
    {
      "code": "DEGRADEDVI15",
      "display": "Degraded Vi15"
    },
    {
      "code": "DEGRADEDVI16",
      "display": "Degraded Vi16"
    },
    {
      "code": "DEGRADEDVI17",
      "display": "Degraded Vi17"
    },
    {
      "code": "DEGRADEDVI18",
      "display": "Degraded Vi18"
    },
    {
      "code": "DEGRADEDVI19",
      "display": "Degraded Vi19"
    },
    {
      "code": "DEGRADEDVI2",
      "display": "Degraded Vi2"
    },
    {
      "code": "DEGRADEDVI20",
      "display": "Degraded Vi20"
    },
    {
      "code": "DEGRADEDVI21",
      "display": "Degraded Vi21"
    },
    {
      "code": "DEGRADEDVI22",
      "display": "Degraded Vi22"
    },
    {
      "code": "DEGRADEDVI23",
      "display": "Degraded Vi23"
    },
    {
      "code": "DEGRADEDVI24",
      "display": "Degraded Vi24"
    },
    {
      "code": "DEGRADEDVI25",
      "display": "Degraded Vi25"
    },
    {
      "code": "DEGRADEDVI3",
      "display": "Degraded Vi3"
    },
    {
      "code": "DEGRADEDVI4",
      "display": "Degraded Vi4"
    },
    {
      "code": "DEGRADEDVI5",
      "display": "Degraded Vi5"
    },
    {
      "code": "DEGRADEDVI6",
      "display": "Degraded Vi6"
    },
    {
      "code": "DEGRADEDVI7",
      "display": "Degraded Vi7"
    },
    {
      "code": "DEGRADEDVI8",
      "display": "Degraded Vi8"
    },
    {
      "code": "DEGRADEDVI9",
      "display": "Degraded Vi9"
    },
    {
      "code": "DUNDEE",
      "display": "Dundee"
    },
    {
      "code": "DUNDEEVAR1",
      "display": "Dundee var1"
    },
    {
      "code": "DUNDEEVAR2",
      "display": "Dundee var2"
    },
    {
      "code": "E1",
      "display": "E1"
    },
    {
      "code": "E10",
      "display": "E10"
    },
    {
      "code": "E11",
      "display": "E11"
    },
    {
      "code": "E12",
      "display": "E12"
    },
    {
      "code": "E13",
      "display": "E13"
    },
    {
      "code": "E14",
      "display": "E14"
    },
    {
      "code": "E1VAR",
      "display": "E1 var"
    },
    {
      "code": "E2",
      "display": "E2"
    },
    {
      "code": "E3",
      "display": "E3"
    },
    {
      "code": "E4",
      "display": "E4"
    },
    {
      "code": "E5",
      "display": "E5"
    },
    {
      "code": "E6",
      "display": "E6"
    },
    {
      "code": "E7",
      "display": "E7"
    },
    {
      "code": "E8",
      "display": "E8"
    },
    {
      "code": "E9",
      "display": "E9"
    },
    {
      "code": "E9VAR",
      "display": "E9 var"
    },
    {
      "code": "F1",
      "display": "F1"
    },
    {
      "code": "F2",
      "display": "F2"
    },
    {
      "code": "F3",
      "display": "F3"
    },
    {
      "code": "F4",
      "display": "F4"
    },
    {
      "code": "F5",
      "display": "F5"
    },
    {
      "code": "F6",
      "display": "F6"
    },
    {
      "code": "F7",
      "display": "F7"
    },
    {
      "code": "F8",
      "display": "F8"
    },
    {
      "code": "F9",
      "display": "F9"
    },
    {
      "code": "G1",
      "display": "G1"
    },
    {
      "code": "G2",
      "display": "G2"
    },
    {
      "code": "G3",
      "display": "G3"
    },
    {
      "code": "G4",
      "display": "G4"
    },
    {
      "code": "G5",
      "display": "G5"
    },
    {
      "code": "H",
      "display": "H"
    },
    {
      "code": "J1",
      "display": "J1"
    },
    {
      "code": "J2",
      "display": "J2"
    },
    {
      "code": "J3",
      "display": "J3"
    },
    {
      "code": "J4",
      "display": "J4"
    },
    {
      "code": "J5",
      "display": "J5"
    },
    {
      "code": "JERSEY",
      "display": "Jersey"
    },
    {
      "code": "JERSEYVAR1",
      "display": "Jersey var1"
    },
    {
      "code": "JERSEYVAR2",
      "display": "Jersey var2"
    },
    {
      "code": "JERSEYVAR3",
      "display": "Jersey var3"
    },
    {
      "code": "K1",
      "display": "K1"
    },
    {
      "code": "K2",
      "display": "K2"
    },
    {
      "code": "K3",
      "display": "K3"
    },
    {
      "code": "L1",
      "display": "L1"
    },
    {
      "code": "L2",
      "display": "L2"
    },
    {
      "code": "M1",
      "display": "M1"
    },
    {
      "code": "M2",
      "display": "M2"
    },
    {
      "code": "M3",
      "display": "M3"
    },
    {
      "code": "M4",
      "display": "M4"
    },
    {
      "code": "N",
      "display": "N"
    },
    {
      "code": "NA",
      "display": "nicht durchgef\u00fchrt"
    },
    {
      "code": "O",
      "display": "O"
    },
    {
      "code": "RDNC",
      "display": "RDNC"
    },
    {
      "code": "SCARBOROUGH",
      "display": "Scarborough"
    },
    {
      "code": "T",
      "display": "T"
    },
    {
      "code": "TAUNTON",
      "display": "Taunton"
    },
    {
      "code": "TAUNTONVAR1",
      "display": "Taunton var1"
    },
    {
      "code": "U274",
      "display": "U274"
    },
    {
      "code": "U275",
      "display": "U275"
    },
    {
      "code": "U276",
      "display": "U276"
    },
    {
      "code": "U277",
      "display": "U277"
    },
    {
      "code": "U278",
      "display": "U278"
    },
    {
      "code": "U279",
      "display": "U279"
    },
    {
      "code": "U280",
      "display": "U280"
    },
    {
      "code": "U281",
      "display": "U281"
    },
    {
      "code": "U282",
      "display": "U282"
    },
    {
      "code": "U283",
      "display": "U283"
    },
    {
      "code": "U284",
      "display": "U284"
    },
    {
      "code": "U285",
      "display": "U285"
    },
    {
      "code": "U286",
      "display": "U286"
    },
    {
      "code": "U287",
      "display": "U287"
    },
    {
      "code": "U288",
      "display": "U288"
    },
    {
      "code": "U289",
      "display": "U289"
    },
    {
      "code": "U290",
      "display": "U290"
    },
    {
      "code": "U291",
      "display": "U291"
    },
    {
      "code": "U292",
      "display": "U292"
    },
    {
      "code": "U293",
      "display": "U293"
    },
    {
      "code": "U294",
      "display": "U294"
    },
    {
      "code": "U295",
      "display": "U295"
    },
    {
      "code": "U296",
      "display": "U296"
    },
    {
      "code": "U297",
      "display": "U297"
    },
    {
      "code": "U298",
      "display": "U298"
    },
    {
      "code": "U299",
      "display": "U299"
    },
    {
      "code": "U300",
      "display": "U300"
    },
    {
      "code": "U301",
      "display": "U301"
    },
    {
      "code": "U302",
      "display": "U302"
    },
    {
      "code": "U303",
      "display": "U303"
    },
    {
      "code": "U304",
      "display": "U304"
    },
    {
      "code": "U305",
      "display": "U305"
    },
    {
      "code": "U306",
      "display": "U306"
    },
    {
      "code": "U307",
      "display": "U307"
    },
    {
      "code": "U308",
      "display": "U308"
    },
    {
      "code": "U309",
      "display": "U309"
    },
    {
      "code": "U310",
      "display": "U310"
    },
    {
      "code": "U311",
      "display": "U311"
    },
    {
      "code": "U312",
      "display": "U312"
    },
    {
      "code": "U313",
      "display": "U313"
    },
    {
      "code": "U314",
      "display": "U314"
    },
    {
      "code": "U315",
      "display": "U315"
    },
    {
      "code": "U316",
      "display": "U316"
    },
    {
      "code": "U317",
      "display": "U317"
    },
    {
      "code": "U318",
      "display": "U318"
    },
    {
      "code": "U319",
      "display": "U319"
    },
    {
      "code": "U320",
      "display": "U320"
    },
    {
      "code": "UNK",
      "display": "Unknown"
    },
    {
      "code": "UNTYPABLE",
      "display": "Untypable"
    },
    {
      "code": "UNTYPABLEVI",
      "display": "Untypable Vi"
    },
    {
      "code": "UNTYPABLEVI1",
      "display": "Untypable Vi1"
    },
    {
      "code": "UNTYPABLEVI2",
      "display": "Untypable Vi2"
    },
    {
      "code": "UNTYPABLEVI3",
      "display": "Untypable Vi3"
    },
    {
      "code": "UNTYPABLEVI4",
      "display": "Untypable Vi4"
    },
    {
      "code": "UNTYPABLEVI5",
      "display": "Untypable Vi5"
    },
    {
      "code": "UNTYPABLEVI6",
      "display": "Untypable Vi6"
    },
    {
      "code": "UNTYPABLEVI7",
      "display": "Untypable Vi7"
    },
    {
      "code": "VINEGATIVEVAR",
      "display": "Vi Negative var"
    },
    {
      "code": "WORKSOP",
      "display": "Worksop"
    }
  ]
}