{
  "resourceType": "ValueSet",
  "id": "ems-meldepflichtige-krankheiten",
  "meta": {
    "profile": [
      "http://hl7.at/fhir/HL7ATCoreProfiles/4.0.1/StructureDefinition/at-core-valueset"
    ]
  },
  "url": "https://termgit.elga.gv.at/ValueSet/ems-meldepflichtige-krankheiten",
  "identifier": [
    {
      "use": "official",
      "system": "urn:ietf:rfc:3986",
      "value": "urn:oid:1.2.40.0.34.6.0.10.19"
    }
  ],
  "version": "1.1.0+20240325",
  "name": "ems-meldepflichtige-krankheiten",
  "title": "EMS_Meldepflichtige_Krankheiten",
  "status": "active",
  "date": "2024-03-25",
  "publisher": "see",
  "contact": [
    {
      "name": "https://www.elga.gv.at",
      "telecom": [
        {
          "system": "url",
          "value": "https://www.elga.gv.at"
        }
      ]
    }
  ],
  "description": "Liste der meldepflichtigen Erkrankungen im Rahmen des EMS (elektronischen Meldesystem)",
  "compose": {
    "include": [
      {
        "extension": [
          {
            "url": "http://hl7.at/fhir/HL7ATCoreProfiles/4.0.1/StructureDefinition/at-core-ext-valueset-systemoid",
            "valueOid": "urn:oid:1.2.40.0.34.5.171"
          }
        ],
        "system": "https://termgit.elga.gv.at/CodeSystem/icd-10-bmg-2017",
        "version": "1.0.0+20230131",
        "concept": [
          {
            "code": "A00",
            "display": "Cholera"
          },
          {
            "code": "A01.0",
            "display": "Typhus abdominalis"
          },
          {
            "code": "A01.4",
            "display": "Paratyphus, nicht n\u00e4her bezeichnet"
          },
          {
            "code": "A02",
            "display": "Sonstige Salmonelleninfektionen"
          },
          {
            "code": "A03",
            "display": "Shigellose [Bakterielle Ruhr]"
          },
          {
            "code": "A04.0",
            "display": "Darminfektion durch enteropathogene Escherichia coli"
          },
          {
            "code": "A04.3",
            "display": "Darminfektion durch enteroh\u00e4morrhagische Escherichia coli"
          },
          {
            "code": "A04.5",
            "display": "Enteritis durch Campylobacter"
          },
          {
            "code": "A04.6",
            "display": "Enteritis durch Yersinia enterocolitica"
          },
          {
            "code": "A05.0",
            "display": "Lebensmittelvergiftung durch Staphylokokken"
          },
          {
            "code": "A05.1",
            "display": "Botulismus"
          },
          {
            "code": "A05.8",
            "display": "Sonstige n\u00e4her bezeichnete bakteriell bedingte Lebensmittelvergiftungen"
          },
          {
            "code": "A06",
            "display": "Am\u00f6biasis"
          },
          {
            "code": "A08.0",
            "display": "Enteritis durch Rotaviren"
          },
          {
            "code": "A08.1",
            "display": "Akute Gastroenteritis durch Norovirus [Norwalk-Virus]"
          },
          {
            "code": "A08.5",
            "display": "Sonstige n\u00e4her bezeichnete Darminfektionen"
          },
          {
            "code": "A15",
            "display": "Tuberkulose der Atmungsorgane, bakteriologisch oder histologisch gesichert"
          },
          {
            "code": "A20",
            "display": "Pest"
          },
          {
            "code": "A21",
            "display": "Tular\u00e4mie"
          },
          {
            "code": "A22",
            "display": "Anthrax [Milzbrand]"
          },
          {
            "code": "A23",
            "display": "Brucellose"
          },
          {
            "code": "A24.0",
            "display": "Rotz"
          },
          {
            "code": "A27",
            "display": "Leptospirose"
          },
          {
            "code": "A30",
            "display": "Lepra [Aussatz]"
          },
          {
            "code": "A32",
            "display": "Listeriose"
          },
          {
            "code": "A36",
            "display": "Diphtherie"
          },
          {
            "code": "A37",
            "display": "Keuchhusten"
          },
          {
            "code": "A38",
            "display": "Scharlach"
          },
          {
            "code": "A39",
            "display": "Meningokokkeninfektion"
          },
          {
            "code": "A39.4",
            "display": "Meningokokkensepsis, nicht n\u00e4her bezeichnet"
          },
          {
            "code": "A40.3",
            "display": "Sepsis durch Streptococcus pneumoniae"
          },
          {
            "code": "A48.1",
            "display": "Legionellose mit Pneumonie"
          },
          {
            "code": "A68.0",
            "display": "Durch L\u00e4use \u00fcbertragenes R\u00fcckfallfieber"
          },
          {
            "code": "A70",
            "display": "Infektionen durch Chlamydia psittaci"
          },
          {
            "code": "A71",
            "display": "Trachom"
          },
          {
            "code": "A75.0",
            "display": "Epidemisches Fleckfieber durch Rickettsia prowazeki"
          },
          {
            "code": "A80",
            "display": "Akute Poliomyelitis [Spinale Kinderl\u00e4hmung]"
          },
          {
            "code": "A81.0",
            "display": "Creutzfeldt-Jakob-Krankheit"
          },
          {
            "code": "A81.9",
            "display": "Atypische Virusinfektion des Zentralnervensystems, nicht n\u00e4her bezeichnet"
          },
          {
            "code": "A82",
            "display": "Tollwut [Rabies]"
          },
          {
            "code": "A84.1",
            "display": "Mitteleurop\u00e4ische Enzephalitis, durch Zecken \u00fcbertragen"
          },
          {
            "code": "A86",
            "display": "Virusenzephalitis, nicht n\u00e4her bezeichnet"
          },
          {
            "code": "A92.0",
            "display": "Chikungunya-Viruskrankheit"
          },
          {
            "code": "A92.3",
            "display": "West-Nil-Virusinfektion"
          },
          {
            "code": "A92.8",
            "display": "Sonstige n\u00e4her bezeichnete, durch Moskitos \u00fcbertragene Viruskrankheiten"
          },
          {
            "code": "A95",
            "display": "Gelbfieber"
          },
          {
            "code": "A96.2",
            "display": "Lassa-Fieber"
          },
          {
            "code": "A97",
            "display": "Dengue"
          },
          {
            "code": "A98.0",
            "display": "H\u00e4morrhagisches Krim-Kongo-Fieber"
          },
          {
            "code": "A98.3",
            "display": "Marburg-Viruskrankheit"
          },
          {
            "code": "A98.4",
            "display": "Ebola-Viruskrankheit"
          },
          {
            "code": "A98.5",
            "display": "H\u00e4morrhagisches Fieber mit renalem Syndrom"
          },
          {
            "code": "B03",
            "display": "Pocken"
          },
          {
            "code": "B05",
            "display": "Masern"
          },
          {
            "code": "B06",
            "display": "R\u00f6teln [Rubeola] [Rubella]"
          },
          {
            "code": "B15",
            "display": "Akute Virushepatitis A"
          },
          {
            "code": "B16",
            "display": "Akute Virushepatitis B"
          },
          {
            "code": "B17.0",
            "display": "Akute Delta-Virus- (Super-) Infektion eines Hepatitis-B- (Virus-) Tr\u00e4gers"
          },
          {
            "code": "B17.1",
            "display": "Akute Virushepatitis C"
          },
          {
            "code": "B17.2",
            "display": "Akute Virushepatitis E"
          },
          {
            "code": "B17.8",
            "display": "Sonstige n\u00e4her bezeichnete akute Virushepatitis"
          },
          {
            "code": "B34.2",
            "display": "Infektion durch Koronaviren nicht n\u00e4her bezeichneter Lokalisation"
          },
          {
            "code": "B54",
            "display": "Malaria, nicht n\u00e4her bezeichnet"
          },
          {
            "code": "B67.4",
            "display": "Echinococcus-granulosus-Infektion [zystische Echinokokkose], nicht n\u00e4her bezeichnet"
          },
          {
            "code": "B67.7",
            "display": "Echinococcus-multilocularis-Infektion [alveol\u00e4re Echinokokkose], nicht n\u00e4her bezeichnet"
          },
          {
            "code": "B75",
            "display": "Trichinellose"
          },
          {
            "code": "G00.0",
            "display": "Meningitis durch Haemophilus influenzae"
          },
          {
            "code": "G00.9",
            "display": "Bakterielle Meningitis, nicht n\u00e4her bezeichnet"
          },
          {
            "code": "K52.9",
            "display": "Nichtinfekti\u00f6se Gastroenteritis und Kolitis, nicht n\u00e4her bezeichnet"
          },
          {
            "code": "P36.0",
            "display": "Sepsis beim Neugeborenen durch Streptokokken, Gruppe B"
          },
          {
            "code": "U04",
            "display": "Schweres akutes respiratorisches Syndrom [SARS]"
          }
        ]
      },
      {
        "extension": [
          {
            "url": "http://hl7.at/fhir/HL7ATCoreProfiles/4.0.1/StructureDefinition/at-core-ext-valueset-systemoid",
            "valueOid": "urn:oid:1.2.40.0.34.5.187"
          }
        ],
        "system": "https://termgit.elga.gv.at/CodeSystem/ems-ergaenzungmeldepflichtigekrankheiten",
        "version": "1.0.0+20230131",
        "concept": [
          {
            "code": "A81.9a",
            "display": "sonstige transmissible spongiforme Enzephalopathie"
          },
          {
            "code": "J09a",
            "display": "A/H1N1-Virus (Neue Influenza A)"
          },
          {
            "code": "J09b",
            "display": "A/H5N1-Virus (Vogelgrippe)"
          },
          {
            "code": "J09c",
            "display": "A/H7N9-Virus"
          },
          {
            "code": "J09d",
            "display": "MERS-CoV"
          }
        ]
      },
      {
        "extension": [
          {
            "url": "http://hl7.at/fhir/HL7ATCoreProfiles/4.0.1/StructureDefinition/at-core-ext-valueset-systemoid",
            "valueOid": "urn:oid:1.2.40.0.34.5.184"
          }
        ],
        "system": "https://termgit.elga.gv.at/CodeSystem/icd-10-bmg-2020",
        "version": "1.0.0+20230131",
        "concept": [
          {
            "code": "B04",
            "display": "Affenpocken"
          },
          {
            "code": "U07.1",
            "display": "COVID-19"
          }
        ]
      }
    ]
  },
  "expansion": {
    "timestamp": "2024-03-25T06:36:54+00:00",
    "contains": [
      {
        "extension": [
          {
            "url": "http://hl7.at/fhir/HL7ATCoreProfiles/4.0.1/StructureDefinition/at-core-ext-valueset-systemoid",
            "valueOid": "urn:oid:1.2.40.0.34.5.171"
          }
        ],
        "system": "https://termgit.elga.gv.at/CodeSystem/icd-10-bmg-2017",
        "version": "1.0.0+20230131",
        "code": "A00",
        "display": "Cholera"
      },
      {
        "extension": [
          {
            "url": "http://hl7.at/fhir/HL7ATCoreProfiles/4.0.1/StructureDefinition/at-core-ext-valueset-systemoid",
            "valueOid": "urn:oid:1.2.40.0.34.5.171"
          }
        ],
        "system": "https://termgit.elga.gv.at/CodeSystem/icd-10-bmg-2017",
        "version": "1.0.0+20230131",
        "code": "A01.0",
        "display": "Typhus abdominalis"
      },
      {
        "extension": [
          {
            "url": "http://hl7.at/fhir/HL7ATCoreProfiles/4.0.1/StructureDefinition/at-core-ext-valueset-systemoid",
            "valueOid": "urn:oid:1.2.40.0.34.5.171"
          }
        ],
        "system": "https://termgit.elga.gv.at/CodeSystem/icd-10-bmg-2017",
        "version": "1.0.0+20230131",
        "code": "A01.4",
        "display": "Paratyphus, nicht n\u00e4her bezeichnet"
      },
      {
        "extension": [
          {
            "url": "http://hl7.at/fhir/HL7ATCoreProfiles/4.0.1/StructureDefinition/at-core-ext-valueset-systemoid",
            "valueOid": "urn:oid:1.2.40.0.34.5.171"
          }
        ],
        "system": "https://termgit.elga.gv.at/CodeSystem/icd-10-bmg-2017",
        "version": "1.0.0+20230131",
        "code": "A02",
        "display": "Sonstige Salmonelleninfektionen"
      },
      {
        "extension": [
          {
            "url": "http://hl7.at/fhir/HL7ATCoreProfiles/4.0.1/StructureDefinition/at-core-ext-valueset-systemoid",
            "valueOid": "urn:oid:1.2.40.0.34.5.171"
          }
        ],
        "system": "https://termgit.elga.gv.at/CodeSystem/icd-10-bmg-2017",
        "version": "1.0.0+20230131",
        "code": "A03",
        "display": "Shigellose [Bakterielle Ruhr]"
      },
      {
        "extension": [
          {
            "url": "http://hl7.at/fhir/HL7ATCoreProfiles/4.0.1/StructureDefinition/at-core-ext-valueset-systemoid",
            "valueOid": "urn:oid:1.2.40.0.34.5.171"
          }
        ],
        "system": "https://termgit.elga.gv.at/CodeSystem/icd-10-bmg-2017",
        "version": "1.0.0+20230131",
        "code": "A04.0",
        "display": "Darminfektion durch enteropathogene Escherichia coli"
      },
      {
        "extension": [
          {
            "url": "http://hl7.at/fhir/HL7ATCoreProfiles/4.0.1/StructureDefinition/at-core-ext-valueset-systemoid",
            "valueOid": "urn:oid:1.2.40.0.34.5.171"
          }
        ],
        "system": "https://termgit.elga.gv.at/CodeSystem/icd-10-bmg-2017",
        "version": "1.0.0+20230131",
        "code": "A04.3",
        "display": "Darminfektion durch enteroh\u00e4morrhagische Escherichia coli"
      },
      {
        "extension": [
          {
            "url": "http://hl7.at/fhir/HL7ATCoreProfiles/4.0.1/StructureDefinition/at-core-ext-valueset-systemoid",
            "valueOid": "urn:oid:1.2.40.0.34.5.171"
          }
        ],
        "system": "https://termgit.elga.gv.at/CodeSystem/icd-10-bmg-2017",
        "version": "1.0.0+20230131",
        "code": "A04.5",
        "display": "Enteritis durch Campylobacter"
      },
      {
        "extension": [
          {
            "url": "http://hl7.at/fhir/HL7ATCoreProfiles/4.0.1/StructureDefinition/at-core-ext-valueset-systemoid",
            "valueOid": "urn:oid:1.2.40.0.34.5.171"
          }
        ],
        "system": "https://termgit.elga.gv.at/CodeSystem/icd-10-bmg-2017",
        "version": "1.0.0+20230131",
        "code": "A04.6",
        "display": "Enteritis durch Yersinia enterocolitica"
      },
      {
        "extension": [
          {
            "url": "http://hl7.at/fhir/HL7ATCoreProfiles/4.0.1/StructureDefinition/at-core-ext-valueset-systemoid",
            "valueOid": "urn:oid:1.2.40.0.34.5.171"
          }
        ],
        "system": "https://termgit.elga.gv.at/CodeSystem/icd-10-bmg-2017",
        "version": "1.0.0+20230131",
        "code": "A05.0",
        "display": "Lebensmittelvergiftung durch Staphylokokken"
      },
      {
        "extension": [
          {
            "url": "http://hl7.at/fhir/HL7ATCoreProfiles/4.0.1/StructureDefinition/at-core-ext-valueset-systemoid",
            "valueOid": "urn:oid:1.2.40.0.34.5.171"
          }
        ],
        "system": "https://termgit.elga.gv.at/CodeSystem/icd-10-bmg-2017",
        "version": "1.0.0+20230131",
        "code": "A05.1",
        "display": "Botulismus"
      },
      {
        "extension": [
          {
            "url": "http://hl7.at/fhir/HL7ATCoreProfiles/4.0.1/StructureDefinition/at-core-ext-valueset-systemoid",
            "valueOid": "urn:oid:1.2.40.0.34.5.171"
          }
        ],
        "system": "https://termgit.elga.gv.at/CodeSystem/icd-10-bmg-2017",
        "version": "1.0.0+20230131",
        "code": "A05.8",
        "display": "Sonstige n\u00e4her bezeichnete bakteriell bedingte Lebensmittelvergiftungen"
      },
      {
        "extension": [
          {
            "url": "http://hl7.at/fhir/HL7ATCoreProfiles/4.0.1/StructureDefinition/at-core-ext-valueset-systemoid",
            "valueOid": "urn:oid:1.2.40.0.34.5.171"
          }
        ],
        "system": "https://termgit.elga.gv.at/CodeSystem/icd-10-bmg-2017",
        "version": "1.0.0+20230131",
        "code": "A06",
        "display": "Am\u00f6biasis"
      },
      {
        "extension": [
          {
            "url": "http://hl7.at/fhir/HL7ATCoreProfiles/4.0.1/StructureDefinition/at-core-ext-valueset-systemoid",
            "valueOid": "urn:oid:1.2.40.0.34.5.171"
          }
        ],
        "system": "https://termgit.elga.gv.at/CodeSystem/icd-10-bmg-2017",
        "version": "1.0.0+20230131",
        "code": "A08.0",
        "display": "Enteritis durch Rotaviren"
      },
      {
        "extension": [
          {
            "url": "http://hl7.at/fhir/HL7ATCoreProfiles/4.0.1/StructureDefinition/at-core-ext-valueset-systemoid",
            "valueOid": "urn:oid:1.2.40.0.34.5.171"
          }
        ],
        "system": "https://termgit.elga.gv.at/CodeSystem/icd-10-bmg-2017",
        "version": "1.0.0+20230131",
        "code": "A08.1",
        "display": "Akute Gastroenteritis durch Norovirus [Norwalk-Virus]"
      },
      {
        "extension": [
          {
            "url": "http://hl7.at/fhir/HL7ATCoreProfiles/4.0.1/StructureDefinition/at-core-ext-valueset-systemoid",
            "valueOid": "urn:oid:1.2.40.0.34.5.171"
          }
        ],
        "system": "https://termgit.elga.gv.at/CodeSystem/icd-10-bmg-2017",
        "version": "1.0.0+20230131",
        "code": "A08.5",
        "display": "Sonstige n\u00e4her bezeichnete Darminfektionen"
      },
      {
        "extension": [
          {
            "url": "http://hl7.at/fhir/HL7ATCoreProfiles/4.0.1/StructureDefinition/at-core-ext-valueset-systemoid",
            "valueOid": "urn:oid:1.2.40.0.34.5.171"
          }
        ],
        "system": "https://termgit.elga.gv.at/CodeSystem/icd-10-bmg-2017",
        "version": "1.0.0+20230131",
        "code": "A15",
        "display": "Tuberkulose der Atmungsorgane, bakteriologisch oder histologisch gesichert"
      },
      {
        "extension": [
          {
            "url": "http://hl7.at/fhir/HL7ATCoreProfiles/4.0.1/StructureDefinition/at-core-ext-valueset-systemoid",
            "valueOid": "urn:oid:1.2.40.0.34.5.171"
          }
        ],
        "system": "https://termgit.elga.gv.at/CodeSystem/icd-10-bmg-2017",
        "version": "1.0.0+20230131",
        "code": "A20",
        "display": "Pest"
      },
      {
        "extension": [
          {
            "url": "http://hl7.at/fhir/HL7ATCoreProfiles/4.0.1/StructureDefinition/at-core-ext-valueset-systemoid",
            "valueOid": "urn:oid:1.2.40.0.34.5.171"
          }
        ],
        "system": "https://termgit.elga.gv.at/CodeSystem/icd-10-bmg-2017",
        "version": "1.0.0+20230131",
        "code": "A21",
        "display": "Tular\u00e4mie"
      },
      {
        "extension": [
          {
            "url": "http://hl7.at/fhir/HL7ATCoreProfiles/4.0.1/StructureDefinition/at-core-ext-valueset-systemoid",
            "valueOid": "urn:oid:1.2.40.0.34.5.171"
          }
        ],
        "system": "https://termgit.elga.gv.at/CodeSystem/icd-10-bmg-2017",
        "version": "1.0.0+20230131",
        "code": "A22",
        "display": "Anthrax [Milzbrand]"
      },
      {
        "extension": [
          {
            "url": "http://hl7.at/fhir/HL7ATCoreProfiles/4.0.1/StructureDefinition/at-core-ext-valueset-systemoid",
            "valueOid": "urn:oid:1.2.40.0.34.5.171"
          }
        ],
        "system": "https://termgit.elga.gv.at/CodeSystem/icd-10-bmg-2017",
        "version": "1.0.0+20230131",
        "code": "A23",
        "display": "Brucellose"
      },
      {
        "extension": [
          {
            "url": "http://hl7.at/fhir/HL7ATCoreProfiles/4.0.1/StructureDefinition/at-core-ext-valueset-systemoid",
            "valueOid": "urn:oid:1.2.40.0.34.5.171"
          }
        ],
        "system": "https://termgit.elga.gv.at/CodeSystem/icd-10-bmg-2017",
        "version": "1.0.0+20230131",
        "code": "A24.0",
        "display": "Rotz"
      },
      {
        "extension": [
          {
            "url": "http://hl7.at/fhir/HL7ATCoreProfiles/4.0.1/StructureDefinition/at-core-ext-valueset-systemoid",
            "valueOid": "urn:oid:1.2.40.0.34.5.171"
          }
        ],
        "system": "https://termgit.elga.gv.at/CodeSystem/icd-10-bmg-2017",
        "version": "1.0.0+20230131",
        "code": "A27",
        "display": "Leptospirose"
      },
      {
        "extension": [
          {
            "url": "http://hl7.at/fhir/HL7ATCoreProfiles/4.0.1/StructureDefinition/at-core-ext-valueset-systemoid",
            "valueOid": "urn:oid:1.2.40.0.34.5.171"
          }
        ],
        "system": "https://termgit.elga.gv.at/CodeSystem/icd-10-bmg-2017",
        "version": "1.0.0+20230131",
        "code": "A30",
        "display": "Lepra [Aussatz]"
      },
      {
        "extension": [
          {
            "url": "http://hl7.at/fhir/HL7ATCoreProfiles/4.0.1/StructureDefinition/at-core-ext-valueset-systemoid",
            "valueOid": "urn:oid:1.2.40.0.34.5.171"
          }
        ],
        "system": "https://termgit.elga.gv.at/CodeSystem/icd-10-bmg-2017",
        "version": "1.0.0+20230131",
        "code": "A32",
        "display": "Listeriose"
      },
      {
        "extension": [
          {
            "url": "http://hl7.at/fhir/HL7ATCoreProfiles/4.0.1/StructureDefinition/at-core-ext-valueset-systemoid",
            "valueOid": "urn:oid:1.2.40.0.34.5.171"
          }
        ],
        "system": "https://termgit.elga.gv.at/CodeSystem/icd-10-bmg-2017",
        "version": "1.0.0+20230131",
        "code": "A36",
        "display": "Diphtherie"
      },
      {
        "extension": [
          {
            "url": "http://hl7.at/fhir/HL7ATCoreProfiles/4.0.1/StructureDefinition/at-core-ext-valueset-systemoid",
            "valueOid": "urn:oid:1.2.40.0.34.5.171"
          }
        ],
        "system": "https://termgit.elga.gv.at/CodeSystem/icd-10-bmg-2017",
        "version": "1.0.0+20230131",
        "code": "A37",
        "display": "Keuchhusten"
      },
      {
        "extension": [
          {
            "url": "http://hl7.at/fhir/HL7ATCoreProfiles/4.0.1/StructureDefinition/at-core-ext-valueset-systemoid",
            "valueOid": "urn:oid:1.2.40.0.34.5.171"
          }
        ],
        "system": "https://termgit.elga.gv.at/CodeSystem/icd-10-bmg-2017",
        "version": "1.0.0+20230131",
        "code": "A38",
        "display": "Scharlach"
      },
      {
        "extension": [
          {
            "url": "http://hl7.at/fhir/HL7ATCoreProfiles/4.0.1/StructureDefinition/at-core-ext-valueset-systemoid",
            "valueOid": "urn:oid:1.2.40.0.34.5.171"
          }
        ],
        "system": "https://termgit.elga.gv.at/CodeSystem/icd-10-bmg-2017",
        "version": "1.0.0+20230131",
        "code": "A39",
        "display": "Meningokokkeninfektion"
      },
      {
        "extension": [
          {
            "url": "http://hl7.at/fhir/HL7ATCoreProfiles/4.0.1/StructureDefinition/at-core-ext-valueset-systemoid",
            "valueOid": "urn:oid:1.2.40.0.34.5.171"
          }
        ],
        "system": "https://termgit.elga.gv.at/CodeSystem/icd-10-bmg-2017",
        "version": "1.0.0+20230131",
        "code": "A39.4",
        "display": "Meningokokkensepsis, nicht n\u00e4her bezeichnet"
      },
      {
        "extension": [
          {
            "url": "http://hl7.at/fhir/HL7ATCoreProfiles/4.0.1/StructureDefinition/at-core-ext-valueset-systemoid",
            "valueOid": "urn:oid:1.2.40.0.34.5.171"
          }
        ],
        "system": "https://termgit.elga.gv.at/CodeSystem/icd-10-bmg-2017",
        "version": "1.0.0+20230131",
        "code": "A40.3",
        "display": "Sepsis durch Streptococcus pneumoniae"
      },
      {
        "extension": [
          {
            "url": "http://hl7.at/fhir/HL7ATCoreProfiles/4.0.1/StructureDefinition/at-core-ext-valueset-systemoid",
            "valueOid": "urn:oid:1.2.40.0.34.5.171"
          }
        ],
        "system": "https://termgit.elga.gv.at/CodeSystem/icd-10-bmg-2017",
        "version": "1.0.0+20230131",
        "code": "A48.1",
        "display": "Legionellose mit Pneumonie"
      },
      {
        "extension": [
          {
            "url": "http://hl7.at/fhir/HL7ATCoreProfiles/4.0.1/StructureDefinition/at-core-ext-valueset-systemoid",
            "valueOid": "urn:oid:1.2.40.0.34.5.171"
          }
        ],
        "system": "https://termgit.elga.gv.at/CodeSystem/icd-10-bmg-2017",
        "version": "1.0.0+20230131",
        "code": "A68.0",
        "display": "Durch L\u00e4use \u00fcbertragenes R\u00fcckfallfieber"
      },
      {
        "extension": [
          {
            "url": "http://hl7.at/fhir/HL7ATCoreProfiles/4.0.1/StructureDefinition/at-core-ext-valueset-systemoid",
            "valueOid": "urn:oid:1.2.40.0.34.5.171"
          }
        ],
        "system": "https://termgit.elga.gv.at/CodeSystem/icd-10-bmg-2017",
        "version": "1.0.0+20230131",
        "code": "A70",
        "display": "Infektionen durch Chlamydia psittaci"
      },
      {
        "extension": [
          {
            "url": "http://hl7.at/fhir/HL7ATCoreProfiles/4.0.1/StructureDefinition/at-core-ext-valueset-systemoid",
            "valueOid": "urn:oid:1.2.40.0.34.5.171"
          }
        ],
        "system": "https://termgit.elga.gv.at/CodeSystem/icd-10-bmg-2017",
        "version": "1.0.0+20230131",
        "code": "A71",
        "display": "Trachom"
      },
      {
        "extension": [
          {
            "url": "http://hl7.at/fhir/HL7ATCoreProfiles/4.0.1/StructureDefinition/at-core-ext-valueset-systemoid",
            "valueOid": "urn:oid:1.2.40.0.34.5.171"
          }
        ],
        "system": "https://termgit.elga.gv.at/CodeSystem/icd-10-bmg-2017",
        "version": "1.0.0+20230131",
        "code": "A75.0",
        "display": "Epidemisches Fleckfieber durch Rickettsia prowazeki"
      },
      {
        "extension": [
          {
            "url": "http://hl7.at/fhir/HL7ATCoreProfiles/4.0.1/StructureDefinition/at-core-ext-valueset-systemoid",
            "valueOid": "urn:oid:1.2.40.0.34.5.171"
          }
        ],
        "system": "https://termgit.elga.gv.at/CodeSystem/icd-10-bmg-2017",
        "version": "1.0.0+20230131",
        "code": "A80",
        "display": "Akute Poliomyelitis [Spinale Kinderl\u00e4hmung]"
      },
      {
        "extension": [
          {
            "url": "http://hl7.at/fhir/HL7ATCoreProfiles/4.0.1/StructureDefinition/at-core-ext-valueset-systemoid",
            "valueOid": "urn:oid:1.2.40.0.34.5.171"
          }
        ],
        "system": "https://termgit.elga.gv.at/CodeSystem/icd-10-bmg-2017",
        "version": "1.0.0+20230131",
        "code": "A81.0",
        "display": "Creutzfeldt-Jakob-Krankheit"
      },
      {
        "extension": [
          {
            "url": "http://hl7.at/fhir/HL7ATCoreProfiles/4.0.1/StructureDefinition/at-core-ext-valueset-systemoid",
            "valueOid": "urn:oid:1.2.40.0.34.5.171"
          }
        ],
        "system": "https://termgit.elga.gv.at/CodeSystem/icd-10-bmg-2017",
        "version": "1.0.0+20230131",
        "code": "A81.9",
        "display": "Atypische Virusinfektion des Zentralnervensystems, nicht n\u00e4her bezeichnet"
      },
      {
        "extension": [
          {
            "url": "http://hl7.at/fhir/HL7ATCoreProfiles/4.0.1/StructureDefinition/at-core-ext-valueset-systemoid",
            "valueOid": "urn:oid:1.2.40.0.34.5.171"
          }
        ],
        "system": "https://termgit.elga.gv.at/CodeSystem/icd-10-bmg-2017",
        "version": "1.0.0+20230131",
        "code": "A82",
        "display": "Tollwut [Rabies]"
      },
      {
        "extension": [
          {
            "url": "http://hl7.at/fhir/HL7ATCoreProfiles/4.0.1/StructureDefinition/at-core-ext-valueset-systemoid",
            "valueOid": "urn:oid:1.2.40.0.34.5.171"
          }
        ],
        "system": "https://termgit.elga.gv.at/CodeSystem/icd-10-bmg-2017",
        "version": "1.0.0+20230131",
        "code": "A84.1",
        "display": "Mitteleurop\u00e4ische Enzephalitis, durch Zecken \u00fcbertragen"
      },
      {
        "extension": [
          {
            "url": "http://hl7.at/fhir/HL7ATCoreProfiles/4.0.1/StructureDefinition/at-core-ext-valueset-systemoid",
            "valueOid": "urn:oid:1.2.40.0.34.5.171"
          }
        ],
        "system": "https://termgit.elga.gv.at/CodeSystem/icd-10-bmg-2017",
        "version": "1.0.0+20230131",
        "code": "A86",
        "display": "Virusenzephalitis, nicht n\u00e4her bezeichnet"
      },
      {
        "extension": [
          {
            "url": "http://hl7.at/fhir/HL7ATCoreProfiles/4.0.1/StructureDefinition/at-core-ext-valueset-systemoid",
            "valueOid": "urn:oid:1.2.40.0.34.5.171"
          }
        ],
        "system": "https://termgit.elga.gv.at/CodeSystem/icd-10-bmg-2017",
        "version": "1.0.0+20230131",
        "code": "A92.0",
        "display": "Chikungunya-Viruskrankheit"
      },
      {
        "extension": [
          {
            "url": "http://hl7.at/fhir/HL7ATCoreProfiles/4.0.1/StructureDefinition/at-core-ext-valueset-systemoid",
            "valueOid": "urn:oid:1.2.40.0.34.5.171"
          }
        ],
        "system": "https://termgit.elga.gv.at/CodeSystem/icd-10-bmg-2017",
        "version": "1.0.0+20230131",
        "code": "A92.3",
        "display": "West-Nil-Virusinfektion"
      },
      {
        "extension": [
          {
            "url": "http://hl7.at/fhir/HL7ATCoreProfiles/4.0.1/StructureDefinition/at-core-ext-valueset-systemoid",
            "valueOid": "urn:oid:1.2.40.0.34.5.171"
          }
        ],
        "system": "https://termgit.elga.gv.at/CodeSystem/icd-10-bmg-2017",
        "version": "1.0.0+20230131",
        "code": "A92.8",
        "display": "Sonstige n\u00e4her bezeichnete, durch Moskitos \u00fcbertragene Viruskrankheiten"
      },
      {
        "extension": [
          {
            "url": "http://hl7.at/fhir/HL7ATCoreProfiles/4.0.1/StructureDefinition/at-core-ext-valueset-systemoid",
            "valueOid": "urn:oid:1.2.40.0.34.5.171"
          }
        ],
        "system": "https://termgit.elga.gv.at/CodeSystem/icd-10-bmg-2017",
        "version": "1.0.0+20230131",
        "code": "A95",
        "display": "Gelbfieber"
      },
      {
        "extension": [
          {
            "url": "http://hl7.at/fhir/HL7ATCoreProfiles/4.0.1/StructureDefinition/at-core-ext-valueset-systemoid",
            "valueOid": "urn:oid:1.2.40.0.34.5.171"
          }
        ],
        "system": "https://termgit.elga.gv.at/CodeSystem/icd-10-bmg-2017",
        "version": "1.0.0+20230131",
        "code": "A96.2",
        "display": "Lassa-Fieber"
      },
      {
        "extension": [
          {
            "url": "http://hl7.at/fhir/HL7ATCoreProfiles/4.0.1/StructureDefinition/at-core-ext-valueset-systemoid",
            "valueOid": "urn:oid:1.2.40.0.34.5.171"
          }
        ],
        "system": "https://termgit.elga.gv.at/CodeSystem/icd-10-bmg-2017",
        "version": "1.0.0+20230131",
        "code": "A97",
        "display": "Dengue"
      },
      {
        "extension": [
          {
            "url": "http://hl7.at/fhir/HL7ATCoreProfiles/4.0.1/StructureDefinition/at-core-ext-valueset-systemoid",
            "valueOid": "urn:oid:1.2.40.0.34.5.171"
          }
        ],
        "system": "https://termgit.elga.gv.at/CodeSystem/icd-10-bmg-2017",
        "version": "1.0.0+20230131",
        "code": "A98.0",
        "display": "H\u00e4morrhagisches Krim-Kongo-Fieber"
      },
      {
        "extension": [
          {
            "url": "http://hl7.at/fhir/HL7ATCoreProfiles/4.0.1/StructureDefinition/at-core-ext-valueset-systemoid",
            "valueOid": "urn:oid:1.2.40.0.34.5.171"
          }
        ],
        "system": "https://termgit.elga.gv.at/CodeSystem/icd-10-bmg-2017",
        "version": "1.0.0+20230131",
        "code": "A98.3",
        "display": "Marburg-Viruskrankheit"
      },
      {
        "extension": [
          {
            "url": "http://hl7.at/fhir/HL7ATCoreProfiles/4.0.1/StructureDefinition/at-core-ext-valueset-systemoid",
            "valueOid": "urn:oid:1.2.40.0.34.5.171"
          }
        ],
        "system": "https://termgit.elga.gv.at/CodeSystem/icd-10-bmg-2017",
        "version": "1.0.0+20230131",
        "code": "A98.4",
        "display": "Ebola-Viruskrankheit"
      },
      {
        "extension": [
          {
            "url": "http://hl7.at/fhir/HL7ATCoreProfiles/4.0.1/StructureDefinition/at-core-ext-valueset-systemoid",
            "valueOid": "urn:oid:1.2.40.0.34.5.171"
          }
        ],
        "system": "https://termgit.elga.gv.at/CodeSystem/icd-10-bmg-2017",
        "version": "1.0.0+20230131",
        "code": "A98.5",
        "display": "H\u00e4morrhagisches Fieber mit renalem Syndrom"
      },
      {
        "extension": [
          {
            "url": "http://hl7.at/fhir/HL7ATCoreProfiles/4.0.1/StructureDefinition/at-core-ext-valueset-systemoid",
            "valueOid": "urn:oid:1.2.40.0.34.5.171"
          }
        ],
        "system": "https://termgit.elga.gv.at/CodeSystem/icd-10-bmg-2017",
        "version": "1.0.0+20230131",
        "code": "B03",
        "display": "Pocken"
      },
      {
        "extension": [
          {
            "url": "http://hl7.at/fhir/HL7ATCoreProfiles/4.0.1/StructureDefinition/at-core-ext-valueset-systemoid",
            "valueOid": "urn:oid:1.2.40.0.34.5.171"
          }
        ],
        "system": "https://termgit.elga.gv.at/CodeSystem/icd-10-bmg-2017",
        "version": "1.0.0+20230131",
        "code": "B05",
        "display": "Masern"
      },
      {
        "extension": [
          {
            "url": "http://hl7.at/fhir/HL7ATCoreProfiles/4.0.1/StructureDefinition/at-core-ext-valueset-systemoid",
            "valueOid": "urn:oid:1.2.40.0.34.5.171"
          }
        ],
        "system": "https://termgit.elga.gv.at/CodeSystem/icd-10-bmg-2017",
        "version": "1.0.0+20230131",
        "code": "B06",
        "display": "R\u00f6teln [Rubeola] [Rubella]"
      },
      {
        "extension": [
          {
            "url": "http://hl7.at/fhir/HL7ATCoreProfiles/4.0.1/StructureDefinition/at-core-ext-valueset-systemoid",
            "valueOid": "urn:oid:1.2.40.0.34.5.171"
          }
        ],
        "system": "https://termgit.elga.gv.at/CodeSystem/icd-10-bmg-2017",
        "version": "1.0.0+20230131",
        "code": "B15",
        "display": "Akute Virushepatitis A"
      },
      {
        "extension": [
          {
            "url": "http://hl7.at/fhir/HL7ATCoreProfiles/4.0.1/StructureDefinition/at-core-ext-valueset-systemoid",
            "valueOid": "urn:oid:1.2.40.0.34.5.171"
          }
        ],
        "system": "https://termgit.elga.gv.at/CodeSystem/icd-10-bmg-2017",
        "version": "1.0.0+20230131",
        "code": "B16",
        "display": "Akute Virushepatitis B"
      },
      {
        "extension": [
          {
            "url": "http://hl7.at/fhir/HL7ATCoreProfiles/4.0.1/StructureDefinition/at-core-ext-valueset-systemoid",
            "valueOid": "urn:oid:1.2.40.0.34.5.171"
          }
        ],
        "system": "https://termgit.elga.gv.at/CodeSystem/icd-10-bmg-2017",
        "version": "1.0.0+20230131",
        "code": "B17.0",
        "display": "Akute Delta-Virus- (Super-) Infektion eines Hepatitis-B- (Virus-) Tr\u00e4gers"
      },
      {
        "extension": [
          {
            "url": "http://hl7.at/fhir/HL7ATCoreProfiles/4.0.1/StructureDefinition/at-core-ext-valueset-systemoid",
            "valueOid": "urn:oid:1.2.40.0.34.5.171"
          }
        ],
        "system": "https://termgit.elga.gv.at/CodeSystem/icd-10-bmg-2017",
        "version": "1.0.0+20230131",
        "code": "B17.1",
        "display": "Akute Virushepatitis C"
      },
      {
        "extension": [
          {
            "url": "http://hl7.at/fhir/HL7ATCoreProfiles/4.0.1/StructureDefinition/at-core-ext-valueset-systemoid",
            "valueOid": "urn:oid:1.2.40.0.34.5.171"
          }
        ],
        "system": "https://termgit.elga.gv.at/CodeSystem/icd-10-bmg-2017",
        "version": "1.0.0+20230131",
        "code": "B17.2",
        "display": "Akute Virushepatitis E"
      },
      {
        "extension": [
          {
            "url": "http://hl7.at/fhir/HL7ATCoreProfiles/4.0.1/StructureDefinition/at-core-ext-valueset-systemoid",
            "valueOid": "urn:oid:1.2.40.0.34.5.171"
          }
        ],
        "system": "https://termgit.elga.gv.at/CodeSystem/icd-10-bmg-2017",
        "version": "1.0.0+20230131",
        "code": "B17.8",
        "display": "Sonstige n\u00e4her bezeichnete akute Virushepatitis"
      },
      {
        "extension": [
          {
            "url": "http://hl7.at/fhir/HL7ATCoreProfiles/4.0.1/StructureDefinition/at-core-ext-valueset-systemoid",
            "valueOid": "urn:oid:1.2.40.0.34.5.171"
          }
        ],
        "system": "https://termgit.elga.gv.at/CodeSystem/icd-10-bmg-2017",
        "version": "1.0.0+20230131",
        "code": "B34.2",
        "display": "Infektion durch Koronaviren nicht n\u00e4her bezeichneter Lokalisation"
      },
      {
        "extension": [
          {
            "url": "http://hl7.at/fhir/HL7ATCoreProfiles/4.0.1/StructureDefinition/at-core-ext-valueset-systemoid",
            "valueOid": "urn:oid:1.2.40.0.34.5.171"
          }
        ],
        "system": "https://termgit.elga.gv.at/CodeSystem/icd-10-bmg-2017",
        "version": "1.0.0+20230131",
        "code": "B54",
        "display": "Malaria, nicht n\u00e4her bezeichnet"
      },
      {
        "extension": [
          {
            "url": "http://hl7.at/fhir/HL7ATCoreProfiles/4.0.1/StructureDefinition/at-core-ext-valueset-systemoid",
            "valueOid": "urn:oid:1.2.40.0.34.5.171"
          }
        ],
        "system": "https://termgit.elga.gv.at/CodeSystem/icd-10-bmg-2017",
        "version": "1.0.0+20230131",
        "code": "B67.4",
        "display": "Echinococcus-granulosus-Infektion [zystische Echinokokkose], nicht n\u00e4her bezeichnet"
      },
      {
        "extension": [
          {
            "url": "http://hl7.at/fhir/HL7ATCoreProfiles/4.0.1/StructureDefinition/at-core-ext-valueset-systemoid",
            "valueOid": "urn:oid:1.2.40.0.34.5.171"
          }
        ],
        "system": "https://termgit.elga.gv.at/CodeSystem/icd-10-bmg-2017",
        "version": "1.0.0+20230131",
        "code": "B67.7",
        "display": "Echinococcus-multilocularis-Infektion [alveol\u00e4re Echinokokkose], nicht n\u00e4her bezeichnet"
      },
      {
        "extension": [
          {
            "url": "http://hl7.at/fhir/HL7ATCoreProfiles/4.0.1/StructureDefinition/at-core-ext-valueset-systemoid",
            "valueOid": "urn:oid:1.2.40.0.34.5.171"
          }
        ],
        "system": "https://termgit.elga.gv.at/CodeSystem/icd-10-bmg-2017",
        "version": "1.0.0+20230131",
        "code": "B75",
        "display": "Trichinellose"
      },
      {
        "extension": [
          {
            "url": "http://hl7.at/fhir/HL7ATCoreProfiles/4.0.1/StructureDefinition/at-core-ext-valueset-systemoid",
            "valueOid": "urn:oid:1.2.40.0.34.5.171"
          }
        ],
        "system": "https://termgit.elga.gv.at/CodeSystem/icd-10-bmg-2017",
        "version": "1.0.0+20230131",
        "code": "G00.0",
        "display": "Meningitis durch Haemophilus influenzae"
      },
      {
        "extension": [
          {
            "url": "http://hl7.at/fhir/HL7ATCoreProfiles/4.0.1/StructureDefinition/at-core-ext-valueset-systemoid",
            "valueOid": "urn:oid:1.2.40.0.34.5.171"
          }
        ],
        "system": "https://termgit.elga.gv.at/CodeSystem/icd-10-bmg-2017",
        "version": "1.0.0+20230131",
        "code": "G00.9",
        "display": "Bakterielle Meningitis, nicht n\u00e4her bezeichnet"
      },
      {
        "extension": [
          {
            "url": "http://hl7.at/fhir/HL7ATCoreProfiles/4.0.1/StructureDefinition/at-core-ext-valueset-systemoid",
            "valueOid": "urn:oid:1.2.40.0.34.5.171"
          }
        ],
        "system": "https://termgit.elga.gv.at/CodeSystem/icd-10-bmg-2017",
        "version": "1.0.0+20230131",
        "code": "K52.9",
        "display": "Nichtinfekti\u00f6se Gastroenteritis und Kolitis, nicht n\u00e4her bezeichnet"
      },
      {
        "extension": [
          {
            "url": "http://hl7.at/fhir/HL7ATCoreProfiles/4.0.1/StructureDefinition/at-core-ext-valueset-systemoid",
            "valueOid": "urn:oid:1.2.40.0.34.5.171"
          }
        ],
        "system": "https://termgit.elga.gv.at/CodeSystem/icd-10-bmg-2017",
        "version": "1.0.0+20230131",
        "code": "P36.0",
        "display": "Sepsis beim Neugeborenen durch Streptokokken, Gruppe B"
      },
      {
        "extension": [
          {
            "url": "http://hl7.at/fhir/HL7ATCoreProfiles/4.0.1/StructureDefinition/at-core-ext-valueset-systemoid",
            "valueOid": "urn:oid:1.2.40.0.34.5.171"
          }
        ],
        "system": "https://termgit.elga.gv.at/CodeSystem/icd-10-bmg-2017",
        "version": "1.0.0+20230131",
        "code": "U04",
        "display": "Schweres akutes respiratorisches Syndrom [SARS]"
      },
      {
        "extension": [
          {
            "url": "http://hl7.at/fhir/HL7ATCoreProfiles/4.0.1/StructureDefinition/at-core-ext-valueset-systemoid",
            "valueOid": "urn:oid:1.2.40.0.34.5.187"
          }
        ],
        "system": "https://termgit.elga.gv.at/CodeSystem/ems-ergaenzungmeldepflichtigekrankheiten",
        "version": "1.0.0+20230131",
        "code": "A81.9a",
        "display": "sonstige transmissible spongiforme Enzephalopathie"
      },
      {
        "extension": [
          {
            "url": "http://hl7.at/fhir/HL7ATCoreProfiles/4.0.1/StructureDefinition/at-core-ext-valueset-systemoid",
            "valueOid": "urn:oid:1.2.40.0.34.5.187"
          }
        ],
        "system": "https://termgit.elga.gv.at/CodeSystem/ems-ergaenzungmeldepflichtigekrankheiten",
        "version": "1.0.0+20230131",
        "code": "J09a",
        "display": "A/H1N1-Virus (Neue Influenza A)"
      },
      {
        "extension": [
          {
            "url": "http://hl7.at/fhir/HL7ATCoreProfiles/4.0.1/StructureDefinition/at-core-ext-valueset-systemoid",
            "valueOid": "urn:oid:1.2.40.0.34.5.187"
          }
        ],
        "system": "https://termgit.elga.gv.at/CodeSystem/ems-ergaenzungmeldepflichtigekrankheiten",
        "version": "1.0.0+20230131",
        "code": "J09b",
        "display": "A/H5N1-Virus (Vogelgrippe)"
      },
      {
        "extension": [
          {
            "url": "http://hl7.at/fhir/HL7ATCoreProfiles/4.0.1/StructureDefinition/at-core-ext-valueset-systemoid",
            "valueOid": "urn:oid:1.2.40.0.34.5.187"
          }
        ],
        "system": "https://termgit.elga.gv.at/CodeSystem/ems-ergaenzungmeldepflichtigekrankheiten",
        "version": "1.0.0+20230131",
        "code": "J09c",
        "display": "A/H7N9-Virus"
      },
      {
        "extension": [
          {
            "url": "http://hl7.at/fhir/HL7ATCoreProfiles/4.0.1/StructureDefinition/at-core-ext-valueset-systemoid",
            "valueOid": "urn:oid:1.2.40.0.34.5.187"
          }
        ],
        "system": "https://termgit.elga.gv.at/CodeSystem/ems-ergaenzungmeldepflichtigekrankheiten",
        "version": "1.0.0+20230131",
        "code": "J09d",
        "display": "MERS-CoV"
      },
      {
        "extension": [
          {
            "url": "http://hl7.at/fhir/HL7ATCoreProfiles/4.0.1/StructureDefinition/at-core-ext-valueset-systemoid",
            "valueOid": "urn:oid:1.2.40.0.34.5.184"
          }
        ],
        "system": "https://termgit.elga.gv.at/CodeSystem/icd-10-bmg-2020",
        "version": "1.0.0+20230131",
        "code": "B04",
        "display": "Affenpocken"
      },
      {
        "extension": [
          {
            "url": "http://hl7.at/fhir/HL7ATCoreProfiles/4.0.1/StructureDefinition/at-core-ext-valueset-systemoid",
            "valueOid": "urn:oid:1.2.40.0.34.5.184"
          }
        ],
        "system": "https://termgit.elga.gv.at/CodeSystem/icd-10-bmg-2020",
        "version": "1.0.0+20230131",
        "code": "U07.1",
        "display": "COVID-19"
      }
    ]
  }
}