"resource";"id";"url";"version";"name";"title";"status";"description";"content";"identifier";"date";"count"
"CodeSystem";"medikationpackaging";"https://termgit.elga.gv.at/CodeSystem/medikationpackaging";"1.1.0+20231023";"medikationpackaging";"Medikation_Packaging";"active";"**Description:** Medikation Packaging. Liability and terms of use you can find on this website https://www.basg.gv.at/fuer-unternehmen/online-service/nutzungshinweise#termgit

**Beschreibung:** Medikation Packaging. Haftung und Nutzungsbestimmungen finden Sie unter folgender Webseite https://www.basg.gv.at/fuer-unternehmen/online-service/nutzungshinweise#termgit";"complete";"1.2.40.0.34.5.219";"2023-10-23";"30"

"code";"display"
"100000073490";"Ampulle"
"100000073493";"Beutel"
"100000073495";"Kanister"
"100000073496";"Blisterpackung"
"100000073497";"Flasche"
"100000073498";"Schachtel"
"100000073503";"Patrone"
"100000073509";"Streudose"
"100000073512";"Tropfbehältnis"
"100000073514";"Druckbehältnis"
"100000073523";"Weithalsgefäss"
"100000073530";"Mehrdosenbehältnis"
"100000073531";"Mehrdosenbehältnis mit gasfreiem Pumpsystem"
"100000073541";"Gießbehältnis"
"100000073543";"Fertigpen"
"100000073544";"Fertigspritze"
"100000073545";"Druckbehältnis"
"100000073547";"Beutel"
"100000073550";"Einzeldosisbehältnis"
"100000073553";"Spraydose"
"100000073559";"Folienstreifen"
"100000073560";"Tablettenbehältnis"
"100000073561";"Tube"
"100000073563";"Durchstechflasche"
"100000116195";"Kalenderpackung"
"100000137702";"Behältnis"
"100000174066";"Einzeldosisblister"
"900000000007";"Tiegel (NE)"
"900000000009";"Behältnis (NE)"
"900000000011";"Generator (NE)"