{
  "resourceType": "CodeSystem",
  "id": "elga-allergietyp",
  "url": "https://termgit.elga.gv.at/CodeSystem/elga-allergietyp",
  "identifier": [
    {
      "use": "official",
      "system": "urn:ietf:rfc:3986",
      "value": "urn:oid:1.2.40.0.34.5.180"
    }
  ],
  "version": "1.0.1+20240129",
  "name": "elga-allergietyp",
  "title": "ELGA_AllergieTyp",
  "status": "active",
  "date": "2024-01-29",
  "publisher": "see",
  "contact": [
    {
      "name": "https://www.elga.gv.at",
      "telecom": [
        {
          "system": "url",
          "value": "https://www.elga.gv.at"
        }
      ]
    }
  ],
  "description": "**Description:** Type of observed intolerance or allergy\n\n**Beschreibung:** Art der beobachteten Intoleranz oder Allergie",
  "content": "complete",
  "count": 5,
  "property": [
    {
      "code": "child",
      "type": "code"
    },
    {
      "code": "parent",
      "type": "code"
    }
  ],
  "concept": [
    {
      "code": "Hypersens",
      "display": "Hypersensititivity",
      "designation": [
        {
          "language": "de-AT",
          "value": "\u00dcberempfindlichkeit"
        }
      ],
      "property": [
        {
          "code": "child",
          "valueCode": "Allergy"
        },
        {
          "code": "child",
          "valueCode": "Intolerance"
        }
      ]
    },
    {
      "code": "Allergy",
      "display": "Allergy to substance",
      "designation": [
        {
          "language": "de-AT",
          "value": "Allergie"
        }
      ],
      "property": [
        {
          "code": "parent",
          "valueCode": "Hypersens"
        },
        {
          "code": "child",
          "valueCode": "Allergy1"
        },
        {
          "code": "child",
          "valueCode": "Allergy4"
        }
      ]
    },
    {
      "code": "Allergy1",
      "display": "Allergy: Type 1 hypersensitivity",
      "designation": [
        {
          "language": "de-AT",
          "value": "Allergie Typ I"
        }
      ],
      "property": [
        {
          "code": "parent",
          "valueCode": "Allergy"
        }
      ]
    },
    {
      "code": "Allergy4",
      "display": "Allergy: Type 4 hypersensitivity",
      "designation": [
        {
          "language": "de-AT",
          "value": "Allergie Typ VI"
        }
      ],
      "property": [
        {
          "code": "parent",
          "valueCode": "Allergy"
        }
      ]
    },
    {
      "code": "Intolerance",
      "display": "Intolerance to substance",
      "designation": [
        {
          "language": "de-AT",
          "value": "Intoleranz"
        }
      ],
      "property": [
        {
          "code": "parent",
          "valueCode": "Hypersens"
        }
      ]
    }
  ]
}