'code';'codeSystem';'displayName';'parentCode';'concept_Beschreibung';'meaning';'hints';'level';'type';'relationships'
'25';'1.2.40.0.34.5.165';'BürgerIn Anmeldung';'';'';'';'';'0';'L';''
'26';'1.2.40.0.34.5.165';'BürgerIn Anmeldung in Vertretung';'';'';'';'';'0';'L';''
'27';'1.2.40.0.34.5.165';'BürgerIn Anmeldung der OBST in Vertretung';'';'';'';'';'0';'L';''
'31';'1.2.40.0.34.5.165';'Dokument einbringen';'';'';'e-Befund bereitgestellt';'';'0';'L';''
'35';'1.2.40.0.34.5.165';'Dokument suchen';'';'';'ELGA-Abfrage durchgeführt';'';'0';'L';''
'36';'1.2.40.0.34.5.165';'Dokument abrufen';'';'';'e-Befund aufgerufen';'';'0';'L';''
'4';'1.2.40.0.34.5.165';'Submit Consent';'';'';'Berechtigungsänderung durchgeführt';'';'0';'L';''
'42';'1.2.40.0.34.5.165';'Medikationsdaten ändern';'';'';'e-Medikationsdaten geändert';'';'0';'L';''
'43';'1.2.40.0.34.5.165';'Medikationsdaten lesen';'';'';'e-Medikationsdaten aufgerufen';'';'0';'L';''
'51';'1.2.40.0.34.5.165';'Notify ELGA XAD-PID Link Change';'';'Transaktion ELGA-1';'Technische Datenkorrektur';'';'0';'L';''
'52';'1.2.40.0.34.5.165';'Registrieren von Dokumenten im Rahmen eines Clearings';'';'';'Dieser e-Befund wurde nach einer Datenrichtigstellung nachträglich bereitgestellt';'';'0';'L';''
'53';'1.2.40.0.34.5.165';'Stornieren von Dokumenten im Rahmen eines Clearings';'';'';'Im Rahmen einer Datenrichtigstellung wurde dieser e-Befund storniert';'';'0';'L';''
'54';'1.2.40.0.34.5.165';'Dokumentenbereinigung im Auftrag des GDA';'';'';'';'';'0';'L';''
'6';'1.2.40.0.34.5.165';'Submit BPPC';'';'';'Berechtigungsänderung durchgeführt';'';'0';'L';''
'61';'1.2.40.0.34.5.165';'Immunisierungsdaten geändert (e-Impfpass)';'';'';'e-Impfpassdaten geändert';'';'0';'L';''
'62';'1.2.40.0.34.5.165';'Immunisierungsdaten aufgerufen (e-Impfpass)';'';'';'e-Impfpassdaten aufgerufen';'';'0';'L';''
'63';'1.2.40.0.34.5.165';'Offene Rezepte aufgerufen (e-Prescription)';'';'';'';'';'0';'L';''
'64';'1.2.40.0.34.5.165';'Abgabe gespeichert (e-Dispensation)';'';'';'';'';'0';'L';''
