'code';'codeSystem';'displayName';'parentCode';'concept_Beschreibung';'meaning';'hints';'level';'type';'relationships'
'100';'1.2.40.0.34.5.159';'ELGA Anwendungen';'';'';'';'';'0';'S';''
'101';'1.2.40.0.34.5.159';'E-Befunde';'';'';'';'';'1';'L';''
'102';'1.2.40.0.34.5.159';'E-Medikation';'';'';'';'';'1';'L';''
'103';'1.2.40.0.34.5.159';'e-Impfpass Anwendung';'';'';'';'';'0';'L';''
'104';'1.2.40.0.34.5.159';'Patientenverfügung Anwendung';'';'';'';'';'0';'L';''
'105';'1.2.40.0.34.5.159';'EMS Epidemiologisches Meldesystem/EPI-Service';'';'';'';'';'0';'L';''
'106';'1.2.40.0.34.5.159';'e-Prescription';'';'';'';'';'0';'L';''
'107';'1.2.40.0.34.5.159';'National Contact Point for eHealth';'';'';'';'';'0';'L';''
'150';'1.2.40.0.34.5.159';'Virtuelle Organisation für Testzwecke';'';'';'';'';'0';'L';''
'151';'1.2.40.0.34.5.159';'PVN Gesunder Tennengau Hallein';'';'';'';'';'0';'L';''
'152';'1.2.40.0.34.5.159';'PVN Gesunder Tennengau Lammertal';'';'';'';'';'0';'L';''
'153';'1.2.40.0.34.5.159';'PVN Gesunder Tennengau-Süd';'';'';'';'';'0';'L';''
