'code';'codeSystem';'displayName';'parentCode';'concept_Beschreibung';'meaning';'hints';'level';'type';'relationships'
'0';'1.2.40.0.34.5.38.1';'Modalitaet unbestimmt';;;;;'0';'L';
'1';'1.2.40.0.34.5.38.1';'Röntgen';;;'Röntgenaufnahme';;'0';'L';
'10';'1.2.40.0.34.5.38.1';'Fotografische Dokumentation';;;;;'0';'L';
'11';'1.2.40.0.34.5.38.1';'Video Dokumentation';;;;;'0';'L';
'2';'1.2.40.0.34.5.38.1';'CT';;;'Computer-Tomographie';;'0';'L';
'3';'1.2.40.0.34.5.38.1';'MRT';;;'Magnetresonanz-Tomographie';;'0';'L';
'4';'1.2.40.0.34.5.38.1';'US';;;'Ultraschalluntersuchung (Sonographie)';;'0';'L';
'5';'1.2.40.0.34.5.38.1';'NUK';;;'Nuklearmedizinische Untersuchung';;'0';'L';
'6';'1.2.40.0.34.5.38.1';'PET';;;'Positronen-Emissions-Tomographie';;'0';'L';
'7';'1.2.40.0.34.5.38.1';'Endoskopie';;;;;'0';'S';
'7-1';'1.2.40.0.34.5.38.1';'Kapselendoskopie';;;;;'1';'L';
'7-2';'1.2.40.0.34.5.38.1';'Konfokale Laserendomikroskopie';;;;;'1';'L';
'8';'1.2.40.0.34.5.38.1';'Mikroskopische Untersuchung';;;;;'0';'L';
'9';'1.2.40.0.34.5.38.1';'Optische Kohärenztomografie';;;;;'0';'L';
'999';'1.2.40.0.34.5.38.1';'Keine Modalität';;;;;'0';'S';
'999-1';'1.2.40.0.34.5.38.1';'Keine Modalität - Studie entfernt';;;;;'1';'L';
