'code';'codeSystem';'displayName';'parentCode';'concept_Beschreibung';'meaning';'hints';'level';'type';'relationships'
'HIGH';'1.2.40.0.34.5.69';'hochavid';'';'';'';'';'0';'L';''
'LOW';'1.2.40.0.34.5.69';'niederavid';'';'';'';'';'0';'L';''
'NOTEST';'1.2.40.0.34.5.69';'nicht getestet';'';'';'';'';'0';'L';''
