'code';'codeSystem';'displayName';'parentCode';'concept_Beschreibung';'meaning';'hints';'level';'type';'relationships'
'ALLN';'1.2.40.0.34.5.83';'Allentown (serogroup 1)';;;;;'0';'L';
'ALLNFRAN';'1.2.40.0.34.5.83';'Allentown/France (serogroup 1)';;;;;'0';'L';
'BELI';'1.2.40.0.34.5.83';'Bellingham (serogroup 1)';;;;;'0';'L';
'BENI';'1.2.40.0.34.5.83';'Benidorm (serogroup 1)';;;;;'0';'L';
'CAMB';'1.2.40.0.34.5.83';'Cambridge (serogroup 5)';;;;;'0';'L';
'CAMPER';'1.2.40.0.34.5.83';'Camperdown (serogroup 1)';;;;;'0';'L';
'DALA';'1.2.40.0.34.5.83';'Dallas (serogroup 5)';;;;;'0';'L';
'FRAN';'1.2.40.0.34.5.83';'France (serogroup 1)';;;;;'0';'L';
'HEY';'1.2.40.0.34.5.83';'Heysham (serogroup 1)';;;;;'0';'L';
'KNOW';'1.2.40.0.34.5.83';'Knoxville (serogroup 1)';;;;;'0';'L';
'LA';'1.2.40.0.34.5.83';'Los Angeles (serogroup 4)';;;;;'0';'L';
'NA';'1.2.40.0.34.5.83';'Not applicable';;;;;'0';'L';
'OLDA';'1.2.40.0.34.5.83';'OLDA (serogroup 1)';;;;;'0';'L';
'OXF';'1.2.40.0.34.5.83';'Oxford (serogroup 1)';;;;;'0';'L';
'OXFOLDA';'1.2.40.0.34.5.83';'Oxford/OLDA (serogroup 1)';;;;;'0';'L';
'PHIL';'1.2.40.0.34.5.83';'Philadelphia (serogroup 1)';;;;;'0';'L';
'PORT4';'1.2.40.0.34.5.83';'Portland 4 (serogroup 4)';;;;;'0';'L';
