'code';'codeSystem';'displayName';'parentCodeSystemName';'concept_Beschreibung';'meaning';'hints';'orderNumber';'level';'type';'relationships';'einheit print';'einheit codiert';'codeSystemVersion'
'hinweise';'1.2.40.0.34.5.217';'hinweise';'https://termgit.elga.gv.at/CodeSystem/austrian-designation-use';;;;'1';'0';'L';;;;'2.1.0+20240402'
'concept_beschreibung';'1.2.40.0.34.5.217';'concept_beschreibung';'https://termgit.elga.gv.at/CodeSystem/austrian-designation-use';;;;'2';'0';'L';;;;'2.1.0+20240402'
'relationships';'1.2.40.0.34.5.217';'relationships';'https://termgit.elga.gv.at/CodeSystem/austrian-designation-use';;;;'3';'0';'L';;;;'2.1.0+20240402'
'einheit_codiert';'1.2.40.0.34.5.217';'einheit_codiert';'https://termgit.elga.gv.at/CodeSystem/austrian-designation-use';;;;'4';'0';'L';;;;'2.1.0+20240402'
'einheit_print';'1.2.40.0.34.5.217';'einheit_print';'https://termgit.elga.gv.at/CodeSystem/austrian-designation-use';;;;'5';'0';'L';;;;'2.1.0+20240402'
'alt';'1.2.40.0.34.5.217';'alt';'https://termgit.elga.gv.at/CodeSystem/austrian-designation-use';;;;'6';'0';'L';;;;'2.1.0+20240402'
'alterslimit_min';'1.2.40.0.34.5.217';'alterslimit_min';'https://termgit.elga.gv.at/CodeSystem/austrian-designation-use';;;;'7';'0';'L';;;;'2.1.0+20240402'
'alterslimit_max';'1.2.40.0.34.5.217';'alterslimit_max';'https://termgit.elga.gv.at/CodeSystem/austrian-designation-use';;;;'8';'0';'L';;;;'2.1.0+20240402'
