'code';'codeSystem';'displayName';'parentCodeSystemName';'concept_Beschreibung';'meaning';'hints';'orderNumber';'level';'type';'relationships';'einheit print';'einheit codiert'
'_AllgemeineBevölkerung';'1.2.40.0.34.5.183';'Allgemeine Bevölkerung';'https://termgit.elga.gv.at/CodeSystem/eimpf-ergaenzung';'';'';'DEPRECATED';'1';'0';'D';'';'';''
'224627004';'2.16.840.1.113883.6.96';'Allgemeine Bevölkerung';'https://termgit.elga.gv.at/CodeSystem/snomed-ct-auszug';'';'';'DEPRECATED';'2';'1';'D';'';'';''
'_SpezielleRisikogruppefür';'1.2.40.0.34.5.183';'Spezielle Risikogruppe für';'https://termgit.elga.gv.at/CodeSystem/eimpf-ergaenzung';'';'';'';'3';'0';'A';'';'';''
'836383009';'2.16.840.1.113883.6.96';'Cholera Impfstoff';'https://termgit.elga.gv.at/CodeSystem/snomed-ct-auszug';'';'';'';'4';'1';'L';'';'';''
'836381006';'2.16.840.1.113883.6.96';'Diphtherie Impfstoff';'https://termgit.elga.gv.at/CodeSystem/snomed-ct-auszug';'';'';'';'5';'1';'L';'';'';''
'836403007';'2.16.840.1.113883.6.96';'Frühsommer-Meningoencephalitis Impfstoff';'https://termgit.elga.gv.at/CodeSystem/snomed-ct-auszug';'';'';'';'6';'1';'L';'';'';''
'836385002';'2.16.840.1.113883.6.96';'Gelbfieber Impfstoff';'https://termgit.elga.gv.at/CodeSystem/snomed-ct-auszug';'';'';'';'7';'1';'L';'';'';''
'836380007';'2.16.840.1.113883.6.96';'Haemophilus influenzae Typ B Impfstoff';'https://termgit.elga.gv.at/CodeSystem/snomed-ct-auszug';'';'';'';'8';'1';'L';'';'';''
'836375003';'2.16.840.1.113883.6.96';'Hepatitis A Impfstoff';'https://termgit.elga.gv.at/CodeSystem/snomed-ct-auszug';'';'';'';'9';'1';'L';'';'';''
'836374004';'2.16.840.1.113883.6.96';'Hepatitis B Impfstoff';'https://termgit.elga.gv.at/CodeSystem/snomed-ct-auszug';'';'';'';'10';'1';'L';'';'';''
'871919004';'2.16.840.1.113883.6.96';'Herpes Zoster Impfstoff';'https://termgit.elga.gv.at/CodeSystem/snomed-ct-auszug';'';'';'';'11';'1';'L';'';'';''
'836379009';'2.16.840.1.113883.6.96';'Humane Papillomaviren Impfstoff';'https://termgit.elga.gv.at/CodeSystem/snomed-ct-auszug';'';'';'';'12';'1';'L';'';'';''
'836377006';'2.16.840.1.113883.6.96';'Influenza Impfstoff';'https://termgit.elga.gv.at/CodeSystem/snomed-ct-auszug';'';'';'';'13';'1';'L';'';'';''
'871772009';'2.16.840.1.113883.6.96';'Influenza (H1N1) Impfstoff';'https://termgit.elga.gv.at/CodeSystem/snomed-ct-auszug';'';'';'';'14';'1';'L';'';'';''
'427036009';'2.16.840.1.113883.6.96';'Influenza (H5N1) Impfstoff';'https://termgit.elga.gv.at/CodeSystem/snomed-ct-auszug';'';'';'';'15';'1';'L';'';'';''
'836378001';'2.16.840.1.113883.6.96';'Japanische Encephalitis Impfstoff';'https://termgit.elga.gv.at/CodeSystem/snomed-ct-auszug';'';'';'';'16';'1';'L';'';'';''
'836382004';'2.16.840.1.113883.6.96';'Masern Impfstoff';'https://termgit.elga.gv.at/CodeSystem/snomed-ct-auszug';'';'';'';'17';'1';'L';'';'';''
'836401009';'2.16.840.1.113883.6.96';'Meningokokken Impfstoff';'https://termgit.elga.gv.at/CodeSystem/snomed-ct-auszug';'';'';'';'18';'1';'L';'';'';''
'1981000221108';'2.16.840.1.113883.6.96';'Meningokokken Serotyp B Impfstoff';'https://termgit.elga.gv.at/CodeSystem/snomed-ct-auszug';'';'';'';'19';'1';'L';'';'';''
'871866001';'2.16.840.1.113883.6.96';'Meningokokken Serotyp C Impfstoff';'https://termgit.elga.gv.at/CodeSystem/snomed-ct-auszug';'';'';'';'20';'1';'L';'';'';''
'871871008';'2.16.840.1.113883.6.96';'Meningokokken Serotyp A+C Impfstoff';'https://termgit.elga.gv.at/CodeSystem/snomed-ct-auszug';'';'';'';'21';'1';'L';'';'';''
'871873006';'2.16.840.1.113883.6.96';'Meningokokken Serotyp A+C+W135+Y Impfstoff';'https://termgit.elga.gv.at/CodeSystem/snomed-ct-auszug';'';'';'';'22';'1';'L';'';'';''
'871738001';'2.16.840.1.113883.6.96';'Mumps Impfstoff';'https://termgit.elga.gv.at/CodeSystem/snomed-ct-auszug';'';'';'';'23';'1';'L';'';'';''
'601000221108';'2.16.840.1.113883.6.96';'Pertussis Impfstoff';'https://termgit.elga.gv.at/CodeSystem/snomed-ct-auszug';'';'';'';'24';'1';'L';'';'';''
'836398006';'2.16.840.1.113883.6.96';'Pneumokokken Impfstoff';'https://termgit.elga.gv.at/CodeSystem/snomed-ct-auszug';'';'';'';'25';'1';'L';'';'';''
'836389008';'2.16.840.1.113883.6.96';'Pocken Impfstoff';'https://termgit.elga.gv.at/CodeSystem/snomed-ct-auszug';'';'';'';'26';'1';'L';'';'';''
'1031000221108';'2.16.840.1.113883.6.96';'Poliomyelitis Impfstoff';'https://termgit.elga.gv.at/CodeSystem/snomed-ct-auszug';'';'';'';'27';'1';'L';'';'';''
'836387005';'2.16.840.1.113883.6.96';'Rotavirus Impfstoff';'https://termgit.elga.gv.at/CodeSystem/snomed-ct-auszug';'';'';'';'28';'1';'L';'';'';''
'836388000';'2.16.840.1.113883.6.96';'Röteln Impfstoff';'https://termgit.elga.gv.at/CodeSystem/snomed-ct-auszug';'';'';'';'29';'1';'L';'';'';''
'1101000221104';'2.16.840.1.113883.6.96';'Tetanus Impfstoff';'https://termgit.elga.gv.at/CodeSystem/snomed-ct-auszug';'';'';'';'30';'1';'L';'';'';''
'836393002';'2.16.840.1.113883.6.96';'Tollwut Impfstoff';'https://termgit.elga.gv.at/CodeSystem/snomed-ct-auszug';'';'';'';'31';'1';'L';'';'';''
'836390004';'2.16.840.1.113883.6.96';'Typhus Impfstoff';'https://termgit.elga.gv.at/CodeSystem/snomed-ct-auszug';'';'';'';'32';'1';'L';'';'';''
'836495005';'2.16.840.1.113883.6.96';'Varizellen Impfstoff';'https://termgit.elga.gv.at/CodeSystem/snomed-ct-auszug';'';'';'';'33';'1';'L';'';'';''
'836402002';'2.16.840.1.113883.6.96';'Tuberkulose Impfstoff';'https://termgit.elga.gv.at/CodeSystem/snomed-ct-auszug';'';'';'';'34';'1';'L';'';'';''
'840534001';'2.16.840.1.113883.6.96';'COVID-19-Impfstoff';'https://termgit.elga.gv.at/CodeSystem/snomed-ct-auszug';'';'';'';'35';'1';'L';'';'';''
'840563003';'2.16.840.1.113883.6.96';'Dengue-Fieber Impfstoff';'https://termgit.elga.gv.at/CodeSystem/snomed-ct-auszug';'';'';'';'36';'1';'L';'';'';''
'108723008';'2.16.840.1.113883.6.96';'Respiratorische Synzytial-Virus Impfstoff';'https://termgit.elga.gv.at/CodeSystem/snomed-ct-auszug';'';'';'';'37';'1';'L';'';'';''
