'code';'codeSystem';'displayName';'parentCode';'concept_Beschreibung';'meaning';'hints';'level';'type';'relationships'
'N';'1.2.40.0.34.5.78';'nachweisbar';;;;;'0';'L';
'NB';'1.2.40.0.34.5.78';'nicht bestimmbar';;;;;'0';'L';
'NN';'1.2.40.0.34.5.78';'nicht nachweisbar';;;;;'0';'L';
'NOTEST';'1.2.40.0.34.5.78';'nicht durchgeführt';;;;;'0';'L';
