'code';'codeSystem';'displayName';'parentCodeSystemName';'concept_Beschreibung';'meaning';'hints';'orderNumber';'level';'type';'relationships';'einheit print';'einheit codiert';'codeSystemVersion'
'305351004';'2.16.840.1.113883.6.96';'Admission to intensive care unit (procedure)';'https://termgit.elga.gv.at/CodeSystem/snomed-ct-auszug';;;;'1';'0';'L';;;;'1.0.0+20230131'
'32485007';'2.16.840.1.113883.6.96';'Hospital admission (procedure)';'https://termgit.elga.gv.at/CodeSystem/snomed-ct-auszug';;;;'2';'0';'L';;;;'1.0.0+20230131'
