'code';'codeSystem';'displayName';'parentCodeSystemName';'concept_Beschreibung';'meaning';'hints';'orderNumber';'level';'type';'relationships';'einheit print';'einheit codiert';'codeSystemVersion'
'100';'1.2.40.0.34.5.154';'Policy';'https://termgit.elga.gv.at/CodeSystem/elga-auditparticipantobjecttyperole';;;;'1';'0';'S';;;;'1.0.1+20240129'
'101';'1.2.40.0.34.5.154';'Generelle Policy';'https://termgit.elga.gv.at/CodeSystem/elga-auditparticipantobjecttyperole';;;;'2';'1';'L';;;;'1.0.1+20240129'
'102';'1.2.40.0.34.5.154';'Patientenzustimmung';'https://termgit.elga.gv.at/CodeSystem/elga-auditparticipantobjecttyperole';;;;'3';'1';'L';;;;'1.0.1+20240129'
'110';'1.2.40.0.34.5.154';'Kontaktbestätigung';'https://termgit.elga.gv.at/CodeSystem/elga-auditparticipantobjecttyperole';;;;'4';'0';'S';;;;'1.0.1+20240129'
'111';'1.2.40.0.34.5.154';'Bürgerkarte';'https://termgit.elga.gv.at/CodeSystem/elga-auditparticipantobjecttyperole';;;;'5';'1';'L';;;;'1.0.1+20240129'
'112';'1.2.40.0.34.5.154';'e-card';'https://termgit.elga.gv.at/CodeSystem/elga-auditparticipantobjecttyperole';;;;'6';'1';'L';;;;'1.0.1+20240129'
'113';'1.2.40.0.34.5.154';'Delegierter Kontakt';'https://termgit.elga.gv.at/CodeSystem/elga-auditparticipantobjecttyperole';;;;'7';'1';'L';;;;'1.0.1+20240129'
'120';'1.2.40.0.34.5.154';'Security Token';'https://termgit.elga.gv.at/CodeSystem/elga-auditparticipantobjecttyperole';;;;'8';'0';'S';;;;'1.0.1+20240129'
'121';'1.2.40.0.34.5.154';'HCP Assertion';'https://termgit.elga.gv.at/CodeSystem/elga-auditparticipantobjecttyperole';;;;'9';'1';'L';;;;'1.0.1+20240129'
'122';'1.2.40.0.34.5.154';'User 1 Assertion';'https://termgit.elga.gv.at/CodeSystem/elga-auditparticipantobjecttyperole';;;;'10';'1';'L';;;;'1.0.1+20240129'
'123';'1.2.40.0.34.5.154';'Mandate 1 Assertion';'https://termgit.elga.gv.at/CodeSystem/elga-auditparticipantobjecttyperole';;;;'11';'1';'L';;;;'1.0.1+20240129'
'124';'1.2.40.0.34.5.154';'Treatment Assertion';'https://termgit.elga.gv.at/CodeSystem/elga-auditparticipantobjecttyperole';;;;'12';'1';'L';;;;'1.0.1+20240129'
'125';'1.2.40.0.34.5.154';'User 2 Assertion';'https://termgit.elga.gv.at/CodeSystem/elga-auditparticipantobjecttyperole';;;;'13';'1';'L';;;;'1.0.1+20240129'
'126';'1.2.40.0.34.5.154';'Mandate 2 Assertion';'https://termgit.elga.gv.at/CodeSystem/elga-auditparticipantobjecttyperole';;;;'14';'1';'L';;;;'1.0.1+20240129'
'130';'1.2.40.0.34.5.154';'Vollmacht';'https://termgit.elga.gv.at/CodeSystem/elga-auditparticipantobjecttyperole';;;;'15';'0';'L';;;;'1.0.1+20240129'
