{
  "resourceType": "ValueSet",
  "id": "elga-auditparticipantobjecttyperole",
  "meta": {
    "profile": [
      "http://hl7.at/fhir/HL7ATCoreProfiles/4.0.1/StructureDefinition/at-core-valueset"
    ]
  },
  "url": "https://termgit.elga.gv.at/ValueSet/elga-auditparticipantobjecttyperole",
  "identifier": [
    {
      "use": "official",
      "system": "urn:ietf:rfc:3986",
      "value": "urn:oid:1.2.40.0.34.10.155"
    }
  ],
  "version": "1.1.0+20240325",
  "name": "elga-auditparticipantobjecttyperole",
  "title": "ELGA_AuditParticipantObjectTypeRole",
  "status": "active",
  "date": "2024-03-25",
  "publisher": "see",
  "contact": [
    {
      "name": "https://www.elga.gv.at",
      "telecom": [
        {
          "system": "url",
          "value": "https://www.elga.gv.at"
        }
      ]
    }
  ],
  "description": "Liste der ELGA spezifischen Audit Participant Object Type Code Roles. Die Audit Participant Object Type Role definiert die Verwendung eines Objekts, welches im Audit Event referenziert ist.",
  "compose": {
    "include": [
      {
        "extension": [
          {
            "url": "http://hl7.at/fhir/HL7ATCoreProfiles/4.0.1/StructureDefinition/at-core-ext-valueset-systemoid",
            "valueOid": "urn:oid:1.2.40.0.34.5.154"
          }
        ],
        "system": "https://termgit.elga.gv.at/CodeSystem/elga-auditparticipantobjecttyperole",
        "version": "1.0.1+20240129",
        "concept": [
          {
            "code": "100",
            "display": "Policy"
          },
          {
            "code": "101",
            "display": "Generelle Policy"
          },
          {
            "code": "102",
            "display": "Patientenzustimmung"
          },
          {
            "code": "110",
            "display": "Kontaktbest\u00e4tigung"
          },
          {
            "code": "111",
            "display": "B\u00fcrgerkarte"
          },
          {
            "code": "112",
            "display": "e-card"
          },
          {
            "code": "113",
            "display": "Delegierter Kontakt"
          },
          {
            "code": "120",
            "display": "Security Token"
          },
          {
            "code": "121",
            "display": "HCP Assertion"
          },
          {
            "code": "122",
            "display": "User 1 Assertion"
          },
          {
            "code": "123",
            "display": "Mandate 1 Assertion"
          },
          {
            "code": "124",
            "display": "Treatment Assertion"
          },
          {
            "code": "125",
            "display": "User 2 Assertion"
          },
          {
            "code": "126",
            "display": "Mandate 2 Assertion"
          },
          {
            "code": "130",
            "display": "Vollmacht"
          }
        ]
      }
    ]
  },
  "expansion": {
    "timestamp": "2024-03-25T06:36:54+00:00",
    "contains": [
      {
        "extension": [
          {
            "url": "http://hl7.at/fhir/HL7ATCoreProfiles/4.0.1/StructureDefinition/at-core-ext-valueset-systemoid",
            "valueOid": "urn:oid:1.2.40.0.34.5.154"
          }
        ],
        "system": "https://termgit.elga.gv.at/CodeSystem/elga-auditparticipantobjecttyperole",
        "version": "1.0.1+20240129",
        "code": "100",
        "display": "Policy",
        "contains": [
          {
            "extension": [
              {
                "url": "http://hl7.at/fhir/HL7ATCoreProfiles/4.0.1/StructureDefinition/at-core-ext-valueset-systemoid",
                "valueOid": "urn:oid:1.2.40.0.34.5.154"
              }
            ],
            "system": "https://termgit.elga.gv.at/CodeSystem/elga-auditparticipantobjecttyperole",
            "version": "1.0.1+20240129",
            "code": "101",
            "display": "Generelle Policy"
          },
          {
            "extension": [
              {
                "url": "http://hl7.at/fhir/HL7ATCoreProfiles/4.0.1/StructureDefinition/at-core-ext-valueset-systemoid",
                "valueOid": "urn:oid:1.2.40.0.34.5.154"
              }
            ],
            "system": "https://termgit.elga.gv.at/CodeSystem/elga-auditparticipantobjecttyperole",
            "version": "1.0.1+20240129",
            "code": "102",
            "display": "Patientenzustimmung"
          }
        ]
      },
      {
        "extension": [
          {
            "url": "http://hl7.at/fhir/HL7ATCoreProfiles/4.0.1/StructureDefinition/at-core-ext-valueset-systemoid",
            "valueOid": "urn:oid:1.2.40.0.34.5.154"
          }
        ],
        "system": "https://termgit.elga.gv.at/CodeSystem/elga-auditparticipantobjecttyperole",
        "version": "1.0.1+20240129",
        "code": "110",
        "display": "Kontaktbest\u00e4tigung",
        "contains": [
          {
            "extension": [
              {
                "url": "http://hl7.at/fhir/HL7ATCoreProfiles/4.0.1/StructureDefinition/at-core-ext-valueset-systemoid",
                "valueOid": "urn:oid:1.2.40.0.34.5.154"
              }
            ],
            "system": "https://termgit.elga.gv.at/CodeSystem/elga-auditparticipantobjecttyperole",
            "version": "1.0.1+20240129",
            "code": "111",
            "display": "B\u00fcrgerkarte"
          },
          {
            "extension": [
              {
                "url": "http://hl7.at/fhir/HL7ATCoreProfiles/4.0.1/StructureDefinition/at-core-ext-valueset-systemoid",
                "valueOid": "urn:oid:1.2.40.0.34.5.154"
              }
            ],
            "system": "https://termgit.elga.gv.at/CodeSystem/elga-auditparticipantobjecttyperole",
            "version": "1.0.1+20240129",
            "code": "112",
            "display": "e-card"
          },
          {
            "extension": [
              {
                "url": "http://hl7.at/fhir/HL7ATCoreProfiles/4.0.1/StructureDefinition/at-core-ext-valueset-systemoid",
                "valueOid": "urn:oid:1.2.40.0.34.5.154"
              }
            ],
            "system": "https://termgit.elga.gv.at/CodeSystem/elga-auditparticipantobjecttyperole",
            "version": "1.0.1+20240129",
            "code": "113",
            "display": "Delegierter Kontakt"
          }
        ]
      },
      {
        "extension": [
          {
            "url": "http://hl7.at/fhir/HL7ATCoreProfiles/4.0.1/StructureDefinition/at-core-ext-valueset-systemoid",
            "valueOid": "urn:oid:1.2.40.0.34.5.154"
          }
        ],
        "system": "https://termgit.elga.gv.at/CodeSystem/elga-auditparticipantobjecttyperole",
        "version": "1.0.1+20240129",
        "code": "120",
        "display": "Security Token",
        "contains": [
          {
            "extension": [
              {
                "url": "http://hl7.at/fhir/HL7ATCoreProfiles/4.0.1/StructureDefinition/at-core-ext-valueset-systemoid",
                "valueOid": "urn:oid:1.2.40.0.34.5.154"
              }
            ],
            "system": "https://termgit.elga.gv.at/CodeSystem/elga-auditparticipantobjecttyperole",
            "version": "1.0.1+20240129",
            "code": "121",
            "display": "HCP Assertion"
          },
          {
            "extension": [
              {
                "url": "http://hl7.at/fhir/HL7ATCoreProfiles/4.0.1/StructureDefinition/at-core-ext-valueset-systemoid",
                "valueOid": "urn:oid:1.2.40.0.34.5.154"
              }
            ],
            "system": "https://termgit.elga.gv.at/CodeSystem/elga-auditparticipantobjecttyperole",
            "version": "1.0.1+20240129",
            "code": "122",
            "display": "User 1 Assertion"
          },
          {
            "extension": [
              {
                "url": "http://hl7.at/fhir/HL7ATCoreProfiles/4.0.1/StructureDefinition/at-core-ext-valueset-systemoid",
                "valueOid": "urn:oid:1.2.40.0.34.5.154"
              }
            ],
            "system": "https://termgit.elga.gv.at/CodeSystem/elga-auditparticipantobjecttyperole",
            "version": "1.0.1+20240129",
            "code": "123",
            "display": "Mandate 1 Assertion"
          },
          {
            "extension": [
              {
                "url": "http://hl7.at/fhir/HL7ATCoreProfiles/4.0.1/StructureDefinition/at-core-ext-valueset-systemoid",
                "valueOid": "urn:oid:1.2.40.0.34.5.154"
              }
            ],
            "system": "https://termgit.elga.gv.at/CodeSystem/elga-auditparticipantobjecttyperole",
            "version": "1.0.1+20240129",
            "code": "124",
            "display": "Treatment Assertion"
          },
          {
            "extension": [
              {
                "url": "http://hl7.at/fhir/HL7ATCoreProfiles/4.0.1/StructureDefinition/at-core-ext-valueset-systemoid",
                "valueOid": "urn:oid:1.2.40.0.34.5.154"
              }
            ],
            "system": "https://termgit.elga.gv.at/CodeSystem/elga-auditparticipantobjecttyperole",
            "version": "1.0.1+20240129",
            "code": "125",
            "display": "User 2 Assertion"
          },
          {
            "extension": [
              {
                "url": "http://hl7.at/fhir/HL7ATCoreProfiles/4.0.1/StructureDefinition/at-core-ext-valueset-systemoid",
                "valueOid": "urn:oid:1.2.40.0.34.5.154"
              }
            ],
            "system": "https://termgit.elga.gv.at/CodeSystem/elga-auditparticipantobjecttyperole",
            "version": "1.0.1+20240129",
            "code": "126",
            "display": "Mandate 2 Assertion"
          }
        ]
      },
      {
        "extension": [
          {
            "url": "http://hl7.at/fhir/HL7ATCoreProfiles/4.0.1/StructureDefinition/at-core-ext-valueset-systemoid",
            "valueOid": "urn:oid:1.2.40.0.34.5.154"
          }
        ],
        "system": "https://termgit.elga.gv.at/CodeSystem/elga-auditparticipantobjecttyperole",
        "version": "1.0.1+20240129",
        "code": "130",
        "display": "Vollmacht"
      }
    ]
  }
}