{
  "resourceType": "CodeSystem",
  "id": "iso-3166-1-alpha-3",
  "url": "https://termgit.elga.gv.at/CodeSystem/iso-3166-1-alpha-3",
  "identifier": [
    {
      "use": "official",
      "system": "urn:ietf:rfc:3986",
      "value": "urn:oid:1.0.3166.1.2.3"
    }
  ],
  "version": "1.0.0+20230131",
  "name": "iso-3166-1-alpha-3",
  "title": "ISO 3166-1 alpha 3",
  "status": "active",
  "date": "2016-07-11",
  "description": "L\u00e4ndercodes mit 3 Buchstaben",
  "content": "complete",
  "count": 269,
  "property": [
    {
      "code": "hints",
      "type": "string"
    }
  ],
  "concept": [
    {
      "code": "ABW",
      "display": "Aruba"
    },
    {
      "code": "AFG",
      "display": "Afghanistan"
    },
    {
      "code": "AGO",
      "display": "Angola"
    },
    {
      "code": "AIA",
      "display": "Anguilla"
    },
    {
      "code": "ALA",
      "display": "\u00c5land"
    },
    {
      "code": "ALB",
      "display": "Albanien"
    },
    {
      "code": "AND",
      "display": "Andorra"
    },
    {
      "code": "ANT",
      "display": "Niederl\u00e4ndische Antillen"
    },
    {
      "code": "ARE",
      "display": "Vereinigte Arabische Emirate"
    },
    {
      "code": "ARG",
      "display": "Argentinien"
    },
    {
      "code": "ARM",
      "display": "Armenien"
    },
    {
      "code": "ASC",
      "display": "Ascension (verwaltet von St. Helena)",
      "property": [
        {
          "code": "hints",
          "valueString": "Nicht offiziell"
        }
      ]
    },
    {
      "code": "ASM",
      "display": "Amerikanisch-Samoa"
    },
    {
      "code": "ATA",
      "display": "Antarktis (Sonderstatus durch Antarktis-Vertrag)"
    },
    {
      "code": "ATF",
      "display": "Franz\u00f6sische S\u00fcd- und Antarktisgebiete"
    },
    {
      "code": "ATG",
      "display": "Antigua und Barbuda"
    },
    {
      "code": "AUS",
      "display": "Australien"
    },
    {
      "code": "AUT",
      "display": "\u00d6sterreich"
    },
    {
      "code": "AZE",
      "display": "Aserbaidschan"
    },
    {
      "code": "BDI",
      "display": "Burundi"
    },
    {
      "code": "BEL",
      "display": "Belgien"
    },
    {
      "code": "BEN",
      "display": "Benin"
    },
    {
      "code": "BES",
      "display": "Bonaire, Sint Eustatius und Saba (Niederlande"
    },
    {
      "code": "BFA",
      "display": "Burkina Faso"
    },
    {
      "code": "BGD",
      "display": "Bangladesch"
    },
    {
      "code": "BGR",
      "display": "Bulgarien"
    },
    {
      "code": "BHR",
      "display": "Bahrain"
    },
    {
      "code": "BHS",
      "display": "Bahamas"
    },
    {
      "code": "BIH",
      "display": "Bosnien und Herzegowina"
    },
    {
      "code": "BLM",
      "display": "Saint-Barth\u00e9lemy"
    },
    {
      "code": "BLR",
      "display": "Belarus (Wei\u00dfrussland)"
    },
    {
      "code": "BLZ",
      "display": "Belize"
    },
    {
      "code": "BMU",
      "display": "Bermuda"
    },
    {
      "code": "BOL",
      "display": "Bolivien"
    },
    {
      "code": "BRA",
      "display": "Brasilien"
    },
    {
      "code": "BRB",
      "display": "Barbados"
    },
    {
      "code": "BRN",
      "display": "Brunei Darussalam"
    },
    {
      "code": "BTN",
      "display": "Bhutan"
    },
    {
      "code": "BUR",
      "display": "Burma (jetzt Myanmar)"
    },
    {
      "code": "BVT",
      "display": "Bouvetinsel"
    },
    {
      "code": "BWA",
      "display": "Botsuana"
    },
    {
      "code": "CAF",
      "display": "Zentralafrikanische Republik"
    },
    {
      "code": "CAN",
      "display": "Kanada"
    },
    {
      "code": "CCK",
      "display": "Kokosinseln"
    },
    {
      "code": "CHE",
      "display": "Schweiz (Confoederatio Helvetica)"
    },
    {
      "code": "CHL",
      "display": "Chile"
    },
    {
      "code": "CHN",
      "display": "China"
    },
    {
      "code": "CIV",
      "display": "C\u00f4te d'Ivoire (Elfenbeink\u00fcste)"
    },
    {
      "code": "CMR",
      "display": "Kamerun"
    },
    {
      "code": "COD",
      "display": "Kongo"
    },
    {
      "code": "COG",
      "display": "Republik Kongo"
    },
    {
      "code": "COK",
      "display": "Cookinseln"
    },
    {
      "code": "COL",
      "display": "Kolumbien"
    },
    {
      "code": "COM",
      "display": "Komoren"
    },
    {
      "code": "CPT",
      "display": "Clipperton (reserviert f\u00fcr ITU)",
      "property": [
        {
          "code": "hints",
          "valueString": "Nicht offiziell"
        }
      ]
    },
    {
      "code": "CPV",
      "display": "Kap Verde"
    },
    {
      "code": "CRI",
      "display": "Costa Rica"
    },
    {
      "code": "CSK",
      "display": "Tschechoslowakei (ehemalig)"
    },
    {
      "code": "CUB",
      "display": "Kuba"
    },
    {
      "code": "CUW",
      "display": "Cura\u00e7ao"
    },
    {
      "code": "CXR",
      "display": "Weihnachtsinsel"
    },
    {
      "code": "CYM",
      "display": "Kaimaninseln"
    },
    {
      "code": "CYP",
      "display": "Zypern"
    },
    {
      "code": "CZE",
      "display": "Tschechische Republik"
    },
    {
      "code": "DEU",
      "display": "Deutschland"
    },
    {
      "code": "DGA",
      "display": "Diego Garcia (reserviert f\u00fcr ITU)",
      "property": [
        {
          "code": "hints",
          "valueString": "Nicht offiziell"
        }
      ]
    },
    {
      "code": "DJI",
      "display": "Dschibuti"
    },
    {
      "code": "DMA",
      "display": "Dominica"
    },
    {
      "code": "DNK",
      "display": "D\u00e4nemark"
    },
    {
      "code": "DOM",
      "display": "Dominikanische Republik"
    },
    {
      "code": "DZA",
      "display": "Algerien"
    },
    {
      "code": "ECU",
      "display": "Ecuador"
    },
    {
      "code": "EGY",
      "display": "\u00c4gypten"
    },
    {
      "code": "ERI",
      "display": "Eritrea"
    },
    {
      "code": "ESH",
      "display": "Westsahara"
    },
    {
      "code": "ESP",
      "display": "Spanien"
    },
    {
      "code": "EST",
      "display": "Estland"
    },
    {
      "code": "ETH",
      "display": "\u00c4thiopien"
    },
    {
      "code": "FIN",
      "display": "Finnland"
    },
    {
      "code": "FJI",
      "display": "Fidschi"
    },
    {
      "code": "FLK",
      "display": "Falklandinseln"
    },
    {
      "code": "FRA",
      "display": "Frankreich"
    },
    {
      "code": "FRO",
      "display": "F\u00e4r\u00f6er"
    },
    {
      "code": "FSM",
      "display": "Mikronesien"
    },
    {
      "code": "FXX",
      "display": "(europ. Frankreich ohne \u00dcbersee-D\u00e9partements)"
    },
    {
      "code": "GAB",
      "display": "Gabun"
    },
    {
      "code": "GBR",
      "display": "Vereinigtes K\u00f6nigreich Gro\u00dfbritannien und Nordirland"
    },
    {
      "code": "GEO",
      "display": "Georgien"
    },
    {
      "code": "GGY",
      "display": "Guernsey (Kanalinsel)"
    },
    {
      "code": "GHA",
      "display": "Ghana"
    },
    {
      "code": "GIB",
      "display": "Gibraltar"
    },
    {
      "code": "GIN",
      "display": "Guinea"
    },
    {
      "code": "GLP",
      "display": "Guadeloupe"
    },
    {
      "code": "GMB",
      "display": "Gambia"
    },
    {
      "code": "GNB",
      "display": "Guinea-Bissau"
    },
    {
      "code": "GNQ",
      "display": "\u00c4quatorialguinea"
    },
    {
      "code": "GRC",
      "display": "Griechenland"
    },
    {
      "code": "GRD",
      "display": "Grenada"
    },
    {
      "code": "GRL",
      "display": "Gr\u00f6nland"
    },
    {
      "code": "GTM",
      "display": "Guatemala"
    },
    {
      "code": "GUF",
      "display": "Franz\u00f6sisch-Guayana"
    },
    {
      "code": "GUM",
      "display": "Guam"
    },
    {
      "code": "GUY",
      "display": "Guyana"
    },
    {
      "code": "HKG",
      "display": "Hongkong"
    },
    {
      "code": "HMD",
      "display": "Heard- und McDonald-Inseln"
    },
    {
      "code": "HND",
      "display": "Honduras"
    },
    {
      "code": "HRV",
      "display": "Kroatien"
    },
    {
      "code": "HTI",
      "display": "Haiti"
    },
    {
      "code": "HUN",
      "display": "Ungarn"
    },
    {
      "code": "IDN",
      "display": "Indonesien"
    },
    {
      "code": "IMN",
      "display": "Insel Man"
    },
    {
      "code": "IND",
      "display": "Indien"
    },
    {
      "code": "IOT",
      "display": "Britisches Territorium im Indischen Ozean"
    },
    {
      "code": "IRL",
      "display": "Irland"
    },
    {
      "code": "IRN",
      "display": "Iran"
    },
    {
      "code": "IRQ",
      "display": "Irak"
    },
    {
      "code": "ISL",
      "display": "Island"
    },
    {
      "code": "ISR",
      "display": "Israel"
    },
    {
      "code": "ITA",
      "display": "Italien"
    },
    {
      "code": "JAM",
      "display": "Jamaika"
    },
    {
      "code": "JEY",
      "display": "Jersey (Kanalinsel)"
    },
    {
      "code": "JOR",
      "display": "Jordanien"
    },
    {
      "code": "JPN",
      "display": "Japan"
    },
    {
      "code": "KAZ",
      "display": "Kasachstan"
    },
    {
      "code": "KEN",
      "display": "Kenia"
    },
    {
      "code": "KGZ",
      "display": "Kirgisistan"
    },
    {
      "code": "KHM",
      "display": "Kambodscha"
    },
    {
      "code": "KIR",
      "display": "Kiribati"
    },
    {
      "code": "KNA",
      "display": "St. Kitts und Nevis"
    },
    {
      "code": "KOR",
      "display": "Korea"
    },
    {
      "code": "KOS",
      "display": "Kosovo, Republik"
    },
    {
      "code": "KWT",
      "display": "Kuwait"
    },
    {
      "code": "LAO",
      "display": "Laos"
    },
    {
      "code": "LBN",
      "display": "Libanon"
    },
    {
      "code": "LBR",
      "display": "Liberia"
    },
    {
      "code": "LBY",
      "display": "Libysch-Arabische Dschamahirija (Libyen)"
    },
    {
      "code": "LCA",
      "display": "St. Lucia"
    },
    {
      "code": "LIE",
      "display": "Liechtenstein"
    },
    {
      "code": "LKA",
      "display": "Sri Lanka"
    },
    {
      "code": "LSO",
      "display": "Lesotho"
    },
    {
      "code": "LTU",
      "display": "Litauen"
    },
    {
      "code": "LUX",
      "display": "Luxemburg"
    },
    {
      "code": "LVA",
      "display": "Lettland"
    },
    {
      "code": "MAC",
      "display": "Macao"
    },
    {
      "code": "MAF",
      "display": "Saint-Martin (franz. Teil)"
    },
    {
      "code": "MAR",
      "display": "Marokko"
    },
    {
      "code": "MCO",
      "display": "Monaco"
    },
    {
      "code": "MDA",
      "display": "Moldawien (Republik Moldau)"
    },
    {
      "code": "MDG",
      "display": "Madagaskar"
    },
    {
      "code": "MDV",
      "display": "Malediven"
    },
    {
      "code": "MEX",
      "display": "Mexiko"
    },
    {
      "code": "MHL",
      "display": "Marshallinseln"
    },
    {
      "code": "MKD",
      "display": "Mazedonien"
    },
    {
      "code": "MLI",
      "display": "Mali"
    },
    {
      "code": "MLT",
      "display": "Malta"
    },
    {
      "code": "MMR",
      "display": "Myanmar (Burma)"
    },
    {
      "code": "MNE",
      "display": "Montenegro"
    },
    {
      "code": "MNG",
      "display": "Mongolei"
    },
    {
      "code": "MNP",
      "display": "N\u00f6rdliche Marianen"
    },
    {
      "code": "MOZ",
      "display": "Mosambik"
    },
    {
      "code": "MRT",
      "display": "Mauretanien"
    },
    {
      "code": "MSR",
      "display": "Montserrat"
    },
    {
      "code": "MTQ",
      "display": "Martinique"
    },
    {
      "code": "MUS",
      "display": "Mauritius"
    },
    {
      "code": "MWI",
      "display": "Malawi"
    },
    {
      "code": "MYS",
      "display": "Malaysia"
    },
    {
      "code": "MYT",
      "display": "Mayotte"
    },
    {
      "code": "NAM",
      "display": "Namibia"
    },
    {
      "code": "NCL",
      "display": "Neukaledonien"
    },
    {
      "code": "NER",
      "display": "Niger"
    },
    {
      "code": "NFK",
      "display": "Norfolkinsel"
    },
    {
      "code": "NGA",
      "display": "Nigeria"
    },
    {
      "code": "NIC",
      "display": "Nicaragua"
    },
    {
      "code": "NIU",
      "display": "Niue"
    },
    {
      "code": "NLD",
      "display": "Niederlande"
    },
    {
      "code": "NOR",
      "display": "Norwegen"
    },
    {
      "code": "NPL",
      "display": "Nepal"
    },
    {
      "code": "NRU",
      "display": "Nauru"
    },
    {
      "code": "NTZ",
      "display": "Neutrale Zone (Saudi-Arabien und Irak)"
    },
    {
      "code": "NZL",
      "display": "Neuseeland"
    },
    {
      "code": "OMN",
      "display": "Oman"
    },
    {
      "code": "PAK",
      "display": "Pakistan"
    },
    {
      "code": "PAN",
      "display": "Panama"
    },
    {
      "code": "PCN",
      "display": "Pitcairninseln"
    },
    {
      "code": "PER",
      "display": "Peru"
    },
    {
      "code": "PHL",
      "display": "Philippinen"
    },
    {
      "code": "PLW",
      "display": "Palau"
    },
    {
      "code": "PNG",
      "display": "Papua-Neuguinea"
    },
    {
      "code": "POL",
      "display": "Polen"
    },
    {
      "code": "PRI",
      "display": "Puerto Rico"
    },
    {
      "code": "PRK",
      "display": "Korea"
    },
    {
      "code": "PRT",
      "display": "Portugal"
    },
    {
      "code": "PRY",
      "display": "Paraguay"
    },
    {
      "code": "PSE",
      "display": "Pal\u00e4stinensische Autonomiegebiete"
    },
    {
      "code": "PYF",
      "display": "Franz\u00f6sisch-Polynesien"
    },
    {
      "code": "QAT",
      "display": "Katar"
    },
    {
      "code": "REU",
      "display": "R\u00e9union"
    },
    {
      "code": "ROU",
      "display": "Rum\u00e4nien"
    },
    {
      "code": "RUS",
      "display": "Russische F\u00f6deration"
    },
    {
      "code": "RWA",
      "display": "Ruanda"
    },
    {
      "code": "SAU",
      "display": "Saudi-Arabien"
    },
    {
      "code": "SCG",
      "display": "Serbien und Montenegro (ehemalig)"
    },
    {
      "code": "SDN",
      "display": "Sudan"
    },
    {
      "code": "SEN",
      "display": "Senegal"
    },
    {
      "code": "SGP",
      "display": "Singapur"
    },
    {
      "code": "SGS",
      "display": "S\u00fcdgeorgien und die S\u00fcdlichen Sandwichinseln"
    },
    {
      "code": "SHN",
      "display": "St. Helena"
    },
    {
      "code": "SJM",
      "display": "Svalbard und Jan Mayen"
    },
    {
      "code": "SLB",
      "display": "Salomonen"
    },
    {
      "code": "SLE",
      "display": "Sierra Leone"
    },
    {
      "code": "SLV",
      "display": "El Salvador"
    },
    {
      "code": "SMR",
      "display": "San Marino"
    },
    {
      "code": "SOM",
      "display": "Somalia"
    },
    {
      "code": "SPM",
      "display": "Saint-Pierre und Miquelon"
    },
    {
      "code": "SRB",
      "display": "Serbien"
    },
    {
      "code": "SSD",
      "display": "S\u00fcdsudan"
    },
    {
      "code": "STP",
      "display": "S\u00e3o Tom\u00e9 und Pr\u00edncipe"
    },
    {
      "code": "SUN",
      "display": "UdSSR (jetzt: Russische F\u00f6deration)"
    },
    {
      "code": "SUR",
      "display": "Suriname"
    },
    {
      "code": "SVK",
      "display": "Slowakei"
    },
    {
      "code": "SVN",
      "display": "Slowenien"
    },
    {
      "code": "SWE",
      "display": "Schweden"
    },
    {
      "code": "SWZ",
      "display": "Swasiland"
    },
    {
      "code": "SXM",
      "display": "Sint Maarten (niederl. Teil)"
    },
    {
      "code": "SYC",
      "display": "Seychellen"
    },
    {
      "code": "SYR",
      "display": "Syrien"
    },
    {
      "code": "TAA",
      "display": "Tristan da Cunha (verwaltet von St. Helena)",
      "property": [
        {
          "code": "hints",
          "valueString": "Nicht offiziell"
        }
      ]
    },
    {
      "code": "TCA",
      "display": "Turks- und Caicosinseln"
    },
    {
      "code": "TCD",
      "display": "Tschad"
    },
    {
      "code": "TGO",
      "display": "Togo"
    },
    {
      "code": "THA",
      "display": "Thailand"
    },
    {
      "code": "TJK",
      "display": "Tadschikistan"
    },
    {
      "code": "TKL",
      "display": "Tokelau"
    },
    {
      "code": "TKM",
      "display": "Turkmenistan"
    },
    {
      "code": "TLS",
      "display": "Osttimor (Timor-L'este)"
    },
    {
      "code": "TMP",
      "display": "Osttimor (alt)",
      "property": [
        {
          "code": "hints",
          "valueString": "Nicht offiziell"
        }
      ]
    },
    {
      "code": "TON",
      "display": "Tonga"
    },
    {
      "code": "TTO",
      "display": "Trinidad und Tobago"
    },
    {
      "code": "TUN",
      "display": "Tunesien"
    },
    {
      "code": "TUR",
      "display": "T\u00fcrkei"
    },
    {
      "code": "TUV",
      "display": "Tuvalu"
    },
    {
      "code": "TWN",
      "display": "Republik China (Taiwan)"
    },
    {
      "code": "TZA",
      "display": "Tansania"
    },
    {
      "code": "UGA",
      "display": "Uganda"
    },
    {
      "code": "UKR",
      "display": "Ukraine"
    },
    {
      "code": "UMI",
      "display": "United States Minor Outlying Islands"
    },
    {
      "code": "URY",
      "display": "Uruguay"
    },
    {
      "code": "USA",
      "display": "Vereinigte Staaten von Amerika"
    },
    {
      "code": "UZB",
      "display": "Usbekistan"
    },
    {
      "code": "VAT",
      "display": "Vatikanstadt"
    },
    {
      "code": "VCT",
      "display": "St. Vincent und die Grenadinen"
    },
    {
      "code": "VEN",
      "display": "Venezuela"
    },
    {
      "code": "VGB",
      "display": "Britische Jungferninseln"
    },
    {
      "code": "VIR",
      "display": "Amerikanische Jungferninseln"
    },
    {
      "code": "VNM",
      "display": "Vietnam"
    },
    {
      "code": "VUT",
      "display": "Vanuatu"
    },
    {
      "code": "WLF",
      "display": "Wallis und Futuna"
    },
    {
      "code": "WSM",
      "display": "Samoa"
    },
    {
      "code": "XKS",
      "display": "Kosovo"
    },
    {
      "code": "XXA",
      "display": "Staatenlos",
      "property": [
        {
          "code": "hints",
          "valueString": "Part D  Codes for persons without a defined nationality. User-reserved code element"
        }
      ]
    },
    {
      "code": "XXB",
      "display": "Fl\u00fcchtling gem\u00e4\u00df Genfer Fl\u00fcchtlingskonvention (GFK) von 1951",
      "property": [
        {
          "code": "hints",
          "valueString": "Part D  Codes for persons without a defined nationality. User-reserved code element"
        }
      ]
    },
    {
      "code": "XXC",
      "display": "Anderer Fl\u00fcchtling",
      "property": [
        {
          "code": "hints",
          "valueString": "Part D  Codes for persons without a defined nationality. User-reserved code element"
        }
      ]
    },
    {
      "code": "XXX",
      "display": "Unbekannt",
      "definition": "Nationalt\u00e4t unbestimmt, unabh\u00e4ngig von der tats\u00e4chlichen Staatszugeh\u00f6rigkeit. Kann Personen mit Staatenzugeh\u00f6rigkeit inkludieren, die sich legal im Land aufenthalten, deren Staatenzugeh\u00f6rigkeit derzeit aber unbekannt ist",
      "property": [
        {
          "code": "hints",
          "valueString": "Part D  Codes for persons without a defined nationality. User-reserved code element"
        }
      ]
    },
    {
      "code": "YEM",
      "display": "Jemen"
    },
    {
      "code": "YUG",
      "display": "Jugoslawien (ehemalig)"
    },
    {
      "code": "ZAF",
      "display": "S\u00fcdafrika"
    },
    {
      "code": "ZAR",
      "display": "Zaire (jetzt Demokratische Republik Kongo)"
    },
    {
      "code": "ZMB",
      "display": "Sambia"
    },
    {
      "code": "ZWE",
      "display": "Simbabwe"
    }
  ]
}