'code';'codeSystem';'displayName';'parentCodeSystemName';'concept_Beschreibung';'meaning';'hints';'orderNumber';'level';'type';'relationships';'einheit print';'einheit codiert'
'a';'2.16.840.1.113883.6.8';'Year';'https://termgit.elga.gv.at/CodeSystem/ucum';'';'';'';'1';'0';'L';'';'';''
'd';'2.16.840.1.113883.6.8';'Day';'https://termgit.elga.gv.at/CodeSystem/ucum';'';'';'';'2';'0';'L';'';'';''
'h';'2.16.840.1.113883.6.8';'Hour';'https://termgit.elga.gv.at/CodeSystem/ucum';'';'';'';'3';'0';'L';'';'';''
'ks';'2.16.840.1.113883.6.8';'KiloSecond';'https://termgit.elga.gv.at/CodeSystem/ucum';'';'';'';'4';'0';'L';'';'';''
'min';'2.16.840.1.113883.6.8';'Minute';'https://termgit.elga.gv.at/CodeSystem/ucum';'';'';'';'5';'0';'L';'';'';''
'mo';'2.16.840.1.113883.6.8';'Month';'https://termgit.elga.gv.at/CodeSystem/ucum';'';'';'';'6';'0';'L';'';'';''
'ms';'2.16.840.1.113883.6.8';'MilliSecond';'https://termgit.elga.gv.at/CodeSystem/ucum';'';'';'';'7';'0';'L';'';'';''
'ns';'2.16.840.1.113883.6.8';'NanoSecond';'https://termgit.elga.gv.at/CodeSystem/ucum';'';'';'';'8';'0';'L';'';'';''
'ps';'2.16.840.1.113883.6.8';'PicoSecond';'https://termgit.elga.gv.at/CodeSystem/ucum';'';'';'';'9';'0';'L';'';'';''
's';'2.16.840.1.113883.6.8';'Second';'https://termgit.elga.gv.at/CodeSystem/ucum';'';'';'';'10';'0';'L';'';'';''
'us';'2.16.840.1.113883.6.8';'MicroSecond';'https://termgit.elga.gv.at/CodeSystem/ucum';'';'';'';'11';'0';'L';'';'';''
'wk';'2.16.840.1.113883.6.8';'Week';'https://termgit.elga.gv.at/CodeSystem/ucum';'';'';'';'12';'0';'L';'';'';''
