"resource";"id";"url";"version";"name";"title";"status";"profile";"description";"date";"count"
"ValueSet";"zeiteinheiten";"https://termgit.elga.gv.at/ValueSet/zeiteinheiten";"1.1.0+20240325";"zeiteinheiten";"Zeiteinheiten";"active";"http://hl7.at/fhir/HL7ATCoreProfiles/4.0.1/StructureDefinition/at-core-valueset";"Zeiteinheiten von UCUM";"2024-03-25";"12"

"system";"version";"code";"display";"extension"
"https://termgit.elga.gv.at/CodeSystem/ucum";"1.0.0+20230131";"a";"Year";"http://hl7.at/fhir/HL7ATCoreProfiles/4.0.1/StructureDefinition/at-core-ext-valueset-systemoid|urn:oid:2.16.840.1.113883.6.8|oid"
"https://termgit.elga.gv.at/CodeSystem/ucum";"1.0.0+20230131";"d";"Day";"http://hl7.at/fhir/HL7ATCoreProfiles/4.0.1/StructureDefinition/at-core-ext-valueset-systemoid|urn:oid:2.16.840.1.113883.6.8|oid"
"https://termgit.elga.gv.at/CodeSystem/ucum";"1.0.0+20230131";"h";"Hour";"http://hl7.at/fhir/HL7ATCoreProfiles/4.0.1/StructureDefinition/at-core-ext-valueset-systemoid|urn:oid:2.16.840.1.113883.6.8|oid"
"https://termgit.elga.gv.at/CodeSystem/ucum";"1.0.0+20230131";"ks";"KiloSecond";"http://hl7.at/fhir/HL7ATCoreProfiles/4.0.1/StructureDefinition/at-core-ext-valueset-systemoid|urn:oid:2.16.840.1.113883.6.8|oid"
"https://termgit.elga.gv.at/CodeSystem/ucum";"1.0.0+20230131";"min";"Minute";"http://hl7.at/fhir/HL7ATCoreProfiles/4.0.1/StructureDefinition/at-core-ext-valueset-systemoid|urn:oid:2.16.840.1.113883.6.8|oid"
"https://termgit.elga.gv.at/CodeSystem/ucum";"1.0.0+20230131";"mo";"Month";"http://hl7.at/fhir/HL7ATCoreProfiles/4.0.1/StructureDefinition/at-core-ext-valueset-systemoid|urn:oid:2.16.840.1.113883.6.8|oid"
"https://termgit.elga.gv.at/CodeSystem/ucum";"1.0.0+20230131";"ms";"MilliSecond";"http://hl7.at/fhir/HL7ATCoreProfiles/4.0.1/StructureDefinition/at-core-ext-valueset-systemoid|urn:oid:2.16.840.1.113883.6.8|oid"
"https://termgit.elga.gv.at/CodeSystem/ucum";"1.0.0+20230131";"ns";"NanoSecond";"http://hl7.at/fhir/HL7ATCoreProfiles/4.0.1/StructureDefinition/at-core-ext-valueset-systemoid|urn:oid:2.16.840.1.113883.6.8|oid"
"https://termgit.elga.gv.at/CodeSystem/ucum";"1.0.0+20230131";"ps";"PicoSecond";"http://hl7.at/fhir/HL7ATCoreProfiles/4.0.1/StructureDefinition/at-core-ext-valueset-systemoid|urn:oid:2.16.840.1.113883.6.8|oid"
"https://termgit.elga.gv.at/CodeSystem/ucum";"1.0.0+20230131";"s";"Second";"http://hl7.at/fhir/HL7ATCoreProfiles/4.0.1/StructureDefinition/at-core-ext-valueset-systemoid|urn:oid:2.16.840.1.113883.6.8|oid"
"https://termgit.elga.gv.at/CodeSystem/ucum";"1.0.0+20230131";"us";"MicroSecond";"http://hl7.at/fhir/HL7ATCoreProfiles/4.0.1/StructureDefinition/at-core-ext-valueset-systemoid|urn:oid:2.16.840.1.113883.6.8|oid"
"https://termgit.elga.gv.at/CodeSystem/ucum";"1.0.0+20230131";"wk";"Week";"http://hl7.at/fhir/HL7ATCoreProfiles/4.0.1/StructureDefinition/at-core-ext-valueset-systemoid|urn:oid:2.16.840.1.113883.6.8|oid"