"resource";"id";"url";"version";"name";"title";"status";"description";"content";"identifier";"date";"count"
"CodeSystem";"ems-verotoxin-1-subtyp";"https://termgit.elga.gv.at/CodeSystem/ems-verotoxin-1-subtyp";"1.0.0+20230131";"ems-verotoxin-1-subtyp";"EMS_Verotoxin_1_Subtyp";"active";"Verotoxin 1 Subtyp";"complete";"1.2.40.0.34.5.98";"2017-01-26";"4"

"code";"display"
"NOTEST";"nicht durchgeführt"
"VT1A";"VT1a"
"VT1C";"VT1c"
"VT1D";"VT1d"