{
  "resourceType": "ValueSet",
  "id": "elga-formatcodezusatz",
  "meta": {
    "profile": [
      "http://hl7.at/fhir/HL7ATCoreProfiles/4.0.1/StructureDefinition/at-core-valueset"
    ]
  },
  "url": "https://termgit.elga.gv.at/ValueSet/elga-formatcodezusatz",
  "identifier": [
    {
      "use": "official",
      "system": "urn:ietf:rfc:3986",
      "value": "urn:oid:1.2.40.0.34.10.60"
    }
  ],
  "version": "1.1.0+20240325",
  "name": "elga-formatcodezusatz",
  "title": "ELGA_FormatCodeZusatz",
  "status": "active",
  "date": "2024-03-25",
  "publisher": "see",
  "contact": [
    {
      "name": "https://www.elga.gv.at",
      "telecom": [
        {
          "system": "url",
          "value": "https://www.elga.gv.at"
        }
      ]
    }
  ],
  "description": "**Description:** Defintion of valid additions for the FormatCode by declaration in Context of XDS document metadata\n\n**Beschreibung:** Definition der g\u00fcltigen Zus\u00e4tze f\u00fcr den FormatCode bei Angabe im Rahmen der XDS Dokument Metadaten",
  "compose": {
    "include": [
      {
        "extension": [
          {
            "url": "http://hl7.at/fhir/HL7ATCoreProfiles/4.0.1/StructureDefinition/at-core-ext-valueset-systemoid",
            "valueOid": "urn:oid:1.2.40.0.34.5.41"
          }
        ],
        "system": "https://termgit.elga.gv.at/CodeSystem/elga-formatcodezusatz",
        "version": "1.0.1+20240129",
        "concept": [
          {
            "code": "CDAL1",
            "display": "CDAL1",
            "designation": [
              {
                "use": {
                  "system": "https://termgit.elga.gv.at/CodeSystem/austrian-designation-use",
                  "code": "concept_beschreibung",
                  "display": "concept_beschreibung"
                },
                "value": "Das Dokument enth\u00e4lt im CDA Body Bereich strukturierte Angaben gem\u00e4\u00df CDA Level 1 (structuredBody)"
              }
            ]
          },
          {
            "code": "GIF",
            "display": "GIF",
            "designation": [
              {
                "use": {
                  "system": "https://termgit.elga.gv.at/CodeSystem/austrian-designation-use",
                  "code": "concept_beschreibung",
                  "display": "concept_beschreibung"
                },
                "value": "Das Dokument enth\u00e4lt im CDA Body Bereich ein eingebettetes Bild im Graphics Interchange Format (GIF)."
              }
            ]
          },
          {
            "code": "JPG",
            "display": "JPG",
            "designation": [
              {
                "use": {
                  "system": "https://termgit.elga.gv.at/CodeSystem/austrian-designation-use",
                  "code": "concept_beschreibung",
                  "display": "concept_beschreibung"
                },
                "value": "Das Dokument enth\u00e4lt im CDA Body Bereich ein eingebettetes Bild gem\u00e4\u00df der Norm ISO/IEC 10918-1 bzw. CCITT Recommendation T.81 der Joint Photographic Experts Group (JPEG)."
              }
            ]
          },
          {
            "code": "PDF",
            "display": "PDF",
            "designation": [
              {
                "use": {
                  "system": "https://termgit.elga.gv.at/CodeSystem/austrian-designation-use",
                  "code": "concept_beschreibung",
                  "display": "concept_beschreibung"
                },
                "value": "Das Dokument enth\u00e4lt im CDA Body Bereich ein eingebettetes PDF/A-1a Dokument."
              }
            ]
          },
          {
            "code": "PNG",
            "display": "PNG",
            "designation": [
              {
                "use": {
                  "system": "https://termgit.elga.gv.at/CodeSystem/austrian-designation-use",
                  "code": "concept_beschreibung",
                  "display": "concept_beschreibung"
                },
                "value": "Das Dokument enth\u00e4lt im CDA Body Bereich ein eingebettetes Bild im Portable Network Graphics (PNG) Format."
              }
            ]
          },
          {
            "code": "TEXT",
            "display": "TEXT",
            "designation": [
              {
                "use": {
                  "system": "https://termgit.elga.gv.at/CodeSystem/austrian-designation-use",
                  "code": "concept_beschreibung",
                  "display": "concept_beschreibung"
                },
                "value": "Das Dokument enth\u00e4lt im CDA Body Bereich unstrukturierten Text gem\u00e4\u00df CDA Level 1 (nonXMLBody)"
              }
            ]
          }
        ]
      }
    ]
  },
  "expansion": {
    "timestamp": "2024-03-25T06:36:54+00:00",
    "contains": [
      {
        "extension": [
          {
            "url": "http://hl7.at/fhir/HL7ATCoreProfiles/4.0.1/StructureDefinition/at-core-ext-valueset-systemoid",
            "valueOid": "urn:oid:1.2.40.0.34.5.41"
          }
        ],
        "system": "https://termgit.elga.gv.at/CodeSystem/elga-formatcodezusatz",
        "version": "1.0.1+20240129",
        "code": "CDAL1",
        "display": "CDAL1",
        "designation": [
          {
            "use": {
              "system": "https://termgit.elga.gv.at/CodeSystem/austrian-designation-use",
              "code": "concept_beschreibung",
              "display": "concept_beschreibung"
            },
            "value": "Das Dokument enth\u00e4lt im CDA Body Bereich strukturierte Angaben gem\u00e4\u00df CDA Level 1 (structuredBody)"
          }
        ]
      },
      {
        "extension": [
          {
            "url": "http://hl7.at/fhir/HL7ATCoreProfiles/4.0.1/StructureDefinition/at-core-ext-valueset-systemoid",
            "valueOid": "urn:oid:1.2.40.0.34.5.41"
          }
        ],
        "system": "https://termgit.elga.gv.at/CodeSystem/elga-formatcodezusatz",
        "version": "1.0.1+20240129",
        "code": "GIF",
        "display": "GIF",
        "designation": [
          {
            "use": {
              "system": "https://termgit.elga.gv.at/CodeSystem/austrian-designation-use",
              "code": "concept_beschreibung",
              "display": "concept_beschreibung"
            },
            "value": "Das Dokument enth\u00e4lt im CDA Body Bereich ein eingebettetes Bild im Graphics Interchange Format (GIF)."
          }
        ]
      },
      {
        "extension": [
          {
            "url": "http://hl7.at/fhir/HL7ATCoreProfiles/4.0.1/StructureDefinition/at-core-ext-valueset-systemoid",
            "valueOid": "urn:oid:1.2.40.0.34.5.41"
          }
        ],
        "system": "https://termgit.elga.gv.at/CodeSystem/elga-formatcodezusatz",
        "version": "1.0.1+20240129",
        "code": "JPG",
        "display": "JPG",
        "designation": [
          {
            "use": {
              "system": "https://termgit.elga.gv.at/CodeSystem/austrian-designation-use",
              "code": "concept_beschreibung",
              "display": "concept_beschreibung"
            },
            "value": "Das Dokument enth\u00e4lt im CDA Body Bereich ein eingebettetes Bild gem\u00e4\u00df der Norm ISO/IEC 10918-1 bzw. CCITT Recommendation T.81 der Joint Photographic Experts Group (JPEG)."
          }
        ]
      },
      {
        "extension": [
          {
            "url": "http://hl7.at/fhir/HL7ATCoreProfiles/4.0.1/StructureDefinition/at-core-ext-valueset-systemoid",
            "valueOid": "urn:oid:1.2.40.0.34.5.41"
          }
        ],
        "system": "https://termgit.elga.gv.at/CodeSystem/elga-formatcodezusatz",
        "version": "1.0.1+20240129",
        "code": "PDF",
        "display": "PDF",
        "designation": [
          {
            "use": {
              "system": "https://termgit.elga.gv.at/CodeSystem/austrian-designation-use",
              "code": "concept_beschreibung",
              "display": "concept_beschreibung"
            },
            "value": "Das Dokument enth\u00e4lt im CDA Body Bereich ein eingebettetes PDF/A-1a Dokument."
          }
        ]
      },
      {
        "extension": [
          {
            "url": "http://hl7.at/fhir/HL7ATCoreProfiles/4.0.1/StructureDefinition/at-core-ext-valueset-systemoid",
            "valueOid": "urn:oid:1.2.40.0.34.5.41"
          }
        ],
        "system": "https://termgit.elga.gv.at/CodeSystem/elga-formatcodezusatz",
        "version": "1.0.1+20240129",
        "code": "PNG",
        "display": "PNG",
        "designation": [
          {
            "use": {
              "system": "https://termgit.elga.gv.at/CodeSystem/austrian-designation-use",
              "code": "concept_beschreibung",
              "display": "concept_beschreibung"
            },
            "value": "Das Dokument enth\u00e4lt im CDA Body Bereich ein eingebettetes Bild im Portable Network Graphics (PNG) Format."
          }
        ]
      },
      {
        "extension": [
          {
            "url": "http://hl7.at/fhir/HL7ATCoreProfiles/4.0.1/StructureDefinition/at-core-ext-valueset-systemoid",
            "valueOid": "urn:oid:1.2.40.0.34.5.41"
          }
        ],
        "system": "https://termgit.elga.gv.at/CodeSystem/elga-formatcodezusatz",
        "version": "1.0.1+20240129",
        "code": "TEXT",
        "display": "TEXT",
        "designation": [
          {
            "use": {
              "system": "https://termgit.elga.gv.at/CodeSystem/austrian-designation-use",
              "code": "concept_beschreibung",
              "display": "concept_beschreibung"
            },
            "value": "Das Dokument enth\u00e4lt im CDA Body Bereich unstrukturierten Text gem\u00e4\u00df CDA Level 1 (nonXMLBody)"
          }
        ]
      }
    ]
  }
}