'code';'codeSystem';'displayName';'parentCode';'concept_Beschreibung';'meaning';'hints';'level';'type';'relationships'
'607';'1.2.40.0.34.5.158';'ELGA-Widerspruchstelle';'';'';'';'';'0';'L';''
'608';'1.2.40.0.34.5.158';'ELGA-Regelwerkadministration';'';'';'';'';'0';'L';''
'609';'1.2.40.0.34.5.158';'ELGA-Sicherheitsadministration';'';'';'';'';'0';'L';''
'610';'1.2.40.0.34.5.158';'ELGA-Teilnehmerin/Teilnehmer';'';'Bürgerin/Bürger';'';'';'0';'L';''
'611';'1.2.40.0.34.5.158';'ELGA-Vollmachtnehmende Person';'';'Vertretende Person einer ELGA-Teilnehmerin/ Teilnehmer (natürliche Person)';'';'';'0';'L';''
