'code';'codeSystem';'displayName';'parentCodeSystemName';'concept_Beschreibung';'meaning';'hints';'orderNumber';'level';'type';'relationships';'einheit print';'einheit codiert';'codeSystemVersion'
'ERGINFO';'1.2.40.0.34.5.103';'Ergänzende Informationen zur Abgabe';'https://termgit.elga.gv.at/CodeSystem/elga-actcode';;;;'1';'0';'L';;;;'1.0.0+20230131'
'MAGZUB';'1.2.40.0.34.5.103';'Ergänzende Informationen zur magistralen Zubereitung';'https://termgit.elga.gv.at/CodeSystem/elga-actcode';;;;'2';'0';'L';;;;'1.0.0+20230131'
