{
  "resourceType": "ValueSet",
  "id": "eimpf-impfdosis",
  "meta": {
    "profile": [
      "http://hl7.at/fhir/HL7ATCoreProfiles/4.0.1/StructureDefinition/at-core-valueset"
    ]
  },
  "url": "https://termgit.elga.gv.at/ValueSet/eimpf-impfdosis",
  "identifier": [
    {
      "use": "official",
      "system": "urn:ietf:rfc:3986",
      "value": "urn:oid:1.2.40.0.34.6.0.10.6"
    }
  ],
  "version": "1.2.0+20240411",
  "name": "eimpf-impfdosis",
  "title": "eImpf_Impfdosis",
  "status": "active",
  "date": "2024-04-11",
  "description": "**Description:** Vaccine doses or partial vaccinations for immunisation, basic immunisation and boosters\n\n**Beschreibung:** Impfdosen bzw. Teilimpfungen zur Immunisierung, Grundimmunisierung und Auffrischung",
  "compose": {
    "include": [
      {
        "extension": [
          {
            "url": "http://hl7.at/fhir/HL7ATCoreProfiles/4.0.1/StructureDefinition/at-core-ext-valueset-systemoid",
            "valueOid": "urn:oid:1.2.40.0.34.5.183"
          }
        ],
        "system": "https://termgit.elga.gv.at/CodeSystem/eimpf-ergaenzung",
        "version": "2.15.0+20240314",
        "concept": [
          {
            "code": "D1",
            "display": "Dosis 1",
            "designation": [
              {
                "use": {
                  "system": "https://termgit.elga.gv.at/CodeSystem/austrian-designation-use",
                  "code": "hinweise",
                  "display": "hinweise"
                },
                "value": "Erste Impfdosis"
              }
            ]
          },
          {
            "code": "D2",
            "display": "Dosis 2",
            "designation": [
              {
                "use": {
                  "system": "https://termgit.elga.gv.at/CodeSystem/austrian-designation-use",
                  "code": "hinweise",
                  "display": "hinweise"
                },
                "value": "Zweite Impfdosis"
              }
            ]
          },
          {
            "code": "D3",
            "display": "Dosis 3",
            "designation": [
              {
                "use": {
                  "system": "https://termgit.elga.gv.at/CodeSystem/austrian-designation-use",
                  "code": "hinweise",
                  "display": "hinweise"
                },
                "value": "Dritte Impfdosis"
              }
            ]
          },
          {
            "code": "D4",
            "display": "Dosis 4",
            "designation": [
              {
                "use": {
                  "system": "https://termgit.elga.gv.at/CodeSystem/austrian-designation-use",
                  "code": "hinweise",
                  "display": "hinweise"
                },
                "value": "Vierte Impfdosis"
              }
            ]
          },
          {
            "code": "D5",
            "display": "Dosis 5",
            "designation": [
              {
                "use": {
                  "system": "https://termgit.elga.gv.at/CodeSystem/austrian-designation-use",
                  "code": "hinweise",
                  "display": "hinweise"
                },
                "value": "F\u00fcnfte Impfdosis"
              }
            ]
          },
          {
            "code": "D6",
            "display": "Dosis 6",
            "designation": [
              {
                "use": {
                  "system": "https://termgit.elga.gv.at/CodeSystem/austrian-designation-use",
                  "code": "hinweise",
                  "display": "hinweise"
                },
                "value": "Sechste Impfdosis"
              }
            ]
          },
          {
            "code": "D7",
            "display": "Dosis 7",
            "designation": [
              {
                "use": {
                  "system": "https://termgit.elga.gv.at/CodeSystem/austrian-designation-use",
                  "code": "hinweise",
                  "display": "hinweise"
                },
                "value": "Siebte Impfdosis"
              }
            ]
          },
          {
            "code": "D8",
            "display": "Dosis 8",
            "designation": [
              {
                "use": {
                  "system": "https://termgit.elga.gv.at/CodeSystem/austrian-designation-use",
                  "code": "hinweise",
                  "display": "hinweise"
                },
                "value": "Achte Impfdosis"
              }
            ]
          },
          {
            "code": "D9",
            "display": "Dosis 9",
            "designation": [
              {
                "use": {
                  "system": "https://termgit.elga.gv.at/CodeSystem/austrian-designation-use",
                  "code": "hinweise",
                  "display": "hinweise"
                },
                "value": "Neunte Impfdosis"
              }
            ]
          },
          {
            "code": "B",
            "display": "Auffrischung",
            "designation": [
              {
                "language": "de-AT",
                "value": "Auffrischungsimpfung"
              },
              {
                "use": {
                  "system": "https://termgit.elga.gv.at/CodeSystem/austrian-designation-use",
                  "code": "hinweise",
                  "display": "hinweise"
                },
                "value": "Auffrischungsimpfung"
              }
            ]
          },
          {
            "code": "B.I",
            "display": "Auffrischungsserie Teil 1",
            "designation": [
              {
                "language": "de-AT",
                "value": "Auffrischungsimpfung 1"
              },
              {
                "use": {
                  "system": "https://termgit.elga.gv.at/CodeSystem/austrian-designation-use",
                  "code": "hinweise",
                  "display": "hinweise"
                },
                "value": "Teil 1 einer sich wiederholenden Auffrischungsserie"
              }
            ]
          },
          {
            "code": "B.II",
            "display": "Auffrischungsserie Teil 2",
            "designation": [
              {
                "language": "de-AT",
                "value": "Auffrischungsimpfung 2"
              },
              {
                "use": {
                  "system": "https://termgit.elga.gv.at/CodeSystem/austrian-designation-use",
                  "code": "hinweise",
                  "display": "hinweise"
                },
                "value": "Teil 2 einer sich wiederholenden Auffrischungsserie"
              }
            ]
          }
        ]
      }
    ]
  },
  "expansion": {
    "timestamp": "2024-04-11T11:50:57+00:00",
    "contains": [
      {
        "extension": [
          {
            "url": "http://hl7.at/fhir/HL7ATCoreProfiles/4.0.1/StructureDefinition/at-core-ext-valueset-systemoid",
            "valueOid": "urn:oid:1.2.40.0.34.5.183"
          }
        ],
        "system": "https://termgit.elga.gv.at/CodeSystem/eimpf-ergaenzung",
        "version": "2.15.0+20240314",
        "code": "D1",
        "display": "Dosis 1",
        "designation": [
          {
            "use": {
              "system": "https://termgit.elga.gv.at/CodeSystem/austrian-designation-use",
              "code": "hinweise",
              "display": "hinweise"
            },
            "value": "Erste Impfdosis"
          }
        ]
      },
      {
        "extension": [
          {
            "url": "http://hl7.at/fhir/HL7ATCoreProfiles/4.0.1/StructureDefinition/at-core-ext-valueset-systemoid",
            "valueOid": "urn:oid:1.2.40.0.34.5.183"
          }
        ],
        "system": "https://termgit.elga.gv.at/CodeSystem/eimpf-ergaenzung",
        "version": "2.15.0+20240314",
        "code": "D2",
        "display": "Dosis 2",
        "designation": [
          {
            "use": {
              "system": "https://termgit.elga.gv.at/CodeSystem/austrian-designation-use",
              "code": "hinweise",
              "display": "hinweise"
            },
            "value": "Zweite Impfdosis"
          }
        ]
      },
      {
        "extension": [
          {
            "url": "http://hl7.at/fhir/HL7ATCoreProfiles/4.0.1/StructureDefinition/at-core-ext-valueset-systemoid",
            "valueOid": "urn:oid:1.2.40.0.34.5.183"
          }
        ],
        "system": "https://termgit.elga.gv.at/CodeSystem/eimpf-ergaenzung",
        "version": "2.15.0+20240314",
        "code": "D3",
        "display": "Dosis 3",
        "designation": [
          {
            "use": {
              "system": "https://termgit.elga.gv.at/CodeSystem/austrian-designation-use",
              "code": "hinweise",
              "display": "hinweise"
            },
            "value": "Dritte Impfdosis"
          }
        ]
      },
      {
        "extension": [
          {
            "url": "http://hl7.at/fhir/HL7ATCoreProfiles/4.0.1/StructureDefinition/at-core-ext-valueset-systemoid",
            "valueOid": "urn:oid:1.2.40.0.34.5.183"
          }
        ],
        "system": "https://termgit.elga.gv.at/CodeSystem/eimpf-ergaenzung",
        "version": "2.15.0+20240314",
        "code": "D4",
        "display": "Dosis 4",
        "designation": [
          {
            "use": {
              "system": "https://termgit.elga.gv.at/CodeSystem/austrian-designation-use",
              "code": "hinweise",
              "display": "hinweise"
            },
            "value": "Vierte Impfdosis"
          }
        ]
      },
      {
        "extension": [
          {
            "url": "http://hl7.at/fhir/HL7ATCoreProfiles/4.0.1/StructureDefinition/at-core-ext-valueset-systemoid",
            "valueOid": "urn:oid:1.2.40.0.34.5.183"
          }
        ],
        "system": "https://termgit.elga.gv.at/CodeSystem/eimpf-ergaenzung",
        "version": "2.15.0+20240314",
        "code": "D5",
        "display": "Dosis 5",
        "designation": [
          {
            "use": {
              "system": "https://termgit.elga.gv.at/CodeSystem/austrian-designation-use",
              "code": "hinweise",
              "display": "hinweise"
            },
            "value": "F\u00fcnfte Impfdosis"
          }
        ]
      },
      {
        "extension": [
          {
            "url": "http://hl7.at/fhir/HL7ATCoreProfiles/4.0.1/StructureDefinition/at-core-ext-valueset-systemoid",
            "valueOid": "urn:oid:1.2.40.0.34.5.183"
          }
        ],
        "system": "https://termgit.elga.gv.at/CodeSystem/eimpf-ergaenzung",
        "version": "2.15.0+20240314",
        "code": "D6",
        "display": "Dosis 6",
        "designation": [
          {
            "use": {
              "system": "https://termgit.elga.gv.at/CodeSystem/austrian-designation-use",
              "code": "hinweise",
              "display": "hinweise"
            },
            "value": "Sechste Impfdosis"
          }
        ]
      },
      {
        "extension": [
          {
            "url": "http://hl7.at/fhir/HL7ATCoreProfiles/4.0.1/StructureDefinition/at-core-ext-valueset-systemoid",
            "valueOid": "urn:oid:1.2.40.0.34.5.183"
          }
        ],
        "system": "https://termgit.elga.gv.at/CodeSystem/eimpf-ergaenzung",
        "version": "2.15.0+20240314",
        "code": "D7",
        "display": "Dosis 7",
        "designation": [
          {
            "use": {
              "system": "https://termgit.elga.gv.at/CodeSystem/austrian-designation-use",
              "code": "hinweise",
              "display": "hinweise"
            },
            "value": "Siebte Impfdosis"
          }
        ]
      },
      {
        "extension": [
          {
            "url": "http://hl7.at/fhir/HL7ATCoreProfiles/4.0.1/StructureDefinition/at-core-ext-valueset-systemoid",
            "valueOid": "urn:oid:1.2.40.0.34.5.183"
          }
        ],
        "system": "https://termgit.elga.gv.at/CodeSystem/eimpf-ergaenzung",
        "version": "2.15.0+20240314",
        "code": "D8",
        "display": "Dosis 8",
        "designation": [
          {
            "use": {
              "system": "https://termgit.elga.gv.at/CodeSystem/austrian-designation-use",
              "code": "hinweise",
              "display": "hinweise"
            },
            "value": "Achte Impfdosis"
          }
        ]
      },
      {
        "extension": [
          {
            "url": "http://hl7.at/fhir/HL7ATCoreProfiles/4.0.1/StructureDefinition/at-core-ext-valueset-systemoid",
            "valueOid": "urn:oid:1.2.40.0.34.5.183"
          }
        ],
        "system": "https://termgit.elga.gv.at/CodeSystem/eimpf-ergaenzung",
        "version": "2.15.0+20240314",
        "code": "D9",
        "display": "Dosis 9",
        "designation": [
          {
            "use": {
              "system": "https://termgit.elga.gv.at/CodeSystem/austrian-designation-use",
              "code": "hinweise",
              "display": "hinweise"
            },
            "value": "Neunte Impfdosis"
          }
        ]
      },
      {
        "extension": [
          {
            "url": "http://hl7.at/fhir/HL7ATCoreProfiles/4.0.1/StructureDefinition/at-core-ext-valueset-systemoid",
            "valueOid": "urn:oid:1.2.40.0.34.5.183"
          }
        ],
        "system": "https://termgit.elga.gv.at/CodeSystem/eimpf-ergaenzung",
        "version": "2.15.0+20240314",
        "code": "B",
        "display": "Auffrischung",
        "designation": [
          {
            "language": "de-AT",
            "value": "Auffrischungsimpfung"
          },
          {
            "use": {
              "system": "https://termgit.elga.gv.at/CodeSystem/austrian-designation-use",
              "code": "hinweise",
              "display": "hinweise"
            },
            "value": "Auffrischungsimpfung"
          }
        ]
      },
      {
        "extension": [
          {
            "url": "http://hl7.at/fhir/HL7ATCoreProfiles/4.0.1/StructureDefinition/at-core-ext-valueset-systemoid",
            "valueOid": "urn:oid:1.2.40.0.34.5.183"
          }
        ],
        "system": "https://termgit.elga.gv.at/CodeSystem/eimpf-ergaenzung",
        "version": "2.15.0+20240314",
        "code": "B.I",
        "display": "Auffrischungsserie Teil 1",
        "designation": [
          {
            "language": "de-AT",
            "value": "Auffrischungsimpfung 1"
          },
          {
            "use": {
              "system": "https://termgit.elga.gv.at/CodeSystem/austrian-designation-use",
              "code": "hinweise",
              "display": "hinweise"
            },
            "value": "Teil 1 einer sich wiederholenden Auffrischungsserie"
          }
        ]
      },
      {
        "extension": [
          {
            "url": "http://hl7.at/fhir/HL7ATCoreProfiles/4.0.1/StructureDefinition/at-core-ext-valueset-systemoid",
            "valueOid": "urn:oid:1.2.40.0.34.5.183"
          }
        ],
        "system": "https://termgit.elga.gv.at/CodeSystem/eimpf-ergaenzung",
        "version": "2.15.0+20240314",
        "code": "B.II",
        "display": "Auffrischungsserie Teil 2",
        "designation": [
          {
            "language": "de-AT",
            "value": "Auffrischungsimpfung 2"
          },
          {
            "use": {
              "system": "https://termgit.elga.gv.at/CodeSystem/austrian-designation-use",
              "code": "hinweise",
              "display": "hinweise"
            },
            "value": "Teil 2 einer sich wiederholenden Auffrischungsserie"
          }
        ]
      }
    ]
  }
}