"resource";"id";"url";"version";"name";"title";"status";"description";"content";"identifier";"date";"count"
"CodeSystem";"ems-genotyp";"https://termgit.elga.gv.at/CodeSystem/ems-genotyp";"1.0.0+20230131";"ems-genotyp";"EMS_Genotyp";"active";"EMS Liste Genotyp";"complete";"1.2.40.0.34.5.71";"2017-01-26";"87"

"code";"display"
"1";"Genotyp 1"
"1A";"1A"
"1B";"1B"
"1C";"1C"
"1D";"1D"
"1E";"1E"
"1F";"1F"
"2";"Genotyp 2"
"2A";"2A"
"2B";"2B"
"3";"Genotyp 3"
"4";"Genotyp 4"
"5";"Genotyp 5"
"6";"Genotyp 6"
"A";"A"
"B";"B"
"B1";"B1"
"B2";"B2"
"B3";"B3"
"C";"C"
"C1";"C1"
"C2";"C2"
"D";"D"
"D1";"D1"
"D10";"D10"
"D11";"D11"
"D2";"D2"
"D3";"D3"
"D4";"D4"
"D5";"D5"
"D6";"D6"
"D7";"D7"
"D8";"D8"
"D9";"D9"
"E";"E"
"F";"F"
"G";"G"
"G1";"G1"
"G2";"G2"
"G3";"G3"
"GIII_1";"GIII/1"
"GIII_2";"GIII/2"
"GII_1";"GII/1"
"GII_10";"GII/10"
"GII_11";"GII/11"
"GII_12";"GII/12"
"GII_13";"GII/13"
"GII_14";"GII/14"
"GII_15";"GII/15"
"GII_16";"GII/16"
"GII_17";"GII/17"
"GII_18";"GII/18"
"GII_19";"GII/19"
"GII_2";"GII/2"
"GII_20";"GII/20"
"GII_21";"GII/21"
"GII_22";"GII/22"
"GII_23";"GII/23"
"GII_3";"GII/3"
"GII_4";"GII/4"
"GII_5";"GII/5"
"GII_6";"GII/6"
"GII_7";"GII/7"
"GII_8";"GII/8"
"GII_9";"GII/9"
"GIV_1";"GIV/1"
"GIV_2";"GIV/2"
"GI_1";"GI/1"
"GI_10";"GI/10"
"GI_11";"GI/11"
"GI_12";"GI/12"
"GI_13";"GI/13"
"GI_14";"GI/14"
"GI_15";"GI/15"
"GI_16";"GI/16"
"GI_2";"GI/2"
"GI_3";"GI/3"
"GI_4";"GI/4"
"GI_5";"GI/5"
"GI_6";"GI/6"
"GI_7";"GI/7"
"GI_8";"GI/8"
"GI_9";"GI/9"
"GV_1";"GV/1"
"H";"H"
"H1";"H1"
"H2";"H2"