'code';'codeSystem';'displayName';'parentCode';'concept_Beschreibung';'meaning';'hints';'level';'type';'relationships'
'12';'1.2.40.0.34.5.72';'12';;;;;'0';'L';
'12_1';'1.2.40.0.34.5.72';'12-1';;;;;'0';'L';
'12_10';'1.2.40.0.34.5.72';'12-10';;;;;'0';'L';
'12_11';'1.2.40.0.34.5.72';'12-11';;;;;'0';'L';
'12_12';'1.2.40.0.34.5.72';'12-12';;;;;'0';'L';
'12_13';'1.2.40.0.34.5.72';'12-13';;;;;'0';'L';
'12_14';'1.2.40.0.34.5.72';'12-14';;;;;'0';'L';
'12_15';'1.2.40.0.34.5.72';'12-15';;;;;'0';'L';
'12_16';'1.2.40.0.34.5.72';'12-16';;;;;'0';'L';
'12_17';'1.2.40.0.34.5.72';'12-17';;;;;'0';'L';
'12_18';'1.2.40.0.34.5.72';'12-18';;;;;'0';'L';
'12_2';'1.2.40.0.34.5.72';'12-2';;;;;'0';'L';
'12_3';'1.2.40.0.34.5.72';'12-3';;;;;'0';'L';
'12_4';'1.2.40.0.34.5.72';'12-4';;;;;'0';'L';
'12_5';'1.2.40.0.34.5.72';'12-5';;;;;'0';'L';
'12_6';'1.2.40.0.34.5.72';'12-6';;;;;'0';'L';
'12_7';'1.2.40.0.34.5.72';'12-7';;;;;'0';'L';
'12_8';'1.2.40.0.34.5.72';'12-8';;;;;'0';'L';
'12_9';'1.2.40.0.34.5.72';'12-9';;;;;'0';'L';
'17';'1.2.40.0.34.5.72';'17';;;;;'0';'L';
'17_1';'1.2.40.0.34.5.72';'17-1';;;;;'0';'L';
'17_2';'1.2.40.0.34.5.72';'17-2';;;;;'0';'L';
'17_3';'1.2.40.0.34.5.72';'17-3';;;;;'0';'L';
'18';'1.2.40.0.34.5.72';'18';;;;;'0';'L';
'18_1';'1.2.40.0.34.5.72';'18-1';;;;;'0';'L';
'18_10';'1.2.40.0.34.5.72';'18-10';;;;;'0';'L';
'18_11';'1.2.40.0.34.5.72';'18-11';;;;;'0';'L';
'18_12';'1.2.40.0.34.5.72';'18-12';;;;;'0';'L';
'18_13';'1.2.40.0.34.5.72';'18-13';;;;;'0';'L';
'18_14';'1.2.40.0.34.5.72';'18-14';;;;;'0';'L';
'18_15';'1.2.40.0.34.5.72';'18-15';;;;;'0';'L';
'18_16';'1.2.40.0.34.5.72';'18-16';;;;;'0';'L';
'18_17';'1.2.40.0.34.5.72';'18-17';;;;;'0';'L';
'18_18';'1.2.40.0.34.5.72';'18-18';;;;;'0';'L';
'18_19';'1.2.40.0.34.5.72';'18-19';;;;;'0';'L';
'18_2';'1.2.40.0.34.5.72';'18-2';;;;;'0';'L';
'18_20';'1.2.40.0.34.5.72';'18-20';;;;;'0';'L';
'18_3';'1.2.40.0.34.5.72';'18-3';;;;;'0';'L';
'18_4';'1.2.40.0.34.5.72';'18-4';;;;;'0';'L';
'18_5';'1.2.40.0.34.5.72';'18-5';;;;;'0';'L';
'18_6';'1.2.40.0.34.5.72';'18-6';;;;;'0';'L';
'18_7';'1.2.40.0.34.5.72';'18-7';;;;;'0';'L';
'18_8';'1.2.40.0.34.5.72';'18-8';;;;;'0';'L';
'18_9';'1.2.40.0.34.5.72';'18-9';;;;;'0';'L';
'19';'1.2.40.0.34.5.72';'19';;;;;'0';'L';
'19_1';'1.2.40.0.34.5.72';'19-1';;;;;'0';'L';
'19_10';'1.2.40.0.34.5.72';'19-10';;;;;'0';'L';
'19_11';'1.2.40.0.34.5.72';'19-11';;;;;'0';'L';
'19_12';'1.2.40.0.34.5.72';'19-12';;;;;'0';'L';
'19_13';'1.2.40.0.34.5.72';'19-13';;;;;'0';'L';
'19_14';'1.2.40.0.34.5.72';'19-14';;;;;'0';'L';
'19_15';'1.2.40.0.34.5.72';'19-15';;;;;'0';'L';
'19_16';'1.2.40.0.34.5.72';'19-16';;;;;'0';'L';
'19_17';'1.2.40.0.34.5.72';'19-17';;;;;'0';'L';
'19_18';'1.2.40.0.34.5.72';'19-18';;;;;'0';'L';
'19_19';'1.2.40.0.34.5.72';'19-19';;;;;'0';'L';
'19_2';'1.2.40.0.34.5.72';'19-2';;;;;'0';'L';
'19_20';'1.2.40.0.34.5.72';'19-20';;;;;'0';'L';
'19_21';'1.2.40.0.34.5.72';'19-21';;;;;'0';'L';
'19_22';'1.2.40.0.34.5.72';'19-22';;;;;'0';'L';
'19_23';'1.2.40.0.34.5.72';'19-23';;;;;'0';'L';
'19_24';'1.2.40.0.34.5.72';'19-24';;;;;'0';'L';
'19_25';'1.2.40.0.34.5.72';'19-25';;;;;'0';'L';
'19_26';'1.2.40.0.34.5.72';'19-26';;;;;'0';'L';
'19_27';'1.2.40.0.34.5.72';'19-27';;;;;'0';'L';
'19_28';'1.2.40.0.34.5.72';'19-28';;;;;'0';'L';
'19_29';'1.2.40.0.34.5.72';'19-29';;;;;'0';'L';
'19_3';'1.2.40.0.34.5.72';'19-3';;;;;'0';'L';
'19_4';'1.2.40.0.34.5.72';'19-4';;;;;'0';'L';
'19_5';'1.2.40.0.34.5.72';'19-5';;;;;'0';'L';
'19_6';'1.2.40.0.34.5.72';'19-6';;;;;'0';'L';
'19_7';'1.2.40.0.34.5.72';'19-7';;;;;'0';'L';
'19_8';'1.2.40.0.34.5.72';'19-8';;;;;'0';'L';
'19_9';'1.2.40.0.34.5.72';'19-9';;;;;'0';'L';
'20';'1.2.40.0.34.5.72';'20';;;;;'0';'L';
'20_1';'1.2.40.0.34.5.72';'20-1';;;;;'0';'L';
'20_2';'1.2.40.0.34.5.72';'20-2';;;;;'0';'L';
'20_3';'1.2.40.0.34.5.72';'20-3';;;;;'0';'L';
'20_4';'1.2.40.0.34.5.72';'20-4';;;;;'0';'L';
'21';'1.2.40.0.34.5.72';'21';;;;;'0';'L';
'21_1';'1.2.40.0.34.5.72';'21-1';;;;;'0';'L';
'21_10';'1.2.40.0.34.5.72';'21-10';;;;;'0';'L';
'21_11';'1.2.40.0.34.5.72';'21-11';;;;;'0';'L';
'21_12';'1.2.40.0.34.5.72';'21-12';;;;;'0';'L';
'21_13';'1.2.40.0.34.5.72';'21-13';;;;;'0';'L';
'21_2';'1.2.40.0.34.5.72';'21-2';;;;;'0';'L';
'21_3';'1.2.40.0.34.5.72';'21-3';;;;;'0';'L';
'21_4';'1.2.40.0.34.5.72';'21-4';;;;;'0';'L';
'21_5';'1.2.40.0.34.5.72';'21-5';;;;;'0';'L';
'21_6';'1.2.40.0.34.5.72';'21-6';;;;;'0';'L';
'21_7';'1.2.40.0.34.5.72';'21-7';;;;;'0';'L';
'21_8';'1.2.40.0.34.5.72';'21-8';;;;;'0';'L';
'21_9';'1.2.40.0.34.5.72';'21-9';;;;;'0';'L';
'22';'1.2.40.0.34.5.72';'22';;;;;'0';'L';
'22_1';'1.2.40.0.34.5.72';'22-1';;;;;'0';'L';
'22_10';'1.2.40.0.34.5.72';'22-10';;;;;'0';'L';
'22_11';'1.2.40.0.34.5.72';'22-11';;;;;'0';'L';
'22_12';'1.2.40.0.34.5.72';'22-12';;;;;'0';'L';
'22_13';'1.2.40.0.34.5.72';'22-13';;;;;'0';'L';
'22_14';'1.2.40.0.34.5.72';'22-14';;;;;'0';'L';
'22_15';'1.2.40.0.34.5.72';'22-15';;;;;'0';'L';
'22_16';'1.2.40.0.34.5.72';'22-16';;;;;'0';'L';
'22_17';'1.2.40.0.34.5.72';'22-17';;;;;'0';'L';
'22_18';'1.2.40.0.34.5.72';'22-18';;;;;'0';'L';
'22_19';'1.2.40.0.34.5.72';'22-19';;;;;'0';'L';
'22_2';'1.2.40.0.34.5.72';'22-2';;;;;'0';'L';
'22_3';'1.2.40.0.34.5.72';'22-3';;;;;'0';'L';
'22_4';'1.2.40.0.34.5.72';'22-4';;;;;'0';'L';
'22_5';'1.2.40.0.34.5.72';'22-5';;;;;'0';'L';
'22_6';'1.2.40.0.34.5.72';'22-6';;;;;'0';'L';
'22_7';'1.2.40.0.34.5.72';'22-7';;;;;'0';'L';
'22_8';'1.2.40.0.34.5.72';'22-8';;;;;'0';'L';
'22_9';'1.2.40.0.34.5.72';'22-9';;;;;'0';'L';
'31';'1.2.40.0.34.5.72';'31';;;;;'0';'L';
'5';'1.2.40.0.34.5.72';'5';;;;;'0';'L';
'5_1';'1.2.40.0.34.5.72';'5-1';;;;;'0';'L';
'5_10';'1.2.40.0.34.5.72';'5-10';;;;;'0';'L';
'5_11';'1.2.40.0.34.5.72';'5-11';;;;;'0';'L';
'5_12';'1.2.40.0.34.5.72';'5-12';;;;;'0';'L';
'5_13';'1.2.40.0.34.5.72';'5-13';;;;;'0';'L';
'5_14';'1.2.40.0.34.5.72';'5-14';;;;;'0';'L';
'5_15';'1.2.40.0.34.5.72';'5-15';;;;;'0';'L';
'5_16';'1.2.40.0.34.5.72';'5-16';;;;;'0';'L';
'5_17';'1.2.40.0.34.5.72';'5-17';;;;;'0';'L';
'5_18';'1.2.40.0.34.5.72';'5-18';;;;;'0';'L';
'5_19';'1.2.40.0.34.5.72';'5-19';;;;;'0';'L';
'5_2';'1.2.40.0.34.5.72';'5-2';;;;;'0';'L';
'5_20';'1.2.40.0.34.5.72';'5-20';;;;;'0';'L';
'5_3';'1.2.40.0.34.5.72';'5-3';;;;;'0';'L';
'5_4';'1.2.40.0.34.5.72';'5-4';;;;;'0';'L';
'5_5';'1.2.40.0.34.5.72';'5-5';;;;;'0';'L';
'5_6';'1.2.40.0.34.5.72';'5-6';;;;;'0';'L';
'5_7';'1.2.40.0.34.5.72';'5-7';;;;;'0';'L';
'5_8';'1.2.40.0.34.5.72';'5-8';;;;;'0';'L';
'5_9';'1.2.40.0.34.5.72';'5-9';;;;;'0';'L';
'7';'1.2.40.0.34.5.72';'7';;;;;'0';'L';
'7_1';'1.2.40.0.34.5.72';'7-1';;;;;'0';'L';
'7_10';'1.2.40.0.34.5.72';'7-10';;;;;'0';'L';
'7_11';'1.2.40.0.34.5.72';'7-11';;;;;'0';'L';
'7_12';'1.2.40.0.34.5.72';'7-12';;;;;'0';'L';
'7_13';'1.2.40.0.34.5.72';'7-13';;;;;'0';'L';
'7_14';'1.2.40.0.34.5.72';'7-14';;;;;'0';'L';
'7_15';'1.2.40.0.34.5.72';'7-15';;;;;'0';'L';
'7_16';'1.2.40.0.34.5.72';'7-16';;;;;'0';'L';
'7_17';'1.2.40.0.34.5.72';'7-17';;;;;'0';'L';
'7_18';'1.2.40.0.34.5.72';'7-18';;;;;'0';'L';
'7_19';'1.2.40.0.34.5.72';'7-19';;;;;'0';'L';
'7_2';'1.2.40.0.34.5.72';'7-2';;;;;'0';'L';
'7_20';'1.2.40.0.34.5.72';'7-20';;;;;'0';'L';
'7_21';'1.2.40.0.34.5.72';'7-21';;;;;'0';'L';
'7_22';'1.2.40.0.34.5.72';'7-22';;;;;'0';'L';
'7_23';'1.2.40.0.34.5.72';'7-23';;;;;'0';'L';
'7_24';'1.2.40.0.34.5.72';'7-24';;;;;'0';'L';
'7_25';'1.2.40.0.34.5.72';'7-25';;;;;'0';'L';
'7_26';'1.2.40.0.34.5.72';'7-26';;;;;'0';'L';
'7_27';'1.2.40.0.34.5.72';'7-27';;;;;'0';'L';
'7_28';'1.2.40.0.34.5.72';'7-28';;;;;'0';'L';
'7_3';'1.2.40.0.34.5.72';'7-3';;;;;'0';'L';
'7_4';'1.2.40.0.34.5.72';'7-4';;;;;'0';'L';
'7_5';'1.2.40.0.34.5.72';'7-5';;;;;'0';'L';
'7_6';'1.2.40.0.34.5.72';'7-6';;;;;'0';'L';
'7_7';'1.2.40.0.34.5.72';'7-7';;;;;'0';'L';
'7_8';'1.2.40.0.34.5.72';'7-8';;;;;'0';'L';
'7_9';'1.2.40.0.34.5.72';'7-9';;;;;'0';'L';
'NOTEST';'1.2.40.0.34.5.72';'Nicht durchgeführt';;;;;'0';'L';
'NST';'1.2.40.0.34.5.72';'Not subtypeable';;;;;'0';'L';
