'code';'codeSystem';'displayName';'parentCodeSystemName';'concept_Beschreibung';'meaning';'hints';'orderNumber';'level';'type';'relationships';'einheit print';'einheit codiert';'codeSystemVersion'
'13070000';'0.4.0.127.0.16.1.1.2.1';'Valve';'https://termgit.elga.gv.at/CodeSystem/ehdsi-edqm-auszug';;;;'1';'0';'L';;;;'1.0.0+20230505'
'13132000';'0.4.0.127.0.16.1.1.2.1';'Lid';'https://termgit.elga.gv.at/CodeSystem/ehdsi-edqm-auszug';;;;'2';'0';'L';;;;'1.0.0+20230505'
'30011000';'0.4.0.127.0.16.1.1.2.1';'Brush applicator';'https://termgit.elga.gv.at/CodeSystem/ehdsi-edqm-auszug';;;;'3';'0';'L';;;;'1.0.0+20230505'
'30013000';'0.4.0.127.0.16.1.1.2.1';'Cap';'https://termgit.elga.gv.at/CodeSystem/ehdsi-edqm-auszug';;;;'4';'0';'L';;;;'1.0.0+20230505'
'30015000';'0.4.0.127.0.16.1.1.2.1';'Child-resistant closure';'https://termgit.elga.gv.at/CodeSystem/ehdsi-edqm-auszug';;;;'5';'0';'L';;;;'1.0.0+20230505'
'30035000';'0.4.0.127.0.16.1.1.2.1';'Metering pump';'https://termgit.elga.gv.at/CodeSystem/ehdsi-edqm-auszug';;;;'6';'0';'L';;;;'1.0.0+20230505'
'30036000';'0.4.0.127.0.16.1.1.2.1';'Metering valve';'https://termgit.elga.gv.at/CodeSystem/ehdsi-edqm-auszug';;;;'7';'0';'L';;;;'1.0.0+20230505'
'30043000';'0.4.0.127.0.16.1.1.2.1';'Needle applicator';'https://termgit.elga.gv.at/CodeSystem/ehdsi-edqm-auszug';;;;'8';'0';'L';;;;'1.0.0+20230505'
'30047000';'0.4.0.127.0.16.1.1.2.1';'Pipette applicator';'https://termgit.elga.gv.at/CodeSystem/ehdsi-edqm-auszug';;;;'9';'0';'L';;;;'1.0.0+20230505'
'30056000';'0.4.0.127.0.16.1.1.2.1';'Screw cap';'https://termgit.elga.gv.at/CodeSystem/ehdsi-edqm-auszug';;;;'10';'0';'L';;;;'1.0.0+20230505'
'30061000';'0.4.0.127.0.16.1.1.2.1';'Spray pump';'https://termgit.elga.gv.at/CodeSystem/ehdsi-edqm-auszug';;;;'11';'0';'L';;;;'1.0.0+20230505'
'30062000';'0.4.0.127.0.16.1.1.2.1';'Spray valve';'https://termgit.elga.gv.at/CodeSystem/ehdsi-edqm-auszug';;;;'12';'0';'L';;;;'1.0.0+20230505'
'30064000';'0.4.0.127.0.16.1.1.2.1';'Stopper';'https://termgit.elga.gv.at/CodeSystem/ehdsi-edqm-auszug';;;;'13';'0';'L';;;;'1.0.0+20230505'
'13059000';'0.4.0.127.0.16.1.1.2.1';'Unit-dose blister';'https://termgit.elga.gv.at/CodeSystem/ehdsi-edqm-auszug';;;;'14';'0';'L';;;;'1.0.0+20230505'
'13063000';'0.4.0.127.0.16.1.1.2.1';'Pre-filled injector';'https://termgit.elga.gv.at/CodeSystem/ehdsi-edqm-auszug';;;;'15';'0';'L';;;;'1.0.0+20230505'
'13073000';'0.4.0.127.0.16.1.1.2.1';'Pre-filled oral syringe';'https://termgit.elga.gv.at/CodeSystem/ehdsi-edqm-auszug';;;;'16';'0';'L';;;;'1.0.0+20230505'
'13074000';'0.4.0.127.0.16.1.1.2.1';'Pre-filled oral applicator';'https://termgit.elga.gv.at/CodeSystem/ehdsi-edqm-auszug';;;;'17';'0';'L';;;;'1.0.0+20230505'
'13125000';'0.4.0.127.0.16.1.1.2.1';'Wrapper';'https://termgit.elga.gv.at/CodeSystem/ehdsi-edqm-auszug';;;;'18';'0';'L';;;;'1.0.0+20230505'
'13142000';'0.4.0.127.0.16.1.1.2.1';'Pouch';'https://termgit.elga.gv.at/CodeSystem/ehdsi-edqm-auszug';;;;'19';'0';'L';;;;'1.0.0+20230505'
'13151000';'0.4.0.127.0.16.1.1.2.1';'Tablet tube';'https://termgit.elga.gv.at/CodeSystem/ehdsi-edqm-auszug';;;;'20';'0';'L';;;;'1.0.0+20230505'
'30001000';'0.4.0.127.0.16.1.1.2.1';'Ampoule';'https://termgit.elga.gv.at/CodeSystem/ehdsi-edqm-auszug';;;;'21';'0';'L';;;;'1.0.0+20230505'
'30004000';'0.4.0.127.0.16.1.1.2.1';'Bag';'https://termgit.elga.gv.at/CodeSystem/ehdsi-edqm-auszug';;;;'22';'0';'L';;;;'1.0.0+20230505'
'30006000';'0.4.0.127.0.16.1.1.2.1';'Barrel';'https://termgit.elga.gv.at/CodeSystem/ehdsi-edqm-auszug';;;;'23';'0';'L';;;;'1.0.0+20230505'
'30007000';'0.4.0.127.0.16.1.1.2.1';'Blister';'https://termgit.elga.gv.at/CodeSystem/ehdsi-edqm-auszug';;;;'24';'0';'L';;;;'1.0.0+20230505'
'30008000';'0.4.0.127.0.16.1.1.2.1';'Bottle';'https://termgit.elga.gv.at/CodeSystem/ehdsi-edqm-auszug';;;;'25';'0';'L';;;;'1.0.0+20230505'
'30009000';'0.4.0.127.0.16.1.1.2.1';'Box';'https://termgit.elga.gv.at/CodeSystem/ehdsi-edqm-auszug';;;;'26';'0';'L';;;;'1.0.0+20230505'
'30014000';'0.4.0.127.0.16.1.1.2.1';'Cartridge';'https://termgit.elga.gv.at/CodeSystem/ehdsi-edqm-auszug';;;;'27';'0';'L';;;;'1.0.0+20230505'
'30015500';'0.4.0.127.0.16.1.1.2.1';'Container';'https://termgit.elga.gv.at/CodeSystem/ehdsi-edqm-auszug';;;;'28';'0';'L';;;;'1.0.0+20230505'
'30018300';'0.4.0.127.0.16.1.1.2.1';'Dose-dispenser cartridge';'https://termgit.elga.gv.at/CodeSystem/ehdsi-edqm-auszug';;;;'29';'0';'L';;;;'1.0.0+20230505'
'30020000';'0.4.0.127.0.16.1.1.2.1';'Dredging container';'https://termgit.elga.gv.at/CodeSystem/ehdsi-edqm-auszug';;;;'30';'0';'L';;;;'1.0.0+20230505'
'30023000';'0.4.0.127.0.16.1.1.2.1';'Dropper container';'https://termgit.elga.gv.at/CodeSystem/ehdsi-edqm-auszug';;;;'31';'0';'L';;;;'1.0.0+20230505'
'30023005';'0.4.0.127.0.16.1.1.2.1';'Fixed cryogenic vessel';'https://termgit.elga.gv.at/CodeSystem/ehdsi-edqm-auszug';;;;'32';'0';'L';;;;'1.0.0+20230505'
'30024000';'0.4.0.127.0.16.1.1.2.1';'Gas cylinder';'https://termgit.elga.gv.at/CodeSystem/ehdsi-edqm-auszug';;;;'33';'0';'L';;;;'1.0.0+20230505'
'30032000';'0.4.0.127.0.16.1.1.2.1';'Jar';'https://termgit.elga.gv.at/CodeSystem/ehdsi-edqm-auszug';;;;'34';'0';'L';;;;'1.0.0+20230505'
'30036005';'0.4.0.127.0.16.1.1.2.1';'Mobile cryogenic vessel';'https://termgit.elga.gv.at/CodeSystem/ehdsi-edqm-auszug';;;;'35';'0';'L';;;;'1.0.0+20230505'
'30038000';'0.4.0.127.0.16.1.1.2.1';'Multidose container';'https://termgit.elga.gv.at/CodeSystem/ehdsi-edqm-auszug';;;;'36';'0';'L';;;;'1.0.0+20230505'
'30039000';'0.4.0.127.0.16.1.1.2.1';'Multidose container with airless pump';'https://termgit.elga.gv.at/CodeSystem/ehdsi-edqm-auszug';;;;'37';'0';'L';;;;'1.0.0+20230505'
'30039400';'0.4.0.127.0.16.1.1.2.1';'Multidose container with metering pump';'https://termgit.elga.gv.at/CodeSystem/ehdsi-edqm-auszug';;;;'38';'0';'L';;;;'1.0.0+20230505'
'30039500';'0.4.0.127.0.16.1.1.2.1';'Multidose container with pump';'https://termgit.elga.gv.at/CodeSystem/ehdsi-edqm-auszug';;;;'39';'0';'L';;;;'1.0.0+20230505'
'30049000';'0.4.0.127.0.16.1.1.2.1';'Pre-filled gastroenteral tube';'https://termgit.elga.gv.at/CodeSystem/ehdsi-edqm-auszug';;;;'40';'0';'L';;;;'1.0.0+20230505'
'30050000';'0.4.0.127.0.16.1.1.2.1';'Pre-filled pen';'https://termgit.elga.gv.at/CodeSystem/ehdsi-edqm-auszug';;;;'41';'0';'L';;;;'1.0.0+20230505'
'30051000';'0.4.0.127.0.16.1.1.2.1';'Pre-filled syringe';'https://termgit.elga.gv.at/CodeSystem/ehdsi-edqm-auszug';;;;'42';'0';'L';;;;'1.0.0+20230505'
'30052000';'0.4.0.127.0.16.1.1.2.1';'Pressurised container';'https://termgit.elga.gv.at/CodeSystem/ehdsi-edqm-auszug';;;;'43';'0';'L';;;;'1.0.0+20230505'
'30053500';'0.4.0.127.0.16.1.1.2.1';'Roll-on container';'https://termgit.elga.gv.at/CodeSystem/ehdsi-edqm-auszug';;;;'44';'0';'L';;;;'1.0.0+20230505'
'30054000';'0.4.0.127.0.16.1.1.2.1';'Sachet';'https://termgit.elga.gv.at/CodeSystem/ehdsi-edqm-auszug';;;;'45';'0';'L';;;;'1.0.0+20230505'
'30057000';'0.4.0.127.0.16.1.1.2.1';'Single-dose container';'https://termgit.elga.gv.at/CodeSystem/ehdsi-edqm-auszug';;;;'46';'0';'L';;;;'1.0.0+20230505'
'30060000';'0.4.0.127.0.16.1.1.2.1';'Spray container';'https://termgit.elga.gv.at/CodeSystem/ehdsi-edqm-auszug';;;;'47';'0';'L';;;;'1.0.0+20230505'
'30064500';'0.4.0.127.0.16.1.1.2.1';'Straw';'https://termgit.elga.gv.at/CodeSystem/ehdsi-edqm-auszug';;;;'48';'0';'L';;;;'1.0.0+20230505'
'30065000';'0.4.0.127.0.16.1.1.2.1';'Strip';'https://termgit.elga.gv.at/CodeSystem/ehdsi-edqm-auszug';;;;'49';'0';'L';;;;'1.0.0+20230505'
'30066000';'0.4.0.127.0.16.1.1.2.1';'Tablet container';'https://termgit.elga.gv.at/CodeSystem/ehdsi-edqm-auszug';;;;'50';'0';'L';;;;'1.0.0+20230505'
'30067000';'0.4.0.127.0.16.1.1.2.1';'Tube';'https://termgit.elga.gv.at/CodeSystem/ehdsi-edqm-auszug';;;;'51';'0';'L';;;;'1.0.0+20230505'
'30069000';'0.4.0.127.0.16.1.1.2.1';'Vial';'https://termgit.elga.gv.at/CodeSystem/ehdsi-edqm-auszug';;;;'52';'0';'L';;;;'1.0.0+20230505'
'13072000';'0.4.0.127.0.16.1.1.2.1';'Oral applicator';'https://termgit.elga.gv.at/CodeSystem/ehdsi-edqm-auszug';;;;'53';'0';'L';;;;'1.0.0+20230505'
'13114000';'0.4.0.127.0.16.1.1.2.1';'Pen';'https://termgit.elga.gv.at/CodeSystem/ehdsi-edqm-auszug';;;;'54';'0';'L';;;;'1.0.0+20230505'
'30000500';'0.4.0.127.0.16.1.1.2.1';'Administration system';'https://termgit.elga.gv.at/CodeSystem/ehdsi-edqm-auszug';;;;'55';'0';'L';;;;'1.0.0+20230505'
'30002000';'0.4.0.127.0.16.1.1.2.1';'Applicator';'https://termgit.elga.gv.at/CodeSystem/ehdsi-edqm-auszug';;;;'56';'0';'L';;;;'1.0.0+20230505'
'30010000';'0.4.0.127.0.16.1.1.2.1';'Brush';'https://termgit.elga.gv.at/CodeSystem/ehdsi-edqm-auszug';;;;'57';'0';'L';;;;'1.0.0+20230505'
'30012000';'0.4.0.127.0.16.1.1.2.1';'Cannula';'https://termgit.elga.gv.at/CodeSystem/ehdsi-edqm-auszug';;;;'58';'0';'L';;;;'1.0.0+20230505'
'30016000';'0.4.0.127.0.16.1.1.2.1';'Cup';'https://termgit.elga.gv.at/CodeSystem/ehdsi-edqm-auszug';;;;'59';'0';'L';;;;'1.0.0+20230505'
'30017000';'0.4.0.127.0.16.1.1.2.1';'Dabbing applicator';'https://termgit.elga.gv.at/CodeSystem/ehdsi-edqm-auszug';;;;'60';'0';'L';;;;'1.0.0+20230505'
'30018200';'0.4.0.127.0.16.1.1.2.1';'Dose dispenser';'https://termgit.elga.gv.at/CodeSystem/ehdsi-edqm-auszug';;;;'61';'0';'L';;;;'1.0.0+20230505'
'30019000';'0.4.0.127.0.16.1.1.2.1';'Dredging applicator';'https://termgit.elga.gv.at/CodeSystem/ehdsi-edqm-auszug';;;;'62';'0';'L';;;;'1.0.0+20230505'
'30022000';'0.4.0.127.0.16.1.1.2.1';'Dropper applicator';'https://termgit.elga.gv.at/CodeSystem/ehdsi-edqm-auszug';;;;'63';'0';'L';;;;'1.0.0+20230505'
'30026500';'0.4.0.127.0.16.1.1.2.1';'Inhaler';'https://termgit.elga.gv.at/CodeSystem/ehdsi-edqm-auszug';;;;'64';'0';'L';;;;'1.0.0+20230505'
'30028000';'0.4.0.127.0.16.1.1.2.1';'Injection needle';'https://termgit.elga.gv.at/CodeSystem/ehdsi-edqm-auszug';;;;'65';'0';'L';;;;'1.0.0+20230505'
'30029000';'0.4.0.127.0.16.1.1.2.1';'Injection syringe';'https://termgit.elga.gv.at/CodeSystem/ehdsi-edqm-auszug';;;;'66';'0';'L';;;;'1.0.0+20230505'
'30033000';'0.4.0.127.0.16.1.1.2.1';'Measuring device';'https://termgit.elga.gv.at/CodeSystem/ehdsi-edqm-auszug';;;;'67';'0';'L';;;;'1.0.0+20230505'
'30034000';'0.4.0.127.0.16.1.1.2.1';'Measuring spoon';'https://termgit.elga.gv.at/CodeSystem/ehdsi-edqm-auszug';;;;'68';'0';'L';;;;'1.0.0+20230505'
'30037000';'0.4.0.127.0.16.1.1.2.1';'Mouthpiece';'https://termgit.elga.gv.at/CodeSystem/ehdsi-edqm-auszug';;;;'69';'0';'L';;;;'1.0.0+20230505'
'30040000';'0.4.0.127.0.16.1.1.2.1';'Multipuncturer';'https://termgit.elga.gv.at/CodeSystem/ehdsi-edqm-auszug';;;;'70';'0';'L';;;;'1.0.0+20230505'
'30041000';'0.4.0.127.0.16.1.1.2.1';'Nasal applicator';'https://termgit.elga.gv.at/CodeSystem/ehdsi-edqm-auszug';;;;'71';'0';'L';;;;'1.0.0+20230505'
'30042000';'0.4.0.127.0.16.1.1.2.1';'Nebuliser';'https://termgit.elga.gv.at/CodeSystem/ehdsi-edqm-auszug';;;;'72';'0';'L';;;;'1.0.0+20230505'
'30043500';'0.4.0.127.0.16.1.1.2.1';'Needle-free injector';'https://termgit.elga.gv.at/CodeSystem/ehdsi-edqm-auszug';;;;'73';'0';'L';;;;'1.0.0+20230505'
'30044000';'0.4.0.127.0.16.1.1.2.1';'Nozzle';'https://termgit.elga.gv.at/CodeSystem/ehdsi-edqm-auszug';;;;'74';'0';'L';;;;'1.0.0+20230505'
'30045000';'0.4.0.127.0.16.1.1.2.1';'Oral syringe';'https://termgit.elga.gv.at/CodeSystem/ehdsi-edqm-auszug';;;;'75';'0';'L';;;;'1.0.0+20230505'
'30046000';'0.4.0.127.0.16.1.1.2.1';'Pipette';'https://termgit.elga.gv.at/CodeSystem/ehdsi-edqm-auszug';;;;'76';'0';'L';;;;'1.0.0+20230505'
'30053000';'0.4.0.127.0.16.1.1.2.1';'Prick test applicator';'https://termgit.elga.gv.at/CodeSystem/ehdsi-edqm-auszug';;;;'77';'0';'L';;;;'1.0.0+20230505'
'30058000';'0.4.0.127.0.16.1.1.2.1';'Spatula';'https://termgit.elga.gv.at/CodeSystem/ehdsi-edqm-auszug';;;;'78';'0';'L';;;;'1.0.0+20230505'
