"resource";"id";"url";"version";"name";"title";"status";"profile";"description";"identifier";"date";"count"
"ValueSet";"ehdsi-package";"https://termgit.elga.gv.at/ValueSet/ehdsi-package";"1.1.0+20240325";"ehdsi-package";"eHDSI-Package";"active";"http://hl7.at/fhir/HL7ATCoreProfiles/4.0.1/StructureDefinition/at-core-valueset";"**Description:** The data is from the EDQM Standard Terms database (http://standardterms.edqm.eu), and that it is reproduced with the permission of the European Directorate for the Quality of Medicines & HealthCare, Council of Europe (EDQM).";"1.3.6.1.4.1.12559.11.10.1.3.1.42.3";"2024-03-25";"78"

"system";"version";"code";"display";"extension"
"https://termgit.elga.gv.at/CodeSystem/ehdsi-edqm-auszug";"1.0.0+20230505";"13070000";"Valve";"http://hl7.at/fhir/HL7ATCoreProfiles/4.0.1/StructureDefinition/at-core-ext-valueset-systemoid|urn:oid:0.4.0.127.0.16.1.1.2.1|oid"
"https://termgit.elga.gv.at/CodeSystem/ehdsi-edqm-auszug";"1.0.0+20230505";"13132000";"Lid";"http://hl7.at/fhir/HL7ATCoreProfiles/4.0.1/StructureDefinition/at-core-ext-valueset-systemoid|urn:oid:0.4.0.127.0.16.1.1.2.1|oid"
"https://termgit.elga.gv.at/CodeSystem/ehdsi-edqm-auszug";"1.0.0+20230505";"30011000";"Brush applicator";"http://hl7.at/fhir/HL7ATCoreProfiles/4.0.1/StructureDefinition/at-core-ext-valueset-systemoid|urn:oid:0.4.0.127.0.16.1.1.2.1|oid"
"https://termgit.elga.gv.at/CodeSystem/ehdsi-edqm-auszug";"1.0.0+20230505";"30013000";"Cap";"http://hl7.at/fhir/HL7ATCoreProfiles/4.0.1/StructureDefinition/at-core-ext-valueset-systemoid|urn:oid:0.4.0.127.0.16.1.1.2.1|oid"
"https://termgit.elga.gv.at/CodeSystem/ehdsi-edqm-auszug";"1.0.0+20230505";"30015000";"Child-resistant closure";"http://hl7.at/fhir/HL7ATCoreProfiles/4.0.1/StructureDefinition/at-core-ext-valueset-systemoid|urn:oid:0.4.0.127.0.16.1.1.2.1|oid"
"https://termgit.elga.gv.at/CodeSystem/ehdsi-edqm-auszug";"1.0.0+20230505";"30035000";"Metering pump";"http://hl7.at/fhir/HL7ATCoreProfiles/4.0.1/StructureDefinition/at-core-ext-valueset-systemoid|urn:oid:0.4.0.127.0.16.1.1.2.1|oid"
"https://termgit.elga.gv.at/CodeSystem/ehdsi-edqm-auszug";"1.0.0+20230505";"30036000";"Metering valve";"http://hl7.at/fhir/HL7ATCoreProfiles/4.0.1/StructureDefinition/at-core-ext-valueset-systemoid|urn:oid:0.4.0.127.0.16.1.1.2.1|oid"
"https://termgit.elga.gv.at/CodeSystem/ehdsi-edqm-auszug";"1.0.0+20230505";"30043000";"Needle applicator";"http://hl7.at/fhir/HL7ATCoreProfiles/4.0.1/StructureDefinition/at-core-ext-valueset-systemoid|urn:oid:0.4.0.127.0.16.1.1.2.1|oid"
"https://termgit.elga.gv.at/CodeSystem/ehdsi-edqm-auszug";"1.0.0+20230505";"30047000";"Pipette applicator";"http://hl7.at/fhir/HL7ATCoreProfiles/4.0.1/StructureDefinition/at-core-ext-valueset-systemoid|urn:oid:0.4.0.127.0.16.1.1.2.1|oid"
"https://termgit.elga.gv.at/CodeSystem/ehdsi-edqm-auszug";"1.0.0+20230505";"30056000";"Screw cap";"http://hl7.at/fhir/HL7ATCoreProfiles/4.0.1/StructureDefinition/at-core-ext-valueset-systemoid|urn:oid:0.4.0.127.0.16.1.1.2.1|oid"
"https://termgit.elga.gv.at/CodeSystem/ehdsi-edqm-auszug";"1.0.0+20230505";"30061000";"Spray pump";"http://hl7.at/fhir/HL7ATCoreProfiles/4.0.1/StructureDefinition/at-core-ext-valueset-systemoid|urn:oid:0.4.0.127.0.16.1.1.2.1|oid"
"https://termgit.elga.gv.at/CodeSystem/ehdsi-edqm-auszug";"1.0.0+20230505";"30062000";"Spray valve";"http://hl7.at/fhir/HL7ATCoreProfiles/4.0.1/StructureDefinition/at-core-ext-valueset-systemoid|urn:oid:0.4.0.127.0.16.1.1.2.1|oid"
"https://termgit.elga.gv.at/CodeSystem/ehdsi-edqm-auszug";"1.0.0+20230505";"30064000";"Stopper";"http://hl7.at/fhir/HL7ATCoreProfiles/4.0.1/StructureDefinition/at-core-ext-valueset-systemoid|urn:oid:0.4.0.127.0.16.1.1.2.1|oid"
"https://termgit.elga.gv.at/CodeSystem/ehdsi-edqm-auszug";"1.0.0+20230505";"13059000";"Unit-dose blister";"http://hl7.at/fhir/HL7ATCoreProfiles/4.0.1/StructureDefinition/at-core-ext-valueset-systemoid|urn:oid:0.4.0.127.0.16.1.1.2.1|oid"
"https://termgit.elga.gv.at/CodeSystem/ehdsi-edqm-auszug";"1.0.0+20230505";"13063000";"Pre-filled injector";"http://hl7.at/fhir/HL7ATCoreProfiles/4.0.1/StructureDefinition/at-core-ext-valueset-systemoid|urn:oid:0.4.0.127.0.16.1.1.2.1|oid"
"https://termgit.elga.gv.at/CodeSystem/ehdsi-edqm-auszug";"1.0.0+20230505";"13073000";"Pre-filled oral syringe";"http://hl7.at/fhir/HL7ATCoreProfiles/4.0.1/StructureDefinition/at-core-ext-valueset-systemoid|urn:oid:0.4.0.127.0.16.1.1.2.1|oid"
"https://termgit.elga.gv.at/CodeSystem/ehdsi-edqm-auszug";"1.0.0+20230505";"13074000";"Pre-filled oral applicator";"http://hl7.at/fhir/HL7ATCoreProfiles/4.0.1/StructureDefinition/at-core-ext-valueset-systemoid|urn:oid:0.4.0.127.0.16.1.1.2.1|oid"
"https://termgit.elga.gv.at/CodeSystem/ehdsi-edqm-auszug";"1.0.0+20230505";"13125000";"Wrapper";"http://hl7.at/fhir/HL7ATCoreProfiles/4.0.1/StructureDefinition/at-core-ext-valueset-systemoid|urn:oid:0.4.0.127.0.16.1.1.2.1|oid"
"https://termgit.elga.gv.at/CodeSystem/ehdsi-edqm-auszug";"1.0.0+20230505";"13142000";"Pouch";"http://hl7.at/fhir/HL7ATCoreProfiles/4.0.1/StructureDefinition/at-core-ext-valueset-systemoid|urn:oid:0.4.0.127.0.16.1.1.2.1|oid"
"https://termgit.elga.gv.at/CodeSystem/ehdsi-edqm-auszug";"1.0.0+20230505";"13151000";"Tablet tube";"http://hl7.at/fhir/HL7ATCoreProfiles/4.0.1/StructureDefinition/at-core-ext-valueset-systemoid|urn:oid:0.4.0.127.0.16.1.1.2.1|oid"
"https://termgit.elga.gv.at/CodeSystem/ehdsi-edqm-auszug";"1.0.0+20230505";"30001000";"Ampoule";"http://hl7.at/fhir/HL7ATCoreProfiles/4.0.1/StructureDefinition/at-core-ext-valueset-systemoid|urn:oid:0.4.0.127.0.16.1.1.2.1|oid"
"https://termgit.elga.gv.at/CodeSystem/ehdsi-edqm-auszug";"1.0.0+20230505";"30004000";"Bag";"http://hl7.at/fhir/HL7ATCoreProfiles/4.0.1/StructureDefinition/at-core-ext-valueset-systemoid|urn:oid:0.4.0.127.0.16.1.1.2.1|oid"
"https://termgit.elga.gv.at/CodeSystem/ehdsi-edqm-auszug";"1.0.0+20230505";"30006000";"Barrel";"http://hl7.at/fhir/HL7ATCoreProfiles/4.0.1/StructureDefinition/at-core-ext-valueset-systemoid|urn:oid:0.4.0.127.0.16.1.1.2.1|oid"
"https://termgit.elga.gv.at/CodeSystem/ehdsi-edqm-auszug";"1.0.0+20230505";"30007000";"Blister";"http://hl7.at/fhir/HL7ATCoreProfiles/4.0.1/StructureDefinition/at-core-ext-valueset-systemoid|urn:oid:0.4.0.127.0.16.1.1.2.1|oid"
"https://termgit.elga.gv.at/CodeSystem/ehdsi-edqm-auszug";"1.0.0+20230505";"30008000";"Bottle";"http://hl7.at/fhir/HL7ATCoreProfiles/4.0.1/StructureDefinition/at-core-ext-valueset-systemoid|urn:oid:0.4.0.127.0.16.1.1.2.1|oid"
"https://termgit.elga.gv.at/CodeSystem/ehdsi-edqm-auszug";"1.0.0+20230505";"30009000";"Box";"http://hl7.at/fhir/HL7ATCoreProfiles/4.0.1/StructureDefinition/at-core-ext-valueset-systemoid|urn:oid:0.4.0.127.0.16.1.1.2.1|oid"
"https://termgit.elga.gv.at/CodeSystem/ehdsi-edqm-auszug";"1.0.0+20230505";"30014000";"Cartridge";"http://hl7.at/fhir/HL7ATCoreProfiles/4.0.1/StructureDefinition/at-core-ext-valueset-systemoid|urn:oid:0.4.0.127.0.16.1.1.2.1|oid"
"https://termgit.elga.gv.at/CodeSystem/ehdsi-edqm-auszug";"1.0.0+20230505";"30015500";"Container";"http://hl7.at/fhir/HL7ATCoreProfiles/4.0.1/StructureDefinition/at-core-ext-valueset-systemoid|urn:oid:0.4.0.127.0.16.1.1.2.1|oid"
"https://termgit.elga.gv.at/CodeSystem/ehdsi-edqm-auszug";"1.0.0+20230505";"30018300";"Dose-dispenser cartridge";"http://hl7.at/fhir/HL7ATCoreProfiles/4.0.1/StructureDefinition/at-core-ext-valueset-systemoid|urn:oid:0.4.0.127.0.16.1.1.2.1|oid"
"https://termgit.elga.gv.at/CodeSystem/ehdsi-edqm-auszug";"1.0.0+20230505";"30020000";"Dredging container";"http://hl7.at/fhir/HL7ATCoreProfiles/4.0.1/StructureDefinition/at-core-ext-valueset-systemoid|urn:oid:0.4.0.127.0.16.1.1.2.1|oid"
"https://termgit.elga.gv.at/CodeSystem/ehdsi-edqm-auszug";"1.0.0+20230505";"30023000";"Dropper container";"http://hl7.at/fhir/HL7ATCoreProfiles/4.0.1/StructureDefinition/at-core-ext-valueset-systemoid|urn:oid:0.4.0.127.0.16.1.1.2.1|oid"
"https://termgit.elga.gv.at/CodeSystem/ehdsi-edqm-auszug";"1.0.0+20230505";"30023005";"Fixed cryogenic vessel";"http://hl7.at/fhir/HL7ATCoreProfiles/4.0.1/StructureDefinition/at-core-ext-valueset-systemoid|urn:oid:0.4.0.127.0.16.1.1.2.1|oid"
"https://termgit.elga.gv.at/CodeSystem/ehdsi-edqm-auszug";"1.0.0+20230505";"30024000";"Gas cylinder";"http://hl7.at/fhir/HL7ATCoreProfiles/4.0.1/StructureDefinition/at-core-ext-valueset-systemoid|urn:oid:0.4.0.127.0.16.1.1.2.1|oid"
"https://termgit.elga.gv.at/CodeSystem/ehdsi-edqm-auszug";"1.0.0+20230505";"30032000";"Jar";"http://hl7.at/fhir/HL7ATCoreProfiles/4.0.1/StructureDefinition/at-core-ext-valueset-systemoid|urn:oid:0.4.0.127.0.16.1.1.2.1|oid"
"https://termgit.elga.gv.at/CodeSystem/ehdsi-edqm-auszug";"1.0.0+20230505";"30036005";"Mobile cryogenic vessel";"http://hl7.at/fhir/HL7ATCoreProfiles/4.0.1/StructureDefinition/at-core-ext-valueset-systemoid|urn:oid:0.4.0.127.0.16.1.1.2.1|oid"
"https://termgit.elga.gv.at/CodeSystem/ehdsi-edqm-auszug";"1.0.0+20230505";"30038000";"Multidose container";"http://hl7.at/fhir/HL7ATCoreProfiles/4.0.1/StructureDefinition/at-core-ext-valueset-systemoid|urn:oid:0.4.0.127.0.16.1.1.2.1|oid"
"https://termgit.elga.gv.at/CodeSystem/ehdsi-edqm-auszug";"1.0.0+20230505";"30039000";"Multidose container with airless pump";"http://hl7.at/fhir/HL7ATCoreProfiles/4.0.1/StructureDefinition/at-core-ext-valueset-systemoid|urn:oid:0.4.0.127.0.16.1.1.2.1|oid"
"https://termgit.elga.gv.at/CodeSystem/ehdsi-edqm-auszug";"1.0.0+20230505";"30039400";"Multidose container with metering pump";"http://hl7.at/fhir/HL7ATCoreProfiles/4.0.1/StructureDefinition/at-core-ext-valueset-systemoid|urn:oid:0.4.0.127.0.16.1.1.2.1|oid"
"https://termgit.elga.gv.at/CodeSystem/ehdsi-edqm-auszug";"1.0.0+20230505";"30039500";"Multidose container with pump";"http://hl7.at/fhir/HL7ATCoreProfiles/4.0.1/StructureDefinition/at-core-ext-valueset-systemoid|urn:oid:0.4.0.127.0.16.1.1.2.1|oid"
"https://termgit.elga.gv.at/CodeSystem/ehdsi-edqm-auszug";"1.0.0+20230505";"30049000";"Pre-filled gastroenteral tube";"http://hl7.at/fhir/HL7ATCoreProfiles/4.0.1/StructureDefinition/at-core-ext-valueset-systemoid|urn:oid:0.4.0.127.0.16.1.1.2.1|oid"
"https://termgit.elga.gv.at/CodeSystem/ehdsi-edqm-auszug";"1.0.0+20230505";"30050000";"Pre-filled pen";"http://hl7.at/fhir/HL7ATCoreProfiles/4.0.1/StructureDefinition/at-core-ext-valueset-systemoid|urn:oid:0.4.0.127.0.16.1.1.2.1|oid"
"https://termgit.elga.gv.at/CodeSystem/ehdsi-edqm-auszug";"1.0.0+20230505";"30051000";"Pre-filled syringe";"http://hl7.at/fhir/HL7ATCoreProfiles/4.0.1/StructureDefinition/at-core-ext-valueset-systemoid|urn:oid:0.4.0.127.0.16.1.1.2.1|oid"
"https://termgit.elga.gv.at/CodeSystem/ehdsi-edqm-auszug";"1.0.0+20230505";"30052000";"Pressurised container";"http://hl7.at/fhir/HL7ATCoreProfiles/4.0.1/StructureDefinition/at-core-ext-valueset-systemoid|urn:oid:0.4.0.127.0.16.1.1.2.1|oid"
"https://termgit.elga.gv.at/CodeSystem/ehdsi-edqm-auszug";"1.0.0+20230505";"30053500";"Roll-on container";"http://hl7.at/fhir/HL7ATCoreProfiles/4.0.1/StructureDefinition/at-core-ext-valueset-systemoid|urn:oid:0.4.0.127.0.16.1.1.2.1|oid"
"https://termgit.elga.gv.at/CodeSystem/ehdsi-edqm-auszug";"1.0.0+20230505";"30054000";"Sachet";"http://hl7.at/fhir/HL7ATCoreProfiles/4.0.1/StructureDefinition/at-core-ext-valueset-systemoid|urn:oid:0.4.0.127.0.16.1.1.2.1|oid"
"https://termgit.elga.gv.at/CodeSystem/ehdsi-edqm-auszug";"1.0.0+20230505";"30057000";"Single-dose container";"http://hl7.at/fhir/HL7ATCoreProfiles/4.0.1/StructureDefinition/at-core-ext-valueset-systemoid|urn:oid:0.4.0.127.0.16.1.1.2.1|oid"
"https://termgit.elga.gv.at/CodeSystem/ehdsi-edqm-auszug";"1.0.0+20230505";"30060000";"Spray container";"http://hl7.at/fhir/HL7ATCoreProfiles/4.0.1/StructureDefinition/at-core-ext-valueset-systemoid|urn:oid:0.4.0.127.0.16.1.1.2.1|oid"
"https://termgit.elga.gv.at/CodeSystem/ehdsi-edqm-auszug";"1.0.0+20230505";"30064500";"Straw";"http://hl7.at/fhir/HL7ATCoreProfiles/4.0.1/StructureDefinition/at-core-ext-valueset-systemoid|urn:oid:0.4.0.127.0.16.1.1.2.1|oid"
"https://termgit.elga.gv.at/CodeSystem/ehdsi-edqm-auszug";"1.0.0+20230505";"30065000";"Strip";"http://hl7.at/fhir/HL7ATCoreProfiles/4.0.1/StructureDefinition/at-core-ext-valueset-systemoid|urn:oid:0.4.0.127.0.16.1.1.2.1|oid"
"https://termgit.elga.gv.at/CodeSystem/ehdsi-edqm-auszug";"1.0.0+20230505";"30066000";"Tablet container";"http://hl7.at/fhir/HL7ATCoreProfiles/4.0.1/StructureDefinition/at-core-ext-valueset-systemoid|urn:oid:0.4.0.127.0.16.1.1.2.1|oid"
"https://termgit.elga.gv.at/CodeSystem/ehdsi-edqm-auszug";"1.0.0+20230505";"30067000";"Tube";"http://hl7.at/fhir/HL7ATCoreProfiles/4.0.1/StructureDefinition/at-core-ext-valueset-systemoid|urn:oid:0.4.0.127.0.16.1.1.2.1|oid"
"https://termgit.elga.gv.at/CodeSystem/ehdsi-edqm-auszug";"1.0.0+20230505";"30069000";"Vial";"http://hl7.at/fhir/HL7ATCoreProfiles/4.0.1/StructureDefinition/at-core-ext-valueset-systemoid|urn:oid:0.4.0.127.0.16.1.1.2.1|oid"
"https://termgit.elga.gv.at/CodeSystem/ehdsi-edqm-auszug";"1.0.0+20230505";"13072000";"Oral applicator";"http://hl7.at/fhir/HL7ATCoreProfiles/4.0.1/StructureDefinition/at-core-ext-valueset-systemoid|urn:oid:0.4.0.127.0.16.1.1.2.1|oid"
"https://termgit.elga.gv.at/CodeSystem/ehdsi-edqm-auszug";"1.0.0+20230505";"13114000";"Pen";"http://hl7.at/fhir/HL7ATCoreProfiles/4.0.1/StructureDefinition/at-core-ext-valueset-systemoid|urn:oid:0.4.0.127.0.16.1.1.2.1|oid"
"https://termgit.elga.gv.at/CodeSystem/ehdsi-edqm-auszug";"1.0.0+20230505";"30000500";"Administration system";"http://hl7.at/fhir/HL7ATCoreProfiles/4.0.1/StructureDefinition/at-core-ext-valueset-systemoid|urn:oid:0.4.0.127.0.16.1.1.2.1|oid"
"https://termgit.elga.gv.at/CodeSystem/ehdsi-edqm-auszug";"1.0.0+20230505";"30002000";"Applicator";"http://hl7.at/fhir/HL7ATCoreProfiles/4.0.1/StructureDefinition/at-core-ext-valueset-systemoid|urn:oid:0.4.0.127.0.16.1.1.2.1|oid"
"https://termgit.elga.gv.at/CodeSystem/ehdsi-edqm-auszug";"1.0.0+20230505";"30010000";"Brush";"http://hl7.at/fhir/HL7ATCoreProfiles/4.0.1/StructureDefinition/at-core-ext-valueset-systemoid|urn:oid:0.4.0.127.0.16.1.1.2.1|oid"
"https://termgit.elga.gv.at/CodeSystem/ehdsi-edqm-auszug";"1.0.0+20230505";"30012000";"Cannula";"http://hl7.at/fhir/HL7ATCoreProfiles/4.0.1/StructureDefinition/at-core-ext-valueset-systemoid|urn:oid:0.4.0.127.0.16.1.1.2.1|oid"
"https://termgit.elga.gv.at/CodeSystem/ehdsi-edqm-auszug";"1.0.0+20230505";"30016000";"Cup";"http://hl7.at/fhir/HL7ATCoreProfiles/4.0.1/StructureDefinition/at-core-ext-valueset-systemoid|urn:oid:0.4.0.127.0.16.1.1.2.1|oid"
"https://termgit.elga.gv.at/CodeSystem/ehdsi-edqm-auszug";"1.0.0+20230505";"30017000";"Dabbing applicator";"http://hl7.at/fhir/HL7ATCoreProfiles/4.0.1/StructureDefinition/at-core-ext-valueset-systemoid|urn:oid:0.4.0.127.0.16.1.1.2.1|oid"
"https://termgit.elga.gv.at/CodeSystem/ehdsi-edqm-auszug";"1.0.0+20230505";"30018200";"Dose dispenser";"http://hl7.at/fhir/HL7ATCoreProfiles/4.0.1/StructureDefinition/at-core-ext-valueset-systemoid|urn:oid:0.4.0.127.0.16.1.1.2.1|oid"
"https://termgit.elga.gv.at/CodeSystem/ehdsi-edqm-auszug";"1.0.0+20230505";"30019000";"Dredging applicator";"http://hl7.at/fhir/HL7ATCoreProfiles/4.0.1/StructureDefinition/at-core-ext-valueset-systemoid|urn:oid:0.4.0.127.0.16.1.1.2.1|oid"
"https://termgit.elga.gv.at/CodeSystem/ehdsi-edqm-auszug";"1.0.0+20230505";"30022000";"Dropper applicator";"http://hl7.at/fhir/HL7ATCoreProfiles/4.0.1/StructureDefinition/at-core-ext-valueset-systemoid|urn:oid:0.4.0.127.0.16.1.1.2.1|oid"
"https://termgit.elga.gv.at/CodeSystem/ehdsi-edqm-auszug";"1.0.0+20230505";"30026500";"Inhaler";"http://hl7.at/fhir/HL7ATCoreProfiles/4.0.1/StructureDefinition/at-core-ext-valueset-systemoid|urn:oid:0.4.0.127.0.16.1.1.2.1|oid"
"https://termgit.elga.gv.at/CodeSystem/ehdsi-edqm-auszug";"1.0.0+20230505";"30028000";"Injection needle";"http://hl7.at/fhir/HL7ATCoreProfiles/4.0.1/StructureDefinition/at-core-ext-valueset-systemoid|urn:oid:0.4.0.127.0.16.1.1.2.1|oid"
"https://termgit.elga.gv.at/CodeSystem/ehdsi-edqm-auszug";"1.0.0+20230505";"30029000";"Injection syringe";"http://hl7.at/fhir/HL7ATCoreProfiles/4.0.1/StructureDefinition/at-core-ext-valueset-systemoid|urn:oid:0.4.0.127.0.16.1.1.2.1|oid"
"https://termgit.elga.gv.at/CodeSystem/ehdsi-edqm-auszug";"1.0.0+20230505";"30033000";"Measuring device";"http://hl7.at/fhir/HL7ATCoreProfiles/4.0.1/StructureDefinition/at-core-ext-valueset-systemoid|urn:oid:0.4.0.127.0.16.1.1.2.1|oid"
"https://termgit.elga.gv.at/CodeSystem/ehdsi-edqm-auszug";"1.0.0+20230505";"30034000";"Measuring spoon";"http://hl7.at/fhir/HL7ATCoreProfiles/4.0.1/StructureDefinition/at-core-ext-valueset-systemoid|urn:oid:0.4.0.127.0.16.1.1.2.1|oid"
"https://termgit.elga.gv.at/CodeSystem/ehdsi-edqm-auszug";"1.0.0+20230505";"30037000";"Mouthpiece";"http://hl7.at/fhir/HL7ATCoreProfiles/4.0.1/StructureDefinition/at-core-ext-valueset-systemoid|urn:oid:0.4.0.127.0.16.1.1.2.1|oid"
"https://termgit.elga.gv.at/CodeSystem/ehdsi-edqm-auszug";"1.0.0+20230505";"30040000";"Multipuncturer";"http://hl7.at/fhir/HL7ATCoreProfiles/4.0.1/StructureDefinition/at-core-ext-valueset-systemoid|urn:oid:0.4.0.127.0.16.1.1.2.1|oid"
"https://termgit.elga.gv.at/CodeSystem/ehdsi-edqm-auszug";"1.0.0+20230505";"30041000";"Nasal applicator";"http://hl7.at/fhir/HL7ATCoreProfiles/4.0.1/StructureDefinition/at-core-ext-valueset-systemoid|urn:oid:0.4.0.127.0.16.1.1.2.1|oid"
"https://termgit.elga.gv.at/CodeSystem/ehdsi-edqm-auszug";"1.0.0+20230505";"30042000";"Nebuliser";"http://hl7.at/fhir/HL7ATCoreProfiles/4.0.1/StructureDefinition/at-core-ext-valueset-systemoid|urn:oid:0.4.0.127.0.16.1.1.2.1|oid"
"https://termgit.elga.gv.at/CodeSystem/ehdsi-edqm-auszug";"1.0.0+20230505";"30043500";"Needle-free injector";"http://hl7.at/fhir/HL7ATCoreProfiles/4.0.1/StructureDefinition/at-core-ext-valueset-systemoid|urn:oid:0.4.0.127.0.16.1.1.2.1|oid"
"https://termgit.elga.gv.at/CodeSystem/ehdsi-edqm-auszug";"1.0.0+20230505";"30044000";"Nozzle";"http://hl7.at/fhir/HL7ATCoreProfiles/4.0.1/StructureDefinition/at-core-ext-valueset-systemoid|urn:oid:0.4.0.127.0.16.1.1.2.1|oid"
"https://termgit.elga.gv.at/CodeSystem/ehdsi-edqm-auszug";"1.0.0+20230505";"30045000";"Oral syringe";"http://hl7.at/fhir/HL7ATCoreProfiles/4.0.1/StructureDefinition/at-core-ext-valueset-systemoid|urn:oid:0.4.0.127.0.16.1.1.2.1|oid"
"https://termgit.elga.gv.at/CodeSystem/ehdsi-edqm-auszug";"1.0.0+20230505";"30046000";"Pipette";"http://hl7.at/fhir/HL7ATCoreProfiles/4.0.1/StructureDefinition/at-core-ext-valueset-systemoid|urn:oid:0.4.0.127.0.16.1.1.2.1|oid"
"https://termgit.elga.gv.at/CodeSystem/ehdsi-edqm-auszug";"1.0.0+20230505";"30053000";"Prick test applicator";"http://hl7.at/fhir/HL7ATCoreProfiles/4.0.1/StructureDefinition/at-core-ext-valueset-systemoid|urn:oid:0.4.0.127.0.16.1.1.2.1|oid"
"https://termgit.elga.gv.at/CodeSystem/ehdsi-edqm-auszug";"1.0.0+20230505";"30058000";"Spatula";"http://hl7.at/fhir/HL7ATCoreProfiles/4.0.1/StructureDefinition/at-core-ext-valueset-systemoid|urn:oid:0.4.0.127.0.16.1.1.2.1|oid"