{
  "resourceType": "CodeSystem",
  "id": "hl7-marital-status",
  "url": "https://termgit.elga.gv.at/CodeSystem/hl7-marital-status",
  "identifier": [
    {
      "use": "official",
      "system": "urn:ietf:rfc:3986",
      "value": "urn:oid:2.16.840.1.113883.5.2"
    }
  ],
  "version": "1.0.0+20230131",
  "name": "hl7-marital-status",
  "title": "HL7 Marital Status",
  "status": "retired",
  "date": "2023-06-30",
  "content": "complete",
  "count": 9,
  "concept": [
    {
      "code": "A",
      "display": "Annulled"
    },
    {
      "code": "D",
      "display": "Divorced"
    },
    {
      "code": "I",
      "display": "Interlocutory"
    },
    {
      "code": "L",
      "display": "Legally Separated"
    },
    {
      "code": "M",
      "display": "Married"
    },
    {
      "code": "P",
      "display": "Polygamous"
    },
    {
      "code": "S",
      "display": "Never Married"
    },
    {
      "code": "T",
      "display": "Domestic partner"
    },
    {
      "code": "W",
      "display": "Widowed"
    }
  ]
}