"resource";"id";"url";"version";"name";"title";"status";"description";"content";"identifier";"date";"contact";"count"
"CodeSystem";"elga-entlassungsmanagementart";"https://termgit.elga.gv.at/CodeSystem/elga-entlassungsmanagementart";"1.0.1+20240129";"elga-entlassungsmanagementart";"ELGA_EntlassungsmanagementArt";"active";"**Description:** Describes the variety in a discharge management disposition (describes the kind of discharge date)

**Beschreibung:** Beschreibt die Möglichkeiten in einer Entlassungsmanagement-Disposition (Beschreibt die Art des Entlassungsdatums)";"complete";"1.2.40.0.34.5.28";"2024-01-29";"|url^https://www.elga.gv.at^^^^";"1"

"code";"display"
"GEPLENTLDAT";"Geplantes Entlassungsdatum"