'code';'codeSystem';'displayName';'parentCode';'concept_Beschreibung';'meaning';'hints';'level';'type';'relationships'
'II.AC.a';'1.2.40.0.34.5.49';'0 - Need additional imaging evaluation';'';'0   braucht zusätzliche Bildgebung';'0  braucht zusätzliche Bildgebung';'';'0';'L';''
'II.AC.b.1';'1.2.40.0.34.5.49';'1  Negative';'';'1  negativ (d.h. keine Masse, keine Architekturstörung, kein Kalk, keine Hautverdickung etc.)';'1  Negativ';'';'0';'L';''
'II.AC.b.2';'1.2.40.0.34.5.49';'2  Benign Finding';'';'2  benigne Befunde (z.B. Zysten, intramammäre Lymphknoten, Brustimplantate, stationäre postoperative Befunde, stationäre Fibroadenome)';'2  Benigner Befund';'';'0';'L';''
'II.AC.b.3';'1.2.40.0.34.5.49';'3 - Probably Benign Finding  short interval followup';'';'3  Wahrscheinlich benigne Befunde, kurzfristige Verlaufskontrolle empfohlen (Läsionen mit scharfen Rändern, ovalärer Form, horizontaler Orientierung, Malignitätsrisiko unter 2 %.)';'3  Wahrscheinlich benigner Befund, kurzfristige Verlaufskontrolle empfohlen';'';'0';'L';''
'II.AC.b.4';'1.2.40.0.34.5.49';'4 - Suspicious abnormality, biopsy should be considered';'';'4  Verdächtig, Biopsie sollte erwogen werden (Läsionen mit intermediärer Wahrscheinlichkeit für Malignität)';'4  Suspekter Befund, Biopsie sollte erwogen werden';'';'0';'S';''
'MA.II.A.5.4A';'1.2.40.0.34.5.49';'4A  Low suspicion';'';'4A  Geringgradig verdächtiger Befund, Biopsie sollte erwogen werden';'4A  Geringgradiger Verdacht';'';'1';'L';''
'MA.II.A.5.4B';'1.2.40.0.34.5.49';'4B  Intermediate suspicion';'';'4B  Zwischenstuflich verdächtiger Befund, Biopsie sollte erwogen werden';'4B  Zwischenstuflicher Verdacht';'';'1';'L';''
'MA.II.A.5.4C';'1.2.40.0.34.5.49';'4C  Moderate suspicion';'';'4C  Mäßig verdächtiger Befund, Biopsie sollte erwogen werden';'4C  Mäßiger Verdacht';'';'1';'L';''
'II.AC.b.5';'1.2.40.0.34.5.49';'5 - Highly suggestive of malignancy, take appropriate action';'';'5  hochsuspekt, fast sicher maligne, eine adäquate Aktion sollte folgen (Risiko auf Malignität von 95 % oder größer)';'5  Hochsuspekt, fast sicher maligne, eine adäquate Aktion sollte folgen';'';'0';'L';''
'MA.II.A.5.6';'1.2.40.0.34.5.49';'6 - Known biopsy proven malignancy';'';'6  Bekannter maligner Befund, mit Biopsie bestätigt';'6  Gesichertes Malignom';'';'0';'L';''
