'code';'codeSystem';'displayName';'parentCodeSystemName';'concept_Beschreibung';'meaning';'hints';'orderNumber';'level';'type';'relationships';'einheit print';'einheit codiert'
'110152';'1.2.840.10008.2.16.4';'Destination Role ID';'https://termgit.elga.gv.at/CodeSystem/dcm';'';'Destination';'';'1';'0';'L';'';'';''
'607';'1.2.40.0.34.5.158';'ELGA-Widerspruchstelle';'https://termgit.elga.gv.at/CodeSystem/elga-funktionsrollen';'';'';'';'2';'0';'L';'';'';''
'608';'1.2.40.0.34.5.158';'ELGA-Regelwerkadministration';'https://termgit.elga.gv.at/CodeSystem/elga-funktionsrollen';'';'';'';'3';'0';'L';'';'';''
'609';'1.2.40.0.34.5.158';'ELGA-Sicherheitsadministration';'https://termgit.elga.gv.at/CodeSystem/elga-funktionsrollen';'';'';'';'4';'0';'L';'';'';''
'610';'1.2.40.0.34.5.158';'ELGA-Teilnehmerin/Teilnehmer';'https://termgit.elga.gv.at/CodeSystem/elga-funktionsrollen';'Bürgerin/ Büger';'';'';'5';'0';'L';'';'';''
'611';'1.2.40.0.34.5.158';'ELGA-Vollmachtnehmende Person';'https://termgit.elga.gv.at/CodeSystem/elga-funktionsrollen';'Vertretende Person einer ELGA-Teilnehmerin/ Teilnehmer (natürliche Person)';'';'';'6';'0';'L';'';'';''
'700';'1.2.40.0.34.5.3';'Ärztin/Arzt';'https://termgit.elga.gv.at/CodeSystem/elga-gda-aggregatrollen';'';'';'';'7';'0';'L';'';'';''
'701';'1.2.40.0.34.5.3';'Zahnärztin/Zahnarzt';'https://termgit.elga.gv.at/CodeSystem/elga-gda-aggregatrollen';'';'';'';'8';'0';'L';'';'';''
'702';'1.2.40.0.34.5.3';'Krankenanstalt';'https://termgit.elga.gv.at/CodeSystem/elga-gda-aggregatrollen';'';'';'';'9';'0';'L';'';'';''
'703';'1.2.40.0.34.5.3';'Einrichtung der Pflege';'https://termgit.elga.gv.at/CodeSystem/elga-gda-aggregatrollen';'';'';'';'10';'0';'L';'';'';''
'704';'1.2.40.0.34.5.3';'Apotheke';'https://termgit.elga.gv.at/CodeSystem/elga-gda-aggregatrollen';'';'';'';'11';'0';'L';'';'';''
'705';'1.2.40.0.34.5.3';'ELGA-Beratung';'https://termgit.elga.gv.at/CodeSystem/elga-gda-aggregatrollen';'';'';'';'12';'0';'L';'';'';''
'706';'1.2.40.0.34.5.3';'ELGA-Ombudsstelle';'https://termgit.elga.gv.at/CodeSystem/elga-gda-aggregatrollen';'';'';'';'13';'0';'L';'';'';''
'716';'1.2.40.0.34.5.3';'Amtsärztin/Amtsarzt';'https://termgit.elga.gv.at/CodeSystem/elga-gda-aggregatrollen';'';'';'';'14';'0';'L';'';'';''
'717';'1.2.40.0.34.5.3';'Korrekturberechtigte Person';'https://termgit.elga.gv.at/CodeSystem/elga-gda-aggregatrollen';'';'';'';'15';'0';'L';'';'';''
'718';'1.2.40.0.34.5.3';'Krisenmanagerin/Krisenmanager';'https://termgit.elga.gv.at/CodeSystem/elga-gda-aggregatrollen';'';'';'';'16';'0';'L';'';'';''
'719';'1.2.40.0.34.5.3';'Auswertungsberechtigte Person';'https://termgit.elga.gv.at/CodeSystem/elga-gda-aggregatrollen';'';'';'';'17';'0';'L';'';'';''
'720';'1.2.40.0.34.5.3';'Verrechnungsberechtigte Person';'https://termgit.elga.gv.at/CodeSystem/elga-gda-aggregatrollen';'';'';'';'18';'0';'L';'';'';''
'721';'1.2.40.0.34.5.3';'Arbeitsmedizin';'https://termgit.elga.gv.at/CodeSystem/elga-gda-aggregatrollen';'';'';'';'19';'0';'L';'';'';''
'722';'1.2.40.0.34.5.3';'Hebamme';'https://termgit.elga.gv.at/CodeSystem/elga-gda-aggregatrollen';'';'';'';'20';'0';'L';'';'';''
'723';'1.2.40.0.34.5.3';'Straf- und Maßnahmenvollzug';'https://termgit.elga.gv.at/CodeSystem/elga-gda-aggregatrollen';'';'';'';'21';'0';'L';'';'';''
'725';'1.2.40.0.34.5.3';'EMS/EPI-Service';'https://termgit.elga.gv.at/CodeSystem/elga-gda-aggregatrollen';'';'';'';'22';'0';'L';'';'';''
'726';'1.2.40.0.34.5.3';'Diplomierte Gesundheits- und Krankenpflegerin/Diplomierter Gesundheits- und Krankenpfleger';'https://termgit.elga.gv.at/CodeSystem/elga-gda-aggregatrollen';'';'';'';'23';'0';'L';'';'';''
'727';'1.2.40.0.34.5.3';'NCPeH cross-border services';'https://termgit.elga.gv.at/CodeSystem/elga-gda-aggregatrollen';'';'';'';'24';'0';'L';'';'';''
