"resource";"id";"url";"version";"name";"title";"status";"description";"content";"identifier";"date";"count"
"CodeSystem";"ems-parameter";"https://termgit.elga.gv.at/CodeSystem/ems-parameter";"1.0.0+20230131";"ems-parameter";"EMS_Parameter";"active";"Liste an Parameter welche in dem EMS-Organizer codiert werden können";"complete";"1.2.40.0.34.5.101";"2022-06-24";"117"

"code";"display"
"AAGRG";"aggRGene"
"AAICG";"aaiCGene"
"ACVAGA";"HCV core Ag Assay"
"AHCVIA";"Anti-HCV Immunoassay"
"AHCVIBA";"Anti-HCV Immunoblot Assay"
"ANDET";"Analysedetails"
"ANNOT";"Anmerkung jeder Art"
"ANTGH";"Antigen H"
"ANTGH1";"Antigen H1"
"ANTGH2";"Antigen H2"
"ANTGO";"Antigen O"
"ARTMAL";"Art der Malaria"
"ARTQU";"Art des Quartiers"
"Antigen";"Antigen"
"BEFART";"Befundart"
"BEFNR";"Befundnummer"
"BEIJGT";"Beijing-Genotyp"
"BERLAB";"Bereich Labor"
"BETAGR";"Beta Glucoronidase Reaktion"
"BIOAR";"Biovar"
"BIOTPE";"Biotype"
"BIOTYP";"Biotyp"
"CDMIRU";"Miru-Code"
"CDQU";"Code des Quartiers"
"CLUST";"Cluster"
"CLUSTID";"ClusterID"
"CTINTERPRETATION";"ctWert Interpretation"
"CTWERT";"ct-Wert"
"DSPECSEND";"Einsendedatum"
"EHAEM";"Enterohaemolyse"
"ENVTSTDN";"Umweltuntersuchung durchgeführt"
"ERGAV";"Ergebnis Aviditätstest"
"ERSTIS";"Erstisolat"
"ESBLP";"ESBLProduction"
"FERSOR";"Fermentation von Sorbitol"
"FORT";"Ferienort oder Name der Stadt"
"GENOGR";"Genogruppe"
"GENTYP";"Genotyp"
"GTPOR1";"Genotype Gene PorA variable region 1"
"GTPOR2";"Genotype Gene PorA variable region 2"
"HCVRNA";"HCV RNA"
"HIST";"Histologie"
"HISTRES";"Histologie-Resultat"
"HPQU";"Homepage des Quartiers"
"IEAEGEN";"Intimin EAE Gen-Nachweis"
"IGGRES";"Ergebnis IgG"
"IGMRES";"Ergebnis IgM"
"IGRADN";"IGRA (z.B. Quantiferon-Test) durchgeführt"
"ILLLOC";"wo wurde die Krankheit erworben"
"INFCNTRY";"Land der Infektion"
"INHRES";"INH-Resistenzgen (KatG/inhA PCR)"
"IPDMETH";"TestMethodMIC_IPD"
"IPDTPMETH";"TestMethodTypingIPD"
"ISLTEUQ";"klinische und Umweltisolate übereinstimmend (nur beantworten wenn Umweltuntersuchung = ja)"
"ISLTNR";"Isolatnummer RL (Isolat)"
"KULTDN";"Kultur (Tbc)"
"Krankheitsmerkmal";"Weitere Krankheitsmerkmale"
"LEGFND";"Legionella gefunden (nur beantworten wenn Umweltuntersuchung = ja)"
"LINEAGE";"SARS-COV2-Lineage"
"LYSOTYP";"Lysotyp"
"METH1";"Methode1"
"METH2";"Methode2"
"MICRES";"Mikroskopie Resultat"
"MIKDN";"Mikroskopie"
"MLDASS";"Fall bereits an ein reise-assoziiertes Überwachungssystem gemeldet"
"MLTSEQTP";"Multilocus Sequence Typing clonal complex of strain 2"
"MONSUBT";"Monoclonal Subtyp"
"MUTSUSP";"Verdacht auf eine der neuen Virusvarianten"
"NAMPXV";"Nukleinsäurenachweis Affenpockenvirus-spezifisch"
"NAOPXV";"Nukleinsäurenachweis Orthopoxvirus-spezifisch"
"NUKDN";"Nukleinsäure-Nachweis durch NAT"
"OCCUPATION";"Patient/in - in Beschäftigung?"
"ORG";"Organ, welches histologisch untersucht wurde"
"ORGANNOT";"Weitere Angaben zu Sonstige Organe"
"PATHG";"Pathogen"
"PHAGTVT";"Phagentyp VTEC (Serotyp O157)"
"PHAGTYP";"Phagentyp"
"QUNAME";"Name des Quartiers"
"QUTEL";"Telefonnummer des Quartiers"
"RESIGRA";"IGRA Ergebnis"
"RESKULT";"Kultur-Resultat"
"RESNAT";"NAT Resultat"
"RESVIR";"Ergebnis Virusnachweis oder Isolierung"
"RFLPCD";"RFLP-Code"
"RIBOTYP";"Ribotype"
"RMPRESG";"RMP-Resistenzgen (PCR)"
"ROOMNR";"Zimmernummer"
"ResultSeqType";"Ergebnis der Sequenzierung"
"SEROGRP";"Serogruppe"
"SEROTPFVR";"Serotype Gene FetA VR variable region"
"SEROTYP";"Serotyp"
"SGEN";"S-Gen Mutationen"
"SPECCOLM";"Materialgewinnung"
"SPECIES";"Species"
"SPECLOC";"Ort der Probenentnahme (nur beantworten wenn Umweltuntersuchung = ja)"
"SPEZAKR";"spezielle Antikörperreaktion (nur bei HUS-Fällen auszufüllen)"
"SPOLCD";"Spoligo-Code"
"SQTYPRES";"Ergebnis Sequenz-Typ"
"STATHBE";"HBeAgStatus"
"STATHBV";"HBV Status"
"STATHCV";"HCV Status"
"STRAINNR";"Strain Number"
"SUSPNOTE";"Anmerkung zur Verdachtsvariante"
"SeqConfirm";"Affenpockenvirusbestätigung durch Sequenzierung"
"TESTLOC";"Untersuchung des Ortes"
"TRVAGENCY";"Name des Reiseveranstalters"
"TRVCNTRY";"Reiseland"
"TRVREC";"Travelrecord"
"TRVREG";"Reiseregion"
"TUBSKNDN";"Tuberkulin-Hauttest durchgeführt"
"TUBSKNRES";"Tuberkulin-Hauttest Ergebnis"
"VEROPRD";"Produktion von Verotoxin"
"VTOX2SUBT";"Verotoxin 2 Subtyp"
"VTOXGEN";"Verotoxin Gen-Nachweis"
"VTOXSUBT";"Verotoxin 1 Subtyp"
"VTOXVT1";"Verotoxin 1 Gen-Nachweis (VT1)"
"VTOXVT2";"Verotoxin 2 Gen-Nachweis (VT2)"