'code';'codeSystem';'displayName';'parentCode';'concept_Beschreibung';'meaning';'hints';'level';'type';'relationships'
'AAGRG';'1.2.40.0.34.5.101';'aggRGene';'';'';'';'';'0';'L';''
'AAICG';'1.2.40.0.34.5.101';'aaiCGene';'';'';'';'';'0';'L';''
'ACVAGA';'1.2.40.0.34.5.101';'HCV core Ag Assay';'';'';'';'';'0';'L';''
'AHCVIA';'1.2.40.0.34.5.101';'Anti-HCV Immunoassay';'';'';'';'';'0';'L';''
'AHCVIBA';'1.2.40.0.34.5.101';'Anti-HCV Immunoblot Assay';'';'';'';'';'0';'L';''
'ANDET';'1.2.40.0.34.5.101';'Analysedetails';'';'';'';'';'0';'L';''
'ANNOT';'1.2.40.0.34.5.101';'Anmerkung jeder Art';'';'';'';'';'0';'L';''
'ANTGH';'1.2.40.0.34.5.101';'Antigen H';'';'';'';'';'0';'L';''
'ANTGH1';'1.2.40.0.34.5.101';'Antigen H1';'';'';'';'';'0';'L';''
'ANTGH2';'1.2.40.0.34.5.101';'Antigen H2';'';'';'';'';'0';'L';''
'ANTGO';'1.2.40.0.34.5.101';'Antigen O';'';'';'';'';'0';'L';''
'ARTMAL';'1.2.40.0.34.5.101';'Art der Malaria';'';'';'';'';'0';'L';''
'ARTQU';'1.2.40.0.34.5.101';'Art des Quartiers';'';'';'';'';'0';'L';''
'Antigen';'1.2.40.0.34.5.101';'Antigen';'';'';'';'';'0';'L';''
'BEFART';'1.2.40.0.34.5.101';'Befundart';'';'';'';'';'0';'L';''
'BEFNR';'1.2.40.0.34.5.101';'Befundnummer';'';'';'';'';'0';'L';''
'BEIJGT';'1.2.40.0.34.5.101';'Beijing-Genotyp';'';'';'';'';'0';'L';''
'BERLAB';'1.2.40.0.34.5.101';'Bereich Labor';'';'';'';'';'0';'L';''
'BETAGR';'1.2.40.0.34.5.101';'Beta Glucoronidase Reaktion';'';'';'';'';'0';'L';''
'BIOAR';'1.2.40.0.34.5.101';'Biovar';'';'';'';'';'0';'L';''
'BIOTPE';'1.2.40.0.34.5.101';'Biotype';'';'';'';'';'0';'L';''
'BIOTYP';'1.2.40.0.34.5.101';'Biotyp';'';'';'';'';'0';'L';''
'CDMIRU';'1.2.40.0.34.5.101';'Miru-Code';'';'';'';'';'0';'L';''
'CDQU';'1.2.40.0.34.5.101';'Code des Quartiers';'';'';'';'';'0';'L';''
'CLUST';'1.2.40.0.34.5.101';'Cluster';'';'';'';'';'0';'L';''
'CLUSTID';'1.2.40.0.34.5.101';'ClusterID';'';'';'';'';'0';'L';''
'CTINTERPRETATION';'1.2.40.0.34.5.101';'ctWert Interpretation';'';'';'';'';'0';'L';''
'CTWERT';'1.2.40.0.34.5.101';'ct-Wert';'';'';'';'';'0';'L';''
'DSPECSEND';'1.2.40.0.34.5.101';'Einsendedatum';'';'';'';'';'0';'L';''
'EHAEM';'1.2.40.0.34.5.101';'Enterohaemolyse';'';'';'';'';'0';'L';''
'ENVTSTDN';'1.2.40.0.34.5.101';'Umweltuntersuchung durchgeführt';'';'';'';'';'0';'L';''
'ERGAV';'1.2.40.0.34.5.101';'Ergebnis Aviditätstest';'';'';'';'';'0';'L';''
'ERSTIS';'1.2.40.0.34.5.101';'Erstisolat';'';'';'';'';'0';'L';''
'ESBLP';'1.2.40.0.34.5.101';'ESBLProduction';'';'';'';'';'0';'L';''
'FERSOR';'1.2.40.0.34.5.101';'Fermentation von Sorbitol';'';'';'';'';'0';'L';''
'FORT';'1.2.40.0.34.5.101';'Ferienort oder Name der Stadt';'';'';'';'';'0';'L';''
'GENOGR';'1.2.40.0.34.5.101';'Genogruppe';'';'';'';'';'0';'L';''
'GENTYP';'1.2.40.0.34.5.101';'Genotyp';'';'';'';'';'0';'L';''
'GTPOR1';'1.2.40.0.34.5.101';'Genotype Gene PorA variable region 1';'';'';'';'';'0';'L';''
'GTPOR2';'1.2.40.0.34.5.101';'Genotype Gene PorA variable region 2';'';'';'';'';'0';'L';''
'HCVRNA';'1.2.40.0.34.5.101';'HCV RNA';'';'';'';'';'0';'L';''
'HIST';'1.2.40.0.34.5.101';'Histologie';'';'';'';'';'0';'L';''
'HISTRES';'1.2.40.0.34.5.101';'Histologie-Resultat';'';'';'';'';'0';'L';''
'HPQU';'1.2.40.0.34.5.101';'Homepage des Quartiers';'';'';'';'';'0';'L';''
'IEAEGEN';'1.2.40.0.34.5.101';'Intimin EAE Gen-Nachweis';'';'';'';'';'0';'L';''
'IGGRES';'1.2.40.0.34.5.101';'Ergebnis IgG';'';'';'';'';'0';'L';''
'IGMRES';'1.2.40.0.34.5.101';'Ergebnis IgM';'';'';'';'';'0';'L';''
'IGRADN';'1.2.40.0.34.5.101';'IGRA (z.B. Quantiferon-Test) durchgeführt';'';'';'';'';'0';'L';''
'ILLLOC';'1.2.40.0.34.5.101';'wo wurde die Krankheit erworben';'';'';'';'';'0';'L';''
'INFCNTRY';'1.2.40.0.34.5.101';'Land der Infektion';'';'';'';'';'0';'L';''
'INHRES';'1.2.40.0.34.5.101';'INH-Resistenzgen (KatG/inhA PCR)';'';'';'';'';'0';'L';''
'IPDMETH';'1.2.40.0.34.5.101';'TestMethodMIC_IPD';'';'';'';'';'0';'L';''
'IPDTPMETH';'1.2.40.0.34.5.101';'TestMethodTypingIPD';'';'';'';'';'0';'L';''
'ISLTEUQ';'1.2.40.0.34.5.101';'klinische und Umweltisolate übereinstimmend (nur beantworten wenn Umweltuntersuchung = ja)';'';'';'';'';'0';'L';''
'ISLTNR';'1.2.40.0.34.5.101';'Isolatnummer RL (Isolat)';'';'';'';'';'0';'L';''
'KULTDN';'1.2.40.0.34.5.101';'Kultur (Tbc)';'';'';'';'';'0';'L';''
'Krankheitsmerkmal';'1.2.40.0.34.5.101';'Weitere Krankheitsmerkmale';'';'';'';'';'0';'L';''
'LEGFND';'1.2.40.0.34.5.101';'Legionella gefunden (nur beantworten wenn Umweltuntersuchung = ja)';'';'';'';'';'0';'L';''
'LINEAGE';'1.2.40.0.34.5.101';'SARS-COV2-Lineage';'';'';'';'';'0';'L';''
'LYSOTYP';'1.2.40.0.34.5.101';'Lysotyp';'';'';'';'';'0';'L';''
'METH1';'1.2.40.0.34.5.101';'Methode1';'';'';'';'';'0';'L';''
'METH2';'1.2.40.0.34.5.101';'Methode2';'';'';'';'';'0';'L';''
'MICRES';'1.2.40.0.34.5.101';'Mikroskopie Resultat';'';'';'';'';'0';'L';''
'MIKDN';'1.2.40.0.34.5.101';'Mikroskopie';'';'';'';'';'0';'L';''
'MLDASS';'1.2.40.0.34.5.101';'Fall bereits an ein reise-assoziiertes Überwachungssystem gemeldet';'';'';'';'';'0';'L';''
'MLTSEQTP';'1.2.40.0.34.5.101';'Multilocus Sequence Typing clonal complex of strain 2';'';'';'';'';'0';'L';''
'MONSUBT';'1.2.40.0.34.5.101';'Monoclonal Subtyp';'';'';'';'';'0';'L';''
'MUTSUSP';'1.2.40.0.34.5.101';'Verdacht auf eine der neuen Virusvarianten';'';'';'';'';'0';'L';''
'NAMPXV';'1.2.40.0.34.5.101';'Nukleinsäurenachweis Affenpockenvirus-spezifisch';'';'';'';'';'0';'L';''
'NAOPXV';'1.2.40.0.34.5.101';'Nukleinsäurenachweis Orthopoxvirus-spezifisch';'';'';'';'';'0';'L';''
'NUKDN';'1.2.40.0.34.5.101';'Nukleinsäure-Nachweis durch NAT';'';'';'';'';'0';'L';''
'OCCUPATION';'1.2.40.0.34.5.101';'Patient/in - in Beschäftigung?';'';'';'';'';'0';'L';''
'ORG';'1.2.40.0.34.5.101';'Organ, welches histologisch untersucht wurde';'';'';'';'';'0';'L';''
'ORGANNOT';'1.2.40.0.34.5.101';'Weitere Angaben zu Sonstige Organe';'';'';'';'';'0';'L';''
'PATHG';'1.2.40.0.34.5.101';'Pathogen';'';'';'';'';'0';'L';''
'PHAGTVT';'1.2.40.0.34.5.101';'Phagentyp VTEC (Serotyp O157)';'';'';'';'';'0';'L';''
'PHAGTYP';'1.2.40.0.34.5.101';'Phagentyp';'';'';'';'';'0';'L';''
'QUNAME';'1.2.40.0.34.5.101';'Name des Quartiers';'';'';'';'';'0';'L';''
'QUTEL';'1.2.40.0.34.5.101';'Telefonnummer des Quartiers';'';'';'';'';'0';'L';''
'RESIGRA';'1.2.40.0.34.5.101';'IGRA Ergebnis';'';'';'';'';'0';'L';''
'RESKULT';'1.2.40.0.34.5.101';'Kultur-Resultat';'';'';'';'';'0';'L';''
'RESNAT';'1.2.40.0.34.5.101';'NAT Resultat';'';'';'';'';'0';'L';''
'RESVIR';'1.2.40.0.34.5.101';'Ergebnis Virusnachweis oder Isolierung';'';'';'';'';'0';'L';''
'RFLPCD';'1.2.40.0.34.5.101';'RFLP-Code';'';'';'';'';'0';'L';''
'RIBOTYP';'1.2.40.0.34.5.101';'Ribotype';'';'';'';'';'0';'L';''
'RMPRESG';'1.2.40.0.34.5.101';'RMP-Resistenzgen (PCR)';'';'';'';'';'0';'L';''
'ROOMNR';'1.2.40.0.34.5.101';'Zimmernummer';'';'';'';'';'0';'L';''
'ResultSeqType';'1.2.40.0.34.5.101';'Ergebnis der Sequenzierung';'';'';'';'';'0';'L';''
'SEROGRP';'1.2.40.0.34.5.101';'Serogruppe';'';'';'';'';'0';'L';''
'SEROTPFVR';'1.2.40.0.34.5.101';'Serotype Gene FetA VR variable region';'';'';'';'';'0';'L';''
'SEROTYP';'1.2.40.0.34.5.101';'Serotyp';'';'';'';'';'0';'L';''
'SGEN';'1.2.40.0.34.5.101';'S-Gen Mutationen';'';'';'';'';'0';'L';''
'SPECCOLM';'1.2.40.0.34.5.101';'Materialgewinnung';'';'';'';'';'0';'L';''
'SPECIES';'1.2.40.0.34.5.101';'Species';'';'';'';'';'0';'L';''
'SPECLOC';'1.2.40.0.34.5.101';'Ort der Probenentnahme (nur beantworten wenn Umweltuntersuchung = ja)';'';'';'';'';'0';'L';''
'SPEZAKR';'1.2.40.0.34.5.101';'spezielle Antikörperreaktion (nur bei HUS-Fällen auszufüllen)';'';'';'';'';'0';'L';''
'SPOLCD';'1.2.40.0.34.5.101';'Spoligo-Code';'';'';'';'';'0';'L';''
'SQTYPRES';'1.2.40.0.34.5.101';'Ergebnis Sequenz-Typ';'';'';'';'';'0';'L';''
'STATHBE';'1.2.40.0.34.5.101';'HBeAgStatus';'';'';'';'';'0';'L';''
'STATHBV';'1.2.40.0.34.5.101';'HBV Status';'';'';'';'';'0';'L';''
'STATHCV';'1.2.40.0.34.5.101';'HCV Status';'';'';'';'';'0';'L';''
'STRAINNR';'1.2.40.0.34.5.101';'Strain Number';'';'';'';'';'0';'L';''
'SUSPNOTE';'1.2.40.0.34.5.101';'Anmerkung zur Verdachtsvariante';'';'';'';'';'0';'L';''
'SeqConfirm';'1.2.40.0.34.5.101';'Affenpockenvirusbestätigung durch Sequenzierung';'';'';'';'';'0';'L';''
'TESTLOC';'1.2.40.0.34.5.101';'Untersuchung des Ortes';'';'';'';'';'0';'L';''
'TRVAGENCY';'1.2.40.0.34.5.101';'Name des Reiseveranstalters';'';'';'';'';'0';'L';''
'TRVCNTRY';'1.2.40.0.34.5.101';'Reiseland';'';'';'';'';'0';'L';''
'TRVREC';'1.2.40.0.34.5.101';'Travelrecord';'';'';'';'';'0';'L';''
'TRVREG';'1.2.40.0.34.5.101';'Reiseregion';'';'';'';'';'0';'L';''
'TUBSKNDN';'1.2.40.0.34.5.101';'Tuberkulin-Hauttest durchgeführt';'';'';'';'';'0';'L';''
'TUBSKNRES';'1.2.40.0.34.5.101';'Tuberkulin-Hauttest Ergebnis';'';'';'';'';'0';'L';''
'VEROPRD';'1.2.40.0.34.5.101';'Produktion von Verotoxin';'';'';'';'';'0';'L';''
'VTOX2SUBT';'1.2.40.0.34.5.101';'Verotoxin 2 Subtyp';'';'';'';'';'0';'L';''
'VTOXGEN';'1.2.40.0.34.5.101';'Verotoxin Gen-Nachweis';'';'';'';'';'0';'L';''
'VTOXSUBT';'1.2.40.0.34.5.101';'Verotoxin 1 Subtyp';'';'';'';'';'0';'L';''
'VTOXVT1';'1.2.40.0.34.5.101';'Verotoxin 1 Gen-Nachweis (VT1)';'';'';'';'';'0';'L';''
'VTOXVT2';'1.2.40.0.34.5.101';'Verotoxin 2 Gen-Nachweis (VT2)';'';'';'';'';'0';'L';''
