{
  "resourceType": "CodeSystem",
  "id": "ems-hcv-rna",
  "url": "https://termgit.elga.gv.at/CodeSystem/ems-hcv-rna",
  "identifier": [
    {
      "use": "official",
      "system": "urn:ietf:rfc:3986",
      "value": "urn:oid:1.2.40.0.34.5.106"
    }
  ],
  "version": "1.0.0+20230131",
  "name": "ems-hcv-rna",
  "title": "EMS_HCV_RNA",
  "status": "active",
  "date": "2013-01-10",
  "description": "Weitere Angabe zum HCV-RNA Test",
  "content": "complete",
  "count": 4,
  "concept": [
    {
      "code": "N",
      "display": "Nachweisbar"
    },
    {
      "code": "NAW",
      "display": "Invalid bzw. nicht auswertbar"
    },
    {
      "code": "NN",
      "display": "nicht nachweisbar"
    },
    {
      "code": "NOTEST",
      "display": "nicht durchgef\u00fchrt"
    }
  ]
}