{
  "resourceType": "CodeSystem",
  "id": "elga-auditparticipantobjecttype",
  "url": "https://termgit.elga.gv.at/CodeSystem/elga-auditparticipantobjecttype",
  "identifier": [
    {
      "use": "official",
      "system": "urn:ietf:rfc:3986",
      "value": "urn:oid:1.2.40.0.34.5.153"
    }
  ],
  "version": "1.0.1+20240129",
  "name": "elga-auditparticipantobjecttype",
  "title": "ELGA_AuditParticipantObjectType",
  "status": "active",
  "date": "2024-01-29",
  "publisher": "see",
  "contact": [
    {
      "name": "https://www.elga.gv.at",
      "telecom": [
        {
          "system": "url",
          "value": "https://www.elga.gv.at"
        }
      ]
    }
  ],
  "description": "Codeliste der ELGA spezifischen Audit Participant Object Type Codes. Der Audit Participant Object Type beschreibt die Art eines Objekts, welches im Audit Event referenziert ist.",
  "content": "complete",
  "count": 5,
  "concept": [
    {
      "code": "0",
      "display": "ELGA Objekt"
    },
    {
      "code": "100",
      "display": "Policy"
    },
    {
      "code": "110",
      "display": "Kontaktbest\u00e4tigung"
    },
    {
      "code": "120",
      "display": "Security Token"
    },
    {
      "code": "130",
      "display": "Vollmacht"
    }
  ]
}