{
  "resourceType": "CodeSystem",
  "id": "hl7-role-class",
  "url": "https://termgit.elga.gv.at/CodeSystem/hl7-role-class",
  "identifier": [
    {
      "use": "official",
      "system": "urn:ietf:rfc:3986",
      "value": "urn:oid:2.16.840.1.113883.5.110"
    }
  ],
  "version": "1.0.0+20230131",
  "name": "hl7-role-class",
  "title": "HL7 Role Class",
  "status": "retired",
  "date": "2023-06-30",
  "content": "complete",
  "count": 108,
  "property": [
    {
      "code": "child",
      "type": "code"
    },
    {
      "code": "parent",
      "type": "code"
    }
  ],
  "concept": [
    {
      "code": "CHILD",
      "display": "child"
    },
    {
      "code": "CRED",
      "display": "credentialed entity"
    },
    {
      "code": "NURPRAC",
      "display": "nurse practitioner"
    },
    {
      "code": "NURS",
      "display": "nurse"
    },
    {
      "code": "PA",
      "display": "physician assistant"
    },
    {
      "code": "PHYS",
      "display": "physician"
    },
    {
      "code": "ROL",
      "display": "role",
      "property": [
        {
          "code": "child",
          "valueCode": "_RoleClassAssociative"
        },
        {
          "code": "child",
          "valueCode": "_RoleClassOntological"
        },
        {
          "code": "child",
          "valueCode": "_RoleClassPartitive"
        }
      ]
    },
    {
      "code": "_RoleClassAssociative",
      "display": "RoleClassAssociative",
      "property": [
        {
          "code": "parent",
          "valueCode": "ROL"
        },
        {
          "code": "child",
          "valueCode": "_RoleClassMutualRelationship"
        },
        {
          "code": "child",
          "valueCode": "_RoleClassPassive"
        }
      ]
    },
    {
      "code": "_RoleClassMutualRelationship",
      "display": "RoleClassMutualRelationship",
      "property": [
        {
          "code": "parent",
          "valueCode": "_RoleClassAssociative"
        },
        {
          "code": "child",
          "valueCode": "CAREGIVER"
        },
        {
          "code": "child",
          "valueCode": "PRS"
        },
        {
          "code": "child",
          "valueCode": "_RoleClassRelationshipFormal"
        }
      ]
    },
    {
      "code": "CAREGIVER",
      "display": "caregiver",
      "property": [
        {
          "code": "parent",
          "valueCode": "_RoleClassMutualRelationship"
        }
      ]
    },
    {
      "code": "PRS",
      "display": "personal relationship",
      "property": [
        {
          "code": "parent",
          "valueCode": "_RoleClassMutualRelationship"
        }
      ]
    },
    {
      "code": "_RoleClassRelationshipFormal",
      "display": "RoleClassRelationshipFormal",
      "property": [
        {
          "code": "parent",
          "valueCode": "_RoleClassMutualRelationship"
        },
        {
          "code": "child",
          "valueCode": "AFFL"
        },
        {
          "code": "child",
          "valueCode": "AGNT"
        },
        {
          "code": "child",
          "valueCode": "CIT"
        },
        {
          "code": "child",
          "valueCode": "COVPTY"
        },
        {
          "code": "child",
          "valueCode": "CRINV"
        },
        {
          "code": "child",
          "valueCode": "CRSPNSR"
        },
        {
          "code": "child",
          "valueCode": "EMP"
        },
        {
          "code": "child",
          "valueCode": "GUAR"
        },
        {
          "code": "child",
          "valueCode": "INVSBJ"
        },
        {
          "code": "child",
          "valueCode": "LIC"
        },
        {
          "code": "child",
          "valueCode": "PAT"
        },
        {
          "code": "child",
          "valueCode": "PAYEE"
        },
        {
          "code": "child",
          "valueCode": "PAYOR"
        },
        {
          "code": "child",
          "valueCode": "POLHOLD"
        },
        {
          "code": "child",
          "valueCode": "QUAL"
        },
        {
          "code": "child",
          "valueCode": "SPNSR"
        },
        {
          "code": "child",
          "valueCode": "STD"
        },
        {
          "code": "child",
          "valueCode": "UNDWRT"
        }
      ]
    },
    {
      "code": "AFFL",
      "display": "affiliate",
      "property": [
        {
          "code": "parent",
          "valueCode": "_RoleClassRelationshipFormal"
        }
      ]
    },
    {
      "code": "AGNT",
      "display": "agent",
      "property": [
        {
          "code": "parent",
          "valueCode": "_RoleClassRelationshipFormal"
        },
        {
          "code": "child",
          "valueCode": "ASSIGNED"
        },
        {
          "code": "child",
          "valueCode": "CON"
        },
        {
          "code": "child",
          "valueCode": "GUARD"
        }
      ]
    },
    {
      "code": "ASSIGNED",
      "display": "assigned entity",
      "property": [
        {
          "code": "parent",
          "valueCode": "AGNT"
        },
        {
          "code": "child",
          "valueCode": "COMPAR"
        },
        {
          "code": "child",
          "valueCode": "SGNOFF"
        }
      ]
    },
    {
      "code": "COMPAR",
      "display": "commissioning party",
      "property": [
        {
          "code": "parent",
          "valueCode": "ASSIGNED"
        }
      ]
    },
    {
      "code": "SGNOFF",
      "display": "signing authority or officer",
      "property": [
        {
          "code": "parent",
          "valueCode": "ASSIGNED"
        }
      ]
    },
    {
      "code": "CON",
      "display": "contact",
      "property": [
        {
          "code": "parent",
          "valueCode": "AGNT"
        },
        {
          "code": "child",
          "valueCode": "ECON"
        },
        {
          "code": "child",
          "valueCode": "NOK"
        }
      ]
    },
    {
      "code": "ECON",
      "display": "emergency contact",
      "property": [
        {
          "code": "parent",
          "valueCode": "CON"
        }
      ]
    },
    {
      "code": "NOK",
      "display": "next of kin",
      "property": [
        {
          "code": "parent",
          "valueCode": "CON"
        }
      ]
    },
    {
      "code": "GUARD",
      "display": "guardian",
      "property": [
        {
          "code": "parent",
          "valueCode": "AGNT"
        }
      ]
    },
    {
      "code": "CIT",
      "display": "citizen",
      "property": [
        {
          "code": "parent",
          "valueCode": "_RoleClassRelationshipFormal"
        }
      ]
    },
    {
      "code": "COVPTY",
      "display": "covered party",
      "property": [
        {
          "code": "parent",
          "valueCode": "_RoleClassRelationshipFormal"
        },
        {
          "code": "child",
          "valueCode": "CLAIM"
        },
        {
          "code": "child",
          "valueCode": "NAMED"
        },
        {
          "code": "child",
          "valueCode": "PROG"
        }
      ]
    },
    {
      "code": "CLAIM",
      "display": "claimant",
      "property": [
        {
          "code": "parent",
          "valueCode": "COVPTY"
        }
      ]
    },
    {
      "code": "NAMED",
      "display": "named insured",
      "property": [
        {
          "code": "parent",
          "valueCode": "COVPTY"
        },
        {
          "code": "child",
          "valueCode": "DEPEN"
        },
        {
          "code": "child",
          "valueCode": "INDIV"
        },
        {
          "code": "child",
          "valueCode": "SUBSCR"
        }
      ]
    },
    {
      "code": "DEPEN",
      "display": "dependent",
      "property": [
        {
          "code": "parent",
          "valueCode": "NAMED"
        }
      ]
    },
    {
      "code": "INDIV",
      "display": "individual",
      "property": [
        {
          "code": "parent",
          "valueCode": "NAMED"
        }
      ]
    },
    {
      "code": "SUBSCR",
      "display": "subscriber",
      "property": [
        {
          "code": "parent",
          "valueCode": "NAMED"
        }
      ]
    },
    {
      "code": "PROG",
      "display": "program eligible",
      "property": [
        {
          "code": "parent",
          "valueCode": "COVPTY"
        }
      ]
    },
    {
      "code": "CRINV",
      "display": "clinical research investigator",
      "property": [
        {
          "code": "parent",
          "valueCode": "_RoleClassRelationshipFormal"
        }
      ]
    },
    {
      "code": "CRSPNSR",
      "display": "clinical research sponsor",
      "property": [
        {
          "code": "parent",
          "valueCode": "_RoleClassRelationshipFormal"
        }
      ]
    },
    {
      "code": "EMP",
      "display": "employee",
      "property": [
        {
          "code": "parent",
          "valueCode": "_RoleClassRelationshipFormal"
        },
        {
          "code": "child",
          "valueCode": "MIL"
        }
      ]
    },
    {
      "code": "MIL",
      "display": "military person",
      "property": [
        {
          "code": "parent",
          "valueCode": "EMP"
        }
      ]
    },
    {
      "code": "GUAR",
      "display": "guarantor",
      "property": [
        {
          "code": "parent",
          "valueCode": "_RoleClassRelationshipFormal"
        }
      ]
    },
    {
      "code": "INVSBJ",
      "display": "Investigation Subject",
      "property": [
        {
          "code": "parent",
          "valueCode": "_RoleClassRelationshipFormal"
        },
        {
          "code": "child",
          "valueCode": "CASEBJ"
        },
        {
          "code": "child",
          "valueCode": "RESBJ"
        }
      ]
    },
    {
      "code": "CASEBJ",
      "display": "Case Subject",
      "property": [
        {
          "code": "parent",
          "valueCode": "INVSBJ"
        }
      ]
    },
    {
      "code": "RESBJ",
      "display": "research subject",
      "property": [
        {
          "code": "parent",
          "valueCode": "INVSBJ"
        }
      ]
    },
    {
      "code": "LIC",
      "display": "licensed entity",
      "property": [
        {
          "code": "parent",
          "valueCode": "_RoleClassRelationshipFormal"
        },
        {
          "code": "child",
          "valueCode": "NOT"
        },
        {
          "code": "child",
          "valueCode": "PROV"
        }
      ]
    },
    {
      "code": "NOT",
      "display": "notary public",
      "property": [
        {
          "code": "parent",
          "valueCode": "LIC"
        }
      ]
    },
    {
      "code": "PROV",
      "display": "healthcare provider",
      "property": [
        {
          "code": "parent",
          "valueCode": "LIC"
        }
      ]
    },
    {
      "code": "PAT",
      "display": "patient",
      "property": [
        {
          "code": "parent",
          "valueCode": "_RoleClassRelationshipFormal"
        }
      ]
    },
    {
      "code": "PAYEE",
      "display": "payee",
      "property": [
        {
          "code": "parent",
          "valueCode": "_RoleClassRelationshipFormal"
        }
      ]
    },
    {
      "code": "PAYOR",
      "display": "invoice payor",
      "property": [
        {
          "code": "parent",
          "valueCode": "_RoleClassRelationshipFormal"
        }
      ]
    },
    {
      "code": "POLHOLD",
      "display": "policy holder",
      "property": [
        {
          "code": "parent",
          "valueCode": "_RoleClassRelationshipFormal"
        }
      ]
    },
    {
      "code": "QUAL",
      "display": "qualified entity",
      "property": [
        {
          "code": "parent",
          "valueCode": "_RoleClassRelationshipFormal"
        }
      ]
    },
    {
      "code": "SPNSR",
      "display": "coverage sponsor",
      "property": [
        {
          "code": "parent",
          "valueCode": "_RoleClassRelationshipFormal"
        }
      ]
    },
    {
      "code": "STD",
      "display": "student",
      "property": [
        {
          "code": "parent",
          "valueCode": "_RoleClassRelationshipFormal"
        }
      ]
    },
    {
      "code": "UNDWRT",
      "display": "underwriter",
      "property": [
        {
          "code": "parent",
          "valueCode": "_RoleClassRelationshipFormal"
        }
      ]
    },
    {
      "code": "_RoleClassPassive",
      "display": "RoleClassPassive",
      "property": [
        {
          "code": "parent",
          "valueCode": "_RoleClassAssociative"
        },
        {
          "code": "child",
          "valueCode": "ADJY"
        },
        {
          "code": "child",
          "valueCode": "ADMM"
        },
        {
          "code": "child",
          "valueCode": "BIRTHPL"
        },
        {
          "code": "child",
          "valueCode": "DEATHPLC"
        },
        {
          "code": "child",
          "valueCode": "DST"
        },
        {
          "code": "child",
          "valueCode": "EXPR"
        },
        {
          "code": "child",
          "valueCode": "HLD"
        },
        {
          "code": "child",
          "valueCode": "HLTHCHRT"
        },
        {
          "code": "child",
          "valueCode": "IDENT"
        },
        {
          "code": "child",
          "valueCode": "MANU"
        },
        {
          "code": "child",
          "valueCode": "MNT"
        },
        {
          "code": "child",
          "valueCode": "OWN"
        },
        {
          "code": "child",
          "valueCode": "RGPR"
        },
        {
          "code": "child",
          "valueCode": "SDLOC"
        },
        {
          "code": "child",
          "valueCode": "TERR"
        },
        {
          "code": "child",
          "valueCode": "USED"
        },
        {
          "code": "child",
          "valueCode": "WRTE"
        }
      ]
    },
    {
      "code": "ADJY",
      "display": "adjacency",
      "property": [
        {
          "code": "parent",
          "valueCode": "_RoleClassPassive"
        },
        {
          "code": "child",
          "valueCode": "CONC"
        }
      ]
    },
    {
      "code": "CONC",
      "display": "connection",
      "property": [
        {
          "code": "parent",
          "valueCode": "ADJY"
        },
        {
          "code": "child",
          "valueCode": "BOND"
        },
        {
          "code": "child",
          "valueCode": "CONY"
        }
      ]
    },
    {
      "code": "BOND",
      "display": "molecular bond",
      "property": [
        {
          "code": "parent",
          "valueCode": "CONC"
        }
      ]
    },
    {
      "code": "CONY",
      "display": "continuity",
      "property": [
        {
          "code": "parent",
          "valueCode": "CONC"
        }
      ]
    },
    {
      "code": "ADMM",
      "display": "Administerable Material",
      "property": [
        {
          "code": "parent",
          "valueCode": "_RoleClassPassive"
        }
      ]
    },
    {
      "code": "BIRTHPL",
      "display": "birthplace",
      "property": [
        {
          "code": "parent",
          "valueCode": "_RoleClassPassive"
        }
      ]
    },
    {
      "code": "DEATHPLC",
      "display": "place of death",
      "property": [
        {
          "code": "parent",
          "valueCode": "_RoleClassPassive"
        }
      ]
    },
    {
      "code": "DST",
      "display": "distributed material",
      "property": [
        {
          "code": "parent",
          "valueCode": "_RoleClassPassive"
        },
        {
          "code": "child",
          "valueCode": "RET"
        }
      ]
    },
    {
      "code": "RET",
      "display": "retailed material",
      "property": [
        {
          "code": "parent",
          "valueCode": "DST"
        }
      ]
    },
    {
      "code": "EXPR",
      "display": "exposed entity",
      "property": [
        {
          "code": "parent",
          "valueCode": "_RoleClassPassive"
        }
      ]
    },
    {
      "code": "HLD",
      "display": "held entity",
      "property": [
        {
          "code": "parent",
          "valueCode": "_RoleClassPassive"
        }
      ]
    },
    {
      "code": "HLTHCHRT",
      "display": "health chart",
      "property": [
        {
          "code": "parent",
          "valueCode": "_RoleClassPassive"
        }
      ]
    },
    {
      "code": "IDENT",
      "display": "identified entity",
      "property": [
        {
          "code": "parent",
          "valueCode": "_RoleClassPassive"
        }
      ]
    },
    {
      "code": "MANU",
      "display": "manufactured product",
      "property": [
        {
          "code": "parent",
          "valueCode": "_RoleClassPassive"
        },
        {
          "code": "child",
          "valueCode": "THER"
        }
      ]
    },
    {
      "code": "THER",
      "display": "therapeutic agent",
      "property": [
        {
          "code": "parent",
          "valueCode": "MANU"
        }
      ]
    },
    {
      "code": "MNT",
      "display": "maintained entity",
      "property": [
        {
          "code": "parent",
          "valueCode": "_RoleClassPassive"
        }
      ]
    },
    {
      "code": "OWN",
      "display": "owned entity",
      "property": [
        {
          "code": "parent",
          "valueCode": "_RoleClassPassive"
        }
      ]
    },
    {
      "code": "RGPR",
      "display": "regulated product",
      "property": [
        {
          "code": "parent",
          "valueCode": "_RoleClassPassive"
        }
      ]
    },
    {
      "code": "SDLOC",
      "display": "service delivery location",
      "property": [
        {
          "code": "parent",
          "valueCode": "_RoleClassPassive"
        },
        {
          "code": "child",
          "valueCode": "DSDLOC"
        },
        {
          "code": "child",
          "valueCode": "ISDLOC"
        }
      ]
    },
    {
      "code": "DSDLOC",
      "display": "dedicated service delivery location",
      "property": [
        {
          "code": "parent",
          "valueCode": "SDLOC"
        }
      ]
    },
    {
      "code": "ISDLOC",
      "display": "incidental service delivery location",
      "property": [
        {
          "code": "parent",
          "valueCode": "SDLOC"
        }
      ]
    },
    {
      "code": "TERR",
      "display": "territory of authority",
      "property": [
        {
          "code": "parent",
          "valueCode": "_RoleClassPassive"
        }
      ]
    },
    {
      "code": "USED",
      "display": "used entity",
      "property": [
        {
          "code": "parent",
          "valueCode": "_RoleClassPassive"
        }
      ]
    },
    {
      "code": "WRTE",
      "display": "warranted product",
      "property": [
        {
          "code": "parent",
          "valueCode": "_RoleClassPassive"
        }
      ]
    },
    {
      "code": "_RoleClassOntological",
      "display": "RoleClassOntological",
      "property": [
        {
          "code": "parent",
          "valueCode": "ROL"
        },
        {
          "code": "child",
          "valueCode": "EQUIV"
        },
        {
          "code": "child",
          "valueCode": "GEN"
        },
        {
          "code": "child",
          "valueCode": "INST"
        },
        {
          "code": "child",
          "valueCode": "SUBS"
        }
      ]
    },
    {
      "code": "EQUIV",
      "display": "equivalent entity",
      "property": [
        {
          "code": "parent",
          "valueCode": "_RoleClassOntological"
        },
        {
          "code": "child",
          "valueCode": "SAME"
        },
        {
          "code": "child",
          "valueCode": "SUBY"
        }
      ]
    },
    {
      "code": "SAME",
      "display": "same",
      "property": [
        {
          "code": "parent",
          "valueCode": "EQUIV"
        }
      ]
    },
    {
      "code": "SUBY",
      "display": "subsumed by",
      "property": [
        {
          "code": "parent",
          "valueCode": "EQUIV"
        }
      ]
    },
    {
      "code": "GEN",
      "display": "has generalization",
      "property": [
        {
          "code": "parent",
          "valueCode": "_RoleClassOntological"
        },
        {
          "code": "child",
          "valueCode": "GRIC"
        }
      ]
    },
    {
      "code": "GRIC",
      "display": "has generic",
      "property": [
        {
          "code": "parent",
          "valueCode": "GEN"
        }
      ]
    },
    {
      "code": "INST",
      "display": "instance",
      "property": [
        {
          "code": "parent",
          "valueCode": "_RoleClassOntological"
        }
      ]
    },
    {
      "code": "SUBS",
      "display": "subsumer",
      "property": [
        {
          "code": "parent",
          "valueCode": "_RoleClassOntological"
        }
      ]
    },
    {
      "code": "_RoleClassPartitive",
      "display": "RoleClassPartitive",
      "property": [
        {
          "code": "parent",
          "valueCode": "ROL"
        },
        {
          "code": "child",
          "valueCode": "CONT"
        },
        {
          "code": "child",
          "valueCode": "EXPAGTCAR"
        },
        {
          "code": "child",
          "valueCode": "INGR"
        },
        {
          "code": "child",
          "valueCode": "LOCE"
        },
        {
          "code": "child",
          "valueCode": "MBR"
        },
        {
          "code": "child",
          "valueCode": "PART"
        },
        {
          "code": "child",
          "valueCode": "SPEC"
        }
      ]
    },
    {
      "code": "CONT",
      "display": "content",
      "property": [
        {
          "code": "parent",
          "valueCode": "_RoleClassPartitive"
        }
      ]
    },
    {
      "code": "EXPAGTCAR",
      "display": "exposure agent carrier",
      "property": [
        {
          "code": "parent",
          "valueCode": "_RoleClassPartitive"
        },
        {
          "code": "child",
          "valueCode": "EXPVECTOR"
        },
        {
          "code": "child",
          "valueCode": "FOMITE"
        }
      ]
    },
    {
      "code": "EXPVECTOR",
      "display": "exposure vector",
      "property": [
        {
          "code": "parent",
          "valueCode": "EXPAGTCAR"
        }
      ]
    },
    {
      "code": "FOMITE",
      "display": "fomite",
      "property": [
        {
          "code": "parent",
          "valueCode": "EXPAGTCAR"
        }
      ]
    },
    {
      "code": "INGR",
      "display": "ingredient",
      "property": [
        {
          "code": "parent",
          "valueCode": "_RoleClassPartitive"
        },
        {
          "code": "child",
          "valueCode": "ACTI"
        },
        {
          "code": "child",
          "valueCode": "ADJV"
        },
        {
          "code": "child",
          "valueCode": "ADTV"
        },
        {
          "code": "child",
          "valueCode": "BASE"
        },
        {
          "code": "child",
          "valueCode": "IACT"
        },
        {
          "code": "child",
          "valueCode": "MECH"
        }
      ]
    },
    {
      "code": "ACTI",
      "display": "active ingredient",
      "property": [
        {
          "code": "parent",
          "valueCode": "INGR"
        },
        {
          "code": "child",
          "valueCode": "ACTIB"
        },
        {
          "code": "child",
          "valueCode": "ACTIM"
        },
        {
          "code": "child",
          "valueCode": "ACTIR"
        }
      ]
    },
    {
      "code": "ACTIB",
      "display": "active ingredient - basis of strength",
      "property": [
        {
          "code": "parent",
          "valueCode": "ACTI"
        }
      ]
    },
    {
      "code": "ACTIM",
      "display": "active ingredient - moiety is basis of strength",
      "property": [
        {
          "code": "parent",
          "valueCode": "ACTI"
        }
      ]
    },
    {
      "code": "ACTIR",
      "display": "active ingredient - reference substance is basis of strength",
      "property": [
        {
          "code": "parent",
          "valueCode": "ACTI"
        }
      ]
    },
    {
      "code": "ADJV",
      "display": "adjuvant",
      "property": [
        {
          "code": "parent",
          "valueCode": "INGR"
        }
      ]
    },
    {
      "code": "ADTV",
      "display": "additive",
      "property": [
        {
          "code": "parent",
          "valueCode": "INGR"
        }
      ]
    },
    {
      "code": "BASE",
      "display": "base",
      "property": [
        {
          "code": "parent",
          "valueCode": "INGR"
        }
      ]
    },
    {
      "code": "IACT",
      "display": "inactive ingredient",
      "property": [
        {
          "code": "parent",
          "valueCode": "INGR"
        },
        {
          "code": "child",
          "valueCode": "COLR"
        },
        {
          "code": "child",
          "valueCode": "FLVR"
        },
        {
          "code": "child",
          "valueCode": "PRSV"
        },
        {
          "code": "child",
          "valueCode": "STBL"
        }
      ]
    },
    {
      "code": "COLR",
      "display": "color additive",
      "property": [
        {
          "code": "parent",
          "valueCode": "IACT"
        }
      ]
    },
    {
      "code": "FLVR",
      "display": "flavor additive",
      "property": [
        {
          "code": "parent",
          "valueCode": "IACT"
        }
      ]
    },
    {
      "code": "PRSV",
      "display": "preservative",
      "property": [
        {
          "code": "parent",
          "valueCode": "IACT"
        }
      ]
    },
    {
      "code": "STBL",
      "display": "stabilizer",
      "property": [
        {
          "code": "parent",
          "valueCode": "IACT"
        }
      ]
    },
    {
      "code": "MECH",
      "display": "mechanical ingredient",
      "property": [
        {
          "code": "parent",
          "valueCode": "INGR"
        }
      ]
    },
    {
      "code": "LOCE",
      "display": "located entity",
      "property": [
        {
          "code": "parent",
          "valueCode": "_RoleClassPartitive"
        },
        {
          "code": "child",
          "valueCode": "STOR"
        }
      ]
    },
    {
      "code": "STOR",
      "display": "stored entity",
      "property": [
        {
          "code": "parent",
          "valueCode": "LOCE"
        }
      ]
    },
    {
      "code": "MBR",
      "display": "member",
      "property": [
        {
          "code": "parent",
          "valueCode": "_RoleClassPartitive"
        }
      ]
    },
    {
      "code": "PART",
      "display": "part",
      "property": [
        {
          "code": "parent",
          "valueCode": "_RoleClassPartitive"
        },
        {
          "code": "child",
          "valueCode": "ACTM"
        }
      ]
    },
    {
      "code": "ACTM",
      "display": "active moiety",
      "property": [
        {
          "code": "parent",
          "valueCode": "PART"
        }
      ]
    },
    {
      "code": "SPEC",
      "display": "specimen",
      "property": [
        {
          "code": "parent",
          "valueCode": "_RoleClassPartitive"
        },
        {
          "code": "child",
          "valueCode": "ALQT"
        },
        {
          "code": "child",
          "valueCode": "ISLT"
        }
      ]
    },
    {
      "code": "ALQT",
      "display": "aliquot",
      "property": [
        {
          "code": "parent",
          "valueCode": "SPEC"
        }
      ]
    },
    {
      "code": "ISLT",
      "display": "isolate",
      "property": [
        {
          "code": "parent",
          "valueCode": "SPEC"
        }
      ]
    }
  ]
}