'code';'codeSystem';'displayName';'parentCode';'concept_Beschreibung';'meaning';'hints';'level';'type';'relationships'
'CHILD';'2.16.840.1.113883.5.110';'child';;;;;'0';'L';
'CRED';'2.16.840.1.113883.5.110';'credentialed entity';;;;;'0';'L';
'NURPRAC';'2.16.840.1.113883.5.110';'nurse practitioner';;;;;'0';'L';
'NURS';'2.16.840.1.113883.5.110';'nurse';;;;;'0';'L';
'PA';'2.16.840.1.113883.5.110';'physician assistant';;;;;'0';'L';
'PHYS';'2.16.840.1.113883.5.110';'physician';;;;;'0';'L';
'ROL';'2.16.840.1.113883.5.110';'role';;;;;'0';'S';
'_RoleClassAssociative';'2.16.840.1.113883.5.110';'RoleClassAssociative';;;;;'1';'S';
'_RoleClassMutualRelationship';'2.16.840.1.113883.5.110';'RoleClassMutualRelationship';;;;;'2';'S';
'CAREGIVER';'2.16.840.1.113883.5.110';'caregiver';;;;;'3';'L';
'PRS';'2.16.840.1.113883.5.110';'personal relationship';;;;;'3';'L';
'_RoleClassRelationshipFormal';'2.16.840.1.113883.5.110';'RoleClassRelationshipFormal';;;;;'3';'S';
'AFFL';'2.16.840.1.113883.5.110';'affiliate';;;;;'4';'L';
'AGNT';'2.16.840.1.113883.5.110';'agent';;;;;'4';'S';
'ASSIGNED';'2.16.840.1.113883.5.110';'assigned entity';;;;;'5';'S';
'COMPAR';'2.16.840.1.113883.5.110';'commissioning party';;;;;'6';'L';
'SGNOFF';'2.16.840.1.113883.5.110';'signing authority or officer';;;;;'6';'L';
'CON';'2.16.840.1.113883.5.110';'contact';;;;;'5';'S';
'ECON';'2.16.840.1.113883.5.110';'emergency contact';;;;;'6';'L';
'NOK';'2.16.840.1.113883.5.110';'next of kin';;;;;'6';'L';
'GUARD';'2.16.840.1.113883.5.110';'guardian';;;;;'5';'L';
'CIT';'2.16.840.1.113883.5.110';'citizen';;;;;'4';'L';
'COVPTY';'2.16.840.1.113883.5.110';'covered party';;;;;'4';'S';
'CLAIM';'2.16.840.1.113883.5.110';'claimant';;;;;'5';'L';
'NAMED';'2.16.840.1.113883.5.110';'named insured';;;;;'5';'S';
'DEPEN';'2.16.840.1.113883.5.110';'dependent';;;;;'6';'L';
'INDIV';'2.16.840.1.113883.5.110';'individual';;;;;'6';'L';
'SUBSCR';'2.16.840.1.113883.5.110';'subscriber';;;;;'6';'L';
'PROG';'2.16.840.1.113883.5.110';'program eligible';;;;;'5';'L';
'CRINV';'2.16.840.1.113883.5.110';'clinical research investigator';;;;;'4';'L';
'CRSPNSR';'2.16.840.1.113883.5.110';'clinical research sponsor';;;;;'4';'L';
'EMP';'2.16.840.1.113883.5.110';'employee';;;;;'4';'S';
'MIL';'2.16.840.1.113883.5.110';'military person';;;;;'5';'L';
'GUAR';'2.16.840.1.113883.5.110';'guarantor';;;;;'4';'L';
'INVSBJ';'2.16.840.1.113883.5.110';'Investigation Subject';;;;;'4';'S';
'CASEBJ';'2.16.840.1.113883.5.110';'Case Subject';;;;;'5';'L';
'RESBJ';'2.16.840.1.113883.5.110';'research subject';;;;;'5';'L';
'LIC';'2.16.840.1.113883.5.110';'licensed entity';;;;;'4';'S';
'NOT';'2.16.840.1.113883.5.110';'notary public';;;;;'5';'L';
'PROV';'2.16.840.1.113883.5.110';'healthcare provider';;;;;'5';'L';
'PAT';'2.16.840.1.113883.5.110';'patient';;;;;'4';'L';
'PAYEE';'2.16.840.1.113883.5.110';'payee';;;;;'4';'L';
'PAYOR';'2.16.840.1.113883.5.110';'invoice payor';;;;;'4';'L';
'POLHOLD';'2.16.840.1.113883.5.110';'policy holder';;;;;'4';'L';
'QUAL';'2.16.840.1.113883.5.110';'qualified entity';;;;;'4';'L';
'SPNSR';'2.16.840.1.113883.5.110';'coverage sponsor';;;;;'4';'L';
'STD';'2.16.840.1.113883.5.110';'student';;;;;'4';'L';
'UNDWRT';'2.16.840.1.113883.5.110';'underwriter';;;;;'4';'L';
'_RoleClassPassive';'2.16.840.1.113883.5.110';'RoleClassPassive';;;;;'2';'S';
'ADJY';'2.16.840.1.113883.5.110';'adjacency';;;;;'3';'S';
'CONC';'2.16.840.1.113883.5.110';'connection';;;;;'4';'S';
'BOND';'2.16.840.1.113883.5.110';'molecular bond';;;;;'5';'L';
'CONY';'2.16.840.1.113883.5.110';'continuity';;;;;'5';'L';
'ADMM';'2.16.840.1.113883.5.110';'Administerable Material';;;;;'3';'L';
'BIRTHPL';'2.16.840.1.113883.5.110';'birthplace';;;;;'3';'L';
'DEATHPLC';'2.16.840.1.113883.5.110';'place of death';;;;;'3';'L';
'DST';'2.16.840.1.113883.5.110';'distributed material';;;;;'3';'S';
'RET';'2.16.840.1.113883.5.110';'retailed material';;;;;'4';'L';
'EXPR';'2.16.840.1.113883.5.110';'exposed entity';;;;;'3';'L';
'HLD';'2.16.840.1.113883.5.110';'held entity';;;;;'3';'L';
'HLTHCHRT';'2.16.840.1.113883.5.110';'health chart';;;;;'3';'L';
'IDENT';'2.16.840.1.113883.5.110';'identified entity';;;;;'3';'L';
'MANU';'2.16.840.1.113883.5.110';'manufactured product';;;;;'3';'S';
'THER';'2.16.840.1.113883.5.110';'therapeutic agent';;;;;'4';'L';
'MNT';'2.16.840.1.113883.5.110';'maintained entity';;;;;'3';'L';
'OWN';'2.16.840.1.113883.5.110';'owned entity';;;;;'3';'L';
'RGPR';'2.16.840.1.113883.5.110';'regulated product';;;;;'3';'L';
'SDLOC';'2.16.840.1.113883.5.110';'service delivery location';;;;;'3';'S';
'DSDLOC';'2.16.840.1.113883.5.110';'dedicated service delivery location';;;;;'4';'L';
'ISDLOC';'2.16.840.1.113883.5.110';'incidental service delivery location';;;;;'4';'L';
'TERR';'2.16.840.1.113883.5.110';'territory of authority';;;;;'3';'L';
'USED';'2.16.840.1.113883.5.110';'used entity';;;;;'3';'L';
'WRTE';'2.16.840.1.113883.5.110';'warranted product';;;;;'3';'L';
'_RoleClassOntological';'2.16.840.1.113883.5.110';'RoleClassOntological';;;;;'1';'S';
'EQUIV';'2.16.840.1.113883.5.110';'equivalent entity';;;;;'2';'S';
'SAME';'2.16.840.1.113883.5.110';'same';;;;;'3';'L';
'SUBY';'2.16.840.1.113883.5.110';'subsumed by';;;;;'3';'L';
'GEN';'2.16.840.1.113883.5.110';'has generalization';;;;;'2';'S';
'GRIC';'2.16.840.1.113883.5.110';'has generic';;;;;'3';'L';
'INST';'2.16.840.1.113883.5.110';'instance';;;;;'2';'L';
'SUBS';'2.16.840.1.113883.5.110';'subsumer';;;;;'2';'L';
'_RoleClassPartitive';'2.16.840.1.113883.5.110';'RoleClassPartitive';;;;;'1';'S';
'CONT';'2.16.840.1.113883.5.110';'content';;;;;'2';'L';
'EXPAGTCAR';'2.16.840.1.113883.5.110';'exposure agent carrier';;;;;'2';'S';
'EXPVECTOR';'2.16.840.1.113883.5.110';'exposure vector';;;;;'3';'L';
'FOMITE';'2.16.840.1.113883.5.110';'fomite';;;;;'3';'L';
'INGR';'2.16.840.1.113883.5.110';'ingredient';;;;;'2';'S';
'ACTI';'2.16.840.1.113883.5.110';'active ingredient';;;;;'3';'S';
'ACTIB';'2.16.840.1.113883.5.110';'active ingredient - basis of strength';;;;;'4';'L';
'ACTIM';'2.16.840.1.113883.5.110';'active ingredient - moiety is basis of strength';;;;;'4';'L';
'ACTIR';'2.16.840.1.113883.5.110';'active ingredient - reference substance is basis of strength';;;;;'4';'L';
'ADJV';'2.16.840.1.113883.5.110';'adjuvant';;;;;'3';'L';
'ADTV';'2.16.840.1.113883.5.110';'additive';;;;;'3';'L';
'BASE';'2.16.840.1.113883.5.110';'base';;;;;'3';'L';
'IACT';'2.16.840.1.113883.5.110';'inactive ingredient';;;;;'3';'S';
'COLR';'2.16.840.1.113883.5.110';'color additive';;;;;'4';'L';
'FLVR';'2.16.840.1.113883.5.110';'flavor additive';;;;;'4';'L';
'PRSV';'2.16.840.1.113883.5.110';'preservative';;;;;'4';'L';
'STBL';'2.16.840.1.113883.5.110';'stabilizer';;;;;'4';'L';
'MECH';'2.16.840.1.113883.5.110';'mechanical ingredient';;;;;'3';'L';
'LOCE';'2.16.840.1.113883.5.110';'located entity';;;;;'2';'S';
'STOR';'2.16.840.1.113883.5.110';'stored entity';;;;;'3';'L';
'MBR';'2.16.840.1.113883.5.110';'member';;;;;'2';'L';
'PART';'2.16.840.1.113883.5.110';'part';;;;;'2';'S';
'ACTM';'2.16.840.1.113883.5.110';'active moiety';;;;;'3';'L';
'SPEC';'2.16.840.1.113883.5.110';'specimen';;;;;'2';'S';
'ALQT';'2.16.840.1.113883.5.110';'aliquot';;;;;'3';'L';
'ISLT';'2.16.840.1.113883.5.110';'isolate';;;;;'3';'L';
