'code';'codeSystem';'displayName';'parentCode';'concept_Beschreibung';'meaning';'hints';'level';'type';'relationships'
'B';'1.2.40.0.34.5.183';'Auffrischung';'';'';'';'';'0';'L';''
'B.I';'1.2.40.0.34.5.183';'Auffrischungsserie Teil 1';'';'';'';'';'0';'L';''
'B.II';'1.2.40.0.34.5.183';'Auffrischungsserie Teil 2';'';'';'';'';'0';'L';''
'D1';'1.2.40.0.34.5.183';'Dosis 1';'';'';'';'';'0';'L';''
'D2';'1.2.40.0.34.5.183';'Dosis 2';'';'';'';'';'0';'L';''
'D3';'1.2.40.0.34.5.183';'Dosis 3';'';'';'';'';'0';'L';''
'D4';'1.2.40.0.34.5.183';'Dosis 4';'';'';'';'';'0';'L';''
'D5';'1.2.40.0.34.5.183';'Dosis 5';'';'';'';'';'0';'L';''
'D6';'1.2.40.0.34.5.183';'Dosis 6';'';'';'';'';'0';'L';''
'D7';'1.2.40.0.34.5.183';'Dosis 7';'';'';'';'';'0';'L';''
'D8';'1.2.40.0.34.5.183';'Dosis 8';'';'';'';'';'0';'L';''
'D9';'1.2.40.0.34.5.183';'Dosis 9';'';'';'';'';'0';'L';''
'DGC-R';'1.2.40.0.34.5.183';'Genesungs-Zertifikat';'';'';'';'DEPRECATED, DEPRECATED';'0';'D';''
'DGC-T';'1.2.40.0.34.5.183';'Test-Zertifikat';'';'';'';'DEPRECATED, DEPRECATED';'0';'D';''
'DGC-V';'1.2.40.0.34.5.183';'Impf-Zertifikat';'';'';'';'DEPRECATED, DEPRECATED';'0';'D';''
'IG1';'1.2.40.0.34.5.183';'Indikationsimpfung für Risikogruppe';'';'';'';'';'0';'L';''
'IG2';'1.2.40.0.34.5.183';'Wiederholungsimpfung aufgrund medizinischer Indikation';'';'';'';'';'0';'L';''
'IS001';'1.2.40.0.34.5.183';'Bildungseinrichtung';'';'';'';'';'0';'L';''
'IS002';'1.2.40.0.34.5.183';'Arbeitsplatz/Betriebe';'';'';'';'';'0';'L';''
'IS003';'1.2.40.0.34.5.183';'Krankenhaus inkl. Kur- und Rehaeinrichtungen';'';'';'';'';'0';'L';''
'IS004';'1.2.40.0.34.5.183';'Ordination';'';'';'';'';'0';'L';''
'IS005';'1.2.40.0.34.5.183';'Öffentliche Impfstelle';'';'';'';'';'0';'L';''
'IS006';'1.2.40.0.34.5.183';'Wohnbereich';'';'';'';'';'0';'L';''
'IS007';'1.2.40.0.34.5.183';'Öffentliche Impfstraße / Impfbus';'';'';'';'';'0';'L';''
'IS008';'1.2.40.0.34.5.183';'Betreute Wohneinrichtung';'';'';'';'';'0';'L';''
'IS009';'1.2.40.0.34.5.183';'Impfprogramm';'';'';'';'';'0';'L';''
'IS010';'1.2.40.0.34.5.183';'Kostenfreies Impfprogramm';'';'Kostenfreies Impfprogramm des Bundes, der Bundesländer und der Sozialversicherung';'';'';'0';'L';''
'IS011';'1.2.40.0.34.5.183';'Öffentliches Impfprogramm (ÖIP) Influenza';'';'Öffentliches Impfprogramm (ÖIP) Influenza des Bundes, der Bundesländer und der Sozialversicherung';'';'';'0';'L';''
'SCHEMA001';'1.2.40.0.34.5.183';'Kombinationsschema Di-Te-Pert-HiB-IPV-HepB, Erstimpfung bis 1 Jahr';'';'';'';'';'0';'L';''
'SCHEMA002';'1.2.40.0.34.5.183';'Kombinationsschema Di-Te-Pert-HiB-IPV-HepB, Erstimpfung ab 1 Jahr';'';'';'';'';'0';'L';''
'SCHEMA003';'1.2.40.0.34.5.183';'Kombinationsschema Di-Te-Pert-IPV-HepB, Erstimpfung ab 6 Jahren';'';'';'';'DEPRECATED, DEPRECATED';'0';'D';''
'SCHEMA004';'1.2.40.0.34.5.183';'Kombinationsschema Di-Te-Pert-HiB-IPV-HepB, Indikation';'';'';'';'';'0';'L';''
'SCHEMA005';'1.2.40.0.34.5.183';'FSME Grundschema, FSME-Immun';'';'';'';'';'0';'L';''
'SCHEMA006';'1.2.40.0.34.5.183';'FSME Grundschema, Encepur';'';'';'';'';'0';'L';''
'SCHEMA007';'1.2.40.0.34.5.183';'FSME Grundschema, FSME-Immun, Erstimpfung bis 1 Jahr';'';'';'';'';'0';'L';''
'SCHEMA008';'1.2.40.0.34.5.183';'FSME Grundschema, Encepur, Erstimpfung bis 1 Jahr';'';'';'';'';'0';'L';''
'SCHEMA009';'1.2.40.0.34.5.183';'FSME Schnellschema, FSME-Immun';'';'';'';'';'0';'L';''
'SCHEMA010';'1.2.40.0.34.5.183';'FSME Schnellschema, Encepur';'';'';'';'';'0';'L';''
'SCHEMA011';'1.2.40.0.34.5.183';'Haemophilus influenzae Typ B Indikationsschema';'';'';'';'';'0';'L';''
'SCHEMA012';'1.2.40.0.34.5.183';'Hepatitis A Monokomponente Indikationsschema';'';'';'';'';'0';'L';''
'SCHEMA013';'1.2.40.0.34.5.183';'Hepatitis AB Grundschema';'';'';'';'';'0';'L';''
'SCHEMA014';'1.2.40.0.34.5.183';'Hepatitis A Monokomponente Grundschema';'';'';'';'';'0';'L';''
'SCHEMA015';'1.2.40.0.34.5.183';'Hepatitis AB Schnellschema';'';'';'';'DEPRECATED, DEPRECATED';'0';'D';''
'SCHEMA016';'1.2.40.0.34.5.183';'Hepatitis A & Typhus Grundschema';'';'';'';'';'0';'L';''
'SCHEMA017';'1.2.40.0.34.5.183';'Hepatitis B Monokomponente Grundschema';'';'';'';'';'0';'L';''
'SCHEMA019';'1.2.40.0.34.5.183';'Hepatitis B Non-/Low-Responder Grundschema';'';'';'';'';'0';'L';''
'SCHEMA020';'1.2.40.0.34.5.183';'HPV Grundschema, bis 21 Jahre';'';'';'';'';'0';'L';''
'SCHEMA021';'1.2.40.0.34.5.183';'HPV Grundschema, ab 21 Jahren';'';'';'';'';'0';'L';''
'SCHEMA022';'1.2.40.0.34.5.183';'HPV Indikationsschema';'';'';'';'';'0';'L';''
'SCHEMA023';'1.2.40.0.34.5.183';'Influenza Grundschema, Erstimpfung Kinder';'';'';'';'';'0';'L';''
'SCHEMA024';'1.2.40.0.34.5.183';'Influenza Grundschema, Einmalimpfung';'';'';'';'';'0';'L';''
'SCHEMA025';'1.2.40.0.34.5.183';'MMR Grundschema ab 9 Monaten';'';'';'';'';'0';'L';''
'SCHEMA027';'1.2.40.0.34.5.183';'MMR Indikationsschema, Erstimpfung 6-8 Monate';'';'';'';'';'0';'L';''
'SCHEMA028';'1.2.40.0.34.5.183';'Meningokokken B Grundschema, Erstimpfung 2-5 Monate, 4 Dosen';'';'';'';'DEPRECATED, DEPRECATED';'0';'D';''
'SCHEMA029';'1.2.40.0.34.5.183';'Meningokokken B Grundschema, Erstimpfung 2-5 Monate';'';'';'';'';'0';'L';''
'SCHEMA030';'1.2.40.0.34.5.183';'Meningokokken B Grundschema, Erstimpfung 6-11 Monate';'';'';'';'';'0';'L';''
'SCHEMA031';'1.2.40.0.34.5.183';'Meningokokken B Grundschema, Erstimpfung 12-23 Monate';'';'';'';'';'0';'L';''
'SCHEMA032';'1.2.40.0.34.5.183';'Meningokokken B Grundschema, Erstimpfung 2-25 Jahre, Bexsero';'';'';'';'';'0';'L';''
'SCHEMA033';'1.2.40.0.34.5.183';'Meningokokken B Indikationsschema, ab 25 Jahren, Bexsero';'';'';'';'';'0';'L';''
'SCHEMA034';'1.2.40.0.34.5.183';'Meningokokken B Indikationsschema, ab 25 Jahren, Trumenba';'';'';'';'';'0';'L';''
'SCHEMA035';'1.2.40.0.34.5.183';'Meningokokken C Indikationsschema, 2-4 Monate, Neisvac C';'';'';'';'DEPRECATED, DEPRECATED';'0';'D';''
'SCHEMA036';'1.2.40.0.34.5.183';'Meningokokken C Indikationsschema, 2-12 Monate, Menjugate';'';'';'';'DEPRECATED, DEPRECATED';'0';'D';''
'SCHEMA037';'1.2.40.0.34.5.183';'Meningokokken C Indikationsschema, 4-12 Monate, Neisvac C';'';'';'';'DEPRECATED, DEPRECATED';'0';'D';''
'SCHEMA038';'1.2.40.0.34.5.183';'Meningokokken C Grundschema, ab 1 Jahr';'';'';'';'';'0';'L';''
'SCHEMA039';'1.2.40.0.34.5.183';'Meningokokken ACWY Grundschema, ab 10 Jahren';'';'';'';'';'0';'L';''
'SCHEMA040';'1.2.40.0.34.5.183';'Meningokokken ACWY Indikationsschema, ab 1 Jahr';'';'';'';'DEPRECATED, DEPRECATED';'0';'D';''
'SCHEMA041';'1.2.40.0.34.5.183';'Meningokokken ACWY Indikationsschema, Erstimpfung bis 1 Jahr';'';'';'';'DEPRECATED, DEPRECATED';'0';'D';''
'SCHEMA042';'1.2.40.0.34.5.183';'Pneumokokken Grundschema, Erstimpfung bis 1 Jahr';'';'';'';'';'0';'L';''
'SCHEMA043';'1.2.40.0.34.5.183';'Pneumokokken Grundschema, Erstimpfung 1-2 Jahre';'';'';'';'';'0';'L';''
'SCHEMA044';'1.2.40.0.34.5.183';'Pneumokokken Indikationsschema (hohes Risiko), Erstimpfung bis 1 Jahr';'';'';'';'';'0';'L';''
'SCHEMA045';'1.2.40.0.34.5.183';'Pneumokokken Indikationsschema (hohes Risiko), Erstimpfung im 2. Lebensjahr';'';'';'';'';'0';'L';''
'SCHEMA046';'1.2.40.0.34.5.183';'Pneumokokken Indikationsschema (hohes Risiko), Erstimpfung ab 3 Jahren';'';'';'';'';'0';'L';''
'SCHEMA050';'1.2.40.0.34.5.183';'Rotavirus Grundschema, 2 Dosen, Erstimpfung ab der vollendeten 6.-20. Lebenswoche, Rotarix';'';'';'';'';'0';'L';''
'SCHEMA051';'1.2.40.0.34.5.183';'Rotavirus Grundschema, 2 Dosen, Erstimpfung ab der vollendeten 24.-28. Lebenswoche, Rotateq';'';'';'';'';'0';'L';''
'SCHEMA052';'1.2.40.0.34.5.183';'Rotavirus Grundschema, 1 Dosis, Erstimpfung ab der vollendeten 20.-24. Lebenswoche, Rotarix';'';'';'';'';'0';'L';''
'SCHEMA053';'1.2.40.0.34.5.183';'Rotavirus Grundschema, 1 Dosis, Erstimpfung ab der vollendeten 28.-32. Lebenswoche, Rotateq';'';'';'';'';'0';'L';''
'SCHEMA054';'1.2.40.0.34.5.183';'Rotavirus Grundschema, 3 Dosen, Erstimpfung ab der vollendeten 6.- 24. Lebenswoche, Rotateq';'';'';'';'';'0';'L';''
'SCHEMA060';'1.2.40.0.34.5.183';'Varizellen Grundschema, ab 1 Jahr';'';'';'';'';'0';'L';''
'SCHEMA061';'1.2.40.0.34.5.183';'Kombinationsschema MMRV, ab 9 Monaten, MMR - MMRV - V';'';'';'';'';'0';'L';''
'SCHEMA062';'1.2.40.0.34.5.183';'Kombinationsschema MMRV, ab 12 Monaten, MMR - MMRV - V';'';'';'';'';'0';'L';''
'SCHEMA063';'1.2.40.0.34.5.183';'Varizellen Indikationsschema, Erstimpfung bis 1 Jahr';'';'';'';'';'0';'L';''
'SCHEMA064';'1.2.40.0.34.5.183';'Herpes Zoster Grundschema, ab 50 Jahren';'';'';'';'';'0';'L';''
'SCHEMA065';'1.2.40.0.34.5.183';'Gelbfieber Grundschema, ab dem vollendeten 9. Lebensmonat';'';'';'';'';'0';'L';''
'SCHEMA066';'1.2.40.0.34.5.183';'Japanische Enzephalitis Grundschema, ab 2 Monaten';'';'';'';'';'0';'L';''
'SCHEMA067';'1.2.40.0.34.5.183';'Japanische Enzephalitis Schnellschema, ab 18 Jahren';'';'';'';'';'0';'L';''
'SCHEMA068';'1.2.40.0.34.5.183';'Typhus Grundschema, Injektion';'';'';'';'';'0';'L';''
'SCHEMA069';'1.2.40.0.34.5.183';'Typhus Grundschema, Oral';'';'';'';'';'0';'L';''
'SCHEMA070';'1.2.40.0.34.5.183';'Tollwut Grundschema';'';'';'';'';'0';'L';''
'SCHEMA071';'1.2.40.0.34.5.183';'Tollwut Schnellschema';'';'';'';'';'0';'L';''
'SCHEMA072';'1.2.40.0.34.5.183';'Tollwut postexpositionelles Schema, Essen 4 Dosen';'';'';'';'';'0';'L';''
'SCHEMA073';'1.2.40.0.34.5.183';'Tollwut postexpositionelles Schema, Essen 5 Dosen';'';'';'';'';'0';'L';''
'SCHEMA074';'1.2.40.0.34.5.183';'Tollwut postexpositionelles Schema, Zagreb';'';'';'';'';'0';'L';''
'SCHEMA075';'1.2.40.0.34.5.183';'Tollwut postexpositionelles Schema, mit Tollwut-Vorimpfung';'';'';'';'';'0';'L';''
'SCHEMA076';'1.2.40.0.34.5.183';'Cholera Grundschema, Erstimpfung 2-6 Jahre';'';'';'';'';'0';'L';''
'SCHEMA078';'1.2.40.0.34.5.183';'Cholera Grundschema, Erstimpfung ab 6 Jahren';'';'';'';'';'0';'L';''
'SCHEMA079';'1.2.40.0.34.5.183';'Meningokokken B Grundschema, Erstimpfung 10-25 Jahre, Trumenba';'';'';'';'';'0';'L';''
'SCHEMA080';'1.2.40.0.34.5.183';'Kombinationsschema Di-Te-Pert-IPV';'';'';'';'';'0';'L';''
'SCHEMA081';'1.2.40.0.34.5.183';'Kombinationsschema Di-Te-Pert';'';'';'';'';'0';'L';''
'SCHEMA082';'1.2.40.0.34.5.183';'Kombinationsschema Di-Te';'';'';'';'DEPRECATED, DEPRECATED';'0';'D';''
'SCHEMA083';'1.2.40.0.34.5.183';'Tetanus Monokomponente';'';'';'';'DEPRECATED, DEPRECATED';'0';'D';''
'SCHEMA084';'1.2.40.0.34.5.183';'Poliomyelitis Indikationsschema ab dem vollendeten 2. Lebensmonat';'';'';'';'';'0';'L';''
'SCHEMA085';'1.2.40.0.34.5.183';'Hepatitis B Monokomponente Indikationsschema';'';'';'';'';'0';'L';''
'SCHEMA086';'1.2.40.0.34.5.183';'SARS-CoV-2 Grundschema, Comirnaty';'';'';'';'DEPRECATED, DEPRECATED';'0';'D';''
'SCHEMA087';'1.2.40.0.34.5.183';'SARS-CoV-2 Grundschema, Spikevax';'';'';'';'DEPRECATED, DEPRECATED';'0';'D';''
'SCHEMA088';'1.2.40.0.34.5.183';'SARS-CoV-2 Grundschema, Vaxzevria';'';'';'';'DEPRECATED, DEPRECATED';'0';'D';''
'SCHEMA089';'1.2.40.0.34.5.183';'SARS-CoV-2 Grundschema, Jcovden';'';'';'';'DEPRECATED, DEPRECATED';'0';'D';''
'SCHEMA090';'1.2.40.0.34.5.183';'SARS-CoV-2 Grundschema, Auslandsimpfung';'';'';'';'DEPRECATED, DEPRECATED';'0';'D';''
'SCHEMA091';'1.2.40.0.34.5.183';'Herpes Zoster Grundschema, nach Zostavax';'';'';'';'';'0';'L';''
'SCHEMA092';'1.2.40.0.34.5.183';'Herpes Zoster Indikationsschema, ab 18 Jahren';'';'';'';'';'0';'L';''
'SCHEMA093';'1.2.40.0.34.5.183';'MMR Grundschema, ab 1 Jahr';'';'';'';'';'0';'L';''
'SCHEMA094';'1.2.40.0.34.5.183';'SARS-CoV-2 Indikationsschema, Comirnaty';'';'';'';'DEPRECATED, DEPRECATED';'0';'D';''
'SCHEMA095';'1.2.40.0.34.5.183';'SARS-CoV-2 Indikationsschema, Spikevax';'';'';'';'DEPRECATED, DEPRECATED';'0';'D';''
'SCHEMA096';'1.2.40.0.34.5.183';'SARS-CoV-2 heterologes Schema (Impfstoffwechsel)';'';'';'';'DEPRECATED, DEPRECATED';'0';'D';''
'SCHEMA097';'1.2.40.0.34.5.183';'Pneumokokken Grundschema, Erstimpfung 2-5 Jahre';'';'';'';'';'0';'L';''
'SCHEMA098';'1.2.40.0.34.5.183';'Pneumokokken Grundschema, ab 60 Jahre';'';'';'';'';'0';'L';''
'SCHEMA099';'1.2.40.0.34.5.183';'SARS-CoV-2 Grundschema, Nuvaxovid';'';'';'';'DEPRECATED, DEPRECATED';'0';'D';''
'SCHEMA100';'1.2.40.0.34.5.183';'Kombinationsschema MMRV, ab 9 Monaten, MMRV - MMRV';'';'';'';'';'0';'L';''
'SCHEMA101';'1.2.40.0.34.5.183';'Kombinationsschema MMRV, ab 12 Monaten, MMRV - MMRV';'';'';'';'';'0';'L';''
'SCHEMA102';'1.2.40.0.34.5.183';'Hepatitis B Monokomponente Schnellschema durch Indikation';'';'';'';'';'0';'L';''
'SCHEMA103';'1.2.40.0.34.5.183';'Hepatitis B Prophylaxe Neugeborener Indikationsschema';'';'';'';'';'0';'L';''
'SCHEMA104';'1.2.40.0.34.5.183';'Influenza Indikationsschema';'';'';'';'';'0';'L';''
'SCHEMA105';'1.2.40.0.34.5.183';'Kombinationsschema Di-Te-IPV';'';'';'';'DEPRECATED, DEPRECATED';'0';'D';''
'SCHEMA106';'1.2.40.0.34.5.183';'Meningokokken ACWY Indikationsschema, Nimenrix bis 6 Monate';'';'';'';'';'0';'L';''
'SCHEMA107';'1.2.40.0.34.5.183';'Meningokokken ACWY Indikationsschema, Nimenrix ab 6 Monate';'';'';'';'';'0';'L';''
'SCHEMA108';'1.2.40.0.34.5.183';'Meningokokken ACWY Indikationsschema, Nimenrix ab 1 Jahr';'';'';'';'DEPRECATED, DEPRECATED';'0';'D';''
'SCHEMA109';'1.2.40.0.34.5.183';'Meningokokken ACWY Indikationsschema, Menveo ab 2 Jahre';'';'';'';'';'0';'L';''
'SCHEMA110';'1.2.40.0.34.5.183';'COVID-19 Indikationsschema';'';'';'';'';'0';'L';''
'SCHEMA111';'1.2.40.0.34.5.183';'(Affen-)Pocken Indikationsschema';'';'';'';'';'0';'L';''
'SCHEMA112';'1.2.40.0.34.5.183';'SARS-CoV-2 Grundschema, Valneva';'';'';'';'DEPRECATED, DEPRECATED';'0';'D';''
'SCHEMA113';'1.2.40.0.34.5.183';'Kombinationsschema MMRV, ab 9 Monaten, MMRV - MMR - V';'';'';'';'DEPRECATED, DEPRECATED';'0';'D';''
'SCHEMA114';'1.2.40.0.34.5.183';'Kombinationsschema MMRV, ab 12 Monaten, MMRV - MMR - V';'';'';'';'DEPRECATED, DEPRECATED';'0';'D';''
'SCHEMA115';'1.2.40.0.34.5.183';'(Affen-)Pocken Indikationsschema, einmalige Impfung';'';'';'';'';'0';'L';''
'SCHEMA116';'1.2.40.0.34.5.183';'Pneumokokken Indikationsschema (erhöhtes Risiko), ab 50 Jahren';'';'';'';'';'0';'L';''
'SCHEMA117';'1.2.40.0.34.5.183';'COVID-19 Grundschema, Kleinkind';'';'';'';'';'0';'L';''
'SCHEMA118';'1.2.40.0.34.5.183';'Pneumokokken Indikationsschema, Frühgeborene';'';'';'';'';'0';'L';''
'SCHEMA119';'1.2.40.0.34.5.183';'Dengue-Fieber Grundschema, 2 Dosen';'';'';'';'';'0';'L';''
'SCHEMA120';'1.2.40.0.34.5.183';'Poliomyelitis Indikationsschema ab dem vollendeten 1. Lebensjahr';'';'';'';'';'0';'L';''
'SCHEMA121';'1.2.40.0.34.5.183';'RSV Grundschema';'';'';'';'';'0';'L';''
'SCHEMA122';'1.2.40.0.34.5.183';'COVID-19 Grundschema';'';'';'';'';'0';'L';''
'SCHEMA123';'1.2.40.0.34.5.183';'Tollwut Schnellschema (WHO)';'';'';'';'';'0';'L';''
'SCHEMA124';'1.2.40.0.34.5.183';'Tollwut Schnellschema (WHO), intradermal';'';'';'';'';'0';'L';''
'SCHEMA125';'1.2.40.0.34.5.183';'Meningokokken ACWY, ab 1 Jahr';'';'';'';'';'0';'L';''
'SCHEMA126';'1.2.40.0.34.5.183';'FSME beschleunigtes konventionelles Schema, Encepur';'';'';'';'';'0';'L';''
'_AllgemeineBevölkerung';'1.2.40.0.34.5.183';'Allgemeine Bevölkerung';'';'';'';'DEPRECATED, DEPRECATED';'0';'D';''
'_Ausnahme';'1.2.40.0.34.5.183';'Ausnahme';'';'';'';'';'0';'L';''
'_Blau';'1.2.40.0.34.5.183';'Blau';'';'';'';'';'0';'L';''
'_Einzel';'1.2.40.0.34.5.183';'Impfungen';'';'';'';'';'0';'L';''
'_Empfohlene';'1.2.40.0.34.5.183';'Allgemein empfohlene Impfungen';'';'';'';'';'0';'L';''
'_Gelb';'1.2.40.0.34.5.183';'Gelb';'';'';'';'';'0';'L';''
'_Grau';'1.2.40.0.34.5.183';'Grau';'';'';'';'';'0';'L';''
'_Grün';'1.2.40.0.34.5.183';'Grün';'';'';'';'';'0';'L';''
'_Kombinationen';'1.2.40.0.34.5.183';'Kombinationsimpfungen';'';'';'';'';'0';'L';''
'_Reise';'1.2.40.0.34.5.183';'Reise-/Indikationsimpfungen';'';'';'';'';'0';'L';''
'_Rot';'1.2.40.0.34.5.183';'Rot';'';'';'';'';'0';'L';''
'_SpezielleRisikogruppefür';'1.2.40.0.34.5.183';'Spezielle Risikogruppe für';'';'';'';'';'0';'L';''
'_Weitere';'1.2.40.0.34.5.183';'Weitere Impfungen';'';'';'';'';'0';'L';''
'off-label-use';'1.2.40.0.34.5.183';'off-label-use';'';'';'';'';'0';'L';''
