'code';'codeSystem';'displayName';'parentCodeSystemName';'concept_Beschreibung';'meaning';'hints';'orderNumber';'level';'type';'relationships';'einheit print';'einheit codiert';'codeSystemVersion'
'100';'2.16.840.1.113883.2.16.1.4.1';'Katholische Kirche (o.n.A.)';'https://termgit.elga.gv.at/CodeSystem/hl7-at-religionaustria';;'Römisch-Katholische Kirchen (mit  23 Teilkirchen, incl Unierte) ohne nähere Angabe';'In Österreich gesetzlich anerkannte Kirche und Religionsgesellschaft';'1';'0';'S';;;;'1.0.0+20230131'
'101';'2.16.840.1.113883.2.16.1.4.1';'Römisch-Katholisch';'https://termgit.elga.gv.at/CodeSystem/hl7-at-religionaustria';;'Römisch-Katholische Kirche (Lateinischer Ritus)';'In Österreich gesetzlich anerkannte Kirche und Religionsgesellschaft';'2';'1';'L';;;;'1.0.0+20230131'
'102';'2.16.840.1.113883.2.16.1.4.1';'Griechisch-Katholische Kirche';'https://termgit.elga.gv.at/CodeSystem/hl7-at-religionaustria';;'Unierte Kirchen nach byzantinischem Ritus';'In Österreich gesetzlich anerkannte Kirche und Religionsgesellschaft';'3';'1';'L';;;;'1.0.0+20230131'
'103';'2.16.840.1.113883.2.16.1.4.1';'Armenisch-Katholische Kirche';'https://termgit.elga.gv.at/CodeSystem/hl7-at-religionaustria';;'Armenisch-Katholische Kirche (Armenischer Ritus, Mechitaristen)';'In Österreich gesetzlich anerkannte Kirche und Religionsgesellschaft';'4';'1';'L';;;;'1.0.0+20230131'
'104';'2.16.840.1.113883.2.16.1.4.1';'Bulgarisch-Katholische Kirche';'https://termgit.elga.gv.at/CodeSystem/hl7-at-religionaustria';;;;'5';'1';'L';;;;'1.0.0+20230131'
'105';'2.16.840.1.113883.2.16.1.4.1';'Rumänische griechisch-katholische Kirche';'https://termgit.elga.gv.at/CodeSystem/hl7-at-religionaustria';;;;'6';'1';'L';;;;'1.0.0+20230131'
'106';'2.16.840.1.113883.2.16.1.4.1';'Russisch-Katholische Kirche';'https://termgit.elga.gv.at/CodeSystem/hl7-at-religionaustria';;;;'7';'1';'L';;;;'1.0.0+20230131'
'107';'2.16.840.1.113883.2.16.1.4.1';'Syrisch-Katholische Kirche';'https://termgit.elga.gv.at/CodeSystem/hl7-at-religionaustria';;;;'8';'1';'L';;;;'1.0.0+20230131'
'108';'2.16.840.1.113883.2.16.1.4.1';'Ukrainische Griechisch-Katholische Kirche';'https://termgit.elga.gv.at/CodeSystem/hl7-at-religionaustria';;;;'9';'1';'L';;;;'1.0.0+20230131'
'109';'2.16.840.1.113883.2.16.1.4.1';'Katholische Ostkirche (ohne nähere Angabe)';'https://termgit.elga.gv.at/CodeSystem/hl7-at-religionaustria';;'Unierte Katholische Ostkirchen (ohne nähere Angabe)';;'10';'1';'L';;;;'1.0.0+20230131'
'110';'2.16.840.1.113883.2.16.1.4.1';'Griechisch-Orientalische Kirchen';'https://termgit.elga.gv.at/CodeSystem/hl7-at-religionaustria';;'Griechisch-orientalische (=orthodoxe) Kirchen';'In Österreich gesetzlich anerkannte Kirche und Religionsgesellschaft';'11';'0';'S';;;;'1.0.0+20230131'
'111';'2.16.840.1.113883.2.16.1.4.1';'Orthodoxe Kirchen (o.n.A.)';'https://termgit.elga.gv.at/CodeSystem/hl7-at-religionaustria';;'Orthodoxe Kirche (ohne nähere Angabe, inkl. andere autokephale K.)';;'12';'1';'L';;;;'1.0.0+20230131'
'112';'2.16.840.1.113883.2.16.1.4.1';'Griechisch-Orthodoxe Kirche (Hl.Dreifaltigkeit)';'https://termgit.elga.gv.at/CodeSystem/hl7-at-religionaustria';;'Griechisch-orientalische Kirchengemeinde zur Hl. Dreifaltigkeit';'In Österreich gesetzlich anerkannte Kirche und Religionsgesellschaft';'13';'1';'L';;;;'1.0.0+20230131'
'113';'2.16.840.1.113883.2.16.1.4.1';'Griechisch-Orthodoxe Kirche (Hl.Georg)';'https://termgit.elga.gv.at/CodeSystem/hl7-at-religionaustria';;'Griechisch-orientalische Kirchengemeinde zum Hl. Georg';'In Österreich gesetzlich anerkannte Kirche und Religionsgesellschaft';'14';'1';'L';;;;'1.0.0+20230131'
'114';'2.16.840.1.113883.2.16.1.4.1';'Bulgarisch-Orthodoxe Kirche';'https://termgit.elga.gv.at/CodeSystem/hl7-at-religionaustria';;'Bulgarisch-orthodoxe Kirchengemeinde zum Hl. Iwan Rilski';'In Österreich gesetzlich anerkannte Kirche und Religionsgesellschaft';'15';'1';'L';;;;'1.0.0+20230131'
'115';'2.16.840.1.113883.2.16.1.4.1';'Rumänisch-griechisch-orientalische Kirche';'https://termgit.elga.gv.at/CodeSystem/hl7-at-religionaustria';;'Rumänisch-griechisch-orientalische Kirchengemeinde zur Hl. Auferstehung';'In Österreich gesetzlich anerkannte Kirche und Religionsgesellschaft';'16';'1';'L';;;;'1.0.0+20230131'
'116';'2.16.840.1.113883.2.16.1.4.1';'Russisch-Orthodoxe Kirche';'https://termgit.elga.gv.at/CodeSystem/hl7-at-religionaustria';;'Russisch-orthodoxe Kirchengemeinde zum Hl. Nikolaus';'In Österreich gesetzlich anerkannte Kirche und Religionsgesellschaft';'17';'1';'L';;;;'1.0.0+20230131'
'117';'2.16.840.1.113883.2.16.1.4.1';'Serbisch-griechisch-Orthodoxe Kirche';'https://termgit.elga.gv.at/CodeSystem/hl7-at-religionaustria';;'Serbisch-griechisch-orientalische Kirchengemeinde zum Hl. Sava';'In Österreich gesetzlich anerkannte Kirche und Religionsgesellschaft';'18';'1';'L';;;;'1.0.0+20230131'
'118';'2.16.840.1.113883.2.16.1.4.1';'Ukrainisch-Orthodoxe Kirche';'https://termgit.elga.gv.at/CodeSystem/hl7-at-religionaustria';;;;'19';'1';'L';;;;'1.0.0+20230131'
'119';'2.16.840.1.113883.2.16.1.4.1';'Orientalisch-Orthodoxe Kirchen';'https://termgit.elga.gv.at/CodeSystem/hl7-at-religionaustria';;'Altorientalische Kirchen (Alte Ostkirchen)';'In Österreich gesetzlich anerkannte Kirche und Religionsgesellschaft';'20';'0';'S';;;;'1.0.0+20230131'
'120';'2.16.840.1.113883.2.16.1.4.1';'Armenisch-apostolische Kirche';'https://termgit.elga.gv.at/CodeSystem/hl7-at-religionaustria';;'Armenisch-apostolische Kirche (Synonym)';'In Österreich gesetzlich anerkannte Kirche und Religionsgesellschaft';'21';'1';'L';;;;'1.0.0+20230131'
'121';'2.16.840.1.113883.2.16.1.4.1';'Syrisch-orthodoxe Kirche';'https://termgit.elga.gv.at/CodeSystem/hl7-at-religionaustria';;;'In Österreich gesetzlich anerkannte Kirche und Religionsgesellschaft';'22';'1';'L';;;;'1.0.0+20230131'
'122';'2.16.840.1.113883.2.16.1.4.1';'Syrisch-orthodoxe Kirche';'https://termgit.elga.gv.at/CodeSystem/hl7-at-religionaustria';;'Syrisch-orthodoxe Kirche (Synonym)';'In Österreich gesetzlich anerkannte Kirche und Religionsgesellschaft';'23';'1';'L';;;;'1.0.0+20230131'
'123';'2.16.840.1.113883.2.16.1.4.1';'Koptisch-orthodoxe Kirche';'https://termgit.elga.gv.at/CodeSystem/hl7-at-religionaustria';;;'In Österreich gesetzlich anerkannte Kirche und Religionsgesellschaft';'24';'1';'L';;;;'1.0.0+20230131'
'124';'2.16.840.1.113883.2.16.1.4.1';'Armenisch-apostolische Kirche';'https://termgit.elga.gv.at/CodeSystem/hl7-at-religionaustria';;;'In Österreich gesetzlich anerkannte Kirche und Religionsgesellschaft';'25';'1';'L';;;;'1.0.0+20230131'
'125';'2.16.840.1.113883.2.16.1.4.1';'Äthiopisch-Orthodoxe Kirche';'https://termgit.elga.gv.at/CodeSystem/hl7-at-religionaustria';;'Äthiopisch-Orthodoxe Tewahedo-Kirche';;'26';'1';'L';;;;'1.0.0+20230131'
'126';'2.16.840.1.113883.2.16.1.4.1';'Evangelische Kirchen Österreich';'https://termgit.elga.gv.at/CodeSystem/hl7-at-religionaustria';;'Evangelische Kirchen A.u.H.B. Österreich';'In Österreich gesetzlich anerkannte Kirche und Religionsgesellschaft';'27';'0';'S';;;;'1.0.0+20230131'
'127';'2.16.840.1.113883.2.16.1.4.1';'Evangelische Kirche (o.n.A.)';'https://termgit.elga.gv.at/CodeSystem/hl7-at-religionaustria';;'evangelisch (ohne nähere Angabe)';;'28';'1';'L';;;;'1.0.0+20230131'
'128';'2.16.840.1.113883.2.16.1.4.1';'Evangelische Kirche A.B.';'https://termgit.elga.gv.at/CodeSystem/hl7-at-religionaustria';;'Evangelische Kirche Augsburger Bekenntnis (evangelisch-lutherische Kirche)';'In Österreich gesetzlich anerkannte Kirche und Religionsgesellschaft';'29';'1';'L';;;;'1.0.0+20230131'
'129';'2.16.840.1.113883.2.16.1.4.1';'Evangelische Kirche H.B.';'https://termgit.elga.gv.at/CodeSystem/hl7-at-religionaustria';;'Evangelische Kirche Helvetisches Bekenntnis (evangelisch-reformierte Kirche)';'In Österreich gesetzlich anerkannte Kirche und Religionsgesellschaft';'30';'1';'L';;;;'1.0.0+20230131'
'130';'2.16.840.1.113883.2.16.1.4.1';'Andere Christliche Kirchen';'https://termgit.elga.gv.at/CodeSystem/hl7-at-religionaustria';;'Andere christliche und christlich orientiere Kirchen u. Gemeinschaften (im Ökumenischen Rat)';;'31';'0';'S';;;;'1.0.0+20230131'
'131';'2.16.840.1.113883.2.16.1.4.1';'Altkatholische Kirche Österreichs';'https://termgit.elga.gv.at/CodeSystem/hl7-at-religionaustria';;;'In Österreich gesetzlich anerkannte Kirche und Religionsgesellschaft';'32';'1';'L';;;;'1.0.0+20230131'
'132';'2.16.840.1.113883.2.16.1.4.1';'Anglikanische Kirche';'https://termgit.elga.gv.at/CodeSystem/hl7-at-religionaustria';;;;'33';'1';'L';;;;'1.0.0+20230131'
'133';'2.16.840.1.113883.2.16.1.4.1';'Evangelisch-methodistische Kirche (EmK)';'https://termgit.elga.gv.at/CodeSystem/hl7-at-religionaustria';;;'In Österreich gesetzlich anerkannte Kirche und Religionsgesellschaft';'34';'1';'L';;;;'1.0.0+20230131'
'134';'2.16.840.1.113883.2.16.1.4.1';'Sonstige Christliche Gemeinschaften';'https://termgit.elga.gv.at/CodeSystem/hl7-at-religionaustria';;'Sonstige christliche (christlich orientierte) Gemeinschaften';;'35';'0';'S';;;;'1.0.0+20230131'
'135';'2.16.840.1.113883.2.16.1.4.1';'Baptisten';'https://termgit.elga.gv.at/CodeSystem/hl7-at-religionaustria';;'Bund der Baptistengemeinden in Österreich';'Staatlich eingetragene religiöse Bekenntnisgemeinschaft';'36';'1';'L';;;;'1.0.0+20230131'
'136';'2.16.840.1.113883.2.16.1.4.1';'Bund evangelikaler Gemeinden in Österreich ';'https://termgit.elga.gv.at/CodeSystem/hl7-at-religionaustria';;'Bund evangelikaler Gemeinden in Österreich';'Staatlich eingetragene religiöse Bekenntnisgemeinschaft';'37';'1';'L';;;;'1.0.0+20230131'
'137';'2.16.840.1.113883.2.16.1.4.1';'Freie Christengemeinde/Pfingstgemeinde ';'https://termgit.elga.gv.at/CodeSystem/hl7-at-religionaustria';;'Freie Christengemeinde/Pfingstgemeinde (FCGÖ)';'Staatlich eingetragene religiöse Bekenntnisgemeinschaft';'38';'1';'L';;;;'1.0.0+20230131'
'138';'2.16.840.1.113883.2.16.1.4.1';'Mennonitische Freikirche';'https://termgit.elga.gv.at/CodeSystem/hl7-at-religionaustria';;'Mennonitische Freikirche Österreichs (MFÖ)';'Staatlich eingetragene religiöse Bekenntnisgemeinschaft';'39';'1';'L';;;;'1.0.0+20230131'
'139';'2.16.840.1.113883.2.16.1.4.1';'Kirche der Siebenten-Tags-Adventisten ';'https://termgit.elga.gv.at/CodeSystem/hl7-at-religionaustria';;'Kirche der Siebenten-Tags-Adventisten';'Staatlich eingetragene religiöse Bekenntnisgemeinschaft';'40';'1';'L';;;;'1.0.0+20230131'
'140';'2.16.840.1.113883.2.16.1.4.1';'Christengemeinschaft';'https://termgit.elga.gv.at/CodeSystem/hl7-at-religionaustria';;'Die Christengemeinschaft - Bewegung für religiöse Erneuerung in Österreich';'Staatlich eingetragene religiöse Bekenntnisgemeinschaft';'41';'1';'L';;;;'1.0.0+20230131'
'141';'2.16.840.1.113883.2.16.1.4.1';'Jehovas Zeugen';'https://termgit.elga.gv.at/CodeSystem/hl7-at-religionaustria';;;'In Österreich gesetzlich anerkannte Kirche und Religionsgesellschaft';'42';'1';'L';;;;'1.0.0+20230131'
'142';'2.16.840.1.113883.2.16.1.4.1';'Neuapostolische Kirche';'https://termgit.elga.gv.at/CodeSystem/hl7-at-religionaustria';;;'In Österreich gesetzlich anerkannte Kirche und Religionsgesellschaft';'43';'1';'L';;;;'1.0.0+20230131'
'143';'2.16.840.1.113883.2.16.1.4.1';'Mormonen';'https://termgit.elga.gv.at/CodeSystem/hl7-at-religionaustria';;'Kirche Jesu Christi der Heiligen der Letzten Tage (Mormonen) in Österreich';'In Österreich gesetzlich anerkannte Kirche und Religionsgesellschaft';'44';'1';'L';;;;'1.0.0+20230131'
'144';'2.16.840.1.113883.2.16.1.4.1';'Sonstige Christliche Gemeinschaften (O.n.A.)';'https://termgit.elga.gv.at/CodeSystem/hl7-at-religionaustria';;'Sonstige christliche (christlich orientierte) Gemeinschaften (ohne nähere Angabe)';;'45';'1';'L';;;;'1.0.0+20230131'
'145';'2.16.840.1.113883.2.16.1.4.1';'ELAIA Christengemeinden';'https://termgit.elga.gv.at/CodeSystem/hl7-at-religionaustria';;'Bekenntnisgemeinschaft ELAIA Christengemeinden';'Staatlich eingetragene religiöse Bekenntnisgemeinschaft';'46';'1';'L';;;;'1.0.0+20230131'
'146';'2.16.840.1.113883.2.16.1.4.1';'Pfingstkirche Gemeinde Gottes';'https://termgit.elga.gv.at/CodeSystem/hl7-at-religionaustria';;'Pfingstkirche Gemeinde Gottes in Österreich';'Staatlich eingetragene religiöse Bekenntnisgemeinschaft';'47';'1';'L';;;;'1.0.0+20230131'
'148';'2.16.840.1.113883.2.16.1.4.1';'Nicht-christliche Gemeinschaften';'https://termgit.elga.gv.at/CodeSystem/hl7-at-religionaustria';;;;'48';'0';'S';;;;'1.0.0+20230131'
'149';'2.16.840.1.113883.2.16.1.4.1';'Israelitische Religionsgesellschaft';'https://termgit.elga.gv.at/CodeSystem/hl7-at-religionaustria';;;'In Österreich gesetzlich anerkannte Kirche und Religionsgesellschaft';'49';'1';'L';;;;'1.0.0+20230131'
'150';'2.16.840.1.113883.2.16.1.4.1';'Islamische Glaubensgemeinschaft ';'https://termgit.elga.gv.at/CodeSystem/hl7-at-religionaustria';;'Islamische Glaubensgemeinschaft';'In Österreich gesetzlich anerkannte Kirche und Religionsgesellschaft';'50';'1';'L';;;;'1.0.0+20230131'
'151';'2.16.840.1.113883.2.16.1.4.1';'Alevitische Religionsgesellschaft';'https://termgit.elga.gv.at/CodeSystem/hl7-at-religionaustria';;'Alevitische Religionsgesellschaft in Österreich';'Staatlich eingetragene religiöse Bekenntnisgemeinschaft';'51';'1';'L';;;;'1.0.0+20230131'
'152';'2.16.840.1.113883.2.16.1.4.1';'Buddhistische Religionsgesellschaft';'https://termgit.elga.gv.at/CodeSystem/hl7-at-religionaustria';;'Österreichische Buddhistische Religionsgesellschaft';'In Österreich gesetzlich anerkannte Kirche und Religionsgesellschaft';'52';'1';'L';;;;'1.0.0+20230131'
'153';'2.16.840.1.113883.2.16.1.4.1';'Baha` i ';'https://termgit.elga.gv.at/CodeSystem/hl7-at-religionaustria';;'Baha i Religionsgemeinschaft Österreich';'Staatlich eingetragene religiöse Bekenntnisgemeinschaft';'53';'1';'L';;;;'1.0.0+20230131'
'154';'2.16.840.1.113883.2.16.1.4.1';'Hinduistische Religionsgesellschaft';'https://termgit.elga.gv.at/CodeSystem/hl7-at-religionaustria';;'Hinduistische Religionsgesellschaft in Österreich';'Staatlich eingetragene religiöse Bekenntnisgemeinschaft';'54';'1';'L';;;;'1.0.0+20230131'
'155';'2.16.840.1.113883.2.16.1.4.1';'Sikh';'https://termgit.elga.gv.at/CodeSystem/hl7-at-religionaustria';;'Sikh-Religion';;'55';'1';'L';;;;'1.0.0+20230131'
'156';'2.16.840.1.113883.2.16.1.4.1';'Shintoismus';'https://termgit.elga.gv.at/CodeSystem/hl7-at-religionaustria';;;;'56';'1';'L';;;;'1.0.0+20230131'
'157';'2.16.840.1.113883.2.16.1.4.1';'Vereinigungskirche';'https://termgit.elga.gv.at/CodeSystem/hl7-at-religionaustria';;'Vereinigungskirche (The Holy Spirit Association for the Unification of World Christianity - Moon)';;'57';'1';'L';;;;'1.0.0+20230131'
'162';'2.16.840.1.113883.2.16.1.4.1';'Pastafarianismus';'https://termgit.elga.gv.at/CodeSystem/hl7-at-religionaustria';;'Vereinigte Kirche des Fliegenden Spaghettimonsters';;'58';'1';'L';;;;'1.0.0+20230131'
'158';'2.16.840.1.113883.2.16.1.4.1';'Andere religiöse Bekenntnisgemeinschaften';'https://termgit.elga.gv.at/CodeSystem/hl7-at-religionaustria';;'Andere, nicht staatlich anerkannte Religion oder eingetragene religiöse Bekenntnisgemeinschaft';'Mit NullFlavor ''OTH'' ausdrücken!';'59';'1';'A';;;;'1.0.0+20230131'
'159';'2.16.840.1.113883.2.16.1.4.1';'Konfessionslos, ohne Angabe';'https://termgit.elga.gv.at/CodeSystem/hl7-at-religionaustria';;;'Mit NullFlavor ''NI'' ausdrücken!';'60';'0';'A';;;;'1.0.0+20230131'
'160';'2.16.840.1.113883.2.16.1.4.1';'Konfessionslos';'https://termgit.elga.gv.at/CodeSystem/hl7-at-religionaustria';;;'Mit NullFlavor ''NA'' ausdrücken!';'61';'1';'A';;;;'1.0.0+20230131'
'161';'2.16.840.1.113883.2.16.1.4.1';'Ohne Angabe';'https://termgit.elga.gv.at/CodeSystem/hl7-at-religionaustria';;;'Mit NullFlavor ''UNK'' ausdrücken!';'62';'1';'A';;;;'1.0.0+20230131'
