{
  "resourceType": "CodeSystem",
  "id": "hl7-consent-mode",
  "url": "https://termgit.elga.gv.at/CodeSystem/hl7-consent-mode",
  "identifier": [
    {
      "use": "official",
      "system": "urn:ietf:rfc:3986",
      "value": "urn:oid:2.16.840.1.113883.12.497"
    }
  ],
  "version": "1.0.0+20230131",
  "name": "hl7-consent-mode",
  "title": "HL7 Consent Mode",
  "status": "retired",
  "date": "2023-06-30",
  "description": "**Description:** Consent Mode (Table 0497)\n\n**Beschreibung:** Form der Einverst\u00e4ndniserkl\u00e4rung (Tabelle 0497)\n\n**Versions-Beschreibung:** Form der Einverst\u00e4ndniserkl\u00e4rung",
  "content": "complete",
  "count": 3,
  "property": [
    {
      "code": "hints",
      "type": "string"
    }
  ],
  "concept": [
    {
      "code": "T",
      "display": "Telephone",
      "designation": [
        {
          "language": "de-AT",
          "value": "Telefonisch"
        }
      ]
    },
    {
      "code": "V",
      "display": "Verbal",
      "designation": [
        {
          "language": "de-AT",
          "value": "M\u00fcndlich"
        }
      ],
      "property": [
        {
          "code": "hints",
          "valueString": "G\u00fcltiger Wert f\u00fcr ELGA-SOO"
        }
      ]
    },
    {
      "code": "W",
      "display": "Written",
      "designation": [
        {
          "language": "de-AT",
          "value": "Schriftlich"
        }
      ],
      "property": [
        {
          "code": "hints",
          "valueString": "Bevorzugter Wert f\u00fcr ELGA-SOO"
        }
      ]
    }
  ]
}