'code';'codeSystem';'displayName';'parentCode';'concept_Beschreibung';'meaning';'hints';'level';'type';'relationships'
'EU0001';'1.2.40.0.34.5.215';'Glutenhaltiges Getreide';'';'Glutenhaltiges Getreide, namentlich Weizen (wie Dinkel und Khorasan-Weizen), Roggen, Gerste, Hafer oder Hybridstämme davon, sowie daraus hergestellte Erzeugnisse, ausgenommen
a) Glukosesirupe auf Weizenbasis einschließlich Dextrose und daraus gewonnene Erzeugnisse, soweit das Verfahren, das sie durchlaufen haben, die Allergenität, die von der EFSA für das entsprechende Erzeugnis ermittelt wurde, aus dem sie gewonnen wurden, wahrscheinlich nicht erhöht,
b) Maltodextrine auf Weizenbasis und daraus gewonnene Erzeugnisse, soweit das Verfahren, das sie durchlaufen haben, die Allergenität, die von der EFSA für das entsprechende Erzeugnis ermittelt wurde, aus dem sie gewonnen wurden, wahrscheinlich nicht erhöht,
c) Glukosesirupe auf Gerstenbasis,
d) Getreide zur Herstellung von alkoholischen Destillaten einschließlich Ethylalkohol landwirtschaftlichen Ursprungs';'';'';'0';'L';''
'EU0002';'1.2.40.0.34.5.215';'Krebstiere';'';'Krebstiere und daraus gewonnene Erzeugnisse';'';'';'0';'L';''
'EU0003';'1.2.40.0.34.5.215';'Eier';'';'Eier und daraus gewonnene Erzeugnisse';'';'';'0';'L';''
'EU0004';'1.2.40.0.34.5.215';'Fische';'';'Fische und daraus gewonnene Erzeugnisse, außer
a) Fischgelatine, die als Trägerstoff für Vitamin- oder Karotinoidzubereitungen verwendet wird,
b) Fischgelatine oder Hausenblase, die als Klärhilfsmittel in Bier und Wein verwendet wird';'';'';'0';'L';''
'EU0005';'1.2.40.0.34.5.215';'Erdnüsse';'';'Erdnüsse und daraus gewonnene Erzeugnisse';'';'';'0';'L';''
'EU0006';'1.2.40.0.34.5.215';'Sojabohnen';'';'Sojabohnen und daraus gewonnene Erzeugnisse, außer
a) vollständig raffiniertes Sojabohnenöl und -fett und daraus gewonnene Erzeugnisse, soweit das Verfahren, das sie durchlaufen haben, die Allergenität, die von der EFSA für das entsprechende Erzeugnis ermittelt wurde, aus dem sie gewonnen wurden, wahrscheinlich nicht erhöht,
b) natürliche gemischte Tocopherole (E306), natürliches D-alpha-Tocopherol, natürliches D-alpha-Tocopherolacetat, natürliches D-alpha-Tocopherolsukzinat aus Sojabohnenquellen,
c) aus pflanzlichen Ölen gewonnene Phytosterine und Phytosterinester aus Sojabohnenquellen,
d) aus Pflanzenölsterinen gewonnene Phytostanolester aus Sojabohnenquellen';'';'';'0';'L';''
'EU0007';'1.2.40.0.34.5.215';'Milch';'';'Milch und daraus gewonnene Erzeugnisse (einschließlich Laktose), außer
a) Molke zur Herstellung von alkoholischen Destillaten einschließlich Ethylalkohol landwirtschaftlichen Ursprungs, 
b) Lactit';'';'';'0';'L';''
'EU0008';'1.2.40.0.34.5.215';'Schalenfrüchte';'';'Schalenfrüchte, namentlich Mandeln (Amygdalus communis L.), Haselnüsse (Corylus avellana), Walnüsse (Juglans regia), Kaschunüsse (Anacardium occidentale), Pecannüsse (Carya illinoiesis (Wangenh.) K. Koch), Paranüsse (Bertholletia excelsa), Pistazien (Pistacia vera), Macadamia- oder Queenslandnüsse (Macadamia ternifolia) sowie daraus gewonnene Erzeugnisse, außer Nüssen zur Herstellung von alkoholischen Destillaten einschließlich Ethylalkohol landwirtschaftlichen Ursprungs';'';'';'0';'L';''
'EU0009';'1.2.40.0.34.5.215';'Sellerie';'';'Sellerie und daraus gewonnene Erzeugnisse';'';'';'0';'L';''
'EU0010';'1.2.40.0.34.5.215';'Senf';'';'Senf und daraus gewonnene Erzeugnisse';'';'';'0';'L';''
'EU0011';'1.2.40.0.34.5.215';'Sesamsamen';'';'Sesamsamen und daraus gewonnene Erzeugnisse';'';'';'0';'L';''
'EU0012';'1.2.40.0.34.5.215';'Schwefeldioxid und Sulphite';'';'Schwefeldioxid und Sulphite in Konzentrationen von mehr als 10 mg/kg oder 10 mg/l als insgesamt vorhandenes SO 2 , die für verzehrfertige oder gemäß den Anweisungen des Herstellers in den ursprünglichen Zustand zurückgeführte Erzeugnisse zu berechnen sind';'';'';'0';'L';''
'EU0013';'1.2.40.0.34.5.215';'Lupinen';'';'Lupinen und daraus gewonnene Erzeugnisse';'';'';'0';'L';''
'EU0014';'1.2.40.0.34.5.215';'Weichtiere';'';'Weichtiere und daraus gewonnene Erzeugnisse';'';'';'0';'L';''
