'code';'codeSystem';'displayName';'parentCode';'concept_Beschreibung';'meaning';'hints';'level';'type';'relationships'
'BONEOTHER';'1.2.40.0.34.5.84';'Sonstige Knochen und Gelenke';'';'';'';'';'0';'L';''
'CNSOTHER';'1.2.40.0.34.5.84';'Sonstiges Zentrales Nervensystem';'';'';'';'';'0';'L';''
'GASTROINTEST';'1.2.40.0.34.5.84';'Peritoneum, Verdauungstrakt';'';'';'';'';'0';'L';''
'LYMPHEXTHOR';'1.2.40.0.34.5.84';'Lymphknoten extrathorakal';'';'';'';'';'0';'L';''
'LYMPHINTHOR';'1.2.40.0.34.5.84';'Lymphknoten intrathorakal';'';'';'';'';'0';'L';''
'MENING';'1.2.40.0.34.5.84';'Hirnhaut';'';'';'';'';'0';'L';''
'OTHER';'1.2.40.0.34.5.84';'Sonstige Organe';'';'';'';'';'0';'L';''
'PLEURAL';'1.2.40.0.34.5.84';'Pleura';'';'';'';'';'0';'L';''
'PULMONARY';'1.2.40.0.34.5.84';'Lunge';'';'';'';'';'0';'L';''
'SPINE';'1.2.40.0.34.5.84';'Wirbelsäule';'';'';'';'';'0';'L';''
'UROGEN';'1.2.40.0.34.5.84';'Urogenitaltrakt (inkludiert Niere)';'';'';'';'';'0';'L';''
