'code';'codeSystem';'displayName';'parentCode';'concept_Beschreibung';'meaning';'hints';'level';'type';'relationships'
'39';'1.2.40.0.34.3.1.10.40';'Sexualmedizin';'';'';'';'';'0';'L';''
'44';'1.2.40.0.34.3.1.10.40';'Sportmedizin';'';'';'';'';'0';'L';''
'45';'1.2.40.0.34.3.1.10.40';'Umweltmedizin';'';'';'';'';'0';'L';''
'46';'1.2.40.0.34.3.1.10.40';'Kur-, Präventivmedizin und Wellness';'';'';'';'';'0';'L';''
'49';'1.2.40.0.34.3.1.10.40';'Psychosoziale Medizin';'';'';'';'';'0';'L';''
'50';'1.2.40.0.34.3.1.10.40';'Psychosomatische Medizin';'';'';'';'';'0';'L';''
'51';'1.2.40.0.34.3.1.10.40';'Psychotherapeutische Medizin';'';'';'';'';'0';'L';''
'52';'1.2.40.0.34.3.1.10.40';'Geriatrie';'';'';'';'';'0';'L';''
'53';'1.2.40.0.34.3.1.10.40';'Akupunktur';'';'';'';'';'0';'L';''
'56';'1.2.40.0.34.3.1.10.40';'Arbeitsmedizin';'';'';'';'';'0';'L';''
'61';'1.2.40.0.34.3.1.10.40';'Manuelle Medizin';'';'';'';'';'0';'L';''
'62';'1.2.40.0.34.3.1.10.40';'Homöopathie';'';'';'';'';'0';'L';''
'63';'1.2.40.0.34.3.1.10.40';'Neuraltherapie';'';'';'';'';'0';'L';''
'64';'1.2.40.0.34.3.1.10.40';'Ernährungsmedizin';'';'';'';'';'0';'L';''
'65';'1.2.40.0.34.3.1.10.40';'Krankenhaushygiene';'';'';'';'';'0';'L';''
'66';'1.2.40.0.34.3.1.10.40';'Klinischer Prüfarzt';'';'';'';'';'0';'L';''
'67';'1.2.40.0.34.3.1.10.40';'Diagnostik und Therapie nach Dr. F.X. Mayr';'';'';'';'';'0';'L';''
'68';'1.2.40.0.34.3.1.10.40';'Schularzt';'';'';'';'';'0';'L';''
'69';'1.2.40.0.34.3.1.10.40';'Anthroposophische Medizin';'';'';'';'';'0';'L';''
'72';'1.2.40.0.34.3.1.10.40';'Genetik';'';'';'';'';'0';'L';''
'73';'1.2.40.0.34.3.1.10.40';'Applied Kinesiology';'';'';'';'';'0';'L';''
'74';'1.2.40.0.34.3.1.10.40';'Chinesische Diagnostik und Arzneitherapie';'';'';'';'';'0';'L';''
'75';'1.2.40.0.34.3.1.10.40';'Kneippmedizin';'';'';'';'';'0';'L';''
'84';'1.2.40.0.34.3.1.10.40';'Forensisch-psychiatrische Gutachten';'';'';'';'';'0';'L';''
'85';'1.2.40.0.34.3.1.10.40';'Spezielle Schmerztherapie';'';'';'';'';'0';'L';''
'86';'1.2.40.0.34.3.1.10.40';'Begleitende Krebsbehandlungen';'';'';'';'';'0';'L';''
'87';'1.2.40.0.34.3.1.10.40';'Palliativmedizin';'';'';'';'';'0';'L';''
'91';'1.2.40.0.34.3.1.10.40';'Orthomolekulare Medizin';'';'';'';'';'0';'L';''
'92';'1.2.40.0.34.3.1.10.40';'Phytotherapie';'';'';'';'';'0';'L';''
'93';'1.2.40.0.34.3.1.10.40';'Substitutionsbehandlung';'';'';'';'';'0';'L';''
