{
  "resourceType": "ValueSet",
  "id": "rads-liverimaging",
  "meta": {
    "profile": [
      "http://hl7.at/fhir/HL7ATCoreProfiles/4.0.1/StructureDefinition/at-core-valueset"
    ]
  },
  "url": "https://termgit.elga.gv.at/ValueSet/rads-liverimaging",
  "identifier": [
    {
      "use": "official",
      "system": "urn:ietf:rfc:3986",
      "value": "urn:oid:1.2.40.0.34.6.0.10.92"
    }
  ],
  "version": "0.1.0+20240410",
  "name": "rads-liverimaging",
  "title": "RADS_LiverImaging",
  "status": "draft",
  "date": "2024-04-10",
  "publisher": "see",
  "contact": [
    {
      "name": "American College of Radiology",
      "telecom": [
        {
          "system": "url",
          "value": "https://www.acr.org/"
        }
      ]
    }
  ],
  "description": "**Description:** Draft value set for the normative ballot for the diagnostic imaging report (version 3.0.0). The codes will be replaced by SNOMED CT codes as soon as possible. Note: The Reporting and Data Systems (RADS) assessment scales are a registered trademark of the American College of Radiology.\n\n**Beschreibung:** Value-Set-Entwurf f\u00fcr den normativen Ballot zum Befund bildgebende Diagnostik (Version 3.0.0). Die Codes werden sobald m\u00f6glich durch SNOMED-CT-Codes ersetzt. Achtung: Die \"Reporting and Data Systems (RADS)\"-Skalen sind eine eingetragene Marke des American College of Radiology.",
  "compose": {
    "include": [
      {
        "extension": [
          {
            "url": "http://hl7.at/fhir/HL7ATCoreProfiles/4.0.1/StructureDefinition/at-core-ext-valueset-systemoid",
            "valueOid": "urn:oid:2.16.840.1.113883.6.76"
          }
        ],
        "system": "http://terminology.hl7.org/CodeSystem/ACR",
        "version": "2.0.1",
        "concept": [
          {
            "code": "LR-NC",
            "display": "LR-NC",
            "designation": [
              {
                "language": "en-US",
                "value": "Liver assessment (category NC) - Not categorizable (due to image omission or degradation)"
              }
            ]
          },
          {
            "code": "LR-1",
            "display": "LR-1",
            "designation": [
              {
                "language": "en-US",
                "value": "Liver assessment (category 1) - Definitely benign"
              }
            ]
          },
          {
            "code": "LR-2",
            "display": "LR-2",
            "designation": [
              {
                "language": "en-US",
                "value": "Liver assessment (category 2) - Probably benign"
              }
            ]
          },
          {
            "code": "LR-3",
            "display": "LR-3",
            "designation": [
              {
                "language": "en-US",
                "value": "Liver assessment (category 3) - Intermediate probability of malignancy"
              }
            ]
          },
          {
            "code": "LR-M",
            "display": "LR-M",
            "designation": [
              {
                "language": "en-US",
                "value": "Liver assessment (category 4) - Probably or definitely malignant, not necessarily HCC"
              }
            ]
          },
          {
            "code": "LR-4",
            "display": "LR-4",
            "designation": [
              {
                "language": "en-US",
                "value": "Liver assessment (category 4) - Probably HCC"
              }
            ]
          },
          {
            "code": "LR-5",
            "display": "LR-5",
            "designation": [
              {
                "language": "en-US",
                "value": "Liver assessment (category 5) - Definitely HCC"
              }
            ]
          },
          {
            "code": "LR-TIV",
            "display": "LR-TIV",
            "designation": [
              {
                "language": "en-US",
                "value": "Liver assessment (category TIV) - Tumor in vein"
              }
            ]
          }
        ]
      }
    ]
  },
  "expansion": {
    "timestamp": "2024-04-10T08:47:55+00:00",
    "contains": [
      {
        "extension": [
          {
            "url": "http://hl7.at/fhir/HL7ATCoreProfiles/4.0.1/StructureDefinition/at-core-ext-valueset-systemoid",
            "valueOid": "urn:oid:2.16.840.1.113883.6.76"
          }
        ],
        "system": "http://terminology.hl7.org/CodeSystem/ACR",
        "version": "2.0.1",
        "code": "LR-NC",
        "display": "LR-NC",
        "designation": [
          {
            "language": "en-US",
            "value": "Liver assessment (category NC) - Not categorizable (due to image omission or degradation)"
          }
        ]
      },
      {
        "extension": [
          {
            "url": "http://hl7.at/fhir/HL7ATCoreProfiles/4.0.1/StructureDefinition/at-core-ext-valueset-systemoid",
            "valueOid": "urn:oid:2.16.840.1.113883.6.76"
          }
        ],
        "system": "http://terminology.hl7.org/CodeSystem/ACR",
        "version": "2.0.1",
        "code": "LR-1",
        "display": "LR-1",
        "designation": [
          {
            "language": "en-US",
            "value": "Liver assessment (category 1) - Definitely benign"
          }
        ]
      },
      {
        "extension": [
          {
            "url": "http://hl7.at/fhir/HL7ATCoreProfiles/4.0.1/StructureDefinition/at-core-ext-valueset-systemoid",
            "valueOid": "urn:oid:2.16.840.1.113883.6.76"
          }
        ],
        "system": "http://terminology.hl7.org/CodeSystem/ACR",
        "version": "2.0.1",
        "code": "LR-2",
        "display": "LR-2",
        "designation": [
          {
            "language": "en-US",
            "value": "Liver assessment (category 2) - Probably benign"
          }
        ]
      },
      {
        "extension": [
          {
            "url": "http://hl7.at/fhir/HL7ATCoreProfiles/4.0.1/StructureDefinition/at-core-ext-valueset-systemoid",
            "valueOid": "urn:oid:2.16.840.1.113883.6.76"
          }
        ],
        "system": "http://terminology.hl7.org/CodeSystem/ACR",
        "version": "2.0.1",
        "code": "LR-3",
        "display": "LR-3",
        "designation": [
          {
            "language": "en-US",
            "value": "Liver assessment (category 3) - Intermediate probability of malignancy"
          }
        ]
      },
      {
        "extension": [
          {
            "url": "http://hl7.at/fhir/HL7ATCoreProfiles/4.0.1/StructureDefinition/at-core-ext-valueset-systemoid",
            "valueOid": "urn:oid:2.16.840.1.113883.6.76"
          }
        ],
        "system": "http://terminology.hl7.org/CodeSystem/ACR",
        "version": "2.0.1",
        "code": "LR-M",
        "display": "LR-M",
        "designation": [
          {
            "language": "en-US",
            "value": "Liver assessment (category 4) - Probably or definitely malignant, not necessarily HCC"
          }
        ],
        "contains": [
          {
            "extension": [
              {
                "url": "http://hl7.at/fhir/HL7ATCoreProfiles/4.0.1/StructureDefinition/at-core-ext-valueset-systemoid",
                "valueOid": "urn:oid:2.16.840.1.113883.6.76"
              }
            ],
            "system": "http://terminology.hl7.org/CodeSystem/ACR",
            "version": "2.0.1",
            "code": "LR-4",
            "display": "LR-4",
            "designation": [
              {
                "language": "en-US",
                "value": "Liver assessment (category 4) - Probably HCC"
              }
            ]
          },
          {
            "extension": [
              {
                "url": "http://hl7.at/fhir/HL7ATCoreProfiles/4.0.1/StructureDefinition/at-core-ext-valueset-systemoid",
                "valueOid": "urn:oid:2.16.840.1.113883.6.76"
              }
            ],
            "system": "http://terminology.hl7.org/CodeSystem/ACR",
            "version": "2.0.1",
            "code": "LR-5",
            "display": "LR-5",
            "designation": [
              {
                "language": "en-US",
                "value": "Liver assessment (category 5) - Definitely HCC"
              }
            ]
          }
        ]
      },
      {
        "extension": [
          {
            "url": "http://hl7.at/fhir/HL7ATCoreProfiles/4.0.1/StructureDefinition/at-core-ext-valueset-systemoid",
            "valueOid": "urn:oid:2.16.840.1.113883.6.76"
          }
        ],
        "system": "http://terminology.hl7.org/CodeSystem/ACR",
        "version": "2.0.1",
        "code": "LR-TIV",
        "display": "LR-TIV",
        "designation": [
          {
            "language": "en-US",
            "value": "Liver assessment (category TIV) - Tumor in vein"
          }
        ]
      }
    ]
  }
}