'code';'codeSystem';'displayName';'parentCode';'concept_Beschreibung';'meaning';'hints';'level';'type';'relationships'
'PIM101';'1.2.40.0.34.5.162';'e-card wurde in den Kartenleser gesteckt';;;;;'0';'L';
'PIM102';'1.2.40.0.34.5.162';'Bürgerkarte wurde in den Kartenleser gesteckt';;;;;'0';'L';
'PIM103';'1.2.40.0.34.5.162';'Über lokalen Patientenindex identifiziert';;;;;'0';'L';
'PIM104';'1.2.40.0.34.5.162';'Patient ist identifiziert via e-card System ohne gesteckte e-card';;;;;'0';'L';
'PIM105';'1.2.40.0.34.5.162';'Identifikation anhand amtlichen Lichtbildausweis oder e-card für mobile e-Impfpass Anwendung';;;;;'0';'L';
'PIM106';'1.2.40.0.34.5.162';'Zuweisung';;;;;'0';'L';
