'code';'codeSystem';'displayName';'parentCodeSystemName';'concept_Beschreibung';'meaning';'hints';'orderNumber';'level';'type';'relationships';'einheit print';'einheit codiert'
'NAW';'1.2.40.0.34.5.88';'nicht auswertbar';'https://termgit.elga.gv.at/CodeSystem/ems-posneg';'';'';'';'1';'0';'L';'';'';''
'NEG';'1.2.40.0.34.5.88';'negativ';'https://termgit.elga.gv.at/CodeSystem/ems-posneg';'';'';'';'2';'0';'L';'';'';''
'NOTEST';'1.2.40.0.34.5.88';'nicht durchgeführt';'https://termgit.elga.gv.at/CodeSystem/ems-posneg';'';'';'';'3';'0';'L';'';'';''
'POS';'1.2.40.0.34.5.88';'positiv';'https://termgit.elga.gv.at/CodeSystem/ems-posneg';'';'';'';'4';'0';'L';'';'';''
'UB';'1.2.40.0.34.5.88';'unbestimmt';'https://termgit.elga.gv.at/CodeSystem/ems-posneg';'';'';'';'5';'0';'L';'';'';''
