'code';'codeSystem';'displayName';'parentCodeSystemName';'concept_Beschreibung';'meaning';'hints';'orderNumber';'level';'type';'relationships';'einheit print';'einheit codiert'
'11636-8';'2.16.840.1.113883.6.1';'[#] Births.live';'http://loinc.org';'';'';'';'1';'0';'L';'';'';''
'11637-6';'2.16.840.1.113883.6.1';'[#] Births.preterm';'http://loinc.org';'';'';'';'2';'0';'L';'';'';''
'11638-4';'2.16.840.1.113883.6.1';'[#] Births.still living';'http://loinc.org';'';'';'';'3';'0';'L';'';'';''
'11639-2';'2.16.840.1.113883.6.1';'[#] Births.term';'http://loinc.org';'';'';'';'4';'0';'L';'';'';''
'11640-0';'2.16.840.1.113883.6.1';'[#] Births total';'http://loinc.org';'';'';'';'5';'0';'L';'';'';''
'11612-9';'2.16.840.1.113883.6.1';'[#] Abortions';'http://loinc.org';'';'';'';'6';'0';'L';'';'';''
'11613-7';'2.16.840.1.113883.6.1';'[#] Abortions.induced';'http://loinc.org';'';'';'';'7';'0';'L';'';'';''
'11614-5';'2.16.840.1.113883.6.1';'[#] Abortions.spontaneous';'http://loinc.org';'';'';'';'8';'0';'L';'';'';''
'33065-4';'2.16.840.1.113883.6.1';'[#] Ectopic pregnancy';'http://loinc.org';'';'';'';'9';'0';'L';'';'';''
