{
  "resourceType": "ValueSet",
  "id": "elga-pregnanciessummary",
  "meta": {
    "profile": [
      "http://hl7.at/fhir/HL7ATCoreProfiles/4.0.1/StructureDefinition/at-core-valueset"
    ]
  },
  "url": "https://termgit.elga.gv.at/ValueSet/elga-pregnanciessummary",
  "identifier": [
    {
      "use": "official",
      "system": "urn:ietf:rfc:3986",
      "value": "urn:oid:1.2.40.0.34.10.203"
    }
  ],
  "version": "1.2.0+20240325",
  "name": "elga-pregnanciessummary",
  "title": "ELGA_PregnanciesSummary",
  "status": "active",
  "date": "2024-03-25",
  "publisher": "ELGA GmbH",
  "description": "Schwangerschaften",
  "compose": {
    "include": [
      {
        "extension": [
          {
            "url": "http://hl7.at/fhir/HL7ATCoreProfiles/4.0.1/StructureDefinition/at-core-ext-valueset-systemoid",
            "valueOid": "urn:oid:2.16.840.1.113883.6.1"
          }
        ],
        "system": "http://loinc.org",
        "version": "2.73",
        "concept": [
          {
            "code": "11636-8",
            "display": "[#] Births.live"
          },
          {
            "code": "11637-6",
            "display": "[#] Births.preterm"
          },
          {
            "code": "11638-4",
            "display": "[#] Births.still living"
          },
          {
            "code": "11639-2",
            "display": "[#] Births.term"
          },
          {
            "code": "11640-0",
            "display": "[#] Births total"
          },
          {
            "code": "11612-9",
            "display": "[#] Abortions"
          },
          {
            "code": "11613-7",
            "display": "[#] Abortions.induced"
          },
          {
            "code": "11614-5",
            "display": "[#] Abortions.spontaneous"
          },
          {
            "code": "33065-4",
            "display": "[#] Ectopic pregnancy"
          }
        ]
      }
    ]
  },
  "expansion": {
    "timestamp": "2024-03-25T06:36:54+00:00",
    "contains": [
      {
        "extension": [
          {
            "url": "http://hl7.at/fhir/HL7ATCoreProfiles/4.0.1/StructureDefinition/at-core-ext-valueset-systemoid",
            "valueOid": "urn:oid:2.16.840.1.113883.6.1"
          }
        ],
        "system": "http://loinc.org",
        "version": "2.73",
        "code": "11636-8",
        "display": "[#] Births.live"
      },
      {
        "extension": [
          {
            "url": "http://hl7.at/fhir/HL7ATCoreProfiles/4.0.1/StructureDefinition/at-core-ext-valueset-systemoid",
            "valueOid": "urn:oid:2.16.840.1.113883.6.1"
          }
        ],
        "system": "http://loinc.org",
        "version": "2.73",
        "code": "11637-6",
        "display": "[#] Births.preterm"
      },
      {
        "extension": [
          {
            "url": "http://hl7.at/fhir/HL7ATCoreProfiles/4.0.1/StructureDefinition/at-core-ext-valueset-systemoid",
            "valueOid": "urn:oid:2.16.840.1.113883.6.1"
          }
        ],
        "system": "http://loinc.org",
        "version": "2.73",
        "code": "11638-4",
        "display": "[#] Births.still living"
      },
      {
        "extension": [
          {
            "url": "http://hl7.at/fhir/HL7ATCoreProfiles/4.0.1/StructureDefinition/at-core-ext-valueset-systemoid",
            "valueOid": "urn:oid:2.16.840.1.113883.6.1"
          }
        ],
        "system": "http://loinc.org",
        "version": "2.73",
        "code": "11639-2",
        "display": "[#] Births.term"
      },
      {
        "extension": [
          {
            "url": "http://hl7.at/fhir/HL7ATCoreProfiles/4.0.1/StructureDefinition/at-core-ext-valueset-systemoid",
            "valueOid": "urn:oid:2.16.840.1.113883.6.1"
          }
        ],
        "system": "http://loinc.org",
        "version": "2.73",
        "code": "11640-0",
        "display": "[#] Births total"
      },
      {
        "extension": [
          {
            "url": "http://hl7.at/fhir/HL7ATCoreProfiles/4.0.1/StructureDefinition/at-core-ext-valueset-systemoid",
            "valueOid": "urn:oid:2.16.840.1.113883.6.1"
          }
        ],
        "system": "http://loinc.org",
        "version": "2.73",
        "code": "11612-9",
        "display": "[#] Abortions"
      },
      {
        "extension": [
          {
            "url": "http://hl7.at/fhir/HL7ATCoreProfiles/4.0.1/StructureDefinition/at-core-ext-valueset-systemoid",
            "valueOid": "urn:oid:2.16.840.1.113883.6.1"
          }
        ],
        "system": "http://loinc.org",
        "version": "2.73",
        "code": "11613-7",
        "display": "[#] Abortions.induced"
      },
      {
        "extension": [
          {
            "url": "http://hl7.at/fhir/HL7ATCoreProfiles/4.0.1/StructureDefinition/at-core-ext-valueset-systemoid",
            "valueOid": "urn:oid:2.16.840.1.113883.6.1"
          }
        ],
        "system": "http://loinc.org",
        "version": "2.73",
        "code": "11614-5",
        "display": "[#] Abortions.spontaneous"
      },
      {
        "extension": [
          {
            "url": "http://hl7.at/fhir/HL7ATCoreProfiles/4.0.1/StructureDefinition/at-core-ext-valueset-systemoid",
            "valueOid": "urn:oid:2.16.840.1.113883.6.1"
          }
        ],
        "system": "http://loinc.org",
        "version": "2.73",
        "code": "33065-4",
        "display": "[#] Ectopic pregnancy"
      }
    ]
  }
}