"resource";"id";"url";"version";"name";"title";"status";"profile";"description";"identifier";"date";"publisher";"count"
"ValueSet";"elga-pregnanciessummary";"https://termgit.elga.gv.at/ValueSet/elga-pregnanciessummary";"1.2.0+20240325";"elga-pregnanciessummary";"ELGA_PregnanciesSummary";"active";"http://hl7.at/fhir/HL7ATCoreProfiles/4.0.1/StructureDefinition/at-core-valueset";"Schwangerschaften";"1.2.40.0.34.10.203";"2024-03-25";"ELGA GmbH";"9"

"system";"version";"code";"display";"extension"
"http://loinc.org";"2.73";"11636-8";"[#] Births.live";"http://hl7.at/fhir/HL7ATCoreProfiles/4.0.1/StructureDefinition/at-core-ext-valueset-systemoid|urn:oid:2.16.840.1.113883.6.1|oid"
"http://loinc.org";"2.73";"11637-6";"[#] Births.preterm";"http://hl7.at/fhir/HL7ATCoreProfiles/4.0.1/StructureDefinition/at-core-ext-valueset-systemoid|urn:oid:2.16.840.1.113883.6.1|oid"
"http://loinc.org";"2.73";"11638-4";"[#] Births.still living";"http://hl7.at/fhir/HL7ATCoreProfiles/4.0.1/StructureDefinition/at-core-ext-valueset-systemoid|urn:oid:2.16.840.1.113883.6.1|oid"
"http://loinc.org";"2.73";"11639-2";"[#] Births.term";"http://hl7.at/fhir/HL7ATCoreProfiles/4.0.1/StructureDefinition/at-core-ext-valueset-systemoid|urn:oid:2.16.840.1.113883.6.1|oid"
"http://loinc.org";"2.73";"11640-0";"[#] Births total";"http://hl7.at/fhir/HL7ATCoreProfiles/4.0.1/StructureDefinition/at-core-ext-valueset-systemoid|urn:oid:2.16.840.1.113883.6.1|oid"
"http://loinc.org";"2.73";"11612-9";"[#] Abortions";"http://hl7.at/fhir/HL7ATCoreProfiles/4.0.1/StructureDefinition/at-core-ext-valueset-systemoid|urn:oid:2.16.840.1.113883.6.1|oid"
"http://loinc.org";"2.73";"11613-7";"[#] Abortions.induced";"http://hl7.at/fhir/HL7ATCoreProfiles/4.0.1/StructureDefinition/at-core-ext-valueset-systemoid|urn:oid:2.16.840.1.113883.6.1|oid"
"http://loinc.org";"2.73";"11614-5";"[#] Abortions.spontaneous";"http://hl7.at/fhir/HL7ATCoreProfiles/4.0.1/StructureDefinition/at-core-ext-valueset-systemoid|urn:oid:2.16.840.1.113883.6.1|oid"
"http://loinc.org";"2.73";"33065-4";"[#] Ectopic pregnancy";"http://hl7.at/fhir/HL7ATCoreProfiles/4.0.1/StructureDefinition/at-core-ext-valueset-systemoid|urn:oid:2.16.840.1.113883.6.1|oid"