'code';'codeSystem';'displayName';'parentCode';'concept_Beschreibung';'meaning';'hints';'level';'type';'relationships'
'datev';'1.2.40.0.34.5.199';'Buchhaltungsdaten';'';'';'';'';'0';'L';''
'dep';'1.2.40.0.34.5.199';'Datenerfassungsprotokoll';'';'';'';'';'0';'L';''
'ebi';'1.2.40.0.34.5.199';'ebInterface';'';'';'';'';'0';'L';''
'edi';'1.2.40.0.34.5.199';'EDIVKA-Datenaustausch';'';'';'';'';'0';'L';''
'ical';'1.2.40.0.34.5.199';'iCalendar';'';'';'';'';'0';'L';''
'json';'1.2.40.0.34.5.199';'JSON';'';'';'';'';'0';'L';''
'pep';'1.2.40.0.34.5.199';'Peppol-UBL';'';'';'';'';'0';'L';''
'wah';'1.2.40.0.34.5.199';'WAHonline';'';'';'';'';'0';'L';''
