'code';'codeSystem';'displayName';'parentCode';'concept_Beschreibung';'meaning';'hints';'level';'type';'relationships'
'Kindergarten';'1.2.40.0.34.5.196';'Kindergarten';'';'';'';'';'0';'L';''
'Pflegeheim';'1.2.40.0.34.5.196';'Pflegeheim';'';'';'';'';'0';'L';''
'Schule';'1.2.40.0.34.5.196';'Schule';'';'';'';'';'0';'L';''
'Seniorenheim';'1.2.40.0.34.5.196';'Seniorenheim';'';'';'';'';'0';'L';''
