'code';'codeSystem';'displayName';'parentCodeSystemName';'concept_Beschreibung';'meaning';'hints';'orderNumber';'level';'type';'relationships';'einheit print';'einheit codiert'
'25';'1.2.40.0.34.5.165';'BürgerIn Anmeldung';'https://termgit.elga.gv.at/CodeSystem/elga-auditeventtypea-arr';'';'';'';'1';'0';'L';'';'';''
'26';'1.2.40.0.34.5.165';'BürgerIn Anmeldung in Vertretung';'https://termgit.elga.gv.at/CodeSystem/elga-auditeventtypea-arr';'';'';'';'2';'0';'L';'';'';''
'27';'1.2.40.0.34.5.165';'BürgerIn Anmeldung der OBST in Vertretung';'https://termgit.elga.gv.at/CodeSystem/elga-auditeventtypea-arr';'';'';'';'3';'0';'L';'';'';''
'31';'1.2.40.0.34.5.165';'Dokument einbringen';'https://termgit.elga.gv.at/CodeSystem/elga-auditeventtypea-arr';'';'e-Befund bereitgestellt';'';'4';'0';'L';'';'';''
'35';'1.2.40.0.34.5.165';'Dokument suchen';'https://termgit.elga.gv.at/CodeSystem/elga-auditeventtypea-arr';'';'ELGA-Abfrage durchgeführt';'';'5';'0';'L';'';'';''
'36';'1.2.40.0.34.5.165';'Dokument abrufen';'https://termgit.elga.gv.at/CodeSystem/elga-auditeventtypea-arr';'';'e-Befund aufgerufen';'';'6';'0';'L';'';'';''
'4';'1.2.40.0.34.5.165';'Submit Consent';'https://termgit.elga.gv.at/CodeSystem/elga-auditeventtypea-arr';'';'Berechtigungsänderung durchgeführt';'';'7';'0';'L';'';'';''
'42';'1.2.40.0.34.5.165';'Medikationsdaten ändern';'https://termgit.elga.gv.at/CodeSystem/elga-auditeventtypea-arr';'';'e-Medikationsdaten geändert';'';'8';'0';'L';'';'';''
'43';'1.2.40.0.34.5.165';'Medikationsdaten lesen';'https://termgit.elga.gv.at/CodeSystem/elga-auditeventtypea-arr';'';'e-Medikationsdaten aufgerufen';'';'9';'0';'L';'';'';''
'51';'1.2.40.0.34.5.165';'Notify ELGA XAD-PID Link Change';'https://termgit.elga.gv.at/CodeSystem/elga-auditeventtypea-arr';'Transaktion ELGA-1';'Technische Datenkorrektur';'';'10';'0';'L';'';'';''
'52';'1.2.40.0.34.5.165';'Registrieren von Dokumenten im Rahmen eines Clearings';'https://termgit.elga.gv.at/CodeSystem/elga-auditeventtypea-arr';'';'Dieser e-Befund wurde nach einer Datenrichtigstellung nachträglich bereitgestellt';'';'11';'0';'L';'';'';''
'53';'1.2.40.0.34.5.165';'Stornieren von Dokumenten im Rahmen eines Clearings';'https://termgit.elga.gv.at/CodeSystem/elga-auditeventtypea-arr';'';'Im Rahmen einer Datenrichtigstellung wurde dieser e-Befund storniert';'';'12';'0';'L';'';'';''
'54';'1.2.40.0.34.5.165';'Dokumentenbereinigung im Auftrag des GDA';'https://termgit.elga.gv.at/CodeSystem/elga-auditeventtypea-arr';'';'';'';'13';'0';'L';'';'';''
'61';'1.2.40.0.34.5.165';'Immunisierungsdaten geändert (e-Impfpass)';'https://termgit.elga.gv.at/CodeSystem/elga-auditeventtypea-arr';'';'e-Impfpassdaten geändert';'';'14';'0';'L';'';'';''
'62';'1.2.40.0.34.5.165';'Immunisierungsdaten aufgerufen (e-Impfpass)';'https://termgit.elga.gv.at/CodeSystem/elga-auditeventtypea-arr';'';'e-Impfpassdaten aufgerufen';'';'15';'0';'L';'';'';''
'6';'1.2.40.0.34.5.165';'Submit BPPC';'https://termgit.elga.gv.at/CodeSystem/elga-auditeventtypea-arr';'';'Berechtigungsänderung durchgeführt';'';'16';'0';'L';'';'';''
'63';'1.2.40.0.34.5.165';'Offene Rezepte aufgerufen (e-Prescription)';'https://termgit.elga.gv.at/CodeSystem/elga-auditeventtypea-arr';'';'';'';'17';'0';'L';'';'';''
'64';'1.2.40.0.34.5.165';'Abgabe gespeichert (e-Dispensation)';'https://termgit.elga.gv.at/CodeSystem/elga-auditeventtypea-arr';'';'';'';'18';'0';'L';'';'';''
