'code';'codeSystem';'displayName';'parentCodeSystemName';'concept_Beschreibung';'meaning';'hints';'orderNumber';'level';'type';'relationships';'einheit print';'einheit codiert';'codeSystemVersion'
'HIST';'1.2.40.0.34.5.99';'Methode Material Histologie';'https://termgit.elga.gv.at/CodeSystem/ems-materialmethode';;;;'1';'0';'L';;;;'1.0.0+20230131'
'KULTUR';'1.2.40.0.34.5.99';'Methode Kultur Material';'https://termgit.elga.gv.at/CodeSystem/ems-materialmethode';;;;'2';'0';'L';;;;'1.0.0+20230131'
'MAT1';'1.2.40.0.34.5.99';'Primary Sample';'https://termgit.elga.gv.at/CodeSystem/ems-materialmethode';;;;'3';'0';'L';;;;'1.0.0+20230131'
'MAT2';'1.2.40.0.34.5.99';'Secondary Sample';'https://termgit.elga.gv.at/CodeSystem/ems-materialmethode';;;;'4';'0';'L';;;;'1.0.0+20230131'
'MIKRO';'1.2.40.0.34.5.99';'Methode Mikroskopie Material';'https://termgit.elga.gv.at/CodeSystem/ems-materialmethode';;;;'5';'0';'L';;;;'1.0.0+20230131'
'NAT';'1.2.40.0.34.5.99';'Methode NAT Material';'https://termgit.elga.gv.at/CodeSystem/ems-materialmethode';;;;'6';'0';'L';;;;'1.0.0+20230131'
'SERO';'1.2.40.0.34.5.99';'Methode Material Serologie';'https://termgit.elga.gv.at/CodeSystem/ems-materialmethode';;;;'7';'0';'L';;;;'1.0.0+20230131'
'VIRUS';'1.2.40.0.34.5.99';'Methode Material Virusnachweis';'https://termgit.elga.gv.at/CodeSystem/ems-materialmethode';;;;'8';'0';'L';;;;'1.0.0+20230131'
