'code';'codeSystem';'displayName';'parentCode';'concept_Beschreibung';'meaning';'hints';'level';'type';'relationships'
'100';'2.16.840.1.113883.2.16.1.4.1';'Katholische Kirche (o.n.A.)';;;;;'0';'S';
'101';'2.16.840.1.113883.2.16.1.4.1';'Römisch-Katholisch';;;;;'1';'L';
'102';'2.16.840.1.113883.2.16.1.4.1';'Griechisch-Katholische Kirche';;;;;'1';'L';
'103';'2.16.840.1.113883.2.16.1.4.1';'Armenisch-Katholische Kirche';;;;;'1';'L';
'104';'2.16.840.1.113883.2.16.1.4.1';'Bulgarisch-Katholische Kirche';;;;;'1';'L';
'105';'2.16.840.1.113883.2.16.1.4.1';'Rumänische griechisch-katholische Kirche';;;;;'1';'L';
'106';'2.16.840.1.113883.2.16.1.4.1';'Russisch-Katholische Kirche';;;;;'1';'L';
'107';'2.16.840.1.113883.2.16.1.4.1';'Syrisch-Katholische Kirche';;;;;'1';'L';
'108';'2.16.840.1.113883.2.16.1.4.1';'Ukrainische Griechisch-Katholische Kirche';;;;;'1';'L';
'109';'2.16.840.1.113883.2.16.1.4.1';'Katholische Ostkirche (ohne nähere Angabe)';;;;;'1';'L';
'110';'2.16.840.1.113883.2.16.1.4.1';'Griechisch-Orientalische Kirchen';;;;;'0';'S';
'111';'2.16.840.1.113883.2.16.1.4.1';'Orthodoxe Kirchen (o.n.A.)';;;;;'1';'L';
'112';'2.16.840.1.113883.2.16.1.4.1';'Griechisch-Orthodoxe Kirche (Hl.Dreifaltigkeit)';;;;;'1';'L';
'113';'2.16.840.1.113883.2.16.1.4.1';'Griechisch-Orthodoxe Kirche (Hl.Georg)';;;;;'1';'L';
'114';'2.16.840.1.113883.2.16.1.4.1';'Bulgarisch-Orthodoxe Kirche';;;;;'1';'L';
'115';'2.16.840.1.113883.2.16.1.4.1';'Rumänisch-griechisch-orientalische Kirche';;;;;'1';'L';
'116';'2.16.840.1.113883.2.16.1.4.1';'Russisch-Orthodoxe Kirche';;;;;'1';'L';
'117';'2.16.840.1.113883.2.16.1.4.1';'Serbisch-griechisch-Orthodoxe Kirche';;;;;'1';'L';
'118';'2.16.840.1.113883.2.16.1.4.1';'Ukrainisch-Orthodoxe Kirche';;;;;'1';'L';
'119';'2.16.840.1.113883.2.16.1.4.1';'Orientalisch-Orthodoxe Kirchen';;;;;'0';'S';
'120';'2.16.840.1.113883.2.16.1.4.1';'Armenisch-apostolische Kirche';;;;;'1';'L';
'121';'2.16.840.1.113883.2.16.1.4.1';'Syrisch-orthodoxe Kirche';;;;;'1';'L';
'122';'2.16.840.1.113883.2.16.1.4.1';'Syrisch-orthodoxe Kirche';;;;;'1';'L';
'123';'2.16.840.1.113883.2.16.1.4.1';'Koptisch-orthodoxe Kirche';;;;;'1';'L';
'124';'2.16.840.1.113883.2.16.1.4.1';'Armenisch-apostolische Kirche';;;;;'1';'L';
'125';'2.16.840.1.113883.2.16.1.4.1';'Äthiopisch-Orthodoxe Kirche';;;;;'1';'L';
'126';'2.16.840.1.113883.2.16.1.4.1';'Evangelische Kirchen Österreich';;;;;'0';'S';
'127';'2.16.840.1.113883.2.16.1.4.1';'Evangelische Kirche (o.n.A.)';;;;;'1';'L';
'128';'2.16.840.1.113883.2.16.1.4.1';'Evangelische Kirche A.B.';;;;;'1';'L';
'129';'2.16.840.1.113883.2.16.1.4.1';'Evangelische Kirche H.B.';;;;;'1';'L';
'130';'2.16.840.1.113883.2.16.1.4.1';'Andere Christliche Kirchen';;;;;'0';'S';
'131';'2.16.840.1.113883.2.16.1.4.1';'Altkatholische Kirche Österreichs';;;;;'1';'L';
'132';'2.16.840.1.113883.2.16.1.4.1';'Anglikanische Kirche';;;;;'1';'L';
'133';'2.16.840.1.113883.2.16.1.4.1';'Evangelisch-methodistische Kirche (EmK)';;;;;'1';'L';
'134';'2.16.840.1.113883.2.16.1.4.1';'Sonstige Christliche Gemeinschaften';;;;;'0';'S';
'135';'2.16.840.1.113883.2.16.1.4.1';'Baptisten';;;;;'1';'L';
'136';'2.16.840.1.113883.2.16.1.4.1';'Bund evangelikaler Gemeinden in Österreich';;;;;'1';'L';
'137';'2.16.840.1.113883.2.16.1.4.1';'Freie Christengemeinde/Pfingstgemeinde';;;;;'1';'L';
'138';'2.16.840.1.113883.2.16.1.4.1';'Mennonitische Freikirche';;;;;'1';'L';
'139';'2.16.840.1.113883.2.16.1.4.1';'Kirche der Siebenten-Tags-Adventisten';;;;;'1';'L';
'140';'2.16.840.1.113883.2.16.1.4.1';'Christengemeinschaft';;;;;'1';'L';
'141';'2.16.840.1.113883.2.16.1.4.1';'Jehovas Zeugen';;;;;'1';'L';
'142';'2.16.840.1.113883.2.16.1.4.1';'Neuapostolische Kirche';;;;;'1';'L';
'143';'2.16.840.1.113883.2.16.1.4.1';'Mormonen';;;;;'1';'L';
'144';'2.16.840.1.113883.2.16.1.4.1';'Sonstige Christliche Gemeinschaften (O.n.A.)';;;;;'1';'L';
'145';'2.16.840.1.113883.2.16.1.4.1';'ELAIA Christengemeinden';;;;;'1';'L';
'146';'2.16.840.1.113883.2.16.1.4.1';'Pfingstkirche Gemeinde Gottes';;;;;'1';'L';
'148';'2.16.840.1.113883.2.16.1.4.1';'Nicht-christliche Gemeinschaften';;;;;'0';'S';
'149';'2.16.840.1.113883.2.16.1.4.1';'Israelitische Religionsgesellschaft';;;;;'1';'L';
'150';'2.16.840.1.113883.2.16.1.4.1';'Islamische Glaubensgemeinschaft';;;;;'1';'L';
'151';'2.16.840.1.113883.2.16.1.4.1';'Alevitische Religionsgesellschaft';;;;;'1';'L';
'152';'2.16.840.1.113883.2.16.1.4.1';'Buddhistische Religionsgesellschaft';;;;;'1';'L';
'153';'2.16.840.1.113883.2.16.1.4.1';'Baha` i';;;;;'1';'L';
'154';'2.16.840.1.113883.2.16.1.4.1';'Hinduistische Religionsgesellschaft';;;;;'1';'L';
'155';'2.16.840.1.113883.2.16.1.4.1';'Sikh';;;;;'1';'L';
'156';'2.16.840.1.113883.2.16.1.4.1';'Shintoismus';;;;;'1';'L';
'157';'2.16.840.1.113883.2.16.1.4.1';'Vereinigungskirche';;;;;'1';'L';
'158';'2.16.840.1.113883.2.16.1.4.1';'Andere religiöse Bekenntnisgemeinschaften';;;;;'1';'L';
'162';'2.16.840.1.113883.2.16.1.4.1';'Pastafarianismus';;;;;'1';'L';
'159';'2.16.840.1.113883.2.16.1.4.1';'Konfessionslos, ohne Angabe';;;;;'0';'S';
'160';'2.16.840.1.113883.2.16.1.4.1';'Konfessionslos';;;;;'1';'L';
'161';'2.16.840.1.113883.2.16.1.4.1';'Ohne Angabe';;;;;'1';'L';
