"resource";"id";"url";"version";"name";"title";"status";"profile";"description";"identifier";"date";"contact";"count"
"ValueSet";"elga-serviceeventsentlassbr";"https://termgit.elga.gv.at/ValueSet/elga-serviceeventsentlassbr";"1.1.0+20240325";"elga-serviceeventsentlassbr";"ELGA_ServiceEventsEntlassbr";"active";"http://hl7.at/fhir/HL7ATCoreProfiles/4.0.1/StructureDefinition/at-core-valueset";"**Description:** Codes to distinguish discharge service events

**Beschreibung:** Value Set zur Unterscheidung der Service Events im Bereich Entlassung";"1.2.40.0.34.10.57";"2024-03-25";"https://www.elga.gv.at|url^https://www.elga.gv.at^^^^";"2"

"system";"version";"code";"display";"designation";"extension"
"https://termgit.elga.gv.at/CodeSystem/elga-serviceeventsentlassbrief";"1.0.1+20240129";"GDLPUB";"Gesundheitsdienstleistung Pflege und Betreuung";"|https://termgit.elga.gv.at/CodeSystem/austrian-designation-use^^hinweise^hinweise^|Verwendung im Pflegesituationsbericht";"http://hl7.at/fhir/HL7ATCoreProfiles/4.0.1/StructureDefinition/at-core-ext-valueset-systemoid|urn:oid:1.2.40.0.34.5.21|oid"
"https://termgit.elga.gv.at/CodeSystem/elga-serviceeventsentlassbrief";"1.0.1+20240129";"GDLSTATAUF";"Gesundheitsdienstleistung im Rahmen eines stationären Aufenthalts";"";"http://hl7.at/fhir/HL7ATCoreProfiles/4.0.1/StructureDefinition/at-core-ext-valueset-systemoid|urn:oid:1.2.40.0.34.5.21|oid"